63675905481135,0,0,0.29429,0.47138,0.43102,2.55613,1.42298,0.28612,3.64393,3.001
63675905481169,0,0,0.25957,0.46148,0.41763,2.468,1.33363,0.27197,3.65238,3.02867
63675905481235,0,0,0.27003,0.48853,0.42361,2.45546,1.29762,0.26814,3.67384,2.99879
63675905481251,0,0,0.22729,0.44388,0.41345,2.42246,1.23066,0.27052,3.68786,3.03347
63675905481284,0,0,0.2718,0.46721,0.4109,2.41992,1.20896,0.24795,3.68279,2.99343
63675905481301,0,0,0.47384,0.4373,0.42838,2.42006,1.32865,0.22165,3.68563,2.9318
63675905481334,0,0,0.46453,0.48092,0.42366,2.34258,1.46103,0.21546,3.68735,2.94652
63675905481351,0,0,0.46749,0.51097,0.4688,2.47478,1.55435,0.23763,3.6913,2.95221
63675905481384,0,0,0.46471,0.49575,0.51324,2.55762,1.77852,0.31145,3.67413,2.92381
63675905481401,0,0,0.47728,0.47693,0.5471,2.63003,1.91863,0.35984,3.65962,2.95425
63675905481433,0,0,0.50487,0.48524,0.59419,2.80333,2.08123,0.38287,3.66282,2.92908
63675905481467,0,0,0.45706,0.45545,0.61066,2.90422,2.24903,0.45749,3.64401,3.03415
63675905481483,0,0,0.27576,0.49144,0.66419,3.11032,2.46048,0.4929,3.64748,3.1506
63675905481516,0,0,0.24451,0.49097,0.68493,3.13542,2.5307,0.52898,3.64184,3.1516
63675905481533,0,0,0.23616,0.45323,0.72781,3.18028,2.65766,0.59385,3.61597,3.05626
63675905481566,0,0,0.24325,0.45698,0.73898,3.18322,2.65707,0.58177,3.62708,3.06658
63675905481583,0,0,0.22569,0.452,0.75496,3.17191,2.86927,0.58691,3.63038,3.09975
63675905481616,0,0,0.19512,0.45898,0.71692,2.92717,2.81035,0.56831,3.63358,3.12633
63675905481632,0,0,0.18105,0.46673,0.70835,2.82337,2.691,0.50077,3.65109,3.04662
63675905481665,0,0,0.17776,0.46585,0.65198,2.66001,2.59761,0.48089,3.66896,2.91612
63675905481715,0,0,0.17133,0.47108,0.6095,2.71637,2.44379,0.46509,3.68739,3.04899
63675905481749,0,0,0.18028,0.44702,0.57436,2.53512,2.30592,0.42279,3.67767,3.07959
63675905481765,0,0,0.16344,0.49577,0.52106,2.50676,2.08891,0.39902,3.68447,3.06484
63675905481815,0,0,0.16544,0.5156,0.54506,2.63424,2.00364,0.38917,3.6815,3.02878
63675905481832,0,0,0.16295,0.53042,0.53509,2.5891,2.00223,0.39151,3.69567,2.98818
63675905481864,0,0,0.15927,0.49922,0.51747,2.59273,1.9,0.39053,3.71131,2.95549
63675905481915,0,0,0.16563,0.54286,0.54822,2.52968,1.77605,0.35505,3.68188,2.98582
63675905481931,0,0,0.1544,0.54331,0.56017,2.74815,1.91384,0.38373,3.69855,3.01088
63675905481948,0,0,0.15349,0.54271,0.55944,2.64459,1.88198,0.38326,3.70737,2.95574
63675905481980,0,0,0.16141,0.54705,0.53958,2.61035,1.84042,0.40849,3.70224,2.90203
63675905482013,0,0,0.16023,0.5223,0.53867,2.57286,1.88715,0.43295,3.69332,2.98497
63675905482047,0,0,0.15677,0.57469,0.55364,2.56891,1.92139,0.45476,3.67446,2.97819
63675905482097,0,0,0.15699,0.52672,0.53431,2.47127,1.90264,0.43902,3.68608,2.88971
63675905482113,0,0,0.1576,0.53314,0.55179,2.65352,1.8804,0.44604,3.67553,2.85187
63675905482146,0,0,0.15953,0.56581,0.54383,2.6312,1.89728,0.47793,3.64373,2.84852
63675905482196,0,0,0.14953,0.47307,0.52545,2.6616,1.87156,0.44441,3.61877,3.05094
63675905482229,0,0,0.15477,0.51022,0.49686,2.60423,1.81967,0.43102,3.63243,3.1081
63675905482262,0,0,0.18882,0.46895,0.47722,2.48994,1.73691,0.38945,3.60685,3.2442
63675905482295,0,0,0.30779,0.48524,0.43153,2.35555,1.64289,0.38256,3.63891,3.23431
63675905482328,0,0,0.43253,0.45481,0.43747,2.27935,1.5085,0.32571,3.65909,3.16953
63675905482345,0,0,0.46308,0.47594,0.4011,2.18498,1.46511,0.30546,3.65854,3.08519
63675905482394,0,0,0.46289,0.4591,0.38791,2.26393,1.24396,0.25521,3.64265,3.04604
63675905482428,0,0,0.53249,0.41246,0.38221,2.15149,1.1249,0.24581,3.64802,2.88169
63675905482445,0,0,0.57147,0.43062,0.40217,2.33701,1.15588,0.24977,3.65797,2.74373
63675905482493,0,0,0.53197,0.49333,0.40441,2.26764,1.22386,0.2593,3.63706,2.6899
63675905482509,0,0,0.44516,0.46258,0.40281,2.33609,1.22765,0.23792,3.63424,2.73001
63675905482526,0,0,0.38035,0.49309,0.37237,2.23282,1.26221,0.24329,3.6231,2.7309
63675905482576,0,0,0.36623,0.5346,0.4536,2.11195,1.61119,0.32036,3.62115,2.67542
63675905482593,0,0,0.34719,0.57897,0.47306,2.15408,1.63566,0.34016,3.61322,2.63584
63675905482626,0,0,0.35963,0.63158,0.51883,2.38263,1.70135,0.36513,3.60492,2.58956
63675905482676,0,0,0.40733,0.58631,0.50549,2.363,1.71894,0.37687,3.60276,2.62226
63675905482693,0,0,0.44518,0.57142,0.49859,2.46027,1.6734,0.38293,3.6026,2.57086
63675905482726,0,0,0.40901,0.64503,0.59301,2.76954,1.79317,0.43914,3.60135,2.55612
63675905482743,0,0,0.42759,0.66581,0.58199,2.89458,1.5983,0.40925,3.59655,2.60691
63675905482775,0,0,0.44674,0.65218,0.55674,3.0393,1.73485,0.44836,3.58949,2.56438
63675905482809,0,0,0.44854,0.63652,0.5869,3.10181,1.74322,0.45297,3.58422,2.57619
63675905482841,0,0,0.29869,0.70833,0.56127,2.99377,1.66854,0.48562,3.58997,2.5852
63675905482875,0,0,0.27133,0.69117,0.59058,3.06184,1.72437,0.49195,3.60627,2.62029
63675905482908,0,0,0.2746,0.67907,0.56669,2.89981,1.71877,0.49125,3.59943,2.62917
63675905482942,0,0,0.24793,0.62788,0.50303,2.61389,1.65643,0.45403,3.61138,2.68026
63675905482975,0,0,0.23252,0.68614,0.51349,2.62805,1.7092,0.44765,3.62006,2.63688
63675905482991,0,0,0.2269,0.75662,0.54752,2.61039,1.65046,0.4581,3.62641,2.67527
63675905483025,0,0,0.2182,0.75297,0.52652,2.5489,1.69599,0.40822,3.63464,2.71463
63675905483074,0,0,0.20813,0.69739,0.49177,2.41145,1.79822,0.41851,3.64329,2.78161
63675905483106,0,0,0.19661,0.68347,0.49839,2.46373,1.79263,0.4087,3.65453,2.84693
63675905483140,0,0,0.19367,0.63005,0.53973,2.4267,1.86238,0.45138,3.65052,2.93979
63675905483173,0,0,0.17627,0.58399,0.51205,2.50757,1.69384,0.40609,3.65563,2.93532
63675905483206,0,0,0.19099,0.60267,0.54856,2.62203,1.64415,0.38962,3.65802,2.84558
63675905483256,0,0,0.17984,0.56252,0.53042,2.47458,1.62491,0.37649,3.65132,2.82088
63675905483273,0,0,0.17694,0.54884,0.5218,2.49512,1.61005,0.38724,3.65193,2.84553
63675905483289,0,0,0.17276,0.55452,0.49547,2.4885,1.38054,0.40127,3.64602,2.79112
63675905483323,0,0,0.16732,0.56428,0.49937,2.58164,1.34055,0.39666,3.6421,2.83644
63675905483356,0,0,0.15974,0.52514,0.45373,2.49222,1.26274,0.36714,3.64698,2.69833
63675905483389,0,0,0.16005,0.47501,0.43612,2.30719,1.36874,0.3617,3.65545,2.67272
63675905483422,0,0,0.15352,0.44407,0.43486,2.33741,1.39188,0.36651,3.66846,2.70485
63675905483456,0,0,0.15111,0.44125,0.43874,2.30504,1.41248,0.33801,3.67451,2.6772
63675905483472,0,0,0.15537,0.42663,0.43911,2.28543,1.48987,0.33118,3.68448,2.6406
63675905483504,0,0,0.15658,0.43184,0.4632,2.24842,1.6049,0.32844,3.68577,2.67359
63675905483554,0,0,0.14876,0.39867,0.47528,2.3195,1.55233,0.30064,3.68816,2.70249
63675905483571,0,0,0.16144,0.40489,0.47276,2.34497,1.50627,0.27657,3.68357,2.71154
63675905483604,0,0,0.15156,0.40707,0.49137,2.4563,1.53424,0.28004,3.68694,2.71886
63675905483637,0,0,0.15287,0.44545,0.51046,2.38267,1.41097,0.25757,3.68144,2.73141
63675905483655,0,0,0.15246,0.44035,0.50108,2.40702,1.45594,0.25964,3.65954,2.77332
63675905483686,0,0,0.15012,0.44222,0.55032,2.59087,1.49292,0.26049,3.65928,2.68253
63675905483736,0,0,0.14115,0.45626,0.52618,2.56778,1.53976,0.24354,3.66277,2.5911
63675905483753,0,0,0.13755,0.52097,0.52586,2.47102,1.55938,0.26062,3.66178,2.61346
63675905483786,0,0,0.13068,0.55486,0.55005,2.57148,1.62913,0.30898,3.66037,2.62914
63675905483836,0,0,0.14525,0.66465,0.56532,2.53941,1.87909,0.41345,3.66078,2.64155
63675905483853,0,0,0.22895,0.67828,0.56637,2.45476,1.85822,0.42865,3.66638,2.59829
63675905483886,0,0,0.2269,0.70393,0.52555,2.36916,1.78961,0.44282,3.66126,2.71668
63675905483903,0,0,0.22247,0.67334,0.47642,2.26009,1.75892,0.44996,3.65882,2.73204
63675905483935,0,0,0.24312,0.69944,0.51209,2.34276,1.71662,0.45422,3.66415,2.71949
63675905483968,0,0,0.35016,0.70851,0.51624,2.34866,1.56814,0.43904,3.66682,2.69136
63675905484001,0,0,0.33923,0.61257,0.50684,2.31602,1.61762,0.42905,3.67224,2.67597
63675905484035,0,0,0.29498,0.57376,0.46408,2.27159,1.4809,0.38105,3.67473,2.63268
63675905484067,0,0,0.27414,0.58192,0.47857,2.3296,1.54114,0.41769,3.68262,2.61811
63675905484101,0,0,0.33587,0.61785,0.53788,2.50819,1.7954,0.45474,3.68947,2.59928
63675905484134,0,0,0.32056,0.61039,0.50704,2.40514,1.73391,0.44526,3.68196,2.61304
63675905484150,0,0,0.28038,0.61283,0.54393,2.61803,1.94557,0.47717,3.67927,2.59378
63675905484184,0,0,0.24643,0.62578,0.55862,2.68171,2.07327,0.47935,3.68369,2.5965
63675905484217,0,0,0.25301,0.68949,0.59397,2.86052,2.06496,0.48681,3.68168,2.59795
63675905484250,0,0,0.23372,0.67139,0.55345,2.72144,2.00221,0.40202,3.67912,2.58956
63675905484283,0,0,0.221,0.66608,0.57371,2.77307,1.99456,0.36694,3.67135,2.59714
63675905484317,0,0,0.17333,0.62844,0.54434,2.63282,1.98837,0.36142,3.67586,2.59742
63675905484350,0,0,0.17033,0.6102,0.57462,2.80818,2.08345,0.40842,3.67993,2.55879
63675905484366,0,0,0.15128,0.58505,0.52654,2.61882,1.84594,0.368,3.67952,2.61476
63675905484416,0,0,0.14256,0.50856,0.50441,2.45729,1.77219,0.35884,3.6748,2.64684
63675905484432,0,0,0.14772,0.56963,0.51183,2.68261,1.80102,0.35298,3.6701,2.62081
63675905484465,0,0,0.1532,0.63716,0.52892,2.751,1.79019,0.37992,3.66687,2.7034
63675905484514,0,0,0.22847,0.67742,0.47939,2.46484,1.59855,0.35617,3.63141,2.89905
63675905484548,0,0,0.21489,0.60691,0.43833,2.40982,1.55842,0.35529,3.61898,2.9876
63675905484581,0,0,0.21541,0.67412,0.43614,2.36628,1.62322,0.36126,3.60425,2.96552
63675905484614,0,0,0.2191,0.69739,0.40974,2.33033,1.56083,0.34771,3.5958,2.99499
63675905484631,0,0,0.21542,0.64353,0.39624,2.13415,1.42439,0.36579,3.59442,3.02559
63675905484664,0,0,0.21983,0.57589,0.37182,2.10465,1.38341,0.3623,3.59839,2.99731
63675905484681,0,0,0.19187,0.58335,0.36407,2.08835,1.34804,0.35616,3.61192,2.96933
63675905484714,0,0,0.15501,0.60369,0.34577,2.01353,1.18147,0.29757,3.61801,2.86102
63675905484747,0,0,0.17577,0.61636,0.35992,1.93872,1.1484,0.30429,3.62933,2.73924
63675905484764,0,0,0.17607,0.55282,0.33918,1.95929,1.05919,0.2737,3.63314,2.75207
63675905484797,0,0,0.18269,0.59856,0.38378,2.13539,1.12471,0.26308,3.631,2.70084
63675905484829,0,0,0.18568,0.59396,0.37155,2.09062,1.14575,0.23945,3.63148,2.69005
63675905484863,0,0,0.1991,0.61147,0.37951,2.13283,1.13421,0.21557,3.62953,2.6405
63675905484896,0,0,0.20545,0.66028,0.39238,2.19734,1.21777,0.20682,3.62549,2.63917
63675905484913,0,0,0.2,0.61245,0.36646,2.08898,1.15491,0.19854,3.62598,2.62704
63675905484946,0,0,0.20228,0.63405,0.38614,2.23309,1.10683,0.21551,3.62574,2.61192
63675905484962,0,0,0.21379,0.6514,0.37232,2.10115,0.97994,0.20496,3.63647,2.60446
63675905484995,0,0,0.21981,0.55383,0.30535,1.77302,0.84799,0.19006,3.63838,2.67902
63675905485012,0,0,0.22227,0.55193,0.32421,1.84573,0.88174,0.1944,3.63793,2.61196
63675905485045,0,0,0.20995,0.53055,0.31664,1.6464,0.86415,0.21458,3.6389,2.68191
63675905485095,0,0,0.22275,0.52794,0.37087,1.91632,0.86921,0.22008,3.67945,2.77015
63675905485128,0,0,0.21065,0.45673,0.37075,1.77493,0.83829,0.2073,3.67794,2.75803
63675905485161,0,0,0.21549,0.51175,0.41279,2.00673,0.96635,0.2341,3.66787,2.76029
63675905485194,0,0,0.18359,0.46414,0.40427,2.02115,0.96553,0.22297,3.66382,2.7875
63675905485211,0,0,0.17148,0.54183,0.4343,2.08245,0.99974,0.24242,3.67147,2.81211
63675905485245,0,0,0.15749,0.52759,0.43404,2.21982,1.03674,0.22596,3.6697,2.76469
63675905485294,0,0,0.15552,0.52161,0.42728,2.27219,1.03441,0.2447,3.63578,2.65443
63675905485327,0,0,0.14515,0.50446,0.42585,2.313,1.0805,0.24078,3.6298,2.68616
63675905485376,0,0,0.1514,0.54729,0.45091,2.21291,0.96847,0.21714,3.63248,2.66468
63675905485410,0,0,0.14226,0.52728,0.4441,2.37127,0.96109,0.21694,3.63916,2.65857
63675905485443,0,0,0.14773,0.51802,0.45267,2.31908,0.93174,0.19947,3.64151,2.64627
63675905485476,0,0,0.1807,0.63388,0.49325,2.36538,0.91377,0.20343,3.64839,2.64671
63675905485493,0,0,0.17713,0.65823,0.48878,2.33831,0.95476,0.20533,3.6484,2.60278
63675905485526,0,0,0.18816,0.6913,0.48681,2.3401,0.94786,0.20388,3.6607,2.57603
63675905485542,0,0,0.18824,0.66412,0.46473,2.31905,0.94815,0.17359,3.66119,2.57231
63675905485575,0,0,0.19555,0.60431,0.42115,2.17876,1.01843,0.17719,3.66261,2.57337
63675905485609,0,0,0.21043,0.61251,0.42789,2.15141,1.00708,0.17143,3.66108,2.55519
63675905485625,0,0,0.19724,0.64402,0.39681,2.14272,0.96115,0.19085,3.66701,2.57002
63675905485675,0,0,0.17177,0.59357,0.36397,2.07758,0.97729,0.17667,3.66166,2.57203
63675905485691,0,0,0.17749,0.63709,0.33349,1.90996,0.88685,0.16831,3.67171,2.56857
63675905485708,0,0,0.20823,0.62811,0.34161,1.88208,0.89122,0.17774,3.67477,2.61494
63675905485741,0,0,0.2177,0.66142,0.32205,1.79309,0.90284,0.19152,3.66651,2.63889
63675905485774,0,0,0.2218,0.67124,0.31953,1.79959,0.83013,0.19609,3.67597,2.63798
63675905485791,0,0,0.2154,0.70377,0.35195,1.87905,0.94696,0.2236,3.67022,2.63178
63675905485824,0,0,0.23181,0.67703,0.36513,1.86834,0.996,0.20949,3.66529,2.65568
63675905485840,0,0,0.23053,0.6807,0.37741,1.86202,1.04093,0.21463,3.66329,2.65298
63675905485873,0,0,0.23682,0.60585,0.39333,1.95546,1.09133,0.2356,3.66132,2.64899
63675905485906,0,0,0.22582,0.63271,0.4004,2.06602,1.10846,0.25112,3.65692,2.6492
63675905485923,0,0,0.21918,0.60539,0.42365,2.31249,1.11386,0.26575,3.66332,2.65271
63675905485956,0,0,0.24393,0.55408,0.45324,2.35024,1.17433,0.28764,3.66492,2.65011
63675905485990,0,0,0.22309,0.60383,0.46773,2.47446,1.24768,0.28722,3.65992,2.65091
63675905486023,0,0,0.20998,0.53198,0.41205,2.54979,1.19062,0.28176,3.65021,2.63053
63675905486056,0,0,0.25967,0.52663,0.42436,2.71248,1.19989,0.3195,3.65166,2.6392
63675905486073,0,0,0.2793,0.63029,0.45421,2.71187,1.23465,0.30651,3.65068,2.62981
63675905486105,0,0,0.26845,0.57398,0.42443,2.64611,1.13152,0.27807,3.65475,2.64023
63675905486122,0,0,0.34622,0.57208,0.40656,2.44852,1.04522,0.25337,3.66004,2.62544
63675905486155,0,0,0.45325,0.59327,0.40726,2.53623,1.04379,0.2567,3.6535,2.61703
63675905486189,0,0,0.46755,0.53584,0.42529,2.51448,1.05405,0.26793,3.67289,2.64827
63675905486205,0,0,0.46373,0.53712,0.40421,2.32844,1.00314,0.25316,3.68146,2.6881
63675905486254,0,0,0.5038,0.44058,0.36829,2.2348,0.89946,0.21357,3.68491,2.7136
63675905486288,0,0,0.55072,0.51252,0.39715,2.13577,0.98886,0.21765,3.68363,2.72403
63675905486321,0,0,0.52883,0.52929,0.38615,2.2335,0.99556,0.21918,3.68184,2.7028
63675905486354,0,0,0.43598,0.50524,0.38717,2.21325,0.98408,0.2016,3.68843,2.72747
63675905486371,0,0,0.41957,0.49306,0.35774,2.14814,0.93711,0.19803,3.68153,2.70588
63675905486404,0,0,0.53758,0.48736,0.37193,2.15215,0.93066,0.19217,3.67915,2.69249
63675905486437,0,0,0.60543,0.46179,0.35601,2.15194,0.88106,0.18153,3.67117,2.72607
63675905486454,0,0,0.51771,0.53812,0.36883,2.13015,0.91763,0.17577,3.68579,2.761
63675905486487,0,0,0.52544,0.50613,0.39329,2.18172,0.99735,0.19441,3.70261,2.79789
63675905486504,0,0,0.4931,0.46945,0.37758,2.27343,0.91794,0.1813,3.70118,2.87636
63675905486536,0,0,0.40821,0.50656,0.42784,2.24956,0.89943,0.20891,3.68672,2.85477
63675905486570,0,0,0.41757,0.56723,0.45599,2.31284,0.8917,0.20079,3.69277,2.82548
63675905486586,0,0,0.37595,0.58947,0.48734,2.44354,0.96466,0.22461,3.69225,2.84577
63675905486636,0,0,0.29914,0.62153,0.50322,2.47888,1.14117,0.25691,3.69508,2.84248
63675905486652,0,0,0.31413,0.58903,0.48576,2.56272,1.1476,0.26236,3.70068,2.77653
63675905486685,0,0,0.29548,0.61675,0.51215,2.59378,1.09392,0.25916,3.68796,2.7527
63675905486702,0,0,0.31077,0.62266,0.51503,2.68805,1.12691,0.27989,3.68233,2.69272
63675905486735,0,0,0.30633,0.57242,0.5338,2.68905,1.14307,0.28526,3.68817,2.745
63675905486768,0,0,0.33968,0.588,0.48687,2.74266,1.15702,0.30161,3.70596,2.76487
63675905486785,0,0,0.29992,0.52814,0.46571,2.62466,1.24717,0.31572,3.71015,2.77649
63675905486834,0,0,0.30183,0.53352,0.50217,2.65603,1.18253,0.31092,3.69569,2.83881
63675905486851,0,0,0.29066,0.52957,0.48878,2.52939,1.11835,0.29946,3.69467,2.82522
63675905486868,0,0,0.31929,0.49247,0.48837,2.55587,1.14406,0.30752,3.69428,2.8577
63675905486901,0,0,0.29987,0.50436,0.47994,2.52788,1.19895,0.28496,3.70177,2.79604
63675905486934,0,0,0.33684,0.54583,0.46938,2.58625,1.20211,0.27837,3.68828,2.83175
63675905486950,0,0,0.35783,0.52984,0.46429,2.52785,1.19,0.24519,3.68704,2.78979
63675905486983,0,0,0.33912,0.59102,0.44946,2.64124,1.1575,0.22825,3.69113,2.7072
63675905487017,0,0,0.32045,0.54934,0.43943,2.64737,1.24352,0.23325,3.68294,2.78854
63675905487033,0,0,0.36958,0.5214,0.44512,2.64266,1.15307,0.21723,3.68611,2.7739
63675905487067,0,0,0.40636,0.56619,0.41285,2.66301,1.11442,0.20518,3.69438,2.7625
63675905487116,0,0,0.38965,0.53212,0.40323,2.33221,0.99686,0.19129,3.66993,2.81971
63675905487149,0,0,0.36685,0.56569,0.42991,2.40176,1.00289,0.22042,3.64492,2.86893
63675905487182,0,0,0.39836,0.53696,0.4262,2.29229,0.90904,0.22219,3.65024,3.03412
63675905487216,0,0,0.44235,0.56339,0.41949,2.32605,0.76999,0.21113,3.57448,2.99937
63675905487232,0,0,0.43483,0.57743,0.44241,2.38099,0.82066,0.22544,3.61113,3.01513
63675905487265,0,0,0.44181,0.60075,0.41785,2.25075,0.95589,0.24479,3.58365,3.0087
63675905487282,0,0,0.42904,0.60186,0.46006,2.37868,0.96667,0.24019,3.52653,3.06517
63675905487315,0,0,0.40665,0.58739,0.45043,2.25526,0.94415,0.24186,3.53481,3.08008
63675905487348,0,0,0.40256,0.59303,0.43749,2.18564,0.93119,0.21275,3.53074,3.02723
63675905487365,0,0,0.43078,0.64097,0.45522,2.23462,1.04948,0.20338,3.47733,3.03368
63675905487415,0,0,0.43178,0.68847,0.46411,2.28728,1.09202,0.22137,3.54278,3.0015
63675905487430,0,0,0.42656,0.66195,0.46058,2.40589,1.0571,0.21903,3.45578,2.98923
63675905487447,0,0,0.45405,0.70415,0.45538,2.43621,0.91212,0.18225,3.40593,2.99532
63675905487480,0,0,0.43562,0.76213,0.44576,2.38142,0.95677,0.19191,3.40076,2.8763
63675905487514,0,0,0.4426,0.70692,0.43142,2.17953,0.95817,0.1899,3.50835,2.77796
63675905487546,0,0,0.52959,0.63343,0.44434,2.43172,1.04981,0.2161,3.50173,2.80839
63675905487563,0,0,0.5388,0.62721,0.45266,2.30888,1.01034,0.24605,3.56992,2.79657
63675905487596,0,0,0.55104,0.58662,0.45452,2.20248,1.0436,0.2295,3.58584,2.80822
63675905487613,0,0,0.55553,0.63332,0.48144,2.17263,1.06337,0.22405,3.64964,2.7837
63675905487646,0,0,0.53015,0.56035,0.47802,2.25773,1.18957,0.25788,3.73159,2.80067
63675905487696,0,0,0.50911,0.59944,0.51852,2.33604,1.23857,0.27345,3.72276,2.89235
63675905487729,0,0,0.54248,0.63718,0.49126,2.19244,1.22463,0.26732,3.72747,2.84808
63675905487762,0,0,0.52057,0.65164,0.50467,2.29442,1.32958,0.27058,3.73661,2.80502
63675905487796,0,0,0.51417,0.60897,0.48507,2.34836,1.28592,0.27646,3.73668,2.8194
63675905487812,0,0,0.54904,0.52535,0.48187,2.28984,1.22611,0.27958,3.73009,2.79645
63675905487845,0,0,0.56857,0.55458,0.4471,2.31338,1.14263,0.27414,3.7199,2.77871
63675905487861,0,0,0.66706,0.55793,0.44632,2.39885,1.18572,0.28152,3.70695,2.77553
63675905487894,0,0,0.62282,0.46187,0.40311,2.40596,1.10503,0.26551,3.69959,2.80676
63675905487928,0,0,0.57626,0.47871,0.43029,2.53322,1.16123,0.28817,3.70654,2.82405
63675905487961,0,0,0.5621,0.56811,0.44211,2.5762,1.04399,0.26947,3.70086,2.82327
63675905487994,0,0,0.50063,0.56455,0.42073,2.36097,1.08482,0.26856,3.69462,2.8146
63675905488011,0,0,0.53953,0.59239,0.40244,2.48874,1.1622,0.26711,3.6923,2.81275
63675905488044,0,0,0.52966,0.61142,0.41076,2.49707,1.2221,0.28692,3.69338,2.84551
63675905488061,0,0,0.46484,0.64404,0.39269,2.19244,1.13161,0.24323,3.70236,2.85583
63675905488094,0,0,0.49517,0.66713,0.41229,2.25898,1.22054,0.24459,3.70905,2.82932
63675905488111,0,0,0.52237,0.66895,0.39455,2.15768,1.09678,0.21135,3.71087,2.81913
63675905488144,0,0,0.48705,0.6237,0.37139,2.03152,1.12583,0.21098,3.71237,2.81272
63675905488176,0,0,0.527,0.64321,0.37917,2.13558,1.12071,0.21015,3.70067,2.80528
63675905488193,0,0,0.48873,0.61798,0.37759,2.08157,1.06452,0.21047,3.7056,2.80129
63675905488226,0,0,0.47053,0.61129,0.38815,2.01555,1.03061,0.20643,3.70305,2.79409
63675905488276,0,0,0.4789,0.59994,0.41313,2.21277,1.10501,0.24155,3.69729,2.78993
63675905488325,0,0,0.54237,0.66383,0.42303,2.19315,1.0673,0.26598,3.70497,2.80301
63675905488342,0,0,0.482,0.58683,0.41714,2.10554,0.97298,0.2704,3.69022,2.80628
63675905488375,0,0,0.49343,0.61227,0.43101,2.06229,0.96276,0.28465,3.69259,2.79361
63675905488392,0,0,0.49358,0.68668,0.48539,2.08652,0.94279,0.30391,3.68488,2.78497
63675905488425,0,0,0.48852,0.71915,0.49544,2.30472,0.96879,0.30316,3.66183,2.77072
63675905488474,0,0,0.52489,0.66641,0.53301,2.28462,1.03311,0.2935,3.6545,2.77796
63675905488508,0,0,0.47486,0.61344,0.55308,2.41253,1.05062,0.27408,3.62727,2.75599
63675905488541,0,0,0.52287,0.68691,0.56674,2.44451,1.12273,0.2746,3.60176,2.73336
63675905488574,0,0,0.57227,0.73093,0.57146,2.55288,1.19324,0.29775,3.60169,2.74681
63675905488591,0,0,0.62337,0.627,0.51095,2.60928,1.24209,0.27135,3.59686,2.77355
63675905488624,0,0,0.60959,0.5955,0.48906,2.58722,1.25608,0.27711,3.61643,2.79587
63675905488657,0,0,0.62949,0.58008,0.4595,2.53556,1.2232,0.27341,3.58965,2.83235
63675905488673,0,0,0.55324,0.57919,0.44052,2.39115,1.08754,0.26878,3.60139,2.79635
63675905488706,0,0,0.56175,0.59641,0.41933,2.16089,1.02031,0.26512,3.60953,2.73207
63675905488723,0,0,0.52678,0.53983,0.40966,2.29816,1.05638,0.27585,3.6266,2.75678
63675905488756,0,0,0.52282,0.51618,0.37897,2.15271,0.992,0.2494,3.61192,2.74262
63675905488789,0,0,0.49528,0.50078,0.36787,2.05964,0.96789,0.25472,3.62407,2.74716
63675905488806,0,0,0.4563,0.51994,0.34273,2.00772,0.90872,0.25337,3.59309,2.87305
63675905488856,0,0,0.50327,0.62495,0.36632,1.94661,0.88862,0.25205,3.58211,2.88068
63675905488872,0,0,0.51669,0.6398,0.37416,1.91505,0.8962,0.25256,3.56418,2.94781
63675905488888,0,0,0.50176,0.62678,0.38593,2.00078,0.90289,0.24833,3.56541,3.00859
63675905488921,0,0,0.50192,0.61814,0.35683,1.78848,0.82818,0.22803,3.57042,2.96902
63675905488955,0,0,0.51991,0.62019,0.3871,1.73941,0.86346,0.2267,3.57724,2.97102
63675905488972,0,0,0.49837,0.60602,0.39081,1.71351,0.80254,0.21192,3.56716,2.92731
63675905489004,0,0,0.48263,0.61077,0.40254,1.57904,0.80606,0.2091,3.60344,2.79781
63675905489055,0,0,0.41174,0.46965,0.34385,1.42364,0.8106,0.20647,3.64908,2.76562
63675905489087,0,0,0.45465,0.49381,0.32745,1.48412,0.84525,0.22541,3.67211,2.71799
63675905489121,0,0,0.4799,0.53072,0.37901,1.56095,0.88973,0.23819,3.66282,2.83405
63675905489153,0,0,0.45248,0.48192,0.36742,1.7224,0.89785,0.25262,3.67877,2.8641
63675905489170,0,0,0.45259,0.49195,0.37935,1.96969,0.95847,0.25398,3.68042,2.94284
63675905489204,0,0,0.43148,0.49229,0.37029,1.98414,1.05978,0.26428,3.67082,2.9353
63675905489236,0,0,0.43826,0.55502,0.3976,2.12982,1.24046,0.2703,3.66961,3.00302
63675905489253,0,0,0.4291,0.61736,0.42263,2.32234,1.34726,0.30378,3.65779,3.04274
63675905489286,0,0,0.35307,0.59174,0.43362,2.4143,1.41026,0.30599,3.65946,3.13832
63675905489303,0,0,0.38535,0.62363,0.46107,2.63543,1.51667,0.32722,3.63443,3.17421
63675905489336,0,0,0.37129,0.61219,0.46469,2.7111,1.458,0.3192,3.64452,3.08738
63675905489369,0,0,0.39965,0.66444,0.48275,2.54383,1.51004,0.30785,3.63038,3.12498
63675905489385,0,0,0.42468,0.64933,0.50254,2.69927,1.4391,0.31363,3.6205,3.13761
63675905489436,0,0,0.43118,0.61409,0.47438,2.55729,1.33853,0.31147,3.63056,3.06394
63675905489452,0,0,0.46807,0.62565,0.49254,2.48141,1.21059,0.27413,3.6245,3.00289
63675905489468,0,0,0.5226,0.63354,0.48898,2.36375,1.19688,0.26678,3.61409,3.08144
63675905489502,0,0,0.49076,0.6019,0.46909,2.32597,1.14119,0.26025,3.61782,3.05394
63675905489535,0,0,0.48561,0.62541,0.44426,2.28292,1.18288,0.26304,3.62767,3.00648
63675905489568,0,0,0.49823,0.61707,0.42739,2.13424,1.13805,0.27264,3.62847,3.03406
63675905489602,0,0,0.52768,0.59705,0.405,2.06985,1.08948,0.2484,3.63453,3.02665
63675905489635,0,0,0.4945,0.64835,0.39217,2.02793,1.08718,0.23834,3.63333,3.02814
63675905489651,0,0,0.46342,0.57244,0.35442,1.87432,1.0321,0.23054,3.62943,3.0322
63675905489684,0,0,0.45281,0.61292,0.33264,1.87552,1.03285,0.23915,3.64494,2.89302
63675905489717,0,0,0.45863,0.56787,0.32686,1.65217,0.98241,0.22349,3.63585,2.91319
63675905489750,0,0,0.51205,0.66683,0.33813,1.6621,0.95977,0.22843,3.63435,2.82248
63675905489817,0,0,0.55364,0.60988,0.36067,1.69254,0.98689,0.2608,3.63426,2.80377
63675905489850,0,0,0.5853,0.6767,0.39373,1.80429,1.00754,0.26348,3.64027,2.80227
63675905489883,0,0,0.58362,0.6524,0.44507,2.01379,1.08869,0.26107,3.65594,2.76548
63675905489916,0,0,0.60226,0.68461,0.46285,2.14154,1.09497,0.258,3.66055,2.76711
63675905489949,0,0,0.53942,0.62109,0.49768,2.36435,1.17595,0.24531,3.68475,2.8234
63675905489983,0,0,0.53347,0.64931,0.49074,2.35106,1.15785,0.23746,3.68457,2.84915
63675905490015,0,0,0.50112,0.59765,0.52595,2.51693,1.13916,0.23275,3.68398,2.77976
63675905490032,0,0,0.50926,0.6587,0.52619,2.68425,1.13764,0.22688,3.70206,2.85212
63675905490065,0,0,0.45866,0.6392,0.55661,2.81228,0.98367,0.20288,3.69168,2.94208
63675905490115,0,0,0.40063,0.63011,0.55532,2.74304,0.99365,0.20308,3.69823,2.91573
63675905490132,0,0,0.38771,0.63042,0.55311,2.82567,0.99794,0.22382,3.7084,2.8493
63675905490165,0,0,0.39574,0.62932,0.56455,2.92749,1.00074,0.23361,3.70162,2.89338
63675905490213,0,0,0.51426,0.68733,0.57016,2.98213,1.04507,0.23297,3.70688,3.017
63675905490230,0,0,0.51119,0.63786,0.57933,2.76615,1.01014,0.22819,3.68397,3.02381
63675905490263,0,0,0.47004,0.65211,0.56399,2.72629,0.97646,0.23903,3.67971,2.98474
63675905490313,0,0,0.53712,0.73251,0.53199,2.67577,1.03176,0.25767,3.67974,2.96279
63675905490329,0,0,0.59229,0.77637,0.5616,2.87483,1.02288,0.29235,3.65521,2.91117
63675905490363,0,0,0.53784,0.73401,0.55387,2.66886,0.93851,0.28337,3.66184,2.9395
63675905490396,0,0,0.49169,0.69615,0.57382,2.80417,0.94797,0.29411,3.65808,2.98645
63675905490413,0,0,0.35749,0.69621,0.57755,2.64176,0.91357,0.2854,3.6592,2.95096
63675905490445,0,0,0.43041,0.65834,0.55637,2.72953,0.92515,0.30252,3.67066,2.86013
63675905490496,0,0,0.33605,0.57832,0.56639,2.7653,0.89246,0.27287,3.66148,2.91335
63675905490529,0,0,0.35807,0.57261,0.52517,2.57082,0.85145,0.24691,3.66504,3.01809
63675905490562,0,0,0.39214,0.61079,0.53669,2.76794,0.89066,0.25629,3.64187,3.10133
63675905490595,0,0,0.39207,0.56305,0.49931,2.76824,0.868,0.25596,3.63723,3.04079
63675905490628,0,0,0.40477,0.65931,0.49535,2.65576,0.85273,0.23145,3.64445,3.01464
63675905490662,0,0,0.38916,0.68036,0.51242,2.62406,0.8401,0.23755,3.65768,3.1292
63675905490695,0,0,0.40147,0.65345,0.49912,2.51057,0.89022,0.24871,3.65028,3.04621
63675905490728,0,0,0.43674,0.64399,0.44858,2.35646,0.84757,0.23515,3.66145,2.96316
63675905490744,0,0,0.39477,0.59881,0.44099,2.29767,0.90046,0.22874,3.69253,2.81435
63675905490793,0,0,0.4227,0.61934,0.43275,2.27648,0.85159,0.21607,3.70591,2.76931
63675905490810,0,0,0.41237,0.60877,0.43012,2.24723,0.94252,0.23337,3.72008,2.74413
63675905490843,0,0,0.38015,0.5123,0.39942,2.3327,1.01293,0.21382,3.70778,2.60614
63675905490876,0,0,0.36095,0.5025,0.40457,2.3476,0.97449,0.20153,3.71358,2.66951
63675905490910,0,0,0.35974,0.50684,0.37885,2.3175,0.9447,0.20455,3.72403,2.76115
63675905490943,0,0,0.38359,0.53121,0.37455,2.15645,0.91875,0.20716,3.7178,2.75224
63675905490976,0,0,0.40893,0.52172,0.41944,2.25786,0.88494,0.21051,3.72777,2.67784
63675905490993,0,0,0.41597,0.57187,0.4434,2.13499,0.98868,0.27125,3.72772,2.71355
63675905491026,0,0,0.43838,0.635,0.47628,1.98409,0.99582,0.29254,3.7248,2.72551
63675905491076,0,0,0.41436,0.60932,0.48351,2.04572,1.00429,0.31068,3.72612,2.73832
63675905491092,0,0,0.45833,0.62153,0.45944,2.04283,0.99166,0.3176,3.73529,2.75904
