63675480114705,5,0,0.15231,0.17378,0.18354,0.22193,0.07224,0.03241,4.2382,0.16083
63675480114737,5,0,0.16367,0.17763,0.20249,0.23977,0.07837,0.03367,4.23945,0.1984
63675480114787,5,0,0.17697,0.176,0.20269,0.23985,0.08219,0.03322,4.24367,0.19816
63675480114804,5,0,0.18588,0.18024,0.20752,0.24104,0.08905,0.03268,4.24886,0.21243
63675480114854,5,0,0.18467,0.18906,0.20016,0.20963,0.08957,0.02985,4.25232,0.20276
63675480114870,5,0,0.17318,0.19548,0.21403,0.16608,0.08074,0.03035,4.2397,0.18741
63675480114886,5,0,0.17217,0.19842,0.21347,0.15458,0.07749,0.02922,4.24019,0.1898
63675480114920,5,0,0.17097,0.19534,0.21166,0.14318,0.07695,0.02911,4.24195,0.1764
63675480114953,5,0,0.16179,0.20243,0.21493,0.13812,0.07612,0.02961,4.24437,0.15682
63675480114987,5,0,0.15791,0.1996,0.23494,0.1503,0.07239,0.03081,4.22989,0.15836
63675480115003,5,0,0.15555,0.20522,0.23717,0.15767,0.07347,0.03434,4.22314,0.16605
63675480115053,5,0,0.16826,0.20903,0.243,0.14557,0.07124,0.03524,4.22607,0.17977
63675480115069,5,0,0.16121,0.19763,0.26924,0.16767,0.07374,0.0375,4.227,0.17385
63675480115101,5,0,0.20899,0.19793,0.3391,0.22772,0.0922,0.04606,4.22309,0.22129
63675480115152,5,0,0.21332,0.21062,0.37841,0.25293,0.09392,0.04552,4.22647,0.22995
63675480115168,5,0,0.22432,0.23366,0.4399,0.33011,0.11818,0.05375,4.23123,0.23836
63675480115185,5,0,0.23129,0.27004,0.45764,0.35408,0.12292,0.05711,4.23651,0.23766
63675480115217,5,0,0.24289,0.31863,0.53066,0.40512,0.13593,0.05576,4.23835,0.23905
63675480115251,5,0,0.26544,0.38647,0.6025,0.45226,0.15811,0.06087,4.23939,0.25328
63675480115284,5,0,0.2634,0.42669,0.62651,0.47857,0.1671,0.06585,4.2414,0.24751
63675480115318,5,0,0.2354,0.47497,0.66833,0.49244,0.15835,0.06479,4.24227,0.21419
63675480115351,4,0,0.2379,0.50255,0.65557,0.55413,0.17117,0.06659,4.23779,0.20506
63675480115368,4,0,0.22346,0.51091,0.62721,0.4925,0.14874,0.06173,4.23884,0.2011
63675480115401,4,0,0.22656,0.51411,0.68776,0.50033,0.15594,0.06094,4.24056,0.1946
63675480115450,4,0,0.21276,0.48521,0.70109,0.50705,0.14822,0.05928,4.23648,0.18592
63675480115467,4,0,0.21832,0.47426,0.69178,0.53842,0.16031,0.06044,4.23985,0.18665
63675480115500,5,0,0.21146,0.45053,0.68999,0.51595,0.14476,0.05887,4.24251,0.20218
63675480115533,5,0,0.2259,0.46192,0.63249,0.50884,0.15213,0.05662,4.23978,0.21124
63675480115549,5,0,0.24136,0.47957,0.62212,0.47293,0.15189,0.05639,4.23556,0.23017
63675480115583,4,0,0.24738,0.47101,0.57651,0.47607,0.15637,0.06099,4.23873,0.24618
63675480115632,5,0,0.24588,0.45465,0.58387,0.46946,0.15949,0.06602,4.24508,0.24649
63675480115649,5,0,0.24285,0.48613,0.62885,0.47337,0.17746,0.06654,4.24217,0.24194
63675480115682,4,0,0.25417,0.58156,0.68732,0.56742,0.204,0.06781,4.23707,0.24487
63675480115731,4,0,0.26834,0.55978,0.74011,0.68711,0.23885,0.07954,4.24097,0.25469
63675480115748,4,0,0.29053,0.58072,0.83221,0.72734,0.25821,0.08436,4.24332,0.26448
63675480115781,4,0,0.32283,0.6529,1.00761,0.83729,0.29979,0.09117,4.26525,0.27564
63675480115831,4,0,0.354,0.74547,1.00858,1.00868,0.35339,0.09689,4.25022,0.31936
63675480115864,4,0,0.33913,0.76955,1.03246,0.91873,0.34353,0.10382,4.25342,0.29881
63675480115914,4,0,0.31202,0.80386,1.05454,0.86149,0.33366,0.10372,4.2471,0.29746
63675480115931,4,0,0.29371,0.77262,0.9804,0.82187,0.31459,0.09949,4.23275,0.28063
63675480115964,4,0,0.26268,0.69419,0.84062,0.71346,0.27644,0.09502,4.22276,0.26282
63675480115980,4,0,0.2374,0.61839,0.81636,0.65606,0.25585,0.08811,4.23252,0.22698
63675480116014,4,0,0.22674,0.60504,0.7933,0.60725,0.22878,0.08939,4.23055,0.22071
63675480116047,4,0,0.22075,0.60756,0.81592,0.57682,0.21701,0.08385,4.24477,0.21598
63675480116080,4,0,0.23668,0.56128,0.70234,0.56666,0.19878,0.06939,4.24241,0.22493
63675480116112,4,0,0.24016,0.54638,0.71436,0.58618,0.20466,0.06823,4.25258,0.22786
63675480116128,4,0,0.24634,0.58599,0.68803,0.58614,0.20002,0.06858,4.26426,0.23763
63675480116162,4,0,0.25374,0.56807,0.66713,0.65718,0.21093,0.06827,4.25708,0.25341
63675480116179,4,0,0.26545,0.5701,0.6771,0.66104,0.21713,0.06901,4.25722,0.25375
63675480116212,4,0,0.26819,0.55369,0.6333,0.72275,0.22574,0.06867,4.25392,0.27302
63675480116245,4,0,0.27144,0.54356,0.63213,0.71398,0.23341,0.0714,4.25336,0.28142
63675480116279,4,0,0.26347,0.56572,0.66447,0.70574,0.23529,0.07453,4.25054,0.28232
63675480116312,4,0,0.26334,0.55415,0.62106,0.61059,0.21237,0.07056,4.24958,0.26728
63675480116328,4,0,0.26456,0.45436,0.64189,0.59273,0.20841,0.06913,4.2438,0.28211
63675480116362,4,0,0.26934,0.50363,0.64163,0.53972,0.20021,0.06941,4.24593,0.26035
63675480116378,4,0,0.27054,0.53321,0.62667,0.52046,0.19273,0.06956,4.23219,0.2743
63675480116412,4,0,0.26348,0.54421,0.64452,0.47136,0.1842,0.07087,4.23074,0.24949
63675480116445,5,0,0.2555,0.56131,0.62677,0.44473,0.17549,0.07032,4.22824,0.23776
63675480116461,5,0,0.24679,0.54244,0.61041,0.4537,0.17847,0.06937,4.23024,0.22381
63675480116510,5,0,0.26874,0.5927,0.52666,0.44816,0.17814,0.0661,4.23758,0.22573
63675480116543,5,0,0.27093,0.59203,0.51199,0.53833,0.19596,0.06266,4.23202,0.22009
63675480116593,5,0,0.26283,0.55337,0.47226,0.55156,0.20615,0.0561,4.23498,0.22582
63675480116626,5,0,0.26919,0.56097,0.45734,0.54076,0.20063,0.05597,4.2366,0.23597
63675480116660,5,0,0.28411,0.58079,0.47063,0.55973,0.21105,0.0601,4.24073,0.23953
63675480116693,4,0,0.27414,0.55899,0.48085,0.57015,0.21285,0.05981,4.22853,0.21692
63675480116709,4,0,0.27405,0.57626,0.51116,0.58141,0.19974,0.05977,4.23005,0.21801
63675480116743,4,0,0.27349,0.59259,0.53893,0.54916,0.19759,0.0662,4.2362,0.23139
63675480116792,4,0,0.26591,0.59521,0.58242,0.54927,0.19365,0.07495,4.22944,0.25271
63675480116826,4,0,0.29455,0.59993,0.64788,0.58379,0.18713,0.07931,4.23135,0.23768
63675480116858,4,0,0.28611,0.55562,0.69109,0.58348,0.17403,0.07427,4.22538,0.23971
63675480116891,4,0,0.29345,0.53744,0.68878,0.63013,0.18324,0.07587,4.23377,0.25492
63675480116908,4,0,0.28781,0.49657,0.7041,0.61958,0.19098,0.08054,4.23121,0.256
63675480116941,4,0,0.28641,0.48011,0.66654,0.5787,0.18249,0.07276,4.23237,0.23938
63675480116958,4,0,0.28806,0.46407,0.68047,0.55978,0.17903,0.0679,4.23734,0.2343
63675480116990,4,0,0.29892,0.44918,0.67837,0.56341,0.17314,0.05982,4.24552,0.24912
63675480117024,4,0,0.28765,0.41877,0.70176,0.5548,0.17638,0.05906,4.25261,0.24545
63675480117041,4,0,0.28698,0.42115,0.63739,0.53611,0.19136,0.06062,4.24452,0.25345
63675480117074,4,0,0.28958,0.44697,0.60115,0.43975,0.22708,0.06287,4.24657,0.23301
63675480117106,4,0,0.29536,0.493,0.5523,0.45256,0.2457,0.06131,4.24414,0.23863
63675480117123,4,0,0.31096,0.51519,0.61232,0.47233,0.24662,0.06474,4.23795,0.24458
63675480117173,4,0,0.30637,0.51301,0.62236,0.51425,0.26824,0.06687,4.23644,0.24123
63675480117190,4,0,0.30527,0.5285,0.61796,0.49612,0.28514,0.07301,4.22397,0.23366
63675480117222,4,0,0.32243,0.56314,0.62756,0.5489,0.29992,0.07278,4.22112,0.23739
63675480117272,4,0,0.31532,0.56827,0.69015,0.58054,0.28638,0.07172,4.22761,0.25138
63675480117289,4,0,0.34286,0.61439,0.73333,0.60244,0.26862,0.07195,4.22075,0.25917
63675480117306,4,0,0.33367,0.5871,0.76824,0.64053,0.26999,0.07319,4.21938,0.24905
63675480117339,4,0,0.33343,0.60755,0.77644,0.60267,0.26086,0.07011,4.22851,0.26092
63675480117372,4,0,0.33594,0.59518,0.76064,0.57463,0.23607,0.07237,4.22733,0.24187
63675480117405,4,0,0.34536,0.60883,0.75325,0.61782,0.22766,0.07229,4.23009,0.23088
63675480117421,4,0,0.32689,0.61036,0.73207,0.57195,0.22601,0.0698,4.23094,0.22315
63675480117471,4,0,0.29847,0.59787,0.69071,0.51682,0.20714,0.06546,4.2465,0.20916
63675480117504,4,0,0.29066,0.58835,0.69181,0.45141,0.18121,0.06275,4.24725,0.21769
63675480117554,4,0,0.27727,0.60807,0.64449,0.46059,0.19585,0.06292,4.24567,0.20038
63675480117587,5,0,0.26457,0.60154,0.6728,0.44902,0.19749,0.05941,4.25058,0.20072
63675480117620,5,0,0.2654,0.58419,0.69712,0.46831,0.20579,0.06312,4.24943,0.21752
63675480117653,5,0,0.25433,0.59888,0.63246,0.43311,0.19666,0.06352,4.25199,0.21689
63675480117670,5,0,0.23475,0.60363,0.68805,0.47316,0.23501,0.06498,4.24576,0.22235
63675480117703,5,0,0.25667,0.58708,0.71656,0.46042,0.30514,0.0672,4.2405,0.22857
63675480117720,5,0,0.28202,0.59428,0.73735,0.48727,0.3863,0.07347,4.23368,0.21722
63675480117753,5,0,0.28257,0.58869,0.79694,0.51884,0.41201,0.07458,4.23447,0.21965
63675480117786,5,0,0.27808,0.565,0.75991,0.49766,0.41013,0.06996,4.2297,0.22039
63675480117818,0,0,0.28828,0.62926,0.71296,0.46743,0.40837,0.0703,4.22431,0.23244
63675480117852,4,0,0.285,0.6051,0.78366,0.45931,0.42095,0.07348,4.21561,0.24698
63675480117868,4,0,0.30511,0.61444,0.70995,0.45619,0.38882,0.07289,4.21832,0.24689
63675480117885,4,0,0.29938,0.64409,0.68349,0.459,0.32266,0.07355,4.22167,0.24984
63675480117918,4,0,0.29983,0.60281,0.68053,0.48337,0.28643,0.07028,4.22212,0.24856
63675480117952,4,0,0.28822,0.56667,0.65882,0.50527,0.26746,0.07142,4.22369,0.25956
63675480117969,5,0,0.32391,0.62654,0.6396,0.4969,0.26312,0.07485,4.22077,0.27386
63675480118001,5,0,0.31022,0.57562,0.66442,0.5095,0.25058,0.0742,4.22116,0.25957
63675480118051,5,0,0.3245,0.58283,0.56926,0.52279,0.2494,0.06981,4.21676,0.25978
63675480118068,5,0,0.30618,0.54945,0.60218,0.50644,0.25117,0.0637,4.21732,0.26061
63675480118084,5,0,0.28807,0.5321,0.61363,0.51624,0.26765,0.05925,4.21341,0.24878
63675480118134,5,0,0.2864,0.58444,0.62338,0.4851,0.26344,0.06321,4.20687,0.26724
63675480118167,5,0,0.28617,0.57635,0.65673,0.53529,0.26268,0.06496,4.20955,0.27429
63675480118200,5,0,0.28346,0.55664,0.64306,0.52469,0.25556,0.06353,4.21954,0.27957
63675480118235,5,0,0.29428,0.55779,0.66603,0.54873,0.26668,0.06986,4.23712,0.27675
63675480118250,5,0,0.30275,0.58649,0.62902,0.52517,0.25666,0.07507,4.23845,0.25083
63675480118283,5,0,0.33791,0.58919,0.63002,0.52183,0.23482,0.07652,4.23045,0.26783
63675480118300,5,0,0.34732,0.54834,0.59517,0.49411,0.22155,0.07187,4.231,0.26932
63675480118332,5,0,0.34457,0.56748,0.59969,0.49122,0.21832,0.07382,4.24337,0.25694
63675480118366,5,0,0.324,0.55749,0.57285,0.41967,0.20355,0.07122,4.24312,0.24073
63675480118399,5,0,0.31771,0.54402,0.56507,0.44971,0.20016,0.07266,4.23756,0.23727
63675480118432,5,0,0.31195,0.57739,0.56575,0.47152,0.18992,0.07377,4.23826,0.23545
63675480118449,5,0,0.32827,0.58672,0.58627,0.4449,0.19184,0.07526,4.24006,0.24063
63675480118465,5,0,0.32845,0.56224,0.58875,0.46329,0.20874,0.08055,4.23957,0.25313
63675480118498,5,0,0.29158,0.58265,0.57757,0.42458,0.21474,0.08101,4.24295,0.2541
63675480118532,5,0,0.28449,0.53748,0.53623,0.42351,0.20506,0.07506,4.23866,0.25485
63675480118548,5,0,0.28849,0.57079,0.53158,0.45621,0.20837,0.07451,4.23816,0.25524
63675480118581,5,0,0.29726,0.57717,0.52,0.42146,0.20291,0.07086,4.23124,0.24356
63675480118631,5,0,0.26386,0.56552,0.49393,0.40958,0.18455,0.06593,4.22343,0.23944
63675480118664,5,0,0.25953,0.56972,0.53891,0.40071,0.16708,0.06304,4.22855,0.25212
63675480118714,5,0,0.28542,0.56824,0.59172,0.43652,0.16511,0.05931,4.23267,0.23874
63675480118746,5,0,0.28067,0.59526,0.57755,0.50535,0.18016,0.06042,4.22636,0.23926
63675480118780,5,0,0.26939,0.59461,0.64976,0.53137,0.19754,0.06281,4.23164,0.26046
63675480118814,5,0,0.26483,0.57968,0.68837,0.53203,0.20751,0.06042,4.23291,0.23679
63675480118829,5,0,0.28741,0.57568,0.72291,0.51512,0.21607,0.05981,4.23176,0.23092
63675480118863,5,0,0.29278,0.61826,0.71845,0.53477,0.21849,0.05726,4.23083,0.22447
63675480118912,5,0,0.26157,0.59184,0.6925,0.56865,0.2648,0.05946,4.23361,0.23489
63675480118946,0,0,0.26083,0.61596,0.72121,0.52826,0.27314,0.0653,4.2361,0.23823
63675480118962,0,0,0.26247,0.58669,0.7552,0.52971,0.27114,0.06476,4.23391,0.22758
63675480119012,0,0,0.27247,0.60152,0.73003,0.52172,0.27893,0.0644,4.23283,0.24988
63675480119029,5,0,0.32542,0.61724,0.63672,0.54072,0.26317,0.06568,4.22896,0.27559
63675480119045,5,0,0.32532,0.5842,0.64788,0.5321,0.28144,0.07058,4.23002,0.27588
63675480119078,5,0,0.33125,0.61309,0.64353,0.54608,0.302,0.07952,4.23396,0.2724
63675480119112,5,0,0.33937,0.60957,0.63011,0.57693,0.27402,0.07857,4.23491,0.28306
63675480119145,5,0,0.34466,0.55478,0.63181,0.58345,0.27501,0.07799,4.23092,0.28276
63675480119161,5,0,0.35334,0.5677,0.58351,0.57381,0.26645,0.08071,4.23314,0.28246
63675480119210,4,0,0.34644,0.58143,0.60106,0.56434,0.27544,0.08702,4.23524,0.26765
63675480119227,4,0,0.34813,0.57035,0.60193,0.61558,0.29236,0.08985,4.23572,0.25506
63675480119243,4,0,0.28288,0.53212,0.62906,0.58106,0.29926,0.08575,4.23675,0.25049
63675480119293,4,0,0.28064,0.58539,0.64847,0.60209,0.2896,0.06974,4.23559,0.24338
63675480119310,4,0,0.27924,0.61852,0.60046,0.55348,0.27339,0.07194,4.2327,0.24174
63675480119326,4,0,0.29285,0.71873,0.59827,0.50937,0.24913,0.06833,4.23768,0.23488
63675480119359,4,0,0.28198,0.69486,0.59621,0.50562,0.25674,0.06506,4.23649,0.25833
63675480119393,4,0,0.28672,0.68977,0.56934,0.46847,0.22754,0.06187,4.2333,0.25742
63675480119409,4,0,0.29059,0.70469,0.57001,0.45668,0.21375,0.06147,4.23288,0.26282
63675480119443,4,0,0.29182,0.68673,0.57674,0.45185,0.2204,0.06449,4.23378,0.27025
63675480119493,4,0,0.29581,0.64619,0.51553,0.38941,0.19318,0.06611,4.22962,0.25921
63675480119526,4,0,0.2919,0.60823,0.53498,0.37719,0.18973,0.06179,4.22944,0.23867
63675480119558,5,0,0.26813,0.55452,0.57531,0.41579,0.1991,0.06163,4.23488,0.22327
63675480119591,5,0,0.26096,0.54719,0.57407,0.41509,0.20216,0.05962,4.23027,0.22569
63675480119608,5,0,0.25143,0.54296,0.54149,0.39281,0.20731,0.05875,4.23401,0.22004
63675480119641,4,0,0.24274,0.5669,0.52481,0.39427,0.20688,0.06059,4.23304,0.20296
63675480119658,0,0,0.24056,0.57674,0.5327,0.39086,0.20034,0.05682,4.23151,0.21046
63675480119691,4,0,0.22763,0.57672,0.51683,0.38799,0.19938,0.06141,4.2313,0.2038
63675480119724,4,0,0.24157,0.6184,0.54771,0.51882,0.25492,0.07473,4.22987,0.19976
63675480119740,4,0,0.25587,0.61896,0.5391,0.54585,0.26476,0.0778,4.22556,0.20568
63675480119791,4,0,0.27226,0.62563,0.52798,0.5644,0.2755,0.07712,4.22736,0.21199
63675480119808,4,0,0.26129,0.63787,0.57748,0.60915,0.29313,0.08022,4.23046,0.23066
63675480119824,4,0,0.26136,0.63011,0.59269,0.60512,0.29012,0.07321,4.22664,0.23239
63675480119874,4,0,0.27379,0.6234,0.62264,0.66454,0.32079,0.07801,4.22802,0.22929
63675480119890,4,0,0.28101,0.64919,0.65984,0.70224,0.35296,0.0784,4.22416,0.24157
63675480119907,4,0,0.27758,0.63179,0.64403,0.59518,0.2987,0.06536,4.22836,0.24086
63675480119940,4,0,0.26848,0.61406,0.62323,0.5369,0.28155,0.0619,4.22066,0.24356
63675480119973,4,0,0.25313,0.6218,0.60734,0.50716,0.27367,0.06437,4.22423,0.24454
63675480119989,4,0,0.26899,0.64106,0.54136,0.50111,0.28031,0.06804,4.22211,0.22889
63675480120023,4,0,0.28536,0.6575,0.56691,0.50529,0.29262,0.06615,4.22201,0.22644
63675480120072,4,0,0.27944,0.57434,0.51827,0.42572,0.24421,0.06796,4.21517,0.24212
63675480120105,4,0,0.27684,0.57267,0.53691,0.42754,0.27029,0.07112,4.21461,0.25873
63675480120138,4,0,0.2936,0.56307,0.54874,0.43556,0.27405,0.07436,4.2185,0.24649
63675480120172,4,0,0.29658,0.56442,0.56761,0.4446,0.26627,0.07196,4.22069,0.24672
63675480120189,4,0,0.2895,0.54557,0.57378,0.4406,0.26578,0.07497,4.21674,0.24808
63675480120221,4,0,0.27767,0.48982,0.55493,0.41321,0.24411,0.07734,4.21801,0.23489
63675480120237,4,0,0.28775,0.49277,0.5572,0.44689,0.24888,0.0792,4.21801,0.22596
63675480120271,5,0,0.29202,0.51085,0.54299,0.42272,0.23888,0.07429,4.21873,0.2257
63675480120304,5,0,0.27934,0.52974,0.57551,0.43075,0.23292,0.07474,4.21965,0.21746
63675480120321,5,0,0.26638,0.54074,0.56129,0.42479,0.22377,0.07119,4.22552,0.21938
63675480120370,5,0,0.26031,0.54357,0.57805,0.43246,0.23973,0.07069,4.22413,0.20771
63675480120386,5,0,0.25197,0.56106,0.56598,0.43281,0.24649,0.07095,4.22478,0.21097
63675480120403,0,0,0.25263,0.56724,0.59263,0.46905,0.25216,0.0712,4.2259,0.20545
63675480120454,4,0,0.24494,0.54631,0.5789,0.43263,0.26012,0.06873,4.22714,0.20338
63675480120470,4,0,0.24546,0.56165,0.63323,0.51824,0.29584,0.06938,4.23514,0.2155
63675480120487,4,0,0.2622,0.54112,0.59276,0.52059,0.29902,0.07622,4.23943,0.21306
63675480120520,4,0,0.26891,0.5349,0.57857,0.48922,0.28523,0.07444,4.23813,0.21795
63675480120552,4,0,0.27255,0.56422,0.57706,0.48563,0.29553,0.07869,4.23034,0.20227
63675480120586,4,0,0.28316,0.56549,0.5585,0.51221,0.28744,0.07409,4.23517,0.20837
63675480120602,4,0,0.27127,0.56334,0.56231,0.48926,0.27184,0.07215,4.23631,0.21486
63675480120652,4,0,0.27062,0.63132,0.49922,0.46196,0.23638,0.07659,4.22775,0.19756
63675480120685,4,0,0.27051,0.63264,0.52858,0.4479,0.24048,0.06998,4.22299,0.20396
63675480120719,4,0,0.27081,0.65443,0.53774,0.46768,0.24174,0.0714,4.22874,0.18944
63675480120751,4,0,0.26472,0.60732,0.51644,0.50502,0.23588,0.06714,4.2294,0.20162
63675480120768,4,0,0.27619,0.62654,0.54456,0.51213,0.27762,0.0747,4.23394,0.20953
63675480120801,4,0,0.26714,0.655,0.59165,0.49584,0.26545,0.07808,4.22693,0.20275
63675480120851,4,0,0.2914,0.64718,0.57809,0.5092,0.36073,0.07882,4.2328,0.22269
63675480120884,4,0,0.28722,0.64891,0.56611,0.52233,0.3567,0.07986,4.23293,0.22086
63675480120933,4,0,0.27295,0.60511,0.57253,0.53229,0.37176,0.07933,4.23158,0.23134
63675480120949,4,0,0.27499,0.62448,0.56102,0.51636,0.37527,0.08387,4.23351,0.23826
63675480120966,4,0,0.26638,0.60249,0.53155,0.49105,0.35181,0.07955,4.23271,0.22577
63675480120999,4,0,0.26446,0.50473,0.49485,0.43072,0.35547,0.07329,4.23326,0.24988
63675480121033,4,0,0.25192,0.51176,0.50769,0.46028,0.3427,0.07468,4.23265,0.24849
63675480121066,4,0,0.2529,0.46087,0.50973,0.44495,0.32789,0.07173,4.24022,0.25918
63675480121083,4,0,0.26346,0.45253,0.50624,0.43047,0.3413,0.07062,4.23759,0.25524
63675480121133,4,0,0.27983,0.47132,0.50064,0.40267,0.32368,0.07215,4.24153,0.25909
63675480121149,4,0,0.29374,0.50058,0.5121,0.38008,0.32527,0.07187,4.23715,0.24501
63675480121183,4,0,0.31903,0.5394,0.48906,0.38745,0.30288,0.07207,4.23653,0.24974
63675480121232,4,0,0.29773,0.53342,0.48662,0.39689,0.26139,0.06983,4.2384,0.24224
63675480121249,4,0,0.29924,0.51856,0.49245,0.36614,0.24216,0.06885,4.24111,0.23828
63675480121282,4,0,0.2956,0.52948,0.51033,0.36771,0.22838,0.06882,4.23282,0.22799
63675480121331,4,0,0.26246,0.50839,0.52431,0.41235,0.23062,0.06451,4.23565,0.23331
63675480121365,4,0,0.27517,0.53901,0.55304,0.43844,0.23794,0.06507,4.23376,0.23992
63675480121398,0,0,0.25614,0.50855,0.54593,0.44527,0.2401,0.0618,4.23867,0.21065
63675480121431,0,0,0.27875,0.55786,0.53885,0.44644,0.24292,0.06237,4.2392,0.21663
63675480121463,3,0,0.2828,0.61688,0.52047,0.47405,0.25925,0.07103,4.2428,0.2239
63675480121480,3,0,0.27928,0.60581,0.51913,0.46216,0.26497,0.07164,4.24621,0.22837
63675480121529,3,0,0.28183,0.69097,0.52448,0.49369,0.27297,0.07265,4.24485,0.22609
63675480121546,3,0,0.27457,0.66672,0.54569,0.54528,0.30046,0.07733,4.23489,0.22707
63675480121579,0,0,0.27989,0.65452,0.6142,0.55083,0.32252,0.08018,4.22851,0.2366
63675480121613,4,0,0.27319,0.60583,0.61149,0.56282,0.33317,0.08155,4.23188,0.24171
63675480121646,4,0,0.27243,0.57855,0.63855,0.58026,0.32812,0.07778,4.22216,0.23896
63675480121680,4,0,0.28217,0.55805,0.64662,0.59257,0.34874,0.07702,4.2285,0.23044
63675480121713,4,0,0.28979,0.4978,0.60634,0.56257,0.31683,0.0768,4.23866,0.25619
63675480121745,4,0,0.29462,0.49598,0.57134,0.4967,0.29338,0.07402,4.2426,0.24423
63675480121778,4,0,0.30227,0.49198,0.51353,0.47284,0.27634,0.07632,4.24075,0.24525
63675480121811,4,0,0.29917,0.47023,0.46312,0.43884,0.25749,0.07785,4.24282,0.2399
63675480121828,4,0,0.29308,0.48857,0.46064,0.47078,0.27628,0.08012,4.2421,0.24957
63675480121861,4,0,0.27779,0.51979,0.47643,0.43356,0.25584,0.07732,4.24514,0.23924
63675480121911,4,0,0.26792,0.54043,0.48286,0.4488,0.29208,0.08262,4.23408,0.22519
63675480121944,4,0,0.25112,0.54148,0.50853,0.52398,0.3174,0.08836,4.23779,0.22851
63675480121978,4,0,0.24025,0.58135,0.52088,0.56071,0.34019,0.08827,4.24057,0.22278
63675480122011,4,0,0.25201,0.59704,0.52592,0.62717,0.34076,0.08575,4.24225,0.23841
63675480122043,4,0,0.26167,0.57559,0.52524,0.60723,0.32723,0.08662,4.24297,0.25207
63675480122059,4,0,0.27689,0.63263,0.50262,0.6294,0.34062,0.092,4.24311,0.24774
63675480122093,4,0,0.28315,0.59252,0.55499,0.62305,0.331,0.09663,4.24467,0.26128
63675480122126,4,0,0.28381,0.60397,0.51909,0.62034,0.32831,0.09651,4.24564,0.25171
63675480122160,4,0,0.28893,0.63487,0.5045,0.57534,0.30819,0.09342,4.23858,0.24897
63675480122192,4,0,0.27841,0.57789,0.5196,0.52395,0.31279,0.09529,4.23832,0.25083
63675480122226,4,0,0.28482,0.59826,0.48495,0.53264,0.33594,0.09987,4.24133,0.24447
63675480122242,4,0,0.28122,0.59376,0.48768,0.53907,0.34191,0.09808,4.24002,0.25051
63675480122292,4,0,0.26818,0.54186,0.47949,0.52089,0.3211,0.09062,4.24216,0.25282
63675480122309,4,0,0.26383,0.52503,0.51683,0.53182,0.29525,0.07929,4.24505,0.24066
63675480122342,4,0,0.28068,0.49083,0.49967,0.50473,0.2825,0.07624,4.25103,0.23939
63675480122392,4,0,0.30107,0.50505,0.47655,0.53856,0.26363,0.06943,4.25314,0.2171
63675480122408,4,0,0.30989,0.47741,0.44847,0.51449,0.25457,0.07355,4.24866,0.25497
63675480122424,4,0,0.31267,0.428,0.44128,0.48731,0.21562,0.07069,4.25187,0.24805
63675480122457,5,0,0.31705,0.42691,0.43355,0.46188,0.21788,0.07191,4.24897,0.23702
63675480122490,5,0,0.33279,0.43573,0.40897,0.47129,0.21623,0.07478,4.2448,0.24741
63675480122524,5,0,0.32355,0.43236,0.40494,0.47058,0.21884,0.082,4.2494,0.26442
63675480122574,5,0,0.30458,0.46377,0.47035,0.41448,0.24071,0.08368,4.2469,0.29709
63675480122591,5,0,0.29478,0.48249,0.53116,0.39596,0.23995,0.08507,4.25004,0.27343
63675480122624,5,0,0.27933,0.52805,0.55522,0.38122,0.23281,0.08078,4.25012,0.28539
63675480122673,5,0,0.28041,0.52752,0.57207,0.39777,0.24658,0.08632,4.2478,0.28951
63675480122690,5,0,0.27817,0.52318,0.60339,0.4191,0.24802,0.09082,4.25229,0.30335
63675480122707,5,0,0.26939,0.53884,0.573,0.40938,0.24306,0.08418,4.24841,0.28851
63675480122739,5,0,0.28481,0.53403,0.56439,0.46251,0.24289,0.08743,4.24436,0.30437
63675480122773,5,0,0.28851,0.51823,0.4993,0.47867,0.22472,0.08775,4.25,0.28511
63675480122805,5,0,0.29846,0.53089,0.47756,0.49175,0.22021,0.08788,4.2498,0.25013
63675480122838,5,0,0.29957,0.53002,0.51009,0.49432,0.21645,0.08224,4.24856,0.24737
63675480122872,5,0,0.29857,0.55593,0.5099,0.49226,0.22093,0.07973,4.24714,0.23743
63675480122888,5,0,0.30493,0.58944,0.53599,0.49469,0.21535,0.08498,4.25212,0.24827
63675480122922,5,0,0.30479,0.56482,0.53255,0.49229,0.2134,0.07867,4.2491,0.24005
63675480122971,5,0,0.27718,0.52388,0.58146,0.48789,0.21815,0.07367,4.23869,0.21702
63675480122988,4,0,0.27966,0.51463,0.58093,0.47649,0.21862,0.07114,4.24154,0.20864
63675480123020,4,0,0.26268,0.48912,0.58787,0.48687,0.21683,0.06936,4.23582,0.21321
63675480123071,4,0,0.24907,0.51667,0.5929,0.47722,0.22263,0.07287,4.23608,0.215
63675480123088,4,0,0.25615,0.44966,0.56791,0.44311,0.21293,0.06875,4.23102,0.23655
63675480123104,4,0,0.26345,0.44855,0.60303,0.42794,0.20482,0.07032,4.23181,0.23402
63675480123137,4,0,0.28063,0.47912,0.60169,0.40981,0.19036,0.07256,4.24078,0.2301
63675480123170,4,0,0.28959,0.51294,0.64313,0.37555,0.18142,0.07483,4.24213,0.23824
63675480123203,4,0,0.28381,0.50358,0.64252,0.41379,0.21419,0.07913,4.24211,0.23554
63675480123253,4,0,0.29757,0.52266,0.61165,0.42391,0.21972,0.08165,4.23418,0.25943
63675480123269,4,0,0.28993,0.52176,0.57834,0.43254,0.21926,0.07876,4.24058,0.26509
63675480123286,4,0,0.29199,0.50973,0.55024,0.42902,0.21798,0.07539,4.23528,0.26686
63675480123319,4,0,0.28224,0.49353,0.51214,0.43058,0.22895,0.07486,4.24186,0.26683
63675480123352,5,0,0.28152,0.48987,0.46089,0.39586,0.22425,0.07389,4.23559,0.28644
63675480123402,5,0,0.26673,0.45893,0.47541,0.42884,0.21589,0.07323,4.23295,0.27984
63675480123419,5,0,0.26804,0.47539,0.48203,0.41383,0.22564,0.07006,4.24269,0.27129
63675480123452,5,0,0.27952,0.48554,0.5285,0.40371,0.22477,0.06804,4.24583,0.26458
63675480123486,5,0,0.28271,0.51491,0.57646,0.39509,0.21046,0.07243,4.23529,0.2487
63675480123517,5,0,0.29312,0.55254,0.58312,0.4335,0.21147,0.07376,4.22967,0.24426
63675480123550,5,0,0.28234,0.55327,0.60012,0.48121,0.22516,0.07597,4.23044,0.2402
63675480123567,5,0,0.29792,0.59856,0.621,0.4836,0.2249,0.07037,4.2321,0.25926
63675480123601,5,0,0.31143,0.60695,0.60865,0.45209,0.23931,0.06928,4.23438,0.26748
63675480123650,4,0,0.30415,0.61677,0.65789,0.44699,0.22828,0.07189,4.23514,0.25985
63675480123667,4,0,0.30361,0.62139,0.67034,0.49618,0.23249,0.07243,4.24212,0.26382
63675480123700,4,0,0.29999,0.57439,0.65326,0.4739,0.22765,0.07411,4.24501,0.2575
63675480123733,4,0,0.2821,0.5692,0.69336,0.45232,0.22149,0.07752,4.25449,0.27799
63675480123750,4,0,0.27966,0.55081,0.70662,0.44417,0.22869,0.07656,4.25534,0.27965
63675480123784,4,0,0.26712,0.52762,0.74197,0.48962,0.23539,0.08346,4.23736,0.28377
63675480123800,4,0,0.26044,0.54332,0.69646,0.49432,0.23635,0.08597,4.2359,0.28476
63675480123833,4,0,0.26621,0.51028,0.70657,0.50273,0.24459,0.08464,4.23057,0.29334
63675480123866,4,0,0.26795,0.48637,0.70635,0.50372,0.25081,0.08503,4.22332,0.30348
63675480123883,4,0,0.27103,0.5137,0.73241,0.5082,0.26397,0.08637,4.22136,0.31895
63675480123932,4,0,0.28045,0.5244,0.72635,0.5022,0.27561,0.08429,4.21883,0.30197
63675480123948,4,0,0.28567,0.54783,0.73751,0.51629,0.26935,0.08393,4.21337,0.31147
63675480123965,4,0,0.28434,0.58494,0.73367,0.55476,0.29008,0.08329,4.21511,0.31998
63675480123998,4,0,0.2842,0.59823,0.72492,0.53687,0.28269,0.08042,4.22013,0.31175
63675480124031,4,0,0.28144,0.61742,0.71524,0.55413,0.27797,0.07905,4.22772,0.32946
63675480124065,4,0,0.2753,0.65543,0.67416,0.53709,0.2785,0.07857,4.2373,0.32165
63675480124082,4,0,0.29395,0.65497,0.69038,0.54172,0.27784,0.08154,4.25458,0.31606
63675480124131,4,0,0.29557,0.66856,0.66698,0.56156,0.28209,0.0846,4.25235,0.32828
63675480124147,4,0,0.30091,0.69404,0.63667,0.54757,0.26828,0.08609,4.2569,0.31054
63675480124164,4,0,0.30252,0.68327,0.64185,0.49085,0.23392,0.08181,4.26319,0.31452
63675480124214,4,0,0.30239,0.69552,0.6753,0.49937,0.23749,0.08391,4.27057,0.2849
63675480124231,4,0,0.30479,0.70365,0.72279,0.49997,0.257,0.09245,4.27175,0.27462
63675480124247,4,0,0.30658,0.71446,0.7314,0.55514,0.26304,0.09585,4.26038,0.25161
63675480124280,4,0,0.28667,0.75353,0.68393,0.55568,0.26152,0.0919,4.26277,0.25123
63675480124313,4,0,0.27495,0.7312,0.68373,0.59004,0.26723,0.09117,4.26311,0.23376
63675480124330,4,0,0.25695,0.68571,0.68185,0.57541,0.27068,0.08661,4.25712,0.2296
63675480124362,4,0,0.27511,0.67664,0.64421,0.56099,0.26924,0.08534,4.25048,0.22225
63675480124412,4,0,0.27719,0.66058,0.64489,0.52282,0.25374,0.08183,4.25751,0.22763
63675480124428,4,0,0.28787,0.7015,0.63132,0.50539,0.22892,0.07757,4.25412,0.24954
63675480124446,4,0,0.30382,0.68569,0.63777,0.51586,0.23372,0.07592,4.25952,0.27569
63675480124479,4,0,0.31595,0.65386,0.71015,0.50387,0.21747,0.07896,4.2506,0.25293
63675480124512,4,0,0.34589,0.66888,0.71831,0.48795,0.22257,0.08193,4.24691,0.26415
63675480124528,4,0,0.35815,0.66736,0.74579,0.51168,0.2402,0.08503,4.25544,0.25724
63675480124562,5,0,0.35641,0.63119,0.71607,0.5338,0.24355,0.0879,4.2656,0.26869
63675480124578,5,0,0.36289,0.65182,0.69677,0.54965,0.25831,0.09234,4.26585,0.26714
63675480124611,4,0,0.34856,0.65671,0.67304,0.52625,0.27609,0.0925,4.27701,0.24643
63675480124645,4,0,0.36521,0.65478,0.70171,0.54213,0.28527,0.09442,4.27602,0.24084
