63675480137931,5,0,0.24337,0.23544,0.2583,0.32527,0.11209,0.04477,4.25153,0.1634
63675480137980,5,0,0.28081,0.25713,0.2989,0.38328,0.22913,0.08572,4.25338,0.23981
63675480138014,5,0,0.34165,0.31452,0.3511,0.39952,0.28706,0.09771,4.25701,0.29658
63675480138030,5,0,0.37204,0.35142,0.38098,0.40591,0.31532,0.10011,4.24893,0.30178
63675480138047,5,0,0.40179,0.38051,0.42427,0.39096,0.3353,0.10446,4.26751,0.30729
63675480138080,5,0,0.44725,0.38671,0.43742,0.37019,0.35006,0.10291,4.26065,0.32733
63675480138113,5,0,0.42831,0.40774,0.47593,0.39755,0.36105,0.10365,4.26334,0.3291
63675480138130,5,0,0.38664,0.43443,0.55138,0.39275,0.25369,0.06764,4.26204,0.27299
63675480138163,5,0,0.44128,0.55042,0.6467,0.41002,0.22356,0.06461,4.25387,0.26561
63675480138180,5,0,0.46144,0.62898,0.73513,0.52664,0.23915,0.08195,4.24741,0.2689
63675480138213,5,0,0.47103,0.76221,0.89678,0.68816,0.29181,0.09882,4.25778,0.26826
63675480138246,0,0,0.48152,0.9729,1.14774,1.09031,0.4278,0.13617,4.25019,0.27907
63675480138279,0,0,0.60068,1.08908,1.33117,1.17976,0.46866,0.15668,4.24655,0.32148
63675480138312,4,0,0.68108,1.17919,1.43218,1.21675,0.49986,0.16545,4.25449,0.36152
63675480138329,4,0,0.71824,1.37611,1.55177,1.26454,0.50517,0.1661,4.25019,0.35753
63675480138361,4,0,0.66765,1.3965,1.68634,1.43801,0.55888,0.17277,4.24333,0.33962
63675480138411,4,0,0.68309,1.36956,1.59432,1.32298,0.52427,0.16786,4.24515,0.36749
63675480138428,4,0,0.70058,1.38668,1.5682,1.09428,0.4368,0.15515,4.24317,0.35471
63675480138461,4,0,0.65121,1.36247,1.44404,1.13892,0.47943,0.16124,4.24056,0.35174
63675480138511,4,0,0.51349,1.27331,1.31088,1.09258,0.46216,0.15023,4.23351,0.3031
63675480138527,4,0,0.46317,1.11882,1.20042,1.03962,0.47233,0.15202,4.23428,0.28974
63675480138543,4,0,0.45054,1.11415,1.04623,1.07393,0.48483,0.14913,4.24182,0.29662
63675480138593,4,0,0.44616,1.10749,0.90797,0.92609,0.44376,0.13529,4.23795,0.2889
63675480138611,4,0,0.39939,1.03342,0.86581,0.89888,0.41753,0.12366,4.24192,0.30314
63675480138644,4,0,0.37946,0.99051,0.90608,0.83886,0.37465,0.1103,4.2422,0.29443
63675480138693,4,0,0.36791,0.9655,0.81782,0.81555,0.34468,0.09752,4.2401,0.26274
63675480138710,4,0,0.33117,0.9486,0.79124,0.86388,0.35067,0.10171,4.24247,0.28009
63675480138743,4,0,0.33877,0.78532,0.81368,0.83536,0.36237,0.10005,4.25026,0.29867
63675480138760,4,0,0.32773,0.71736,0.84742,0.86311,0.37159,0.09672,4.25245,0.31988
63675480138793,4,0,0.32823,0.70056,0.85688,0.87997,0.38257,0.10169,4.25204,0.31516
63675480138826,4,0,0.34072,0.66997,0.81857,0.8951,0.35039,0.09756,4.2501,0.29289
63675480138859,4,0,0.3608,0.70926,0.80992,0.91236,0.34763,0.09057,4.2491,0.28556
63675480138892,4,0,0.38225,0.76413,0.85172,1.04382,0.39707,0.0942,4.24811,0.31062
63675480138925,4,0,0.39637,0.79284,0.90519,1.00364,0.36968,0.08979,4.25046,0.27886
63675480138958,4,0,0.42025,0.91043,0.94728,1.06535,0.38333,0.09686,4.24609,0.27209
63675480138991,4,0,0.43021,0.99905,0.98529,1.03185,0.36814,0.09919,4.2538,0.25309
63675480139008,4,0,0.47224,1.20015,1.11787,1.19679,0.45042,0.11669,4.25183,0.26106
63675480139041,4,0,0.4535,1.26828,1.16312,1.20599,0.4609,0.12956,4.24867,0.30495
63675480139091,4,0,0.43263,1.26591,1.3447,1.08409,0.41938,0.1337,4.2523,0.30544
63675480139107,4,0,0.46025,1.19313,1.30775,1.11201,0.41688,0.13442,4.25198,0.32306
63675480139124,4,0,0.42844,1.16429,1.2492,1.12181,0.42845,0.13741,4.25487,0.30829
63675480139157,4,0,0.42007,1.02685,1.11534,1.05486,0.41492,0.13057,4.25128,0.32982
63675480139190,4,0,0.39498,0.88265,0.91804,0.90061,0.36224,0.11624,4.24816,0.30556
63675480139223,4,0,0.37547,0.77753,0.93007,0.83224,0.36527,0.11596,4.24434,0.31281
63675480139240,4,0,0.3702,0.6567,0.89029,0.79452,0.34477,0.10262,4.24716,0.27057
63675480139273,4,0,0.38248,0.58654,0.70654,0.82841,0.35762,0.09889,4.24403,0.25055
63675480139306,5,0,0.35683,0.7088,0.72658,0.71902,0.32946,0.10364,4.24299,0.25496
63675480139323,5,0,0.37696,0.81546,0.83938,0.77306,0.33915,0.11403,4.24314,0.28136
63675480139372,5,0,0.34731,0.79607,0.8874,0.81226,0.35725,0.11522,4.24848,0.27976
63675480139389,5,0,0.35708,0.80325,0.9616,0.81639,0.34001,0.11069,4.24718,0.26347
63675480139423,5,0,0.36056,0.79621,0.91031,0.81304,0.30567,0.10456,4.2408,0.26584
63675480139439,5,0,0.37561,0.8868,0.9573,0.78116,0.30499,0.10821,4.23877,0.28461
63675480139472,4,0,0.39378,0.93959,1.0327,0.76364,0.30139,0.1146,4.2395,0.29627
63675480139506,4,0,0.41602,0.95127,1.02451,0.89056,0.3691,0.11562,4.23916,0.32645
63675480139521,4,0,0.44911,0.91491,0.89855,0.82052,0.34501,0.10189,4.23487,0.33009
63675480139571,4,0,0.47172,0.94956,0.93241,0.86152,0.36508,0.11116,4.23449,0.35796
63675480139587,4,0,0.4959,1.0568,1.02137,0.91168,0.43732,0.11561,4.22687,0.38642
63675480139604,4,0,0.53964,1.09796,1.06079,0.95697,0.45879,0.11835,4.22201,0.43473
63675480139638,4,0,0.55468,1.10753,1.07743,0.92556,0.44506,0.12366,4.22569,0.44527
63675480139671,4,0,0.56301,1.10303,1.00299,0.96268,0.45885,0.11954,4.22841,0.45537
63675480139704,4,0,0.55274,1.02431,1.00202,0.89022,0.40079,0.10902,4.22998,0.40874
63675480139720,4,0,0.52261,0.93907,1.00471,0.88275,0.42515,0.1127,4.24101,0.38616
63675480139754,4,0,0.50894,0.93326,0.90554,0.8205,0.42316,0.10888,4.2391,0.35815
63675480139786,4,0,0.51144,0.92136,0.82496,0.79523,0.42505,0.10859,4.24173,0.33752
63675480139803,4,0,0.52592,0.98435,0.79734,0.87762,0.45018,0.12653,4.24298,0.33516
63675480139853,4,0,0.42326,0.79206,0.72644,0.8509,0.50488,0.12531,4.25142,0.23089
63675480139886,4,0,0.41767,0.78067,0.71801,0.81091,0.52464,0.13209,4.25602,0.23037
63675480139919,4,0,0.44695,0.79666,0.67061,0.74688,0.48022,0.12816,4.2389,0.25368
63675480139952,4,0,0.43444,0.74037,0.66453,0.69906,0.43744,0.12014,4.23914,0.25376
63675480139968,4,0,0.43183,0.71716,0.68913,0.73938,0.44548,0.12438,4.2377,0.2791
63675480140001,4,0,0.38399,0.61759,0.62413,0.57907,0.36005,0.11009,4.254,0.29153
63675480140051,4,0,0.45941,0.77738,0.70819,0.56845,0.39246,0.13143,4.24636,0.33362
63675480140085,4,0,0.49084,0.82276,0.70193,0.60208,0.34675,0.13161,4.2424,0.36562
63675480140118,4,0,0.50681,1.01532,0.81361,0.79449,0.39277,0.1496,4.25088,0.38664
63675480140151,4,0,0.52798,1.10907,0.89424,0.91441,0.42892,0.15488,4.25501,0.39667
63675480140168,4,0,0.54787,1.13689,0.94607,0.88281,0.42967,0.15158,4.25929,0.40206
63675480140201,4,0,0.56735,1.13259,1.05347,1.05036,0.46207,0.14382,4.24688,0.41796
63675480140218,5,0,0.53769,1.13668,0.99564,1.11441,0.46734,0.12888,4.25231,0.42254
63675480140251,5,0,0.49993,1.01534,0.93553,1.08201,0.43302,0.11824,4.2623,0.43057
63675480140283,5,0,0.47513,1.02283,0.94794,1.00065,0.428,0.10756,4.26801,0.39364
63675480140300,5,0,0.43371,0.99119,0.96553,1.01349,0.47065,0.10885,4.26705,0.37102
63675480140333,5,0,0.41545,0.94665,0.9758,1.04419,0.4666,0.10362,4.27766,0.34379
63675480140367,4,0,0.38315,0.9212,0.89668,1.00492,0.48227,0.11081,4.26084,0.30716
63675480140383,4,0,0.37001,0.85389,0.7705,0.85771,0.52673,0.13494,4.26245,0.25094
63675480140432,4,0,0.38025,0.82262,0.78683,0.75589,0.47449,0.13192,4.26291,0.2418
63675480140449,4,0,0.41111,0.88967,0.77771,0.73818,0.46238,0.13693,4.25734,0.20921
63675480140465,4,0,0.41058,0.86715,0.72177,0.75359,0.46382,0.13903,4.25423,0.203
63675480140498,4,0,0.44404,0.80033,0.66279,0.72002,0.44812,0.13372,4.25127,0.22341
63675480140532,4,0,0.46079,0.81328,0.61772,0.65989,0.42103,0.12751,4.24322,0.21135
63675480140549,4,0,0.44278,0.8072,0.60637,0.70816,0.43654,0.12741,4.25093,0.22147
63675480140582,4,0,0.45961,0.81668,0.69412,0.69851,0.40075,0.11997,4.25586,0.23857
63675480140632,4,0,0.50605,1.13219,0.8439,1.0498,0.53232,0.13031,4.26344,0.32207
63675480140665,4,0,0.57684,1.20256,1.02422,1.20189,0.59994,0.14332,4.25849,0.45987
63675480140698,4,0,0.60331,1.30142,1.14177,1.17867,0.658,0.14986,4.2562,0.50077
63675480140731,4,0,0.60146,1.31127,1.17769,1.34167,0.74623,0.16236,4.26115,0.53601
63675480140748,4,0,0.62717,1.30004,1.21599,1.308,0.75565,0.16894,4.24956,0.52121
63675480140781,4,0,0.65434,1.34817,1.17504,1.26127,0.77951,0.17073,4.2546,0.52315
63675480140798,4,0,0.60826,1.31974,1.22299,1.26415,0.72564,0.17272,4.24995,0.52202
63675480140829,4,0,0.62691,1.17467,1.16648,1.16925,0.68228,0.1609,4.25162,0.50716
63675480140863,5,0,0.54559,0.97867,0.98863,0.85381,0.56093,0.13739,4.24564,0.36224
63675480140880,5,0,0.53206,0.91512,0.87345,0.79273,0.48071,0.13487,4.25114,0.33941
63675480140913,5,0,0.49071,0.83805,0.8131,0.62499,0.37444,0.12008,4.24788,0.3067
63675480140946,5,0,0.46776,0.78684,0.74859,0.65192,0.3894,0.11137,4.258,0.29514
63675480140963,5,0,0.4177,0.66995,0.68956,0.62425,0.36258,0.10968,4.26279,0.28877
63675480141013,5,0,0.40355,0.62514,0.57944,0.61704,0.35596,0.09516,4.25933,0.27288
63675480141029,5,0,0.36162,0.63967,0.54662,0.58162,0.34644,0.09443,4.26523,0.24557
63675480141063,5,0,0.33606,0.65362,0.5343,0.58759,0.34943,0.09202,4.26546,0.23509
63675480141079,5,0,0.31969,0.6,0.49937,0.53054,0.31536,0.0828,4.26515,0.22489
63675480141112,5,0,0.29337,0.57914,0.47702,0.52977,0.28655,0.0724,4.26473,0.19932
63675480141129,5,0,0.32079,0.67603,0.55674,0.62093,0.2981,0.08521,4.27198,0.24042
63675480141162,5,0,0.36774,0.83165,0.78907,0.80376,0.35968,0.09117,4.2648,0.29083
63675480141211,5,0,0.41831,1.00564,0.98099,0.97615,0.43114,0.11059,4.28181,0.38471
63675480141244,5,0,0.47727,1.03035,1.0339,1.09457,0.48247,0.11788,4.28008,0.4662
63675480141277,5,0,0.51022,1.12257,1.13173,1.15598,0.57416,0.12835,4.28279,0.48191
63675480141310,4,0,0.50325,1.10922,1.15085,1.19211,0.61108,0.14519,4.28175,0.49444
63675480141327,4,0,0.47363,1.10981,1.06429,1.13621,0.61475,0.14343,4.28305,0.49221
63675480141361,4,0,0.45288,1.04742,1.09482,1.06694,0.61542,0.13505,4.27928,0.4593
63675480141394,4,0,0.40535,0.84536,0.86038,0.73727,0.54641,0.14781,4.27052,0.35404
63675480141410,4,0,0.40496,0.68153,0.8075,0.64674,0.52141,0.13699,4.26414,0.32038
63675480141443,4,0,0.35788,0.66893,0.7845,0.56053,0.47193,0.13734,4.26644,0.2332
63675480141493,4,0,0.33623,0.61903,0.64302,0.50395,0.34337,0.12078,4.26618,0.24249
63675480141526,4,0,0.34074,0.68525,0.66457,0.50734,0.33273,0.11895,4.25917,0.22368
63675480141558,4,0,0.3342,0.70868,0.6506,0.51892,0.31047,0.11637,4.25979,0.23803
63675480141592,4,0,0.32326,0.70413,0.58156,0.54014,0.26838,0.09422,4.26154,0.24839
63675480141609,4,0,0.34523,0.73078,0.5751,0.55992,0.27686,0.08323,4.2597,0.25047
63675480141642,4,0,0.37383,0.82536,0.64299,0.69304,0.28917,0.0862,4.2566,0.26397
63675480141659,4,0,0.39411,0.81932,0.72514,0.70138,0.3087,0.08189,4.25081,0.2599
63675480141692,4,0,0.39682,0.86048,0.86486,0.77502,0.39573,0.11127,4.24869,0.28063
63675480141725,4,0,0.43025,0.8898,0.9306,0.81831,0.41137,0.11928,4.24838,0.32618
63675480141742,4,0,0.46427,0.95689,1.07186,0.8875,0.41741,0.12754,4.25052,0.33569
63675480141791,4,0,0.50934,0.96221,1.1331,0.92253,0.4421,0.12723,4.25062,0.37724
63675480141807,4,0,0.4983,1.01143,1.25181,0.94358,0.45047,0.1426,4.2548,0.3997
63675480141824,4,0,0.50751,1.11635,1.2853,0.94134,0.45199,0.14495,4.25033,0.41059
63675480141858,4,0,0.47944,1.04845,1.23848,0.90986,0.48532,0.14707,4.253,0.40069
63675480141890,4,0,0.4515,0.9568,1.02828,0.75727,0.40659,0.11427,4.25388,0.36767
63675480141923,4,0,0.42917,0.86279,0.93758,0.74289,0.40365,0.10369,4.25023,0.31858
63675480141940,4,0,0.40374,0.81736,0.75826,0.68551,0.3845,0.09442,4.25127,0.29473
63675480141973,4,0,0.3496,0.79855,0.70267,0.61482,0.37226,0.09654,4.25263,0.25314
63675480141990,4,0,0.33121,0.73752,0.56845,0.57312,0.36085,0.0877,4.23899,0.21522
63675480142023,0,0,0.32488,0.65572,0.53136,0.5701,0.35112,0.08415,4.24522,0.19391
63675480142073,5,0,0.31395,0.65925,0.49421,0.52093,0.31329,0.0797,4.24607,0.21575
63675480142090,5,0,0.31558,0.71585,0.48538,0.59649,0.31283,0.08219,4.24236,0.20603
63675480142106,0,0,0.36876,0.87539,0.63867,0.75637,0.3953,0.10882,4.25867,0.28907
63675480142139,3,0,0.37109,0.9065,0.65655,0.76709,0.40919,0.1124,4.25641,0.30632
63675480142173,3,0,0.40844,0.97342,0.72328,0.89313,0.43277,0.1206,4.25594,0.34854
63675480142189,3,0,0.42604,0.97343,0.84821,0.97854,0.47653,0.12348,4.26539,0.3472
63675480142222,0,0,0.41669,1.0131,1.00531,1.0419,0.47079,0.12793,4.25842,0.37854
63675480142239,4,0,0.43938,1.06912,1.18093,1.12865,0.49248,0.13576,4.25577,0.36416
63675480142271,4,0,0.46666,1.08938,1.36348,1.15849,0.50683,0.14875,4.26029,0.39413
63675480142304,4,0,0.45687,0.946,1.32531,1.07002,0.44744,0.13542,4.25875,0.41555
63675480142321,4,0,0.43543,1.05181,1.33503,1.01936,0.42814,0.13366,4.25282,0.37458
63675480142371,4,0,0.46222,1.03461,1.37353,1.07222,0.4464,0.14552,4.24399,0.39429
63675480142387,4,0,0.43504,1.07699,1.224,0.96101,0.38587,0.13927,4.24508,0.35565
63675480142420,4,0,0.44041,1.06989,1.10449,0.96313,0.43238,0.13268,4.24625,0.34244
63675480142454,4,0,0.41998,0.9671,0.9413,0.93323,0.45059,0.12754,4.24578,0.35096
63675480142471,4,0,0.39186,0.88736,0.78208,0.85572,0.43397,0.11248,4.24142,0.3115
63675480142504,4,0,0.36378,0.89428,0.79999,0.90381,0.47459,0.11215,4.24428,0.28142
63675480142520,4,0,0.38367,0.81621,0.76875,0.84365,0.44232,0.10419,4.24453,0.2928
63675480142554,4,0,0.36845,0.80393,0.7473,0.80868,0.43987,0.09881,4.2471,0.27347
63675480142586,4,0,0.37706,0.84246,0.70197,0.79785,0.43392,0.10074,4.23685,0.27015
63675480142603,4,0,0.39049,0.77121,0.68851,0.75795,0.42599,0.10045,4.23927,0.2827
63675480142652,4,0,0.38279,0.72046,0.69103,0.74719,0.41966,0.11043,4.24115,0.27731
63675480142668,4,0,0.38358,0.85021,0.80969,0.82788,0.50693,0.12467,4.2431,0.28605
63675480142686,4,0,0.40762,0.84777,0.80878,0.80208,0.4752,0.1291,4.25488,0.28528
63675480142719,4,0,0.4065,0.85528,0.82981,0.98068,0.57781,0.13755,4.2555,0.28397
63675480142752,4,0,0.384,0.84383,0.81291,0.97139,0.58448,0.12702,4.25432,0.30203
63675480142769,4,0,0.38258,0.85113,0.85388,0.9747,0.57599,0.12423,4.26081,0.2928
63675480142801,4,0,0.36513,0.90358,0.90596,1.05046,0.58862,0.12677,4.26023,0.29657
63675480142852,4,0,0.39107,1.01515,0.83228,0.88215,0.4758,0.1171,4.26153,0.32973
63675480142885,4,0,0.44075,1.02078,0.89097,0.95063,0.46923,0.12139,4.26546,0.36106
63675480142918,4,0,0.43389,1.05448,0.97528,0.84521,0.44074,0.12078,4.25536,0.38172
63675480142951,4,0,0.43939,1.06684,0.97016,0.80395,0.42309,0.12754,4.25168,0.36892
63675480142968,4,0,0.43053,1.04174,0.94714,0.77285,0.41648,0.1212,4.2547,0.37009
63675480143001,4,0,0.43085,0.99825,0.97671,0.73196,0.39787,0.11979,4.2555,0.36157
63675480143018,4,0,0.39183,0.8944,0.99207,0.74228,0.38314,0.11072,4.26604,0.3414
63675480143049,4,0,0.39341,0.84225,0.89874,0.76401,0.38181,0.10636,4.25369,0.33107
63675480143083,4,0,0.35651,0.81914,0.82841,0.68866,0.38185,0.09547,4.25556,0.31714
63675480143100,4,0,0.33078,0.76903,0.74709,0.65877,0.3395,0.08777,4.25125,0.31383
63675480143133,4,0,0.34451,0.74703,0.69528,0.63814,0.3268,0.0846,4.24834,0.30863
63675480143166,4,0,0.36614,0.76892,0.70386,0.77177,0.39775,0.0904,4.25186,0.32643
63675480143182,4,0,0.39204,0.79639,0.67229,0.77775,0.4178,0.0871,4.24846,0.33556
63675480143232,4,0,0.40671,0.85795,0.72144,0.7879,0.42497,0.09082,4.25057,0.39446
63675480143248,4,0,0.40894,0.9166,0.77827,0.79753,0.44142,0.09608,4.25222,0.37397
63675480143265,4,0,0.43476,1.0394,0.85702,0.85572,0.41861,0.09839,4.25623,0.34507
63675480143299,4,0,0.45292,1.07759,0.92509,0.86115,0.44284,0.10542,4.27351,0.37751
63675480143333,4,0,0.44558,1.07447,1.03119,0.95082,0.48078,0.10786,4.28224,0.38441
63675480143347,4,0,0.4348,1.06677,1.09668,0.9426,0.48954,0.11378,4.26937,0.39219
63675480143381,4,0,0.43628,1.08187,1.2394,0.89003,0.44085,0.10558,4.27121,0.39058
63675480143431,4,0,0.42595,0.98562,1.18203,0.89098,0.44892,0.10971,4.27873,0.38959
63675480143447,4,0,0.43499,0.98208,1.24364,0.9009,0.48758,0.12087,4.2795,0.37988
63675480143464,4,0,0.39418,0.87552,1.16705,0.83757,0.50015,0.12275,4.26909,0.39551
63675480143514,4,0,0.38059,0.85941,0.98572,0.78029,0.48698,0.12778,4.25352,0.31739
63675480143547,4,0,0.39092,0.87182,0.93897,0.79603,0.46658,0.12285,4.27527,0.37441
63675480143580,4,0,0.41703,0.84873,0.79974,0.95257,0.53076,0.12645,4.28176,0.38639
63675480143614,4,0,0.39996,0.86997,0.92347,1.00802,0.54509,0.12747,4.27726,0.40893
63675480143631,4,0,0.41253,0.81913,0.80606,1.02918,0.53884,0.1245,4.27532,0.42376
63675480143664,4,0,0.43364,0.87757,0.79791,1.11049,0.52845,0.11827,4.27613,0.43097
63675480143680,4,0,0.47534,0.94983,1.04091,1.20689,0.55536,0.11425,4.2948,0.45392
63675480143730,4,0,0.47181,1.00197,1.16642,1.19217,0.55172,0.12128,4.29249,0.4753
63675480143745,4,0,0.47675,1.01868,1.25563,1.17369,0.56521,0.13312,4.28736,0.40154
63675480143779,4,0,0.44104,1.00496,1.32264,1.04701,0.50851,0.13413,4.2854,0.39027
63675480143812,4,0,0.47253,1.073,1.25773,0.98394,0.48185,0.13113,4.28889,0.37403
63675480143828,4,0,0.47249,1.00699,1.32085,0.97364,0.47778,0.1272,4.29238,0.32962
63675480143845,4,0,0.45439,0.89874,1.30116,0.92365,0.44916,0.12394,4.29016,0.32824
63675480143878,4,0,0.46345,0.92464,1.18158,0.8388,0.41639,0.12877,4.2861,0.32223
63675480143911,4,0,0.4594,0.91565,1.12205,0.80216,0.3999,0.12763,4.28261,0.31978
63675480143928,4,0,0.44979,0.8022,0.99563,0.86427,0.37186,0.11646,4.27942,0.31816
63675480143962,4,0,0.44805,0.79152,0.85494,0.77228,0.40705,0.12415,4.27805,0.31844
63675480144011,4,0,0.41439,0.75866,0.83896,0.78175,0.44892,0.13732,4.27437,0.31095
63675480144045,4,0,0.44731,0.81417,0.85978,0.69428,0.43646,0.14066,4.27355,0.31864
63675480144094,4,0,0.4339,0.74263,0.8742,0.76877,0.43445,0.14682,4.26535,0.31649
63675480144126,4,0,0.44439,0.85253,0.87491,0.77291,0.44526,0.14778,4.26731,0.33007
63675480144159,5,0,0.4514,0.86279,0.90741,0.83841,0.45577,0.13797,4.26104,0.32948
63675480144193,5,0,0.46648,0.96656,0.92452,0.89545,0.42741,0.13704,4.2435,0.38849
63675480144210,5,0,0.53694,1.04991,1.06489,0.97811,0.46598,0.14964,4.24719,0.50977
63675480144243,5,0,0.534,1.09617,1.15831,1.0826,0.50748,0.14827,4.24383,0.49103
63675480144293,5,0,0.60738,1.22131,1.35221,1.13039,0.48674,0.14559,4.22765,0.52643
63675480144343,5,0,0.62667,1.21598,1.43388,1.19275,0.49331,0.15006,4.22292,0.5248
63675480144359,4,0,0.64011,1.26058,1.45684,1.10921,0.44996,0.15872,4.23232,0.56491
63675480144392,4,0,0.61257,1.09377,1.44117,1.18639,0.45346,0.14584,4.23971,0.43136
63675480144426,4,0,0.5488,1.04764,1.32245,1.14731,0.4097,0.13298,4.22766,0.40868
63675480144458,4,0,0.53636,1.02423,1.2098,1.0615,0.38626,0.14177,4.24529,0.41537
63675480144491,4,0,0.54113,0.95638,1.10426,1.0227,0.39688,0.14408,4.25457,0.42254
63675480144524,4,0,0.45103,0.76751,0.92802,0.80092,0.46411,0.13463,4.29446,0.38987
63675480144541,4,0,0.4363,0.61636,0.83236,0.80434,0.52563,0.1262,4.2859,0.32637
63675480144591,4,0,0.43562,0.64839,0.747,0.73435,0.50858,0.122,4.27562,0.34675
63675480144608,4,0,0.43309,0.68093,0.71568,0.69701,0.53035,0.12212,4.28408,0.36729
63675480144641,4,0,0.4246,0.70208,0.72233,0.70236,0.56881,0.1286,4.29822,0.35763
63675480144674,4,0,0.41899,0.74639,0.80169,0.80464,0.6085,0.11766,4.28538,0.35662
63675480144690,4,0,0.44933,0.8307,1.03134,1.10253,0.73016,0.13505,4.2708,0.37576
63675480144723,4,0,0.48288,0.94276,1.16611,1.22165,0.7116,0.15752,4.27058,0.42412
63675480144774,4,0,0.51658,1.05193,1.21661,1.30344,0.69291,0.16065,4.28686,0.46005
63675480144789,4,0,0.59543,1.27954,1.32663,1.30439,0.72663,0.17552,4.29484,0.4832
63675480144839,4,0,0.66043,1.4379,1.40715,1.3182,0.72885,0.17801,4.29564,0.50608
63675480144872,4,0,0.68237,1.47158,1.42472,1.34746,0.71947,0.17624,4.29451,0.49142
63675480144889,4,0,0.64984,1.41995,1.3765,1.35859,0.74462,0.17625,4.2999,0.48652
63675480144921,4,0,0.56741,1.21948,0.98225,0.93989,0.56759,0.13561,4.29545,0.40555
63675480144972,4,0,0.44569,0.87471,0.84884,0.8581,0.53544,0.14023,4.28445,0.30517
63675480145022,4,0,0.44485,0.82148,0.79708,0.81152,0.48175,0.13474,4.28375,0.29074
63675480145038,4,0,0.35403,0.65369,0.64802,0.73506,0.45752,0.12675,4.26543,0.21897
63675480145072,4,0,0.34729,0.58418,0.6225,0.63496,0.38757,0.1171,4.2694,0.2408
63675480145105,4,0,0.39001,0.59206,0.61383,0.60074,0.37575,0.11808,4.27389,0.2083
63675480145122,4,0,0.39977,0.67993,0.55076,0.66105,0.4076,0.11659,4.27542,0.21752
63675480145171,4,0,0.39053,0.66139,0.51754,0.62613,0.3609,0.0889,4.27399,0.28942
63675480145204,4,0,0.41701,0.75951,0.56403,0.67835,0.37589,0.08904,4.27344,0.31333
63675480145220,4,0,0.41959,0.73308,0.553,0.74002,0.38681,0.09054,4.2744,0.33021
63675480145254,4,0,0.43018,0.76969,0.63592,0.69358,0.42297,0.09911,4.28098,0.34749
63675480145287,4,0,0.43766,0.9361,0.77783,0.85551,0.58115,0.12978,4.26996,0.39162
63675480145319,4,0,0.48337,0.99789,0.91755,0.93469,0.62649,0.1394,4.2677,0.41593
63675480145353,4,0,0.50853,1.06051,1.00033,1.04651,0.67514,0.151,4.26329,0.41977
63675480145386,4,0,0.53281,1.09438,1.1244,1.12774,0.73342,0.15686,4.25962,0.39299
63675480145402,4,0,0.5685,1.08768,1.13333,1.16852,0.76961,0.15884,4.25359,0.50496
63675480145452,4,0,0.6022,1.2192,1.15703,1.21147,0.79414,0.165,4.25888,0.5305
63675480145470,4,0,0.56058,1.14308,1.11758,1.04905,0.71386,0.14697,4.26219,0.4861
63675480145502,4,0,0.56952,1.07705,1.06782,1.0253,0.60142,0.12869,4.26192,0.46865
63675480145551,4,0,0.52583,0.95767,0.97699,0.92595,0.56429,0.12497,4.25965,0.44749
63675480145568,4,0,0.53105,0.93374,0.94046,0.81822,0.51256,0.11649,4.26514,0.42523
63675480145601,4,0,0.46528,0.83158,0.81735,0.64236,0.39763,0.1082,4.27949,0.29483
63675480145651,4,0,0.41277,0.61907,0.71984,0.52474,0.34016,0.09865,4.27173,0.262
63675480145684,4,0,0.41134,0.6708,0.64139,0.54293,0.32837,0.09404,4.26912,0.21039
63675480145717,4,0,0.37307,0.62766,0.56916,0.60189,0.32871,0.08833,4.272,0.22235
63675480145750,5,0,0.36731,0.65661,0.5457,0.63996,0.33036,0.08328,4.27655,0.21004
63675480145784,5,0,0.37616,0.70729,0.55453,0.64079,0.35498,0.08251,4.27246,0.23022
63675480145833,5,0,0.42544,0.90873,0.58917,0.69133,0.38463,0.09538,4.27264,0.25262
63675480145849,0,0,0.50247,1.13604,0.869,0.90316,0.48452,0.13211,4.28896,0.30062
63675480145883,0,0,0.53595,1.2081,0.93497,0.97755,0.53825,0.14354,4.28545,0.34168
63675480145900,0,0,0.5997,1.30745,0.98781,0.9784,0.58111,0.15901,4.28666,0.3636
63675480145949,4,0,0.63938,1.39328,1.12535,0.97987,0.57381,0.16028,4.28068,0.40467
63675480145966,4,0,0.64764,1.42074,1.25758,1.13557,0.62893,0.18244,4.29237,0.4082
63675480145999,4,0,0.58527,1.21709,1.2163,1.09751,0.59358,0.17346,4.29298,0.40346
63675480146033,4,0,0.55223,1.04877,1.12577,1.02935,0.55145,0.15597,4.2922,0.40208
63675480146066,4,0,0.50232,0.95102,0.97579,0.91754,0.49009,0.12518,4.28693,0.30028
63675480146099,4,0,0.41599,0.77362,0.81293,0.72807,0.41456,0.10761,4.28646,0.27858
63675480146131,4,0,0.37511,0.70769,0.75597,0.80365,0.42074,0.11362,4.29197,0.22511
63675480146148,4,0,0.35532,0.66808,0.74047,0.71201,0.37326,0.11533,4.27812,0.22718
63675480146197,4,0,0.38181,0.68212,0.71695,0.57994,0.32517,0.10613,4.27039,0.23796
63675480146231,4,0,0.41383,0.86415,0.72515,0.63066,0.35696,0.11007,4.27241,0.25025
63675480146247,4,0,0.42943,0.89656,0.74586,0.60073,0.32159,0.10684,4.28034,0.29691
63675480146280,4,0,0.48155,1.05958,0.79422,0.58905,0.31113,0.10836,4.28066,0.30812
63675480146314,4,0,0.4538,1.02145,0.83491,0.64004,0.33268,0.11238,4.27545,0.31019
63675480146347,4,0,0.50829,1.17452,0.85857,0.81272,0.36917,0.10853,4.27914,0.32723
63675480146380,4,0,0.47623,1.15561,0.96231,0.83091,0.41606,0.11055,4.29166,0.34762
63675480146414,4,0,0.51743,1.19692,1.01158,0.8202,0.39561,0.11827,4.2897,0.37837
63675480146447,4,0,0.54122,1.1583,1.11748,0.87297,0.42815,0.12622,4.27543,0.42353
63675480146479,4,0,0.53386,1.07349,1.11413,1.01184,0.47738,0.13426,4.28234,0.48643
63675480146512,4,0,0.54335,1.07275,1.1158,1.02743,0.50427,0.14028,4.28049,0.46527
63675480146529,4,0,0.52175,1.04584,1.07023,0.84814,0.49768,0.13946,4.28457,0.46818
63675480146562,4,0,0.47735,0.8585,0.86252,0.73459,0.44481,0.12124,4.27798,0.41138
63675480146612,4,0,0.41012,0.7411,0.79614,0.74007,0.44804,0.10736,4.27609,0.36864
63675480146629,4,0,0.37503,0.69003,0.64845,0.62048,0.39951,0.10102,4.27279,0.32746
63675480146661,4,0,0.35246,0.66658,0.60464,0.5859,0.3547,0.10786,4.2702,0.26712
63675480146712,4,0,0.33359,0.59304,0.59387,0.58709,0.39006,0.11989,4.26541,0.20542
63675480146728,4,0,0.36674,0.72997,0.59064,0.60538,0.3674,0.11806,4.26374,0.22094
63675480146744,4,0,0.38255,0.7403,0.62383,0.69819,0.40412,0.12994,4.26822,0.2395
63675480146778,0,0,0.39087,0.76306,0.68791,0.76903,0.41253,0.13489,4.25881,0.26439
63675480146811,0,0,0.38957,0.7716,0.80756,0.85635,0.45023,0.15195,4.25843,0.30245
63675480146845,4,0,0.44341,0.91286,0.94834,0.96276,0.49334,0.15525,4.26079,0.37212
63675480146877,4,0,0.47741,0.99036,1.03592,1.02923,0.52845,0.15599,4.251,0.38579
63675480146910,4,0,0.50013,1.00654,1.17055,1.03667,0.54313,0.15978,4.24691,0.44439
63675480146927,4,0,0.50371,1.01447,1.22184,1.0448,0.54817,0.15359,4.25059,0.43586
63675480146959,4,0,0.50557,1.04009,1.24752,0.97759,0.53718,0.15641,4.2579,0.45187
63675480146993,4,0,0.52183,1.08755,1.25869,0.90114,0.54892,0.16018,4.27633,0.45441
63675480147026,4,0,0.55017,1.07964,1.11649,0.79714,0.50808,0.14425,4.27236,0.4278
63675480147042,4,0,0.53823,1.03676,1.11348,0.78901,0.50463,0.14467,4.27413,0.39525
63675480147093,4,0,0.49151,1.03616,1.02981,0.67895,0.43149,0.13034,4.28127,0.38183
63675480147126,4,0,0.45479,0.92872,0.80765,0.59216,0.37773,0.12473,4.28523,0.3458
63675480147159,4,0,0.40862,0.84315,0.73592,0.53262,0.35014,0.12725,4.27532,0.29747
63675480147192,4,0,0.39269,0.72015,0.60525,0.5284,0.33326,0.12262,4.26601,0.29229
63675480147209,4,0,0.33647,0.66033,0.57183,0.46217,0.32376,0.12743,4.26338,0.25191
63675480147241,4,0,0.31946,0.62612,0.51354,0.48995,0.34978,0.12215,4.26194,0.24575
63675480147291,4,0,0.34466,0.52654,0.52293,0.64694,0.37687,0.12019,4.26923,0.24525
63675480147324,4,0,0.37963,0.57318,0.56663,0.71784,0.39538,0.12835,4.26306,0.26472
63675480147358,4,0,0.40335,0.5934,0.55875,0.70576,0.38205,0.11033,4.26456,0.2928
63675480147391,4,0,0.40972,0.68381,0.70931,0.82341,0.39428,0.11055,4.27144,0.31544
63675480147424,5,0,0.43782,0.72243,0.83396,0.81364,0.35477,0.11039,4.27976,0.3782
63675480147474,5,0,0.45228,0.75103,0.91457,0.78604,0.34224,0.11488,4.2805,0.41511
63675480147490,4,0,0.43379,0.83084,0.93682,0.76126,0.45827,0.12558,4.27931,0.43849
63675480147523,4,0,0.4375,0.79457,0.89088,0.63232,0.4327,0.12993,4.27164,0.4581
63675480147540,4,0,0.4364,0.81213,0.90516,0.75581,0.49453,0.14116,4.2732,0.45849
63675480147573,4,0,0.41738,0.70949,0.8532,0.68545,0.48505,0.13755,4.26975,0.44326
63675480147607,4,0,0.41145,0.66712,0.79345,0.65977,0.48717,0.13922,4.27042,0.41818
63675480147638,4,0,0.37131,0.60575,0.64734,0.63001,0.51812,0.13916,4.26865,0.34341
63675480147672,4,0,0.37867,0.51454,0.53617,0.49928,0.37202,0.11393,4.27803,0.29278
63675480147705,4,0,0.36961,0.51981,0.52363,0.53839,0.36265,0.10455,4.2761,0.28453
63675480147722,4,0,0.35113,0.57104,0.53767,0.5648,0.3738,0.10769,4.27384,0.27702
63675480147772,4,0,0.37451,0.64886,0.67454,0.52467,0.30444,0.10679,4.27412,0.28933
63675480147788,4,0,0.37466,0.66679,0.64452,0.53047,0.2966,0.11148,4.27782,0.28524
63675480147821,4,0,0.4383,0.79667,0.71594,0.61082,0.32585,0.11868,4.27617,0.41061
