63675480154282,5,0,0.11324,0.16787,0.13359,0.04105,0.12889,0.05773,4.237,0.12042
63675480154332,5,0,0.11333,0.17243,0.13391,0.04087,0.12592,0.05669,4.23814,0.12053
63675480154349,5,0,0.10801,0.1748,0.13539,0.04105,0.12624,0.0534,4.23198,0.12019
63675480154382,5,0,0.10954,0.17284,0.13456,0.04008,0.12667,0.05086,4.22311,0.12236
63675480154431,5,0,0.10855,0.17308,0.13368,0.0396,0.13788,0.05114,4.22749,0.11928
63675480154464,5,0,0.10947,0.17406,0.13452,0.03678,0.12005,0.04826,4.22893,0.11804
63675480154481,5,0,0.10931,0.17426,0.133,0.03736,0.12453,0.04585,4.22847,0.11682
63675480154531,5,0,0.107,0.17078,0.13341,0.03549,0.13183,0.04687,4.23314,0.11675
63675480154547,5,0,0.10887,0.17166,0.1313,0.03641,0.12576,0.04565,4.23109,0.11766
63675480154580,5,0,0.10739,0.17146,0.13135,0.0378,0.12912,0.03997,4.22617,0.11636
63675480154614,5,0,0.10658,0.17458,0.13071,0.03787,0.12382,0.03641,4.22649,0.1162
63675480154631,5,0,0.10511,0.17477,0.13035,0.03812,0.11979,0.03549,4.22786,0.11816
63675480154664,5,0,0.10378,0.17843,0.13073,0.03926,0.12651,0.04074,4.23198,0.11844
63675480154714,5,0,0.10467,0.17438,0.13486,0.0417,0.11709,0.04219,4.22569,0.11893
63675480154729,5,0,0.10293,0.17532,0.13305,0.05397,0.13651,0.04715,4.2323,0.11943
63675480154763,5,0,0.10129,0.17473,0.13621,0.06104,0.15764,0.06062,4.22977,0.11685
63675480154778,5,0,0.10861,0.17684,0.14322,0.12294,0.23549,0.07249,4.23456,0.11856
63675480154828,5,0,0.12345,0.17613,0.17587,0.37141,0.40256,0.08651,4.22946,0.11841
63675480154862,5,0,0.13472,0.17237,0.18327,0.48861,0.44276,0.09287,4.22577,0.12146
63675480154878,5,0,0.14159,0.17213,0.20295,0.54032,0.49439,0.09682,4.23776,0.12383
63675480154912,5,0,0.15798,0.16816,0.22917,0.75219,0.54267,0.10084,4.21705,0.12671
63675480154945,5,0,0.16495,0.17866,0.25271,0.85419,0.5793,0.09657,4.21505,0.12946
63675480154978,5,0,0.15627,0.18172,0.25446,0.84492,0.56879,0.10168,4.21587,0.12848
63675480155011,5,0,0.15069,0.1781,0.25062,0.76056,0.52976,0.10293,4.21181,0.1292
63675480155045,5,0,0.13893,0.17534,0.24128,0.6708,0.46734,0.09516,4.20203,0.12415
63675480155078,5,0,0.13485,0.18121,0.22572,0.6941,0.46271,0.10416,4.18789,0.12121
63675480155111,5,0,0.13137,0.17688,0.21994,0.6601,0.46272,0.10357,4.18406,0.12137
63675480155127,5,0,0.12425,0.18649,0.21058,0.5659,0.49869,0.10993,4.19288,0.12049
63675480155159,5,0,0.12238,0.17957,0.19696,0.49512,0.49411,0.10765,4.1955,0.11818
63675480155193,5,0,0.12393,0.17642,0.18952,0.50637,0.49397,0.10192,4.19323,0.11826
63675480155209,5,0,0.1284,0.18445,0.19479,0.50969,0.51547,0.11464,4.19354,0.12038
63675480155243,5,0,0.13692,0.17717,0.18269,0.46647,0.51125,0.13489,4.19983,0.12484
63675480155293,5,0,0.13202,0.17869,0.17558,0.43787,0.48965,0.12895,4.20724,0.12473
63675480155326,5,0,0.13893,0.17023,0.17986,0.48713,0.48816,0.12407,4.20708,0.12643
63675480155359,5,0,0.13542,0.17281,0.16532,0.49861,0.49408,0.12875,4.20536,0.12739
63675480155392,5,0,0.14401,0.17168,0.17153,0.50014,0.46464,0.12495,4.20588,0.1286
63675480155409,5,0,0.14244,0.171,0.16536,0.50825,0.48578,0.11451,4.21175,0.12697
63675480155442,5,0,0.14593,0.17972,0.15878,0.53757,0.4813,0.11519,4.20953,0.12581
63675480155459,5,0,0.14693,0.18584,0.16268,0.58657,0.52208,0.0994,4.1918,0.12615
63675480155491,5,0,0.15823,0.17973,0.17695,0.66313,0.65644,0.10412,4.19737,0.12852
63675480155525,5,0,0.15177,0.1847,0.1693,0.61015,0.59536,0.10187,4.19415,0.12812
63675480155542,5,0,0.15772,0.18049,0.17603,0.62013,0.57067,0.09927,4.19471,0.12995
63675480155591,5,0,0.15884,0.17843,0.17189,0.63378,0.60138,0.10047,4.19199,0.13111
63675480155608,5,0,0.16344,0.18241,0.17212,0.65231,0.5677,0.10197,4.18472,0.13073
63675480155625,5,0,0.15622,0.17645,0.18759,0.67275,0.61322,0.10461,4.19335,0.12829
63675480155657,5,0,0.15956,0.17229,0.18147,0.6735,0.57869,0.11249,4.20201,0.13124
63675480155690,5,0,0.16014,0.17186,0.17465,0.63935,0.53886,0.11016,4.19176,0.13326
63675480155707,5,0,0.16707,0.17702,0.17388,0.6337,0.47299,0.10105,4.18747,0.13144
63675480155740,5,0,0.16809,0.17935,0.17249,0.65258,0.50467,0.11094,4.18246,0.12895
63675480155773,5,0,0.15938,0.17732,0.17533,0.58782,0.45942,0.10777,4.18311,0.12556
63675480155806,5,0,0.15173,0.16919,0.17907,0.61062,0.46363,0.10532,4.1785,0.12325
63675480155823,5,0,0.15013,0.1716,0.16489,0.54561,0.42985,0.11347,4.16963,0.12306
63675480155873,5,0,0.14602,0.16943,0.16642,0.50772,0.41685,0.09812,4.16736,0.12057
63675480155889,5,0,0.14234,0.16888,0.15874,0.53939,0.41107,0.09525,4.1663,0.11802
63675480155906,5,0,0.13009,0.16445,0.1601,0.49493,0.40587,0.0983,4.15541,0.11657
63675480155940,5,0,0.13139,0.15962,0.16998,0.51588,0.42739,0.08779,4.16736,0.11775
63675480155972,5,0,0.12565,0.15976,0.16565,0.53303,0.49531,0.09666,4.16577,0.1149
63675480155989,5,0,0.14219,0.16975,0.16462,0.54677,0.48528,0.10154,4.15096,0.11874
63675480156022,5,0,0.14462,0.17162,0.16266,0.55224,0.4726,0.08968,4.15027,0.12025
63675480156071,5,0,0.15231,0.17667,0.15924,0.55322,0.48661,0.10157,4.15239,0.12332
63675480156104,5,0,0.15844,0.18012,0.15973,0.64604,0.45419,0.10317,4.16115,0.12595
63675480156138,5,0,0.15963,0.18065,0.15078,0.66154,0.39525,0.10124,4.15661,0.12402
63675480156171,5,0,0.16974,0.18119,0.1612,0.74732,0.33061,0.10239,4.14998,0.12572
63675480156188,5,0,0.1817,0.17459,0.17713,0.79495,0.34726,0.10475,4.15242,0.13035
63675480156221,5,0,0.16512,0.17282,0.17615,0.79292,0.31239,0.10354,4.14491,0.12807
63675480156238,5,0,0.16915,0.17883,0.18998,0.8941,0.29953,0.10671,4.15301,0.12994
63675480156270,5,0,0.16872,0.17903,0.19521,0.88078,0.29406,0.10525,4.14289,0.13046
63675480156303,5,0,0.16731,0.1768,0.20148,0.79601,0.3184,0.12449,4.13917,0.12989
63675480156320,5,0,0.17149,0.17454,0.20098,0.78637,0.3194,0.12404,4.12755,0.13358
63675480156353,5,0,0.16506,0.17668,0.2085,0.80576,0.3438,0.12716,4.14492,0.13467
63675480156386,5,0,0.16316,0.18646,0.19501,0.84565,0.32894,0.12558,4.1465,0.13402
63675480156403,5,0,0.1672,0.18067,0.2008,0.92951,0.36542,0.11986,4.15634,0.13756
63675480156453,5,0,0.16792,0.18047,0.20581,0.90278,0.38572,0.11826,4.15231,0.13563
63675480156469,5,0,0.16125,0.17146,0.21017,0.87777,0.34717,0.11434,4.15005,0.13459
63675480156486,5,0,0.15749,0.16785,0.22546,0.89295,0.34854,0.12158,4.16683,0.13349
63675480156519,5,0,0.15507,0.17208,0.25205,0.92684,0.36288,0.12202,4.17058,0.13216
63675480156552,5,0,0.1541,0.17163,0.24566,0.86333,0.35307,0.11105,4.14868,0.13308
63675480156586,5,0,0.15143,0.16707,0.25638,0.80734,0.36299,0.11907,4.14674,0.13292
63675480156602,5,0,0.1505,0.16689,0.24928,0.74117,0.34925,0.11404,4.1463,0.1301
63675480156650,5,0,0.1487,0.16936,0.23779,0.72435,0.48876,0.12806,4.14904,0.13125
63675480156684,5,0,0.15321,0.17319,0.21865,0.70293,0.52944,0.1196,4.13701,0.13038
63675480156718,5,0,0.15016,0.1725,0.20907,0.70528,0.50622,0.11595,4.14679,0.1287
63675480156751,5,0,0.16313,0.17617,0.20655,0.72539,0.54022,0.11309,4.13886,0.13438
63675480156767,5,0,0.16276,0.17703,0.19285,0.79636,0.55716,0.10638,4.14338,0.13108
63675480156834,5,0,0.1772,0.18487,0.20666,0.99055,0.53779,0.11992,4.14173,0.13281
63675480156867,5,0,0.18853,0.18554,0.20964,1.00867,0.42648,0.10374,4.13812,0.13618
63675480156884,5,0,0.19679,0.17952,0.22796,1.0789,0.37787,0.10461,4.13604,0.13732
63675480156934,5,0,0.19997,0.17994,0.24064,1.12686,0.40226,0.10831,4.13385,0.13742
63675480156950,5,0,0.18742,0.17133,0.2211,1.06729,0.369,0.10482,4.13379,0.13255
63675480156966,5,0,0.18949,0.17406,0.22944,1.06819,0.33996,0.108,4.12902,0.13366
63675480157000,5,0,0.19666,0.17463,0.23193,1.00995,0.32961,0.10506,4.12766,0.13642
63675480157032,5,0,0.19981,0.17319,0.22991,0.86668,0.2934,0.10539,4.12849,0.1383
63675480157049,5,0,0.19494,0.17192,0.24546,0.91449,0.3218,0.10565,4.13099,0.1343
63675480157065,5,0,0.19914,0.18214,0.23579,0.85345,0.3205,0.10625,4.13232,0.13585
63675480157099,5,0,0.20917,0.18327,0.23541,0.87299,0.29582,0.10081,4.14469,0.13821
63675480157132,5,0,0.21518,0.18639,0.23702,0.87934,0.30134,0.09092,4.15583,0.13973
63675480157148,5,0,0.21471,0.18628,0.23404,0.8966,0.36109,0.10439,4.16155,0.13818
63675480157182,5,0,0.2118,0.18837,0.24288,0.86944,0.34545,0.10685,4.16421,0.13852
63675480157231,5,0,0.20868,0.18884,0.23287,0.76715,0.33117,0.1153,4.17131,0.13787
63675480157265,5,0,0.21291,0.18844,0.21109,0.69273,0.31401,0.11062,4.17188,0.14085
63675480157298,5,0,0.19574,0.17761,0.19579,0.54393,0.29362,0.11013,4.16763,0.13928
63675480157331,5,0,0.19947,0.18084,0.20139,0.52592,0.28226,0.1116,4.15587,0.14198
63675480157348,5,0,0.19798,0.17641,0.19844,0.50009,0.22778,0.09775,4.15851,0.14295
63675480157381,5,0,0.20401,0.1764,0.17596,0.46286,0.22938,0.10788,4.15743,0.14405
63675480157398,5,0,0.19269,0.16587,0.18131,0.46574,0.22466,0.10387,4.16049,0.14144
63675480157429,5,0,0.19864,0.17162,0.1743,0.43541,0.21814,0.08854,4.15794,0.14542
63675480157463,5,0,0.18974,0.17557,0.1721,0.42878,0.19381,0.09043,4.16135,0.14143
63675480157480,5,0,0.19863,0.17664,0.17642,0.44846,0.22222,0.10298,4.15955,0.14392
63675480157513,5,0,0.19996,0.17663,0.17778,0.47267,0.22782,0.10764,4.16369,0.14422
63675480157546,5,0,0.19452,0.17481,0.17239,0.48153,0.21587,0.10433,4.16185,0.14304
63675480157579,5,0,0.18649,0.17031,0.17344,0.50272,0.19897,0.09027,4.16291,0.14016
63675480157612,5,0,0.18622,0.17869,0.17196,0.54928,0.2061,0.09562,4.15818,0.14052
63675480157629,5,0,0.18391,0.17509,0.1699,0.58957,0.20686,0.09441,4.1552,0.13803
63675480157662,5,0,0.1824,0.16809,0.17311,0.56152,0.23983,0.10124,4.14987,0.13884
63675480157679,5,0,0.1733,0.17325,0.16277,0.56728,0.21259,0.08739,4.15105,0.13447
63675480157712,5,0,0.17229,0.17063,0.16694,0.54539,0.21107,0.0869,4.13918,0.13425
63675480157745,5,0,0.17208,0.1714,0.16612,0.53624,0.21176,0.10307,4.13709,0.13287
63675480157778,5,0,0.17699,0.17475,0.16299,0.52337,0.21718,0.10821,4.12959,0.13423
63675480157812,5,0,0.18291,0.17129,0.16121,0.44084,0.23188,0.10954,4.12106,0.13461
63675480157827,5,0,0.18049,0.17023,0.16712,0.44769,0.24772,0.11092,4.12346,0.133
63675480157844,5,0,0.17996,0.16912,0.16463,0.42901,0.24746,0.10744,4.11695,0.1328
63675480157894,5,0,0.18096,0.16852,0.16446,0.39996,0.27489,0.10983,4.11529,0.13444
63675480157910,5,0,0.18335,0.16785,0.16471,0.37751,0.28347,0.10426,4.11739,0.13575
63675480157927,5,0,0.18012,0.16419,0.16633,0.33458,0.30808,0.09375,4.11562,0.13489
63675480157960,5,0,0.17854,0.1619,0.16562,0.32404,0.34243,0.09092,4.11915,0.13453
63675480157993,5,0,0.18137,0.16257,0.16672,0.30996,0.33281,0.0935,4.12051,0.13541
63675480158009,5,0,0.17686,0.16301,0.16379,0.26019,0.32351,0.08377,4.12709,0.13564
63675480158043,5,0,0.18371,0.16521,0.15683,0.1601,0.29365,0.08956,4.13437,0.13863
63675480158093,5,0,0.17984,0.16865,0.1512,0.11188,0.24937,0.0933,4.14361,0.13632
63675480158143,5,0,0.18488,0.17653,0.14697,0.0737,0.23039,0.09097,4.15035,0.13839
63675480158192,5,0,0.18399,0.17515,0.14676,0.05766,0.20239,0.10843,4.15424,0.13902
63675480158225,5,0,0.18529,0.1758,0.14474,0.06467,0.19218,0.11408,4.15829,0.13896
63675480158242,5,0,0.18582,0.17006,0.14626,0.06442,0.20254,0.10956,4.15854,0.13998
63675480158292,5,0,0.18366,0.16754,0.14695,0.05637,0.18794,0.11055,4.15969,0.13873
63675480158325,5,0,0.17928,0.16269,0.14991,0.05542,0.17967,0.10571,4.15468,0.13783
63675480158358,5,0,0.17443,0.16304,0.15014,0.05457,0.17214,0.10697,4.16322,0.13567
63675480158391,5,0,0.17532,0.16397,0.14972,0.0505,0.1711,0.08439,4.16621,0.13531
63675480158407,5,0,0.17268,0.16134,0.15136,0.04516,0.17317,0.07639,4.16404,0.13487
63675480158441,5,0,0.17101,0.16346,0.15116,0.04526,0.16613,0.07722,4.16346,0.1329
63675480158474,5,0,0.17469,0.16105,0.15181,0.0401,0.15907,0.0633,4.16571,0.13379
63675480158490,5,0,0.17535,0.16402,0.15043,0.03826,0.1726,0.05953,4.16942,0.13554
63675480158524,5,0,0.17173,0.16667,0.14853,0.03907,0.18223,0.0745,4.16474,0.13243
63675480158573,5,0,0.17322,0.16442,0.14765,0.03972,0.19062,0.07943,4.14556,0.13286
63675480158607,5,0,0.17741,0.1649,0.1471,0.03952,0.1869,0.08091,4.13868,0.13433
63675480158622,5,0,0.17375,0.16386,0.14649,0.03862,0.18428,0.08542,4.14148,0.1331
63675480158673,5,0,0.16991,0.1636,0.14606,0.04099,0.18102,0.08371,4.13216,0.13186
63675480158689,5,0,0.16904,0.16056,0.14562,0.04349,0.17246,0.08051,4.12922,0.1313
63675480158706,5,0,0.16916,0.15964,0.14517,0.04279,0.16707,0.07942,4.12392,0.13101
63675480158739,5,0,0.16658,0.15521,0.1463,0.04127,0.15697,0.07896,4.12346,0.13142
63675480158772,5,0,0.17327,0.16018,0.14613,0.0415,0.12997,0.07147,4.12332,0.13085
63675480158789,5,0,0.16921,0.16142,0.14526,0.04038,0.15557,0.07467,4.11869,0.12902
63675480158822,5,0,0.1699,0.16234,0.1446,0.04152,0.14995,0.07467,4.11758,0.1306
63675480158872,5,0,0.16973,0.16703,0.14469,0.04052,0.17988,0.09793,4.11479,0.13026
63675480158904,5,0,0.17013,0.16769,0.14487,0.0389,0.17905,0.08883,4.11751,0.12991
63675480158938,5,0,0.1736,0.17169,0.14428,0.04003,0.18419,0.08311,4.11842,0.13156
63675480158971,5,0,0.16643,0.16655,0.14595,0.0394,0.17769,0.07942,4.12297,0.13068
63675480158987,5,0,0.16541,0.16839,0.14541,0.04112,0.20478,0.08865,4.12608,0.12965
63675480159021,5,0,0.16679,0.16519,0.1463,0.03968,0.17413,0.08696,4.1327,0.13059
63675480159054,5,0,0.17225,0.16568,0.14709,0.03543,0.15212,0.07574,4.13831,0.13134
63675480159070,5,0,0.17063,0.16241,0.14683,0.03514,0.14318,0.07104,4.13908,0.1319
63675480159103,5,0,0.16895,0.16304,0.14702,0.03588,0.14226,0.0766,4.14366,0.13075
63675480159153,5,0,0.17048,0.1587,0.14741,0.03468,0.15211,0.08257,4.14694,0.13117
63675480159186,5,0,0.17186,0.15773,0.14849,0.03306,0.1284,0.0709,4.14661,0.13168
63675480159203,5,0,0.17235,0.15889,0.14833,0.03376,0.13283,0.06692,4.14862,0.13149
