63677111785633,0,0,0.04099,1.44077,2.21762,0.65417,0.3193,0.25018,4.71303,3.95035
63677111785649,0,0,0.04184,1.43952,2.21637,0.65229,0.31905,0.2531,4.69678,3.8755
63677111785715,0,0,0.04319,1.44346,2.21538,0.653,0.32009,0.25292,4.69572,3.87031
63677111785732,0,0,0.04397,1.43894,2.21451,0.65317,0.31956,0.2524,4.68648,3.86274
63677111785765,0,0,0.04567,1.44131,2.21661,0.65215,0.32167,0.25164,4.69358,3.8503
63677111785798,0,0,0.04522,1.44044,2.21799,0.65305,0.32464,0.252,4.69771,3.91899
63677111785814,0,0,0.04903,1.44167,2.22316,0.65276,0.32811,0.25273,4.69606,4.02449
63677111785831,0,0,0.05139,1.44196,2.21519,0.6571,0.34039,0.25183,4.71122,4.05368
63677111785865,0,0,0.04826,1.44813,2.22152,0.65973,0.3375,0.2484,4.73825,4.15188
63677111785898,0,0,0.05086,1.44667,2.22504,0.6559,0.33465,0.25138,4.72122,4.20428
63677111785915,0,0,0.06142,1.45844,2.23278,0.66549,0.34081,0.25655,4.75713,4.24225
63677111785948,6,0,0.06469,1.4653,2.23164,0.66488,0.34436,0.25671,4.73364,4.29974
63677111785964,6,0,0.06563,1.46791,2.2412,0.66022,0.34371,0.25412,4.7641,4.26231
63677111785998,6,0,0.06891,1.47172,2.24443,0.66318,0.34563,0.25369,4.74069,4.18865
63677111786014,6,0,0.07922,1.47774,2.2433,0.67191,0.33232,0.25319,4.7598,4.1788
63677111786047,6,0,0.08527,1.48308,2.24842,0.67088,0.33021,0.25664,4.7296,4.24419
63677111786063,6,0,0.09364,1.48387,2.25674,0.67623,0.33954,0.2565,4.73889,4.27045
63677111786096,6,0,0.09295,1.48523,2.23829,0.69063,0.33621,0.25215,4.72375,4.17122
63677111786129,6,0,0.09939,1.48937,2.24238,0.69196,0.34088,0.25108,4.71075,4.20464
63677111786146,6,0,0.10828,1.48542,2.26042,0.69895,0.33319,0.25048,4.70249,4.13447
63677111786196,6,0,0.13381,1.48175,2.30403,0.68685,0.33458,0.25324,4.68759,4.03309
63677111786229,6,0,0.14414,1.48903,2.32188,0.68432,0.33207,0.25237,4.69663,3.90109
63677111786263,6,0,0.14476,1.48749,2.33208,0.66438,0.32283,0.25757,4.68647,3.81628
63677111786296,6,0,0.16349,1.49784,2.37172,0.66018,0.33465,0.25852,4.68829,3.75117
63677111786312,6,0,0.17781,1.5133,2.35593,0.69174,0.33714,0.25845,4.69561,3.72152
63677111786345,0,0,0.18347,1.49283,2.37306,0.68212,0.31498,0.26769,4.70303,3.6273
63677111786362,0,0,0.20999,1.4842,2.39059,0.67355,0.32572,0.27493,4.71282,3.62029
63677111786395,0,0,0.21006,1.48408,2.41661,0.63603,0.32064,0.27249,4.72759,3.65076
63677111786428,0,0,0.20787,1.48555,2.40549,0.63985,0.32363,0.27252,4.73282,3.70265
63677111786445,0,0,0.21025,1.47895,2.41023,0.64388,0.3317,0.27601,4.73834,3.71932
63677111786477,0,0,0.22213,1.4756,2.39952,0.63188,0.32182,0.27185,4.74899,3.72737
63677111786510,0,0,0.22967,1.44521,2.44332,0.58474,0.31576,0.27583,4.73518,3.73885
63677111786527,0,0,0.22395,1.46628,2.42149,0.59575,0.32283,0.2701,4.74937,3.70969
63677111786576,0,0,0.21943,1.48971,2.40066,0.62083,0.33623,0.26879,4.73414,3.68171
63677111786593,0,0,0.21047,1.47284,2.43751,0.60816,0.31985,0.27262,4.74227,3.65587
63677111786610,0,0,0.21465,1.45793,2.43519,0.62668,0.32076,0.27772,4.71365,3.60984
63677111786643,0,0,0.26348,1.45178,2.45949,0.62275,0.32216,0.28133,4.72425,3.52203
63677111786676,0,0,0.24935,1.43171,2.49684,0.63178,0.32114,0.28122,4.69884,3.45644
63677111786693,0,0,0.27277,1.45849,2.48494,0.65968,0.3326,0.27409,4.67046,3.46783
63677111786726,0,0,0.31463,1.45468,2.53203,0.63875,0.34671,0.27428,4.68638,3.47454
63677111786776,0,0,0.30466,1.4746,2.45836,0.66578,0.37212,0.26705,4.69139,3.48373
63677111786809,0,0,0.32746,1.49701,2.4884,0.70035,0.38403,0.26336,4.69153,3.50501
63677111786842,6,0,0.29484,1.48669,2.45372,0.71636,0.38213,0.26365,4.7169,3.50671
63677111786875,6,0,0.30395,1.49029,2.47364,0.70101,0.37889,0.26144,4.7145,3.51217
63677111786891,6,0,0.30193,1.47023,2.48236,0.69304,0.37054,0.26814,4.74033,3.51525
63677111786925,6,0,0.29371,1.46393,2.49187,0.7323,0.37828,0.2662,4.74164,3.5554
63677111786958,6,0,0.30094,1.45191,2.50625,0.70742,0.3637,0.2724,4.74895,3.57386
63677111786974,0,0,0.31492,1.45362,2.52846,0.70962,0.38799,0.26703,4.74182,3.58765
63677111787007,0,0,0.30194,1.44786,2.46521,0.6976,0.38467,0.26617,4.74587,3.61437
63677111787024,0,0,0.31478,1.43934,2.46866,0.69137,0.4036,0.27375,4.72858,3.62322
63677111787057,0,0,0.32561,1.45439,2.4376,0.7191,0.41226,0.26749,4.73375,3.6537
63677111787090,0,0,0.34667,1.48193,2.36205,0.73035,0.40913,0.26175,4.71533,3.67282
63677111787123,0,0,0.29052,1.46562,2.34439,0.68726,0.40873,0.26793,4.69943,3.71153
63677111787156,0,0,0.31037,1.46262,2.31581,0.67915,0.38609,0.27113,4.702,3.75467
63677111787174,0,0,0.39462,1.45229,2.34773,0.69126,0.37762,0.27824,4.69175,3.78284
63677111787207,0,0,0.38989,1.45239,2.3587,0.67892,0.3753,0.27765,4.69369,3.83002
63677111787222,0,0,0.39432,1.46494,2.37911,0.68955,0.37728,0.26351,4.68666,3.9068
63677111787256,0,0,0.41405,1.46345,2.36329,0.68395,0.38198,0.26622,4.71096,3.94729
63677111787272,6,0,0.39641,1.46416,2.40056,0.709,0.39766,0.267,4.69957,4.00309
63677111787305,6,0,0.40924,1.47188,2.46906,0.72486,0.39901,0.27764,4.72399,4.03617
63677111787356,6,0,0.42231,1.49194,2.46407,0.76433,0.42119,0.27906,4.66776,4.08317
63677111787372,6,0,0.43007,1.51318,2.53372,0.76683,0.43686,0.27439,4.65941,4.10782
63677111787388,6,0,0.36211,1.50538,2.56188,0.75741,0.42897,0.27911,4.60135,4.1498
63677111787422,0,0,0.36626,1.51081,2.6346,0.78835,0.42445,0.29453,4.53228,4.13404
63677111787455,0,0,0.35642,1.51945,2.74372,0.79081,0.42311,0.29605,4.48354,4.14184
63677111787471,0,0,0.35863,1.53345,2.72957,0.79474,0.44507,0.2876,4.44151,4.1383
63677111787505,0,0,0.373,1.56387,2.69795,0.83685,0.45569,0.28137,4.39271,4.13316
63677111787538,0,0,0.36301,1.51423,2.73771,0.76725,0.46317,0.29968,4.40074,4.12546
63677111787554,0,0,0.38366,1.50825,2.74154,0.79099,0.4896,0.30393,4.35941,4.11856
63677111787588,0,0,0.36483,1.52022,2.67697,0.77712,0.48421,0.30824,4.37614,4.12174
63677111787603,0,0,0.37881,1.52346,2.6694,0.80358,0.50498,0.31052,4.35656,4.10757
63677111787637,0,0,0.3525,1.56052,2.63397,0.86687,0.55642,0.29535,4.35744,4.12476
63677111787670,0,0,0.37812,1.56512,2.61247,0.89081,0.55981,0.30525,4.3653,4.1189
63677111787686,0,0,0.38311,1.50895,2.62945,0.8354,0.50014,0.33153,4.39192,4.10902
63677111787736,0,0,0.39856,1.53715,2.60392,0.86072,0.46457,0.31689,4.39397,4.09614
63677111787753,0,0,0.38958,1.53967,2.55659,0.86471,0.44313,0.31878,4.43046,4.10873
63677111787786,0,0,0.37358,1.53196,2.54576,0.86863,0.44343,0.30977,4.42565,4.06967
63677111787802,0,0,0.35857,1.53498,2.51789,0.82216,0.40621,0.31665,4.43794,4.06355
63677111787836,0,0,0.35081,1.48294,2.52132,0.73163,0.36172,0.32882,4.4285,4.03266
63677111787870,0,0,0.32328,1.49576,2.43033,0.71145,0.35099,0.32234,4.42002,4.01951
63677111787886,0,0,0.28567,1.48938,2.36956,0.72267,0.36634,0.32369,4.40836,3.9991
63677111787936,0,0,0.28393,1.46999,2.39494,0.67049,0.36842,0.33727,4.40465,3.96641
63677111787952,0,0,0.25932,1.47209,2.39789,0.66268,0.38006,0.32206,4.37241,3.88288
63677111787969,0,0,0.25959,1.47436,2.4442,0.65914,0.3849,0.33013,4.34089,3.84458
63677111788018,0,0,0.29935,1.49072,2.47767,0.70689,0.40655,0.32459,4.34285,3.81133
63677111788035,0,0,0.30116,1.51213,2.45566,0.72313,0.39946,0.3192,4.32678,3.76306
63677111788051,0,0,0.2794,1.49054,2.51212,0.71907,0.39824,0.32451,4.35087,3.71235
63677111788085,0,0,0.31103,1.50732,2.59074,0.75524,0.43954,0.30545,4.3445,3.66673
63677111788118,0,0,0.34009,1.57251,2.50111,0.80541,0.42707,0.2838,4.35817,3.62766
63677111788134,0,0,0.37164,1.57967,2.4705,0.81556,0.42672,0.28776,4.36624,3.59768
63677111788167,0,0,0.38444,1.58914,2.52137,0.80088,0.4359,0.28761,4.41438,3.54752
63677111788217,0,0,0.34951,1.56235,2.54509,0.74264,0.44282,0.29557,4.44574,3.5193
63677111788250,0,0,0.34105,1.57414,2.54841,0.73008,0.44527,0.29065,4.4563,3.51761
63677111788284,0,0,0.33137,1.56222,2.52657,0.69692,0.40067,0.29992,4.44553,3.51103
63677111788317,0,0,0.30636,1.53898,2.52681,0.65627,0.39672,0.30833,4.46314,3.52106
63677111788333,0,0,0.24563,1.52697,2.50839,0.65201,0.39653,0.30672,4.44996,3.51306
63677111788366,0,0,0.23078,1.53223,2.45072,0.6328,0.37077,0.31045,4.45496,3.52219
63677111788383,0,0,0.23109,1.53667,2.45769,0.65821,0.38451,0.30344,4.41427,3.52897
63677111788416,0,0,0.21722,1.54717,2.41891,0.67312,0.37488,0.29465,4.42109,3.52988
63677111788450,0,0,0.24675,1.53386,2.40315,0.66863,0.3661,0.29486,4.38938,3.53919
63677111788482,0,0,0.26076,1.53854,2.37339,0.66672,0.37812,0.28662,4.35922,3.54247
63677111788515,0,0,0.26378,1.55059,2.35643,0.68676,0.38331,0.28571,4.3587,3.53669
63677111788532,0,0,0.26078,1.55299,2.3872,0.67364,0.39981,0.28342,4.35819,3.53984
63677111788565,0,0,0.27017,1.563,2.41871,0.68259,0.437,0.29946,4.35933,3.53613
63677111788582,0,0,0.25278,1.54686,2.3461,0.66468,0.41924,0.30498,4.38919,3.53896
63677111788615,0,0,0.25689,1.53895,2.36452,0.65813,0.43082,0.30983,4.38726,3.54669
63677111788631,0,0,0.23834,1.54892,2.40405,0.65905,0.44464,0.30275,4.4308,3.54764
63677111788665,0,0,0.20914,1.54114,2.38207,0.66184,0.44387,0.30993,4.46283,3.59265
63677111788697,0,0,0.18908,1.51509,2.45808,0.64281,0.44292,0.30367,4.44473,3.6018
63677111788730,0,0,0.18951,1.50091,2.47241,0.65379,0.4424,0.31531,4.46387,3.61567
63677111788747,0,0,0.2076,1.46881,2.52767,0.65477,0.41355,0.29533,4.44355,3.60514
63677111788797,0,0,0.22339,1.46429,2.54454,0.65336,0.4125,0.29289,4.46206,3.6037
63677111788814,0,0,0.22644,1.4746,2.5764,0.66735,0.40432,0.28709,4.41927,3.59688
63677111788830,0,0,0.24268,1.48432,2.53925,0.68334,0.3926,0.28942,4.42882,3.57823
63677111788863,0,0,0.25903,1.52189,2.45099,0.73602,0.39163,0.28694,4.38437,3.60526
63677111788896,0,0,0.25183,1.50296,2.47045,0.72125,0.40176,0.29139,4.36408,3.66804
63677111788913,0,0,0.24815,1.50354,2.42262,0.70385,0.38515,0.28081,4.37794,3.61005
63677111788947,0,0,0.27182,1.49157,2.37417,0.70177,0.39291,0.28966,4.35952,3.62809
63677111788996,0,0,0.27101,1.5027,2.37652,0.73836,0.39469,0.28274,4.37984,3.62314
63677111789030,0,0,0.27428,1.49947,2.40609,0.75695,0.39754,0.28304,4.39283,3.63515
63677111789061,0,0,0.25304,1.48201,2.47339,0.74072,0.40269,0.27949,4.42345,3.60699
63677111789095,0,0,0.27719,1.50949,2.4595,0.74831,0.40885,0.27225,4.42597,3.50174
63677111789111,0,0,0.29643,1.53399,2.4912,0.80141,0.40922,0.27879,4.45088,3.52584
63677111789145,0,0,0.32142,1.5608,2.50359,0.81125,0.40144,0.27713,4.45001,3.53831
63677111789178,0,0,0.35025,1.57179,2.49278,0.80785,0.38843,0.27849,4.46213,3.52984
63677111789195,0,0,0.36883,1.5377,2.54365,0.81361,0.42651,0.29596,4.44613,3.54953
63677111789227,0,0,0.42114,1.52672,2.55343,0.80983,0.42207,0.31104,4.42045,3.53634
63677111789244,0,0,0.44738,1.50261,2.63245,0.79205,0.42203,0.31535,4.4054,3.54344
63677111789278,0,0,0.46064,1.48786,2.66737,0.80165,0.42786,0.3173,4.41217,3.53901
63677111789311,0,0,0.44398,1.43086,2.61876,0.75364,0.39576,0.31861,4.42833,3.53794
63677111789327,0,0,0.42176,1.43151,2.62471,0.7721,0.41779,0.31852,4.46152,3.55214
63677111789377,0,0,0.44303,1.41254,2.60027,0.78708,0.43795,0.31836,4.4618,3.59115
63677111789394,0,0,0.40566,1.44301,2.51834,0.77196,0.40721,0.30703,4.53228,3.68453
63677111789410,0,0,0.44987,1.43105,2.48967,0.73762,0.39979,0.29716,4.53954,3.63755
63677111789443,0,0,0.41253,1.45071,2.44631,0.73225,0.39501,0.2824,4.62424,3.67926
63677111789476,0,0,0.42588,1.44381,2.32636,0.78821,0.42969,0.2765,4.68876,3.68171
63677111789492,0,0,0.45124,1.46562,2.35267,0.80976,0.44906,0.28017,4.68231,3.66831
63677111789526,0,0,0.48007,1.42945,2.35653,0.79396,0.42363,0.28516,4.7082,3.66259
63677111789576,0,0,0.39025,1.43862,2.46999,0.84249,0.46797,0.29782,4.72073,3.52965
63677111789608,0,0,0.39534,1.43489,2.44952,0.83362,0.45001,0.2999,4.73703,3.52221
63677111789642,0,0,0.4155,1.39776,2.50034,0.83233,0.47823,0.31721,4.71864,3.49637
63677111789675,0,0,0.38059,1.37905,2.48027,0.79509,0.47694,0.32742,4.73592,3.48565
63677111789692,0,0,0.39295,1.38602,2.54008,0.75412,0.49156,0.331,4.70815,3.46693
63677111789725,0,0,0.38913,1.40188,2.46483,0.7152,0.46569,0.32534,4.71519,3.44823
63677111789775,0,0,0.3924,1.37766,2.41021,0.67205,0.47067,0.30455,4.66886,3.4143
63677111789807,0,0,0.38539,1.36036,2.38875,0.70639,0.48909,0.30019,4.67129,3.40431
63677111789823,0,0,0.36594,1.367,2.35562,0.69248,0.48768,0.29125,4.66442,3.39235
63677111789857,0,0,0.37039,1.39019,2.37473,0.70923,0.48091,0.28729,4.68433,3.38927
63677111789891,0,0,0.33305,1.36493,2.37225,0.66224,0.41989,0.28424,4.67274,3.382
63677111789924,0,0,0.31736,1.36209,2.38028,0.66262,0.42307,0.29852,4.69857,3.37265
63677111789956,0,0,0.33766,1.36287,2.39316,0.6579,0.40497,0.29467,4.72406,3.37287
63677111789989,0,0,0.29961,1.37595,2.3774,0.65375,0.39948,0.29232,4.72003,3.36636
63677111790023,0,0,0.28842,1.41721,2.34706,0.65001,0.3916,0.30085,4.7341,3.36686
63677111790056,0,0,0.3143,1.38687,2.38378,0.66817,0.43403,0.2964,4.74501,3.36105
63677111790089,0,0,0.3668,1.39685,2.38645,0.71206,0.44978,0.29488,4.72987,3.35272
63677111790106,0,0,0.36431,1.38687,2.3981,0.69504,0.44188,0.30089,4.74036,3.35758
63677111790156,0,0,0.35649,1.38439,2.4029,0.70259,0.44207,0.29045,4.70758,3.35484
63677111790172,0,0,0.44158,1.38404,2.36699,0.78413,0.45643,0.29521,4.68407,3.34768
63677111790206,0,0,0.43472,1.35987,2.42567,0.75883,0.47724,0.30363,4.69748,3.35149
63677111790239,0,0,0.43482,1.36998,2.45291,0.78682,0.45153,0.29536,4.67116,3.34726
63677111790271,0,0,0.387,1.39083,2.44352,0.75562,0.43532,0.29748,4.67707,3.35867
63677111790304,0,0,0.36562,1.38342,2.43789,0.73488,0.42298,0.29716,4.68559,3.36479
63677111790337,0,0,0.40474,1.394,2.44639,0.74157,0.42759,0.30033,4.71145,3.36511
63677111790353,0,0,0.37408,1.40219,2.43121,0.67968,0.38954,0.28875,4.6996,3.37637
63677111790388,0,0,0.33913,1.41923,2.48068,0.73092,0.44056,0.28427,4.74947,3.38642
63677111790437,0,0,0.32759,1.41848,2.45008,0.74037,0.43897,0.27329,4.71928,3.37951
63677111790454,0,0,0.35697,1.41494,2.34413,0.72402,0.42511,0.27589,4.73344,3.37394
63677111790470,0,0,0.34306,1.40799,2.28428,0.7228,0.42882,0.27337,4.76275,3.36981
63677111790504,0,0,0.34215,1.40675,2.30907,0.72771,0.46335,0.27661,4.73181,3.37811
63677111790536,0,0,0.35175,1.40397,2.26572,0.74047,0.45108,0.27673,4.75133,3.38257
63677111790570,0,0,0.33572,1.36258,2.19103,0.65357,0.42713,0.29777,4.72861,3.39272
63677111790603,0,0,0.36311,1.38625,2.21971,0.69824,0.43073,0.30411,4.71077,3.39971
63677111790635,0,0,0.35002,1.36915,2.25991,0.7065,0.43048,0.30233,4.7055,3.41157
63677111790669,0,0,0.35282,1.36552,2.2275,0.71126,0.43388,0.29544,4.68979,3.41401
63677111790702,0,0,0.36204,1.36124,2.26695,0.72518,0.41078,0.29481,4.67569,3.41563
63677111790735,0,0,0.32654,1.34803,2.34543,0.68796,0.42511,0.28456,4.68882,3.41211
63677111790752,0,0,0.31198,1.3524,2.37338,0.75348,0.43977,0.26273,4.68203,3.40697
63677111790785,0,0,0.29745,1.36451,2.3584,0.74003,0.44448,0.26947,4.70118,3.39891
63677111790818,0,0,0.29552,1.35342,2.33458,0.69355,0.4078,0.26809,4.70684,3.39837
63677111790851,0,0,0.28418,1.34577,2.3918,0.65627,0.40827,0.27559,4.73279,3.38441
63677111790884,0,0,0.27731,1.35585,2.35796,0.64676,0.39397,0.27485,4.73243,3.38942
63677111790918,0,0,0.26802,1.35888,2.3574,0.63535,0.37621,0.26902,4.76037,3.39024
63677111790951,0,0,0.27569,1.36318,2.25249,0.63408,0.36871,0.26851,4.7429,3.39165
63677111790984,0,0,0.2876,1.36917,2.31101,0.62393,0.37153,0.2787,4.72465,3.39568
63677111791016,0,0,0.27318,1.36496,2.30998,0.62979,0.38906,0.2663,4.7266,3.40058
63677111791033,0,0,0.25862,1.37533,2.27434,0.65515,0.41491,0.26013,4.71151,3.40539
63677111791066,0,0,0.26414,1.39012,2.319,0.661,0.42504,0.26769,4.70387,3.41014
63677111791116,0,0,0.28797,1.37361,2.29167,0.6905,0.47307,0.26955,4.68041,3.41054
63677111791132,0,0,0.2709,1.38228,2.36841,0.70462,0.46606,0.27686,4.68108,3.40895
63677111791165,0,0,0.30535,1.36538,2.35678,0.69038,0.45275,0.27853,4.68804,3.40797
63677111791182,0,0,0.31402,1.37013,2.32252,0.69482,0.43651,0.2714,4.68335,3.40553
63677111791215,0,0,0.34455,1.35501,2.32453,0.70062,0.4455,0.2883,4.69331,3.43438
63677111791249,0,0,0.37338,1.36095,2.27818,0.70728,0.43564,0.28522,4.72373,3.47884
63677111791282,0,0,0.38523,1.39962,2.26998,0.78272,0.43831,0.2738,4.71303,3.52998
63677111791315,0,0,0.38891,1.39841,2.359,0.80075,0.42703,0.28175,4.73888,3.52767
63677111791349,0,0,0.37136,1.38314,2.35147,0.77243,0.44843,0.28994,4.74787,3.53482
63677111791397,0,0,0.40109,1.40801,2.33621,0.83132,0.47804,0.29579,4.74273,3.55076
63677111791414,0,0,0.41376,1.43834,2.30457,0.85791,0.48356,0.27897,4.75094,3.54557
63677111791431,0,0,0.4041,1.40776,2.30086,0.83961,0.45669,0.29306,4.73405,3.53652
63677111791465,0,0,0.37985,1.40392,2.31657,0.80855,0.43906,0.29886,4.74578,3.473
63677111791498,0,0,0.38036,1.35597,2.33107,0.72707,0.45796,0.29456,4.73047,3.4592
63677111791531,0,0,0.35484,1.39741,2.31386,0.74709,0.46243,0.29362,4.69474,3.44972
63677111791564,0,0,0.35733,1.3997,2.31251,0.76632,0.45534,0.29491,4.70203,3.45785
63677111791597,0,0,0.33967,1.3573,2.36384,0.80828,0.4912,0.29636,4.673,3.43847
63677111791629,0,0,0.31545,1.35687,2.39798,0.81151,0.49917,0.28599,4.67461,3.42412
63677111791663,0,0,0.32577,1.39043,2.4035,0.86838,0.52907,0.26493,4.67958,3.44127
63677111791696,0,0,0.30843,1.41673,2.37337,0.87721,0.50975,0.26925,4.68534,3.42428
63677111791713,0,0,0.29039,1.40939,2.32888,0.84671,0.46451,0.28632,4.68482,3.40515
63677111791746,0,0,0.29905,1.34269,2.41206,0.82426,0.48735,0.30336,4.70191,3.39174
63677111791796,0,0,0.29246,1.41037,2.35238,0.76418,0.43608,0.28593,4.73238,3.38862
63677111791812,0,0,0.28436,1.42185,2.37276,0.75128,0.41417,0.28235,4.70937,3.38687
63677111791845,0,0,0.29625,1.44167,2.37904,0.82807,0.46397,0.28577,4.74411,3.38046
63677111791879,0,0,0.32026,1.37998,2.39014,0.81733,0.46165,0.3214,4.71443,3.38323
63677111791912,0,0,0.30668,1.42769,2.4403,0.89049,0.51951,0.31971,4.70715,3.37709
63677111791928,0,0,0.30954,1.43928,2.45566,0.86778,0.5138,0.31355,4.72516,3.36722
63677111791977,0,0,0.31031,1.4373,2.42654,0.82869,0.47404,0.30138,4.6893,3.3759
63677111791993,0,0,0.28776,1.40328,2.42098,0.78034,0.44164,0.30854,4.69964,3.37743
63677111792027,0,0,0.30721,1.36725,2.46341,0.69561,0.39411,0.3154,4.67793,3.37698
63677111792077,0,0,0.34315,1.42848,2.32476,0.70258,0.36234,0.29639,4.67781,3.36751
63677111792110,0,0,0.38703,1.40381,2.36217,0.70913,0.40163,0.29441,4.66272,3.36266
63677111792144,0,0,0.40404,1.40413,2.31541,0.73341,0.39475,0.30297,4.68709,3.37978
63677111792176,0,0,0.40596,1.39865,2.35494,0.76553,0.45471,0.28863,4.70272,3.37532
63677111792209,0,0,0.43521,1.42913,2.31807,0.78419,0.44148,0.29288,4.71518,3.36741
63677111792243,0,0,0.44986,1.42639,2.30009,0.82458,0.46231,0.30123,4.71534,3.36971
63677111792276,0,0,0.44171,1.40654,2.28267,0.88012,0.48975,0.30405,4.72869,3.37194
63677111792292,0,0,0.41278,1.35558,2.33246,0.81481,0.48701,0.30654,4.73085,3.37592
63677111792326,0,0,0.39553,1.35559,2.34405,0.82385,0.48763,0.30411,4.7056,3.36596
63677111792376,0,0,0.41814,1.3606,2.40511,0.81914,0.51477,0.31777,4.72031,3.36754
63677111792392,0,0,0.48714,1.3895,2.39909,0.87174,0.49818,0.32483,4.6967,3.36157
63677111792425,0,0,0.47876,1.40792,2.33107,0.86551,0.52772,0.30629,4.69948,3.36997
63677111792458,0,0,0.44088,1.40122,2.39059,0.82872,0.55988,0.31133,4.67674,3.36318
63677111792475,0,0,0.42738,1.42099,2.36262,0.80551,0.53437,0.2991,4.66812,3.371
63677111792509,0,0,0.42477,1.43923,2.37073,0.85677,0.55052,0.29045,4.67196,3.36618
63677111792557,0,0,0.41572,1.45058,2.37184,0.87119,0.59459,0.29341,4.66488,3.3719
63677111792574,0,0,0.44165,1.51343,2.26223,0.92457,0.55683,0.27761,4.68031,3.37681
63677111792607,0,0,0.35367,1.43206,2.34284,0.88335,0.5368,0.27274,4.69895,3.37631
63677111792656,0,0,0.34214,1.4439,2.30322,0.82943,0.50353,0.26101,4.72987,3.37337
63677111792690,0,0,0.32947,1.4234,2.33953,0.78182,0.46482,0.26936,4.72162,3.37229
63677111792724,0,0,0.33125,1.40445,2.36594,0.75511,0.47335,0.27818,4.74136,3.36749
63677111792756,0,0,0.35958,1.4363,2.35521,0.79086,0.47396,0.26116,4.73904,3.37464
63677111792772,0,0,0.34482,1.38769,2.3801,0.72081,0.44244,0.26401,4.7349,3.35777
63677111792789,0,0,0.33876,1.37596,2.43298,0.7237,0.45948,0.27236,4.74518,3.35591
63677111792823,0,0,0.32395,1.36993,2.45361,0.73086,0.463,0.25569,4.71651,3.35216
63677111792856,0,0,0.33975,1.39071,2.43895,0.7045,0.43147,0.26707,4.72473,3.34163
63677111792889,0,0,0.33262,1.39242,2.42856,0.70561,0.4467,0.26005,4.69225,3.33905
63677111792922,0,0,0.33987,1.37732,2.38917,0.7104,0.44285,0.2592,4.70001,3.32989
63677111792955,0,0,0.35465,1.36791,2.38219,0.65636,0.40713,0.2658,4.67097,3.31238
63677111792972,0,0,0.37729,1.33258,2.41884,0.65724,0.43141,0.28851,4.6749,3.30962
63677111792988,0,0,0.36334,1.36377,2.37541,0.68762,0.44997,0.28171,4.65845,3.3042
63677111793038,0,0,0.37944,1.3788,2.28871,0.70813,0.44804,0.26876,4.66808,3.29574
63677111793054,0,0,0.37097,1.3583,2.3045,0.71386,0.43146,0.29099,4.67054,3.29859
63677111793071,0,0,0.3746,1.34139,2.31681,0.76173,0.45878,0.31278,4.68989,3.29912
63677111793104,0,0,0.39194,1.37154,2.34515,0.73685,0.42784,0.31021,4.69067,3.30159
63677111793138,0,0,0.38572,1.34811,2.3913,0.72755,0.4483,0.31076,4.71476,3.31192
63677111793154,0,0,0.32316,1.35903,2.34573,0.74468,0.43731,0.30379,4.70407,3.31311
63677111793187,0,0,0.38536,1.36168,2.38635,0.76251,0.44485,0.30148,4.73892,3.31847
63677111793237,0,0,0.40923,1.39026,2.3818,0.78891,0.47171,0.30663,4.744,3.32928
63677111793270,0,0,0.39214,1.38115,2.37965,0.78358,0.47477,0.30482,4.71251,3.33038
63677111793303,0,0,0.382,1.38619,2.35721,0.78824,0.46622,0.29514,4.70506,3.33229
63677111793335,0,0,0.36465,1.39575,2.29699,0.83792,0.43828,0.30232,4.73138,3.33299
63677111793352,0,0,0.38097,1.404,2.39656,0.86724,0.50574,0.30386,4.69098,3.32425
63677111793386,0,0,0.34374,1.38847,2.38644,0.90215,0.53805,0.32122,4.70418,3.32805
63677111793402,0,0,0.36998,1.34065,2.39133,0.84485,0.4989,0.32187,4.67484,3.31974
63677111793435,0,0,0.35292,1.35619,2.46694,0.81632,0.49999,0.31951,4.68621,3.32446
63677111793469,0,0,0.39902,1.31691,2.54787,0.87969,0.56617,0.34762,4.66803,3.30361
63677111793485,0,0,0.4374,1.34487,2.54707,0.91127,0.58459,0.33733,4.6891,3.33221
63677111793535,0,0,0.43396,1.34672,2.49164,0.9104,0.57653,0.32668,4.67699,3.33587
63677111793552,0,0,0.44633,1.36486,2.50549,0.93046,0.60747,0.31307,4.69539,3.5656
63677111793568,0,0,0.46804,1.34454,2.50016,0.81791,0.53884,0.3102,4.709,3.63352
63677111793618,0,0,0.42411,1.37504,2.45981,0.84572,0.54553,0.2974,4.72129,3.63792
63677111793635,0,0,0.42318,1.37736,2.48008,0.91897,0.59644,0.30676,4.7241,3.65489
63677111793651,0,0,0.42351,1.47437,2.35619,1.01174,0.60635,0.26402,4.73787,3.66492
63677111793684,0,0,0.4616,1.46402,2.3471,0.94248,0.55976,0.26795,4.72045,3.63633
63677111793716,0,0,0.4451,1.46048,2.32558,0.9672,0.57838,0.27768,4.73824,3.63038
63677111793750,0,0,0.44293,1.46794,2.30719,0.97557,0.57504,0.27335,4.71353,3.60413
63677111793767,0,0,0.4606,1.45298,2.2619,0.91888,0.52829,0.26638,4.7333,3.52938
63677111793816,0,0,0.45873,1.5005,2.28427,0.94343,0.51307,0.25424,4.68863,3.47462
63677111793850,0,0,0.43078,1.43045,2.32148,0.76244,0.41568,0.26235,4.68733,3.47663
63677111793882,0,0,0.35689,1.43763,2.34769,0.78085,0.46551,0.27237,4.66985,3.49337
63677111793916,0,0,0.34974,1.42138,2.35062,0.78374,0.52406,0.26799,4.66992,3.48451
63677111793932,0,0,0.33064,1.4079,2.36145,0.73061,0.48526,0.26791,4.65889,3.42819
63677111793965,0,0,0.30483,1.39306,2.3636,0.71357,0.49581,0.28268,4.66784,3.37075
63677111793982,0,0,0.29819,1.39537,2.37412,0.72083,0.51421,0.28628,4.66314,3.3863
63677111794016,0,0,0.3534,1.39099,2.32544,0.70787,0.52006,0.29098,4.68267,3.36402
63677111794049,0,0,0.33516,1.40969,2.27986,0.68327,0.49162,0.28622,4.69089,3.35548
63677111794065,0,0,0.28962,1.42211,2.38113,0.71385,0.5002,0.27881,4.71748,3.34905
63677111794099,0,0,0.2934,1.41213,2.46438,0.69854,0.42677,0.29068,4.73246,3.34492
63677111794131,0,0,0.30595,1.44302,2.42957,0.72431,0.45986,0.28789,4.74495,3.33737
63677111794164,0,0,0.28557,1.43005,2.455,0.73973,0.45602,0.27415,4.74638,3.33693
63677111794197,0,0,0.2926,1.42468,2.45778,0.74665,0.47276,0.26749,4.74823,3.3335
63677111794214,0,0,0.27656,1.41094,2.48316,0.77917,0.47292,0.26529,4.74527,3.32481
63677111794231,0,0,0.25939,1.39172,2.51262,0.7897,0.48425,0.27897,4.73554,3.31814
63677111794264,0,0,0.26018,1.41086,2.42719,0.80701,0.50803,0.2767,4.72908,3.32203
63677111794298,0,0,0.30782,1.4131,2.36009,0.77624,0.49009,0.27025,4.71038,3.31637
63677111794313,0,0,0.3303,1.40939,2.33418,0.78125,0.49987,0.25621,4.70424,3.31596
63677111794346,0,0,0.34931,1.38502,2.34979,0.80657,0.5052,0.29786,4.67603,3.31157
63677111794397,0,0,0.33869,1.37219,2.39558,0.77319,0.48126,0.29998,4.6633,3.30766
63677111794413,0,0,0.3202,1.33987,2.40903,0.7228,0.47107,0.30395,4.66867,3.32004
63677111794429,0,0,0.33284,1.34179,2.39935,0.71635,0.49833,0.29597,4.66188,3.31424
63677111794462,0,0,0.36145,1.32572,2.4125,0.71816,0.4714,0.29626,4.67909,3.3119
63677111794496,0,0,0.33755,1.30373,2.39903,0.68191,0.43924,0.30429,4.68487,3.30212
63677111794513,0,0,0.31389,1.33218,2.36157,0.68423,0.44811,0.30689,4.69763,3.29844
63677111794546,0,0,0.35119,1.31693,2.37578,0.69027,0.47576,0.31439,4.71566,3.29404
63677111794562,0,0,0.33564,1.36106,2.34626,0.67001,0.43328,0.29536,4.72023,3.2985
63677111794595,0,0,0.31615,1.37527,2.31121,0.66973,0.46073,0.29921,4.72549,3.29433
63677111794629,0,0,0.31459,1.39503,2.29724,0.68102,0.44331,0.29606,4.74484,3.28843
63677111794645,0,0,0.33236,1.40425,2.29365,0.68248,0.43563,0.29088,4.72026,3.28963
63677111794695,0,0,0.33591,1.43825,2.29574,0.72678,0.45288,0.29291,4.73742,3.30161
63677111794710,0,0,0.35746,1.38558,2.30924,0.73735,0.4431,0.32653,4.71179,3.38115
63677111794727,0,0,0.34345,1.38775,2.29052,0.72642,0.43015,0.30736,4.71212,3.39951
63677111794777,0,0,0.32032,1.36624,2.34346,0.69429,0.43523,0.3081,4.67693,3.47733
63677111794794,0,0,0.31848,1.34676,2.38078,0.70752,0.45469,0.31011,4.6793,3.48357
63677111794810,0,0,0.33616,1.3622,2.38576,0.69913,0.4367,0.31659,4.65253,3.48207
63677111794844,0,0,0.38022,1.35865,2.38305,0.69042,0.45275,0.32146,4.65702,3.47937
63677111794877,0,0,0.37615,1.34108,2.4427,0.64013,0.45545,0.33939,4.65367,3.51172
63677111794893,0,0,0.36583,1.37696,2.45189,0.59378,0.43325,0.31523,4.63562,3.44622
63677111794927,0,0,0.36391,1.36708,2.45108,0.62001,0.44707,0.32932,4.66688,3.42462
63677111794976,0,0,0.40235,1.38406,2.38739,0.63287,0.43761,0.33158,4.69504,3.34453
63677111795010,0,0,0.40584,1.36818,2.37152,0.65094,0.47521,0.32465,4.70531,3.35004
63677111795043,0,0,0.35092,1.35451,2.36953,0.66784,0.46129,0.31272,4.71405,3.35881
63677111795076,0,0,0.34981,1.36362,2.39545,0.66833,0.47713,0.28866,4.73096,3.34629
63677111795092,0,0,0.30741,1.37417,2.30194,0.69827,0.50192,0.27768,4.72464,3.31897
63677111795125,0,0,0.30551,1.36982,2.28443,0.7191,0.50529,0.27777,4.7477,3.3144
63677111795142,0,0,0.40017,1.36539,2.31216,0.72021,0.47495,0.31253,4.73778,3.32295
63677111795175,0,0,0.38297,1.37389,2.31976,0.75716,0.53381,0.30643,4.71432,3.32351
63677111795208,0,0,0.39938,1.36698,2.32177,0.75614,0.49781,0.30925,4.72118,3.31764
63677111795224,0,0,0.42902,1.3761,2.33575,0.79654,0.51129,0.3361,4.70031,3.31499
63677111795275,0,0,0.41861,1.3598,2.31192,0.83469,0.51607,0.34485,4.69434,3.32589
63677111795291,0,0,0.46486,1.35944,2.36685,0.84733,0.51703,0.34442,4.67133,3.33478
63677111795308,0,0,0.45257,1.32966,2.37263,0.85388,0.52797,0.35364,4.6705,3.33569
63677111795358,0,0,0.40067,1.34183,2.40443,0.80447,0.53079,0.34022,4.65991,3.34141
63677111795391,0,0,0.37612,1.36571,2.40084,0.86788,0.48774,0.32342,4.65602,3.34603
63677111795407,0,0,0.34245,1.36058,2.39027,0.81498,0.45928,0.32556,4.67763,3.35887
63677111795457,0,0,0.32278,1.38512,2.39416,0.838,0.49994,0.32574,4.68007,3.36751
63677111795473,0,0,0.34201,1.40877,2.42163,0.94483,0.5543,0.32761,4.70235,3.35865
63677111795506,0,0,0.33337,1.42744,2.39224,0.88514,0.53309,0.31367,4.71905,3.34571
63677111795523,0,0,0.34594,1.40879,2.36155,0.88439,0.58731,0.32023,4.73093,3.34383
63677111795556,0,0,0.36586,1.39935,2.38871,0.83916,0.57449,0.30581,4.73179,3.34922
