63677111480176,2,0,0.22664,1.63832,2.82483,0.99588,3.47145,0.06364,4.64562,4E-05
63677111480226,2,0,0.22819,1.63186,2.81854,0.98622,3.45759,0.06017,4.6743,3E-05
63677111480275,2,0,0.22761,1.62593,2.81551,0.9801,3.44833,0.06097,4.68878,4E-05
63677111480309,2,0,0.2309,1.63604,2.78765,0.98352,3.44128,0.05929,4.68151,4E-05
63677111480325,2,0,0.22254,1.63829,2.82229,0.98593,3.44247,0.05616,4.655,3E-05
63677111480375,2,0,0.22411,1.63499,2.84005,0.98773,3.43417,0.05763,4.63398,3E-05
63677111480409,2,0,0.22704,1.64153,2.83394,0.98568,3.42469,0.06,4.6056,4E-05
63677111480458,2,0,0.20434,1.65496,2.83506,1.00199,3.41092,0.05511,4.58668,4E-05
63677111480491,2,0,0.20887,1.64569,2.83766,1.00423,3.40537,0.05759,4.60533,3E-05
63677111480524,2,0,0.21141,1.64542,2.82014,0.99194,3.39242,0.06057,4.6215,3E-05
63677111480558,2,0,0.21879,1.64025,2.8169,0.97924,3.38338,0.06238,4.61837,3E-05
63677111480590,2,0,0.21642,1.6475,2.81679,0.98386,3.38755,0.06243,4.64777,4E-05
63677111480607,2,0,0.21082,1.64438,2.81768,0.99273,3.38803,0.06029,4.64942,4E-05
63677111480657,2,0,0.21775,1.64086,2.80368,0.98649,3.38295,0.06168,4.66702,3E-05
63677111480674,2,0,0.21777,1.63939,2.8159,0.97572,3.37904,0.06246,4.6765,4E-05
63677111480706,2,0,0.22549,1.64156,2.79447,0.98309,3.37912,0.06172,4.68463,3E-05
63677111480756,2,0,0.2123,1.65268,2.77417,0.98975,3.3806,0.0586,4.67248,4E-05
63677111480806,2,0,0.21659,1.65195,2.76361,0.98246,3.36697,0.0599,4.63747,4E-05
63677111480823,2,0,0.21669,1.6504,2.76706,0.97913,3.3624,0.05946,4.61733,3E-05
63677111480856,2,0,0.2135,1.65073,2.75731,0.9895,3.36478,0.05896,4.60569,4E-05
63677111480889,2,0,0.2161,1.64995,2.74077,0.99143,3.3596,0.05753,4.59745,3E-05
63677111480922,2,0,0.21177,1.64313,2.7548,0.98107,3.35539,0.0581,4.60424,3E-05
63677111480955,2,0,0.21609,1.6414,2.74738,0.98526,3.35037,0.05665,4.61054,4E-05
63677111480989,2,0,0.21529,1.64385,2.74631,0.98066,3.34811,0.05597,4.61085,4E-05
63677111481037,2,0,0.21478,1.63835,2.75374,0.98325,3.34758,0.05611,4.64009,3E-05
63677111481054,2,0,0.21264,1.64431,2.75718,0.98214,3.34556,0.05463,4.64001,4E-05
63677111481088,2,0,0.2173,1.63568,2.77288,0.97085,3.34472,0.05581,4.66863,3E-05
63677111481104,2,0,0.22534,1.63619,2.76689,0.97644,3.34627,0.05429,4.68653,4E-05
63677111481137,2,0,0.22653,1.63733,2.7653,0.96928,3.34263,0.05677,4.68423,4E-05
63677111481171,2,0,0.22316,1.63574,2.77102,0.974,3.34827,0.05842,4.68674,3E-05
63677111481204,2,0,0.22093,1.64378,2.75788,0.97579,3.34847,0.05898,4.69692,4E-05
63677111481237,2,0,0.22479,1.64134,2.75296,0.98046,3.34777,0.06026,4.66666,3E-05
63677111481270,2,0,0.22502,1.63806,2.74486,0.98087,3.34221,0.05873,4.66943,3E-05
63677111481303,2,0,0.22626,1.64075,2.73137,0.98289,3.34454,0.05826,4.63215,4E-05
63677111481336,2,0,0.2205,1.63752,2.7189,0.97663,3.3414,0.05719,4.60959,4E-05
63677111481353,2,0,0.22396,1.63601,2.71339,0.9821,3.33763,0.05505,4.61539,3E-05
63677111481386,2,0,0.23051,1.63322,2.71175,0.97893,3.33166,0.05564,4.59971,4E-05
63677111481435,2,0,0.22764,1.62697,2.6998,0.98288,3.33097,0.05655,4.6044,3E-05
63677111481452,2,0,0.22201,1.63408,2.69096,0.98173,3.33148,0.0536,4.61904,4E-05
63677111481486,2,0,0.22308,1.6317,2.70304,0.977,3.32651,0.05459,4.63673,4E-05
63677111481518,2,0,0.22167,1.63272,2.7113,0.98035,3.33127,0.05473,4.63572,4E-05
63677111481535,2,0,0.22257,1.63053,2.71576,0.98217,3.32634,0.05224,4.65733,3E-05
63677111481568,2,0,0.22167,1.63445,2.70003,0.98494,3.32982,0.05292,4.64952,4E-05
63677111481585,2,0,0.21356,1.6372,2.70902,0.98759,3.32849,0.05204,4.67364,3E-05
63677111481618,2,0,0.22174,1.62925,2.71468,0.97218,3.32043,0.05201,4.68705,4E-05
63677111481651,2,0,0.21803,1.62961,2.72926,0.97278,3.31847,0.05601,4.66614,4E-05
63677111481667,2,0,0.21415,1.64064,2.71668,0.97756,3.31899,0.05722,4.68022,4E-05
63677111481718,2,0,0.21446,1.64088,2.70755,0.97682,3.31665,0.05617,4.65092,3E-05
63677111481734,2,0,0.21734,1.64189,2.70585,0.9748,3.31501,0.05869,4.65764,4E-05
63677111481767,2,0,0.22035,1.63343,2.72388,0.96881,3.31395,0.05982,4.63585,3E-05
63677111481784,2,0,0.2177,1.63478,2.71116,0.96407,3.30968,0.06018,4.63062,3E-05
63677111481817,2,0,0.21338,1.63592,2.71058,0.96167,3.30927,0.06057,4.6004,4E-05
63677111481833,2,0,0.21049,1.6416,2.70288,0.96672,3.30583,0.06192,4.60821,4E-05
63677111481866,2,0,0.21973,1.63083,2.71399,0.96951,3.30292,0.06275,4.60868,3E-05
63677111481916,2,0,0.21621,1.62751,2.71695,0.96594,3.29728,0.06393,4.62562,3E-05
63677111481949,2,0,0.21659,1.63562,2.70377,0.96437,3.29321,0.0651,4.6166,3E-05
63677111481982,2,0,0.224,1.62566,2.72094,0.96247,3.29395,0.06445,4.64843,4E-05
63677111482016,2,0,0.22904,1.6201,2.72083,0.96224,3.293,0.06441,4.65472,4E-05
63677111482032,2,0,0.22654,1.62166,2.72792,0.96321,3.29263,0.06457,4.66612,4E-05
63677111482065,2,0,0.22676,1.62293,2.71928,0.96321,3.28739,0.06253,4.68045,3E-05
63677111482115,2,0,0.2256,1.62228,2.73381,0.96142,3.28424,0.06517,4.68218,3E-05
63677111482149,2,0,0.22305,1.61856,2.72672,0.95857,3.28197,0.0652,4.67258,4E-05
63677111482197,2,0,0.22051,1.62757,2.72399,0.96745,3.27489,0.06583,4.64273,4E-05
63677111482231,2,0,0.22304,1.631,2.72787,0.96804,3.27803,0.06567,4.6266,3E-05
63677111482263,2,0,0.22006,1.62998,2.72001,0.96656,3.27235,0.06769,4.60914,4E-05
63677111482297,2,0,0.22379,1.62608,2.72409,0.96986,3.27482,0.06483,4.59928,3E-05
63677111482314,2,0,0.21757,1.6264,2.72044,0.9652,3.2709,0.06323,4.59947,3E-05
63677111482347,2,0,0.2162,1.63281,2.7087,0.96855,3.27265,0.06267,4.59108,4E-05
63677111482363,2,0,0.22026,1.63193,2.71513,0.96418,3.27011,0.06288,4.60316,4E-05
63677111482397,2,0,0.22054,1.6286,2.70961,0.96589,3.27133,0.06268,4.62831,3E-05
63677111482430,2,0,0.21654,1.62753,2.71611,0.96624,3.266,0.06156,4.62541,4E-05
63677111482446,2,0,0.21874,1.62219,2.71072,0.96508,3.26774,0.06174,4.65702,3E-05
63677111482496,2,0,0.21923,1.62643,2.70743,0.96285,3.26505,0.06394,4.65501,3E-05
63677111482512,2,0,0.22241,1.62254,2.71061,0.96655,3.26491,0.06573,4.6777,4E-05
63677111482529,2,0,0.21593,1.62386,2.71258,0.96917,3.26082,0.0662,4.67605,4E-05
63677111482563,2,0,0.21584,1.62559,2.69407,0.9709,3.25976,0.0664,4.69015,4E-05
63677111482596,2,0,0.21752,1.62614,2.70416,0.96835,3.26046,0.06517,4.68584,3E-05
63677111482627,2,0,0.21803,1.62343,2.70157,0.95932,3.25379,0.06693,4.67276,3E-05
63677111482644,2,0,0.21743,1.62094,2.70129,0.96545,3.24945,0.06639,4.68538,3E-05
63677111482678,2,0,0.2192,1.62758,2.70833,0.96534,3.24859,0.06474,4.65095,4E-05
63677111482711,2,0,0.20727,1.63015,2.68647,0.97125,3.24478,0.06374,4.65879,4E-05
63677111482728,2,0,0.21499,1.62978,2.69487,0.96952,3.24703,0.06261,4.62148,4E-05
63677111482777,2,0,0.21635,1.62283,2.70376,0.97104,3.24186,0.06354,4.62451,3E-05
63677111482794,2,0,0.21947,1.62345,2.70899,0.96626,3.24086,0.06454,4.60124,4E-05
63677111482811,2,0,0.2126,1.62865,2.71349,0.96893,3.23707,0.064,4.60429,3E-05
63677111482843,2,0,0.21716,1.62734,2.7113,0.97235,3.23671,0.06332,4.60813,3E-05
63677111482877,2,0,0.20678,1.6259,2.69952,0.96884,3.23303,0.06395,4.62518,4E-05
63677111482894,2,0,0.21563,1.62554,2.70257,0.96345,3.22909,0.06276,4.62748,4E-05
63677111482926,2,0,0.21831,1.62117,2.70852,0.96176,3.22933,0.06276,4.64719,3E-05
63677111482976,2,0,0.2148,1.61605,2.68909,0.96511,3.22266,0.0602,4.67106,3E-05
63677111483009,2,0,0.20953,1.61637,2.6734,0.96825,3.22222,0.0615,4.66558,3E-05
63677111483042,2,0,0.21195,1.61817,2.675,0.96724,3.21996,0.06215,4.68659,4E-05
63677111483075,2,0,0.21518,1.614,2.66736,0.96571,3.22002,0.06166,4.66894,4E-05
63677111483092,2,0,0.22268,1.60813,2.68697,0.96579,3.21609,0.06253,4.6838,4E-05
63677111483125,2,0,0.2159,1.61007,2.6832,0.96063,3.21322,0.06565,4.67468,4E-05
63677111483142,2,0,0.2165,1.60483,2.68854,0.95624,3.21577,0.06633,4.64776,3E-05
63677111483175,2,0,0.2184,1.60688,2.69595,0.95695,3.21184,0.06662,4.64238,3E-05
63677111483208,2,0,0.22158,1.60686,2.69639,0.95708,3.21063,0.06579,4.61698,4E-05
63677111483224,2,0,0.22569,1.60085,2.70961,0.95321,3.20784,0.06417,4.61637,4E-05
63677111483258,2,0,0.22306,1.60184,2.71405,0.94928,3.20845,0.0628,4.59838,4E-05
63677111483291,2,0,0.21773,1.605,2.70864,0.95704,3.20738,0.06123,4.60655,3E-05
63677111483308,2,0,0.21427,1.60608,2.7082,0.95483,3.20296,0.06098,4.58845,4E-05
63677111483357,2,0,0.22655,1.60044,2.71325,0.95476,3.20269,0.06047,4.61264,3E-05
63677111483374,2,0,0.22299,1.60706,2.72094,0.95193,3.20205,0.05994,4.60355,3E-05
63677111483390,2,0,0.22265,1.60922,2.72488,0.94889,3.20583,0.05748,4.63411,4E-05
63677111483424,2,0,0.21638,1.6135,2.72328,0.95543,3.20702,0.05846,4.65585,4E-05
63677111483456,2,0,0.21956,1.61275,2.71389,0.95509,3.20446,0.06046,4.65815,3E-05
63677111483473,2,0,0.21825,1.61327,2.71697,0.9516,3.20464,0.0604,4.67007,4E-05
63677111483507,2,0,0.22639,1.60481,2.71538,0.94675,3.20377,0.06035,4.68552,3E-05
63677111483557,2,0,0.20416,1.61291,2.70109,0.95447,3.19587,0.05892,4.68612,4E-05
63677111483589,2,0,0.21227,1.60869,2.70519,0.95685,3.19958,0.05983,4.67122,4E-05
63677111483622,2,0,0.20626,1.61042,2.70366,0.95591,3.19399,0.06123,4.66903,4E-05
63677111483655,2,0,0.20966,1.61438,2.70622,0.95801,3.19537,0.06056,4.65411,3E-05
63677111483671,2,0,0.21329,1.61585,2.71851,0.959,3.19477,0.06018,4.62554,3E-05
63677111483705,2,0,0.21188,1.6185,2.71631,0.96621,3.19224,0.05936,4.61312,3E-05
63677111483722,2,0,0.21674,1.61839,2.71337,0.96679,3.19465,0.05893,4.60038,4E-05
63677111483755,2,0,0.21983,1.61053,2.707,0.968,3.19239,0.05901,4.60103,4E-05
63677111483788,2,0,0.217,1.61671,2.70546,0.96426,3.1915,0.0592,4.59481,4E-05
63677111483805,2,0,0.21446,1.61961,2.69482,0.97218,3.19084,0.05788,4.61449,3E-05
63677111483838,2,0,0.2118,1.61864,2.70605,0.96975,3.19266,0.05672,4.60936,4E-05
63677111483871,2,0,0.21332,1.61417,2.7003,0.9684,3.19498,0.05684,4.64467,3E-05
63677111483888,2,0,0.21238,1.62126,2.701,0.97165,3.19544,0.05662,4.63987,3E-05
63677111483936,2,0,0.21358,1.62091,2.71613,0.96331,3.19791,0.05652,4.66716,4E-05
63677111483953,2,0,0.21529,1.62212,2.72062,0.965,3.19613,0.05543,4.68812,4E-05
63677111483970,2,0,0.21351,1.63041,2.71081,0.96752,3.19752,0.05456,4.68569,3E-05
63677111484004,2,0,0.21762,1.62273,2.71088,0.95924,3.19424,0.05495,4.69575,4E-05
63677111484036,2,0,0.21854,1.62767,2.70433,0.96067,3.19481,0.05608,4.6824,3E-05
63677111484053,2,0,0.21574,1.62557,2.70778,0.95788,3.1886,0.05519,4.68524,3E-05
63677111484086,2,0,0.2108,1.62728,2.69224,0.95763,3.1899,0.05432,4.66349,4E-05
63677111484136,2,0,0.21293,1.62793,2.68817,0.96112,3.1818,0.05502,4.62953,4E-05
63677111484169,2,0,0.20955,1.62448,2.68451,0.95876,3.17597,0.0552,4.62398,3E-05
63677111484202,2,0,0.21129,1.61496,2.70566,0.95497,3.16773,0.05487,4.59447,3E-05
63677111484235,2,0,0.21036,1.61825,2.71928,0.95502,3.16478,0.05294,4.59637,3E-05
63677111484252,2,0,0.21708,1.6141,2.7353,0.95446,3.15357,0.05232,4.58138,4E-05
63677111484284,2,0,0.21851,1.61407,2.73848,0.9488,3.14923,0.05316,4.61136,4E-05
63677111484318,2,0,0.21699,1.61117,2.74656,0.94956,3.14769,0.05346,4.59996,4E-05
63677111484334,2,0,0.21582,1.60738,2.74217,0.94939,3.14566,0.05256,4.64072,3E-05
63677111484367,2,0,0.22016,1.60436,2.74594,0.94182,3.1401,0.05359,4.62571,4E-05
63677111484384,2,0,0.22445,1.60159,2.74544,0.94837,3.1375,0.05324,4.66249,3E-05
63677111484417,2,0,0.21836,1.61014,2.73733,0.9469,3.13283,0.05611,4.66249,3E-05
63677111484450,2,0,0.21446,1.60717,2.71116,0.93215,3.14063,0.06118,4.67366,4E-05
63677111484467,2,0,0.21589,1.6096,2.71098,0.94074,3.13921,0.06173,4.68589,4E-05
63677111484517,2,0,0.21678,1.61021,2.70659,0.93705,3.13496,0.06134,4.66981,3E-05
63677111484534,2,0,0.21683,1.61586,2.69451,0.93862,3.12833,0.05918,4.67032,4E-05
63677111484551,2,0,0.2184,1.61401,2.69261,0.93709,3.13005,0.05932,4.65693,3E-05
63677111484584,2,0,0.21981,1.60542,2.70726,0.92768,3.12833,0.06034,4.64493,3E-05
63677111484616,2,0,0.2201,1.6058,2.71557,0.92994,3.13187,0.05819,4.61246,4E-05
63677111484632,2,0,0.21761,1.60981,2.70975,0.93692,3.12497,0.05422,4.60725,4E-05
63677111484666,2,0,0.21891,1.60845,2.70959,0.93954,3.11951,0.05393,4.59518,4E-05
63677111484715,2,0,0.22717,1.59902,2.72961,0.94559,3.11584,0.05594,4.60527,3E-05
63677111484749,2,0,0.22156,1.60393,2.729,0.94573,3.11122,0.05507,4.60693,3E-05
63677111484782,2,0,0.21785,1.61166,2.72017,0.95377,3.11247,0.05305,4.63165,4E-05
63677111484815,2,0,0.21981,1.60551,2.70918,0.94885,3.10652,0.05376,4.63961,4E-05
63677111484831,2,0,0.2192,1.6063,2.72082,0.94547,3.11183,0.05415,4.662,4E-05
63677111484865,2,0,0.21798,1.60511,2.72068,0.94715,3.10901,0.05416,4.67035,3E-05
63677111484882,2,0,0.2151,1.61074,2.72097,0.94754,3.11265,0.05303,4.67547,4E-05
63677111484915,2,0,0.22062,1.60772,2.72452,0.94947,3.111,0.05498,4.69382,3E-05
63677111484948,2,0,0.2154,1.60995,2.70808,0.94398,3.11045,0.05366,4.68712,3E-05
63677111484965,2,0,0.21091,1.61046,2.70565,0.94799,3.10861,0.05285,4.67065,4E-05
63677111484997,2,0,0.21146,1.60982,2.70123,0.94541,3.1031,0.05262,4.66617,4E-05
63677111485030,2,0,0.21593,1.6053,2.70216,0.95031,3.0981,0.05265,4.65072,3E-05
63677111485047,2,0,0.21192,1.60815,2.70047,0.95128,3.09312,0.05355,4.63894,4E-05
63677111485096,2,0,0.21413,1.60906,2.69886,0.94889,3.09392,0.05317,4.62705,3E-05
63677111485113,2,0,0.20757,1.61123,2.69337,0.94821,3.08564,0.05184,4.60552,3E-05
63677111485130,2,0,0.21152,1.61399,2.69489,0.94842,3.08869,0.05315,4.59731,4E-05
63677111485163,2,0,0.21465,1.6171,2.691,0.95099,3.08445,0.0546,4.59208,4E-05
63677111485196,2,0,0.2187,1.61299,2.68793,0.94686,3.08546,0.05372,4.59022,4E-05
63677111485246,2,0,0.21739,1.61809,2.68819,0.95467,3.08898,0.05285,4.60038,4E-05
63677111485263,2,0,0.21869,1.61323,2.68731,0.94746,3.08421,0.05154,4.61952,3E-05
63677111485296,2,0,0.21756,1.61169,2.69694,0.94945,3.08724,0.05167,4.62442,3E-05
63677111485313,2,0,0.21516,1.6116,2.69516,0.94755,3.08714,0.05365,4.64945,4E-05
63677111485346,2,0,0.21057,1.61186,2.69426,0.94808,3.09023,0.05373,4.65159,4E-05
63677111485395,2,0,0.20705,1.61304,2.71456,0.94984,3.08714,0.0554,4.67144,3E-05
63677111485428,2,0,0.21316,1.60534,2.71757,0.94547,3.08022,0.05512,4.68272,4E-05
63677111485444,2,0,0.21042,1.61235,2.70946,0.94673,3.07984,0.05568,4.67718,3E-05
63677111485478,2,0,0.21773,1.60762,2.70131,0.95128,3.07835,0.05709,4.67423,3E-05
63677111485495,2,0,0.21777,1.59867,2.70904,0.94587,3.07292,0.05592,4.65557,4E-05
63677111485528,2,0,0.2151,1.60228,2.7096,0.94614,3.06952,0.05445,4.63063,4E-05
63677111485577,2,0,0.21545,1.60032,2.68713,0.94553,3.06503,0.05414,4.61133,4E-05
63677111485610,2,0,0.21351,1.59966,2.68743,0.94322,3.0616,0.05489,4.60152,3E-05
63677111485626,2,0,0.21419,1.59729,2.68752,0.93984,3.06123,0.05511,4.59593,3E-05
63677111485677,2,0,0.21058,1.59803,2.69273,0.93867,3.0569,0.05432,4.60202,4E-05
63677111485693,2,0,0.21804,1.59562,2.68802,0.93686,3.05336,0.05438,4.61118,4E-05
63677111485726,2,0,0.21072,1.59704,2.69068,0.93976,3.05287,0.05665,4.61273,4E-05
63677111485742,2,0,0.22904,1.59137,2.6885,0.93459,3.04465,0.05481,4.63978,4E-05
63677111485776,2,0,0.23096,1.5887,2.69233,0.93023,3.04231,0.05434,4.65843,3E-05
63677111485809,2,0,0.23164,1.59304,2.70555,0.93564,3.04253,0.05341,4.66644,3E-05
63677111485826,2,0,0.22838,1.59115,2.6963,0.93813,3.04212,0.05336,4.68579,4E-05
63677111485876,2,0,0.22542,1.59395,2.7001,0.9337,3.0414,0.05372,4.68214,4E-05
63677111485892,2,0,0.22891,1.59116,2.69489,0.93226,3.0344,0.05128,4.68873,4E-05
63677111485907,2,0,0.22983,1.59416,2.7009,0.93136,3.03113,0.05087,4.6758,3E-05
63677111485942,2,0,0.22953,1.59219,2.69392,0.92871,3.02768,0.05287,4.66572,4E-05
63677111485975,2,0,0.22153,1.59344,2.6977,0.92887,3.02462,0.05351,4.65605,3E-05
63677111485992,2,0,0.22492,1.58487,2.68868,0.92961,3.0217,0.05239,4.64147,3E-05
63677111486024,2,0,0.22503,1.5802,2.67441,0.924,3.00734,0.05233,4.61384,4E-05
63677111486058,2,0,0.22492,1.5802,2.6661,0.92547,3.00034,0.05286,4.59788,4E-05
63677111486074,2,0,0.22485,1.58023,2.66063,0.92803,2.99864,0.05515,4.59702,3E-05
63677111486108,2,0,0.22601,1.57886,2.66246,0.91885,2.99328,0.05309,4.58862,4E-05
63677111486157,2,0,0.23155,1.56991,2.68097,0.92238,2.98863,0.05169,4.6098,3E-05
63677111486190,2,0,0.22463,1.57207,2.68161,0.92574,2.98787,0.05328,4.63036,4E-05
63677111486222,2,0,0.22243,1.5723,2.67641,0.92585,2.98658,0.05425,4.6313,4E-05
63677111486257,2,0,0.22756,1.56886,2.6866,0.92155,2.98994,0.05267,4.64422,4E-05
63677111486273,2,0,0.22056,1.56882,2.70367,0.92286,2.98893,0.05146,4.6593,4E-05
63677111486290,2,0,0.22392,1.56697,2.70475,0.92713,2.9884,0.05288,4.68354,3E-05
63677111486323,2,0,0.21533,1.56844,2.69324,0.93194,2.98733,0.05462,4.66426,3E-05
63677111486356,2,0,0.22079,1.5723,2.68545,0.93201,2.98706,0.05347,4.6832,4E-05
63677111486372,2,0,0.22474,1.57269,2.69325,0.92964,2.99144,0.05176,4.65657,4E-05
63677111486405,2,0,0.22461,1.57302,2.70127,0.9283,2.98863,0.05187,4.66796,4E-05
63677111486454,2,0,0.21735,1.57653,2.69737,0.93179,2.98986,0.05234,4.64588,3E-05
63677111486471,2,0,0.22042,1.57631,2.69807,0.93152,2.99011,0.05209,4.64156,4E-05
63677111486505,2,0,0.21989,1.58415,2.68979,0.9287,2.985,0.05057,4.61157,3E-05
63677111486522,2,0,0.22027,1.58414,2.70438,0.92509,2.99277,0.05063,4.59195,4E-05
63677111486554,2,0,0.21845,1.5851,2.70832,0.9245,2.99124,0.05087,4.59485,4E-05
63677111486588,2,0,0.21912,1.58527,2.70637,0.92893,2.99137,0.05204,4.58469,4E-05
63677111486637,2,0,0.2217,1.58597,2.70697,0.92997,2.98789,0.05142,4.6025,3E-05
63677111486654,2,0,0.22379,1.58698,2.71761,0.93153,2.99033,0.05152,4.61751,3E-05
63677111486687,2,0,0.22282,1.5898,2.71677,0.93742,2.99281,0.05082,4.62078,3E-05
63677111486704,2,0,0.22099,1.58383,2.72087,0.942,2.99271,0.05246,4.64921,4E-05
63677111486737,2,0,0.2229,1.5833,2.70084,0.9392,2.98975,0.05095,4.65572,4E-05
63677111486770,2,0,0.22396,1.57957,2.69844,0.94047,2.98674,0.05202,4.66598,4E-05
63677111486803,2,0,0.21323,1.58834,2.68641,0.93891,2.98333,0.05187,4.67894,3E-05
63677111486835,2,0,0.2155,1.58971,2.68942,0.9346,2.97961,0.05184,4.68314,3E-05
63677111486852,2,0,0.21505,1.59658,2.68497,0.93547,2.97843,0.05276,4.67093,3E-05
63677111486886,2,0,0.21532,1.5944,2.67584,0.92829,2.97596,0.05366,4.66305,4E-05
63677111486936,2,0,0.21912,1.59435,2.67542,0.92528,2.97584,0.05377,4.64795,4E-05
63677111486953,2,0,0.22182,1.6013,2.68154,0.93363,2.97514,0.05456,4.6188,3E-05
63677111486985,2,0,0.22427,1.59443,2.6903,0.93315,2.97583,0.0542,4.60386,4E-05
63677111487035,2,0,0.21876,1.60075,2.67269,0.93705,2.97485,0.05627,4.59263,3E-05
63677111487052,2,0,0.21622,1.59764,2.67048,0.93444,2.97157,0.05521,4.59671,3E-05
63677111487085,2,0,0.22662,1.58886,2.66894,0.93261,2.97132,0.05581,4.60706,4E-05
63677111487118,2,0,0.22303,1.59509,2.67193,0.93266,2.97099,0.05521,4.59707,4E-05
63677111487134,2,0,0.2129,1.59759,2.66752,0.9309,2.97116,0.0544,4.63066,3E-05
63677111487184,2,0,0.22053,1.59317,2.65822,0.93037,2.9693,0.05592,4.65451,3E-05
63677111487217,2,0,0.21951,1.59181,2.66597,0.92786,2.97322,0.05479,4.65132,3E-05
63677111487234,2,0,0.22072,1.58947,2.66855,0.93051,2.96921,0.05591,4.67116,4E-05
63677111487267,2,0,0.22334,1.591,2.67388,0.928,2.97157,0.05738,4.66166,4E-05
63677111487317,2,0,0.2158,1.59017,2.67684,0.93355,2.96629,0.058,4.67628,4E-05
63677111487333,2,0,0.22415,1.58198,2.67635,0.92878,2.9627,0.05918,4.67184,4E-05
63677111487366,2,0,0.21595,1.58667,2.68689,0.92411,2.96611,0.0588,4.65908,3E-05
63677111487415,2,0,0.21426,1.58677,2.68565,0.92444,2.96219,0.05611,4.65393,3E-05
63677111487432,2,0,0.21485,1.58914,2.70308,0.93422,2.96011,0.055,4.62523,4E-05
63677111487466,2,0,0.20915,1.59191,2.69892,0.93394,2.95721,0.05292,4.61049,4E-05
63677111487483,2,0,0.21305,1.5891,2.69745,0.93508,2.95561,0.05082,4.60219,3E-05
63677111487515,2,0,0.20761,1.59336,2.6999,0.94121,2.95699,0.04986,4.58718,4E-05
63677111487548,2,0,0.21103,1.59207,2.69244,0.94564,2.95629,0.04965,4.59297,3E-05
63677111487582,2,0,0.21192,1.59335,2.68463,0.95166,2.95594,0.05087,4.60289,4E-05
63677111487615,2,0,0.21053,1.59472,2.67905,0.95547,2.95631,0.05241,4.59635,4E-05
63677111487647,2,0,0.21522,1.59054,2.67087,0.95068,2.95742,0.05264,4.61627,4E-05
63677111487698,2,0,0.22218,1.59191,2.67473,0.93717,2.95164,0.05738,4.65574,3E-05
63677111487730,2,0,0.21878,1.592,2.68321,0.9356,2.95204,0.05665,4.64923,3E-05
63677111487764,2,0,0.21591,1.5924,2.67441,0.92861,2.95011,0.0563,4.67178,4E-05
63677111487798,2,0,0.21802,1.5933,2.68158,0.92663,2.94869,0.0567,4.64997,4E-05
63677111487831,2,0,0.22201,1.59008,2.70022,0.92095,2.94648,0.05526,4.64762,3E-05
63677111487863,2,0,0.21369,1.59287,2.70102,0.92302,2.94738,0.05581,4.65598,4E-05
63677111487896,2,0,0.21447,1.59253,2.69285,0.92515,2.95004,0.05507,4.62442,3E-05
63677111487913,2,0,0.21246,1.591,2.68654,0.92511,2.94743,0.0531,4.61421,3E-05
63677111487946,2,0,0.21112,1.59127,2.69027,0.92926,2.94563,0.05527,4.59628,4E-05
63677111487995,2,0,0.21151,1.59042,2.7017,0.93129,2.94204,0.05621,4.57858,4E-05
63677111488012,2,0,0.20787,1.59065,2.69678,0.9277,2.94049,0.05671,4.58823,3E-05
63677111488045,2,0,0.20939,1.59427,2.69527,0.9287,2.93849,0.05894,4.57661,4E-05
63677111488095,2,0,0.21688,1.59634,2.69181,0.92411,2.93501,0.05753,4.59871,3E-05
63677111488112,2,0,0.22119,1.59611,2.70436,0.92101,2.93456,0.05738,4.63136,4E-05
63677111488145,2,0,0.22242,1.59534,2.70529,0.91831,2.9317,0.05666,4.63476,4E-05
63677111488178,2,0,0.22608,1.5944,2.70058,0.91746,2.92864,0.05642,4.65489,4E-05
63677111488212,2,0,0.22472,1.5951,2.70195,0.9207,2.92936,0.0525,4.67628,4E-05
63677111488227,2,0,0.22286,1.59391,2.70033,0.9159,2.92856,0.05213,4.68986,3E-05
63677111488277,2,0,0.22336,1.59048,2.70106,0.91613,2.9276,0.05308,4.68033,3E-05
63677111488294,2,0,0.22,1.58867,2.70455,0.91977,2.92628,0.05394,4.69017,4E-05
63677111488327,2,0,0.21957,1.5874,2.70234,0.92125,2.92438,0.05393,4.66343,4E-05
63677111488376,2,0,0.21678,1.58356,2.69425,0.92781,2.92332,0.05389,4.64907,3E-05
63677111488393,2,0,0.2213,1.58261,2.68976,0.92133,2.91901,0.05586,4.63108,4E-05
63677111488410,2,0,0.21916,1.58224,2.67985,0.92802,2.91966,0.05457,4.61774,3E-05
63677111488443,2,0,0.21993,1.57387,2.68036,0.93109,2.91571,0.05206,4.59644,4E-05
63677111488476,2,0,0.22165,1.57382,2.68177,0.92599,2.91192,0.05135,4.59677,4E-05
63677111488510,2,0,0.22196,1.57311,2.67976,0.92871,2.91284,0.05296,4.59672,4E-05
63677111488543,2,0,0.21721,1.57343,2.67353,0.92983,2.91294,0.05257,4.6152,3E-05
63677111488576,2,0,0.21473,1.57453,2.68912,0.9269,2.91496,0.054,4.61031,4E-05
63677111488609,2,0,0.22249,1.57302,2.6998,0.92502,2.91329,0.0559,4.64099,3E-05
63677111488642,2,0,0.22271,1.5723,2.69858,0.92655,2.91287,0.05516,4.67033,4E-05
63677111488675,2,0,0.22488,1.57133,2.6957,0.92727,2.91755,0.05719,4.66577,4E-05
63677111488692,2,0,0.22692,1.57052,2.68653,0.92903,2.91664,0.05738,4.68557,4E-05
63677111488725,2,0,0.22383,1.56896,2.69264,0.92338,2.91308,0.05801,4.69304,4E-05
63677111488758,2,0,0.22938,1.56949,2.68326,0.92463,2.91713,0.05627,4.67117,3E-05
63677111488791,2,0,0.23073,1.56876,2.68491,0.92437,2.91326,0.05657,4.67837,3E-05
63677111488825,2,0,0.22385,1.57102,2.67164,0.92563,2.91236,0.05611,4.65809,4E-05
63677111488857,2,0,0.21911,1.57565,2.67175,0.92587,2.91449,0.0558,4.61841,4E-05
63677111488891,2,0,0.21552,1.57343,2.68534,0.92677,2.90855,0.05556,4.6268,3E-05
63677111488923,2,0,0.21533,1.57532,2.66186,0.92954,2.91085,0.05464,4.59071,4E-05
63677111488957,2,0,0.21743,1.57502,2.66419,0.93222,2.90737,0.05244,4.59683,3E-05
63677111488974,2,0,0.21085,1.5748,2.66335,0.93261,2.90407,0.05452,4.58952,4E-05
63677111489007,2,0,0.21468,1.57345,2.67675,0.9328,2.90509,0.05562,4.5939,4E-05
63677111489056,2,0,0.21602,1.57663,2.67702,0.93327,2.90556,0.05706,4.59872,4E-05
63677111489072,2,0,0.22027,1.57412,2.67609,0.92868,2.9029,0.05527,4.6215,3E-05
63677111489106,2,0,0.21995,1.57987,2.68379,0.92853,2.9033,0.05756,4.64427,3E-05
63677111489156,2,0,0.21674,1.58023,2.68528,0.93137,2.90558,0.06025,4.65945,4E-05
63677111489189,2,0,0.21905,1.5834,2.66625,0.9318,2.90616,0.05956,4.64709,4E-05
63677111489222,2,0,0.21171,1.58208,2.66085,0.92933,2.90383,0.06,4.67251,4E-05
63677111489255,2,0,0.21235,1.58513,2.6695,0.9292,2.90073,0.0612,4.6736,4E-05
63677111489271,2,0,0.21848,1.58938,2.66999,0.92803,2.90129,0.05904,4.64538,3E-05
63677111489305,2,0,0.21736,1.58249,2.67806,0.92959,2.8977,0.06073,4.65674,3E-05
63677111489337,2,0,0.2168,1.58546,2.67582,0.92878,2.89737,0.05877,4.62907,4E-05
63677111489354,2,0,0.21896,1.57771,2.67718,0.92309,2.89465,0.05976,4.62649,4E-05
63677111489387,2,0,0.2164,1.58158,2.70528,0.92175,2.89288,0.05848,4.60751,4E-05
63677111489437,2,0,0.21984,1.5746,2.7072,0.91755,2.88674,0.05776,4.58184,4E-05
63677111489470,2,0,0.21541,1.57261,2.70527,0.92063,2.88493,0.05859,4.58813,3E-05
63677111489504,2,0,0.20807,1.57277,2.70186,0.91644,2.88048,0.06005,4.59995,4E-05
63677111489537,2,0,0.20784,1.57472,2.70047,0.92013,2.87874,0.06122,4.59962,4E-05
63677111489554,2,0,0.20571,1.57886,2.68574,0.92564,2.87819,0.06116,4.6291,4E-05
63677111489586,2,0,0.20669,1.57889,2.6742,0.92401,2.87729,0.06374,4.63221,3E-05
63677111489603,2,0,0.20966,1.57734,2.66494,0.92701,2.87919,0.06532,4.65819,4E-05
63677111489636,2,0,0.2093,1.57906,2.6579,0.92792,2.87936,0.06532,4.67128,3E-05
63677111489668,2,0,0.21205,1.57427,2.66474,0.9257,2.88002,0.06526,4.67834,3E-05
63677111489685,2,0,0.21349,1.57465,2.66971,0.92289,2.87826,0.06307,4.69199,4E-05
63677111489735,2,0,0.21813,1.58309,2.64047,0.93012,2.88652,0.06483,4.6549,4E-05
63677111489752,2,0,0.21721,1.5982,2.65725,0.93653,2.89354,0.06422,4.68995,4E-05
63677111489769,2,0,0.22834,1.62277,2.66017,0.94613,2.91189,0.06314,4.69693,4E-05
63677111489802,2,0,0.22426,1.6321,2.65313,0.94886,2.91992,0.06179,4.67506,3E-05
63677111489835,2,0,0.22742,1.65247,2.67698,0.96189,2.93203,0.06326,4.70653,3E-05
63677111489852,2,0,0.22992,1.65869,2.65955,0.9686,2.93887,0.06285,4.68665,4E-05
63677111489885,2,0,0.23181,1.67431,2.6761,0.98117,2.95104,0.06622,4.71292,4E-05
63677111489902,2,0,0.22877,1.66925,2.69091,0.97575,2.94845,0.06525,4.7199,4E-05
63677111489935,2,0,0.23104,1.67423,2.70141,0.97434,2.95054,0.06669,4.72559,3E-05
63677111489967,2,0,0.22706,1.66804,2.7056,0.97243,2.94808,0.06745,4.72823,4E-05
63677111490017,2,0,0.22617,1.66378,2.71,0.97088,2.94295,0.06806,4.74767,3E-05
63677111490051,2,0,0.2204,1.66905,2.70564,0.96505,2.94161,0.06888,4.76023,4E-05
63677111490083,2,0,0.22138,1.67355,2.7091,0.96495,2.94314,0.06959,4.74679,4E-05
63677111490117,2,0,0.21898,1.67229,2.69452,0.96648,2.94146,0.06954,4.77111,3E-05
