63675471785972,0,0,1.73521,2.666,4.77254,2.55127,0.25008,4.76259,4.0777,3.71985
63675471786039,0,0,1.67716,2.66003,4.77271,2.55668,0.25284,4.76188,4.07719,3.71853
63675471786072,0,0,1.69314,2.6535,4.77421,2.59432,0.26649,4.76192,4.07749,3.71521
63675471786088,0,0,1.66073,2.65446,4.77399,2.60657,0.2845,4.76113,4.07574,3.72094
63675471786105,0,0,1.62505,2.64886,4.77425,2.64735,0.29058,4.76076,4.07556,3.71857
63675471786138,0,0,1.63529,2.6312,4.77488,2.69598,0.31206,4.76031,4.07402,3.71596
63675471786171,0,0,1.66768,2.62097,4.77498,2.73176,0.32779,4.76107,4.07272,3.71498
63675471786187,0,0,1.67467,2.60583,4.77565,2.76783,0.33872,4.76058,4.07149,3.71375
63675471786220,0,0,1.6316,2.62345,4.77682,2.83441,0.33973,4.7614,4.07317,3.71627
63675471786237,0,0,1.67004,2.62064,4.77608,2.92535,0.34006,4.76235,4.07271,3.71455
63675471786270,0,0,1.69263,2.59887,4.77681,2.9772,0.33628,4.76271,4.07367,3.7057
63675471786287,0,0,1.75466,2.58053,4.77835,3.00902,0.34789,4.76362,4.07302,3.70549
63675471786320,0,0,1.75696,2.58754,4.77806,3.02143,0.33191,4.76213,4.07381,3.70486
63675471786353,0,0,1.77414,2.58499,4.77801,3.06197,0.33345,4.76299,4.07287,3.7066
63675471786370,0,0,1.68454,2.54684,4.77988,3.09495,0.32796,4.76234,4.07075,3.70798
63675471786403,0,0,1.68935,2.52674,4.77967,3.12014,0.31007,4.76219,4.07108,3.7119
63675471786420,0,0,1.74868,2.52066,4.78151,3.12132,0.32256,4.76311,4.07124,3.71024
63675471786452,0,0,1.73845,2.50544,4.78169,3.13829,0.31794,4.76258,4.07053,3.71902
63675471786469,0,0,1.72316,2.50527,4.7829,3.14884,0.30182,4.76356,4.07341,3.71776
63675471786519,0,0,1.69655,2.48634,4.78041,3.17029,0.31007,4.76483,4.07549,3.72333
63675471786553,0,0,1.74906,2.47204,4.78035,3.16097,0.29624,4.76466,4.07475,3.72303
63675471786568,0,0,1.77534,2.47984,4.7802,3.16218,0.2831,4.76647,4.0769,3.725
63675471786618,0,0,1.80317,2.49523,4.78038,3.13471,0.29065,4.76566,4.07728,3.72035
63675471786651,0,0,1.66628,2.50693,4.78,3.11289,0.29103,4.76558,4.07636,3.71825
63675471786667,0,0,1.65001,2.51751,4.77915,3.1123,0.29327,4.76569,4.07309,3.71913
63675471786717,0,0,1.71621,2.5096,4.78027,3.08301,0.27737,4.76478,4.07192,3.71514
63675471786750,0,0,1.66065,2.50293,4.78013,3.04651,0.28299,4.76411,4.06962,3.71696
63675471786767,0,0,1.67393,2.49058,4.77994,3.02349,0.28548,4.76372,4.06973,3.71874
63675471786801,0,0,1.59182,2.48344,4.77992,3.03115,0.27955,4.7627,4.06947,3.72306
63675471786834,0,0,1.60598,2.48276,4.77859,3.00726,0.28216,4.7631,4.07093,3.72274
63675471786867,0,0,1.65755,2.45056,4.77536,2.9943,0.25386,4.7625,4.06649,3.72726
63675471786883,0,0,1.61112,2.45859,4.77608,3.02531,0.27096,4.76212,4.06655,3.72788
63675471786933,0,0,1.61291,2.46054,4.77649,3.04038,0.26592,4.76147,4.06618,3.72321
63675471786949,0,0,1.60362,2.45689,4.77707,3.02587,0.25481,4.76141,4.06623,3.7173
63675471786982,0,0,1.64727,2.44882,4.77923,3.05653,0.25829,4.76128,4.06335,3.71038
63675471787032,0,0,1.66247,2.46202,4.78029,3.06683,0.25997,4.76064,4.06279,3.70818
63675471787049,0,0,1.6865,2.47129,4.7828,3.09943,0.26491,4.75999,4.06313,3.70382
63675471787065,0,0,1.68258,2.4578,4.7848,3.10248,0.2694,4.76076,4.06397,3.70196
63675471787099,0,0,1.70266,2.46631,4.78451,3.09369,0.25485,4.76055,4.06353,3.70308
63675471787165,0,0,1.68914,2.45692,4.78407,3.12503,0.26455,4.76161,4.06165,3.7092
63675471787198,0,0,1.69991,2.4532,4.78337,3.13367,0.25968,4.76088,4.06331,3.70962
63675471787231,0,0,1.69098,2.42126,4.78375,3.15471,0.24632,4.76181,4.06182,3.71076
63675471787248,0,0,1.70081,2.40698,4.7832,3.14349,0.26198,4.761,4.06248,3.70919
63675471787281,0,0,1.69138,2.40722,4.78345,3.16256,0.25432,4.76154,4.06266,3.70888
63675471787330,0,0,1.69532,2.39797,4.78359,3.20971,0.25322,4.76046,4.05804,3.70681
63675471787347,0,0,1.71202,2.39184,4.7837,3.21761,0.24805,4.75934,4.05664,3.70775
63675471787363,0,0,1.71207,2.37961,4.78338,3.23831,0.22858,4.75904,4.05688,3.70455
63675471787413,0,0,1.74965,2.35945,4.78359,3.25523,0.22596,4.7582,4.05668,3.70654
63675471787430,0,0,1.78632,2.35796,4.78362,3.2689,0.23227,4.75866,4.0552,3.70922
63675471787463,0,0,1.76476,2.34199,4.78125,3.31872,0.21101,4.75704,4.05292,3.71414
63675471787512,0,0,1.78656,2.31518,4.78112,3.34589,0.216,4.75571,4.05328,3.71383
63675471787529,0,0,1.77205,2.30349,4.7822,3.35713,0.23162,4.75666,4.05592,3.71172
63675471787546,0,0,1.78104,2.28907,4.78252,3.39852,0.23498,4.75508,4.05575,3.71091
63675471787579,0,0,1.81821,2.29476,4.78304,3.42738,0.25261,4.75607,4.05353,3.71879
63675471787612,0,0,1.80304,2.28867,4.78098,3.45777,0.25889,4.75515,4.05287,3.71703
63675471787646,0,0,1.82412,2.29004,4.78117,3.46262,0.25221,4.75346,4.05222,3.71844
63675471787662,0,0,1.82065,2.2799,4.78308,3.47061,0.25759,4.75516,4.05283,3.71079
63675471787711,0,0,1.83667,2.27483,4.7835,3.46554,0.26818,4.75503,4.05273,3.71068
63675471787728,0,0,1.77903,2.2591,4.78314,3.46182,0.24717,4.75601,4.04976,3.71284
63675471787762,0,0,1.75596,2.2406,4.78096,3.4241,0.23714,4.75522,4.05354,3.71089
63675471787811,0,0,1.76923,2.20866,4.78042,3.42216,0.22707,4.75417,4.05406,3.70315
63675471787828,0,0,1.80016,2.20627,4.78119,3.41232,0.24632,4.75472,4.05328,3.7012
63675471787845,0,0,1.79648,2.20733,4.78076,3.42185,0.2539,4.75499,4.05262,3.69795
63675471787893,0,0,1.7693,2.21848,4.77935,3.39967,0.22721,4.75229,4.05647,3.69687
63675471787909,0,0,1.80305,2.22641,4.77866,3.41664,0.22677,4.75162,4.05831,3.69606
63675471787943,0,0,1.79263,2.23555,4.77776,3.42094,0.21195,4.75145,4.0576,3.69808
63675471787993,0,0,1.80005,2.22659,4.78051,3.41851,0.20004,4.75173,4.05606,3.69319
63675471788010,0,0,1.75464,2.25863,4.7818,3.42485,0.19204,4.75137,4.05711,3.69915
63675471788043,0,0,1.74096,2.22118,4.78227,3.41793,0.17347,4.75182,4.05724,3.70705
63675471788060,0,0,1.69128,2.23895,4.78316,3.43,0.16722,4.75342,4.0542,3.71186
63675471788093,0,0,1.72694,2.20334,4.7836,3.44311,0.16918,4.75284,4.05268,3.71187
63675471788125,0,0,1.76296,2.18009,4.78422,3.41549,0.17513,4.7528,4.05223,3.71655
63675471788159,0,0,1.77966,2.14688,4.78382,3.4294,0.19115,4.75259,4.0524,3.7139
63675471788192,0,0,1.79087,2.1353,4.78333,3.4374,0.19857,4.75254,4.05029,3.70966
63675471788225,0,0,1.77867,2.13166,4.78222,3.43663,0.20515,4.75325,4.0493,3.70765
63675471788258,0,0,1.78083,2.12073,4.7824,3.46431,0.20888,4.75236,4.04837,3.70456
63675471788292,0,0,1.81719,2.09821,4.7812,3.46722,0.21583,4.75118,4.05124,3.70322
63675471788325,0,0,1.76203,2.11818,4.78236,3.48652,0.21449,4.75202,4.05252,3.70102
63675471788358,0,0,1.72287,2.11529,4.78163,3.46438,0.19837,4.75161,4.05339,3.69959
63675471788391,0,0,1.76926,2.10315,4.78197,3.45944,0.21477,4.75188,4.05814,3.70338
63675471788424,0,0,1.72892,2.12084,4.78234,3.45014,0.19902,4.75222,4.05854,3.70928
63675471788441,0,0,1.71479,2.12895,4.78165,3.43751,0.18431,4.75201,4.05954,3.7081
63675471788490,0,0,1.70872,2.14131,4.78243,3.44999,0.17769,4.75295,4.05822,3.70568
63675471788506,0,0,1.75645,2.12694,4.78038,3.43688,0.15393,4.75312,4.05558,3.70427
63675471788540,0,0,1.80477,2.11259,4.78036,3.45784,0.15365,4.7537,4.05535,3.70384
63675471788573,0,0,1.79509,2.10833,4.77936,3.4623,0.13317,4.75334,4.05311,3.70105
63675471788606,0,0,1.77276,2.09647,4.779,3.44727,0.12695,4.75373,4.05274,3.70557
63675471788623,0,0,1.8431,2.08678,4.77864,3.45379,0.12567,4.75332,4.05293,3.69777
63675471788673,0,0,1.80603,2.06989,4.77809,3.45641,0.14987,4.75368,4.05118,3.69909
63675471788689,0,0,1.77869,2.06625,4.77914,3.45964,0.15354,4.75438,4.0515,3.69949
63675471788723,0,0,1.77036,2.06048,4.77964,3.4549,0.16137,4.75462,4.05322,3.7002
63675471788772,0,0,1.74515,2.07446,4.78022,3.44126,0.16818,4.75418,4.05211,3.69735
63675471788788,0,0,1.72062,2.05829,4.77981,3.45766,0.18055,4.75343,4.0518,3.69557
63675471788822,0,0,1.68058,2.05712,4.78052,3.47258,0.18375,4.75286,4.05146,3.70333
63675471788870,0,0,1.74799,2.03358,4.78029,3.46124,0.17454,4.75196,4.05517,3.69957
63675471788904,0,0,1.7235,2.03483,4.78038,3.459,0.17153,4.75108,4.05414,3.70182
63675471788937,0,0,1.7245,2.02342,4.78,3.49627,0.17406,4.75039,4.05327,3.70055
63675471788971,0,0,1.71444,2.02468,4.78025,3.49367,0.17635,4.75043,4.05163,3.70484
63675471788987,0,0,1.69099,2.03474,4.78085,3.49927,0.17669,4.75083,4.05143,3.70582
63675471789004,0,0,1.71823,2.0273,4.78023,3.49367,0.1804,4.75067,4.05014,3.69774
63675471789053,0,0,1.68325,2.03674,4.78082,3.5102,0.18936,4.75031,4.05091,3.69913
63675471789070,0,0,1.63511,2.02886,4.78149,3.52188,0.18863,4.75111,4.04785,3.70097
63675471789104,0,0,1.65896,2.03512,4.78126,3.51162,0.1896,4.75115,4.04831,3.69653
63675471789153,0,0,1.64146,2.02009,4.78145,3.48722,0.17529,4.75234,4.05025,3.6923
63675471789186,0,0,1.65185,2.00726,4.78115,3.48764,0.17303,4.752,4.04957,3.69011
63675471789219,0,0,1.61433,1.9994,4.78247,3.49702,0.16033,4.75363,4.04952,3.69235
63675471789251,0,0,1.64148,1.99722,4.78086,3.48963,0.15592,4.75378,4.04796,3.6947
63675471789268,0,0,1.69613,1.98287,4.78138,3.48509,0.15203,4.75441,4.04833,3.69007
63675471789285,0,0,1.70616,1.96138,4.78076,3.49482,0.15474,4.75455,4.04757,3.69246
63675471789318,0,0,1.71553,1.94647,4.78031,3.49038,0.17107,4.75418,4.04517,3.69131
63675471789352,0,0,1.71153,1.92671,4.78039,3.49329,0.1734,4.75403,4.04322,3.69238
63675471789368,0,0,1.77635,1.93395,4.78006,3.50655,0.17389,4.75416,4.04285,3.69255
63675471789401,0,0,1.76658,1.92706,4.78171,3.4906,0.18479,4.75423,4.04116,3.69286
63675471789451,0,0,1.78278,1.89854,4.78051,3.51004,0.19687,4.75258,4.04311,3.69913
63675471789484,0,0,1.76776,1.92461,4.78079,3.50607,0.20529,4.75183,4.04334,3.69719
63675471789534,0,0,1.79597,1.94036,4.78003,3.5085,0.19451,4.75144,4.04694,3.69443
63675471789567,0,0,1.76441,1.96834,4.7796,3.48904,0.21364,4.75107,4.04795,3.69286
63675471789600,0,0,1.77279,1.98414,4.77923,3.4938,0.20311,4.75133,4.04899,3.6898
63675471789634,0,0,1.74516,2.00778,4.77783,3.49518,0.20595,4.75016,4.049,3.69549
63675471789650,0,0,1.76317,2.01965,4.77917,3.49107,0.1974,4.75093,4.04754,3.69425
63675471789683,0,0,1.75764,2.039,4.77872,3.47202,0.22139,4.75102,4.0473,3.68884
63675471789699,0,0,1.77333,2.02822,4.77974,3.4734,0.2187,4.7518,4.04642,3.68754
63675471789732,0,0,1.75698,2.03203,4.77974,3.46097,0.20922,4.75175,4.04611,3.68752
63675471789765,0,0,1.80684,1.98382,4.78056,3.47594,0.18299,4.75253,4.04557,3.69278
63675471789782,0,0,1.81525,1.97967,4.77994,3.45358,0.17796,4.75275,4.04606,3.6937
63675471789832,0,0,1.78842,1.96215,4.78076,3.46887,0.16247,4.75265,4.04753,3.69004
63675471789849,0,0,1.80379,1.96119,4.78096,3.45545,0.16555,4.75185,4.0494,3.68708
63675471789865,0,0,1.79416,1.9284,4.78109,3.45782,0.14242,4.75214,4.04885,3.68034
63675471789899,0,0,1.79898,1.93986,4.78092,3.451,0.1236,4.75248,4.0497,3.68158
63675471789932,0,0,1.8132,1.92243,4.7801,3.44159,0.129,4.7518,4.05299,3.67667
63675471789948,0,0,1.80014,1.91214,4.77944,3.4519,0.12873,4.75082,4.05255,3.67615
63675471789981,0,0,1.76572,1.93222,4.77867,3.45961,0.1376,4.74929,4.05542,3.66828
63675471790031,0,0,1.77409,1.93403,4.77709,3.44172,0.13101,4.75085,4.05433,3.66792
63675471790065,0,0,1.74536,1.94475,4.77763,3.44688,0.13945,4.75042,4.05658,3.67323
63675471790097,0,0,1.71701,1.93479,4.77835,3.46341,0.14136,4.75006,4.05636,3.67272
63675471790130,0,0,1.72526,1.92462,4.77843,3.46471,0.15023,4.75107,4.05688,3.67338
63675471790146,0,0,1.72709,1.91782,4.78013,3.46479,0.15308,4.75206,4.05686,3.67114
63675471790179,0,0,1.72426,1.90256,4.78046,3.471,0.15838,4.75224,4.0574,3.67297
63675471790213,0,0,1.69444,1.88818,4.7808,3.47413,0.16048,4.75215,4.05764,3.67433
63675471790230,0,0,1.68748,1.8853,4.78059,3.46654,0.1657,4.75195,4.05936,3.67491
63675471790263,0,0,1.71259,1.8681,4.78106,3.45863,0.16504,4.75287,4.05961,3.66348
63675471790279,0,0,1.71579,1.86131,4.78092,3.47745,0.16704,4.75299,4.05997,3.66378
63675471790312,0,0,1.68192,1.87152,4.78139,3.47888,0.15982,4.75302,4.05913,3.66807
63675471790346,0,0,1.71329,1.86439,4.78019,3.47538,0.17996,4.75255,4.05863,3.66726
63675471790362,0,0,1.67797,1.87382,4.78026,3.46167,0.18237,4.75287,4.05937,3.66431
63675471790412,0,0,1.68571,1.86567,4.7791,3.47323,0.17457,4.75246,4.05687,3.66268
63675471790429,0,0,1.70073,1.85526,4.77898,3.48224,0.16659,4.7525,4.05335,3.65891
63675471790445,0,0,1.70245,1.85367,4.77923,3.48761,0.18786,4.75248,4.0543,3.66517
63675471790477,0,0,1.7069,1.8455,4.77857,3.48756,0.18175,4.75179,4.05243,3.66597
63675471790510,0,0,1.7107,1.83052,4.77687,3.45678,0.17423,4.75151,4.05167,3.66478
63675471790527,0,0,1.63411,1.83648,4.77681,3.45449,0.14773,4.75133,4.04975,3.66442
63675471790560,0,0,1.69475,1.83196,4.77643,3.45556,0.14669,4.75238,4.04703,3.66279
63675471790611,0,0,1.64377,1.83486,4.77776,3.45597,0.15515,4.7523,4.04973,3.66513
63675471790644,0,0,1.63082,1.82608,4.77788,3.45508,0.13139,4.75219,4.04943,3.66377
63675471790660,0,0,1.6072,1.83477,4.77778,3.4443,0.1399,4.75294,4.04823,3.66293
63675471790693,0,0,1.59514,1.83779,4.77883,3.45011,0.14162,4.75322,4.04823,3.66181
63675471790727,0,0,1.67305,1.81814,4.77867,3.44257,0.15126,4.75447,4.04758,3.65546
63675471790744,0,0,1.68031,1.81591,4.77865,3.44813,0.16299,4.75503,4.0475,3.65621
63675471790793,0,0,1.70511,1.79456,4.77792,3.44766,0.16654,4.75514,4.04795,3.65566
63675471790809,0,0,1.77116,1.77852,4.7776,3.44902,0.17614,4.75671,4.0487,3.65603
63675471790826,0,0,1.74168,1.7814,4.77672,3.44181,0.19263,4.75631,4.0487,3.65661
63675471790860,0,0,1.732,1.78121,4.7768,3.44954,0.1897,4.75543,4.0466,3.65734
63675471790892,0,0,1.77248,1.79174,4.77705,3.45727,0.19658,4.75541,4.04611,3.65468
63675471790926,0,0,1.74746,1.7903,4.77792,3.47514,0.182,4.75622,4.04937,3.65306
63675471790943,0,0,1.7447,1.78326,4.77798,3.46711,0.18116,4.75624,4.04821,3.6509
63675471790992,0,0,1.71603,1.80154,4.77838,3.47828,0.1821,4.75712,4.04663,3.65032
63675471791008,0,0,1.72787,1.80733,4.77895,3.47154,0.1758,4.75646,4.04641,3.64425
63675471791024,0,0,1.69999,1.81677,4.77796,3.48622,0.16541,4.75647,4.04309,3.64589
63675471791057,0,0,1.77576,1.81799,4.77742,3.49268,0.15644,4.75606,4.04314,3.64273
63675471791090,0,0,1.75509,1.79365,4.77536,3.49448,0.1609,4.75753,4.0452,3.64044
63675471791107,0,0,1.71217,1.79391,4.77461,3.48234,0.15926,4.7572,4.04237,3.63703
63675471791141,0,0,1.71147,1.79066,4.7743,3.45847,0.15297,4.7566,4.04431,3.63647
63675471791190,0,0,1.7402,1.77583,4.77388,3.4493,0.14177,4.75686,4.04385,3.63602
63675471791224,0,0,1.72021,1.76592,4.77416,3.44216,0.1359,4.75677,4.04548,3.63566
63675471791273,0,0,1.70844,1.75064,4.77577,3.42958,0.1154,4.75729,4.04723,3.63076
63675471791307,0,0,1.65159,1.74523,4.77878,3.41439,0.12036,4.75808,4.04711,3.62994
63675471791339,0,0,1.72917,1.73427,4.77865,3.43728,0.1151,4.75756,4.04772,3.62933
63675471791373,0,0,1.70507,1.72881,4.77878,3.4365,0.11301,4.75776,4.04798,3.62861
63675471791388,0,0,1.69992,1.72086,4.77949,3.44014,0.1081,4.75774,4.04659,3.62625
63675471791405,0,0,1.6836,1.71021,4.77905,3.43959,0.11479,4.75815,4.04643,3.62146
63675471791439,0,0,1.73271,1.69712,4.78035,3.42906,0.12177,4.7586,4.04645,3.61816
63675471791472,0,0,1.73844,1.69049,4.78021,3.43863,0.12205,4.75826,4.04361,3.61453
63675471791489,0,0,1.74954,1.68311,4.77862,3.46748,0.11619,4.7582,4.04357,3.61581
63675471791521,0,0,1.7423,1.67272,4.77957,3.46357,0.12225,4.75927,4.04036,3.60417
63675471791571,0,0,1.67689,1.65344,4.77956,3.49577,0.14153,4.75869,4.04057,3.60797
63675471791604,0,0,1.74235,1.66055,4.78072,3.48469,0.14574,4.75986,4.04166,3.60556
63675471791638,0,0,1.67771,1.6669,4.77927,3.49673,0.12899,4.75928,4.04062,3.60831
63675471791671,0,0,1.6718,1.66704,4.77872,3.51947,0.14602,4.7589,4.04031,3.61513
63675471791688,0,0,1.71266,1.66805,4.77889,3.50411,0.14959,4.75904,4.04113,3.60796
63675471791721,0,0,1.70643,1.66868,4.77876,3.51003,0.15234,4.75954,4.04124,3.61281
63675471791753,0,0,1.74774,1.66227,4.77851,3.50849,0.13624,4.75892,4.04032,3.60837
63675471791769,0,0,1.76106,1.66379,4.77826,3.47802,0.13511,4.76029,4.04247,3.60454
63675471791803,0,0,1.73603,1.63841,4.7768,3.46227,0.13821,4.75996,4.04145,3.60178
63675471791820,0,0,1.69093,1.62818,4.77542,3.4893,0.13838,4.759,4.04031,3.60644
63675471791870,0,0,1.66669,1.63013,4.77585,3.48544,0.1712,4.75854,4.04227,3.60533
63675471791886,0,0,1.62512,1.61637,4.7756,3.46342,0.14807,4.75827,4.04282,3.59898
63675471791903,0,0,1.67043,1.61232,4.77472,3.46311,0.14249,4.75756,4.04365,3.5982
63675471791953,0,0,1.62722,1.6124,4.77497,3.46981,0.14283,4.75773,4.04505,3.59826
63675471791969,0,0,1.55595,1.6131,4.77531,3.50214,0.16028,4.75786,4.04365,3.5981
63675471791985,0,0,1.53262,1.63183,4.77622,3.50925,0.1576,4.75822,4.04446,3.59861
63675471792019,0,0,1.5462,1.63374,4.77735,3.50493,0.15453,4.75897,4.04609,3.59594
63675471792052,0,0,1.62251,1.61512,4.77747,3.50224,0.11933,4.75918,4.04468,3.58745
63675471792069,0,0,1.62221,1.60149,4.77707,3.49622,0.11639,4.76,4.04336,3.58437
63675471792102,0,0,1.66183,1.59622,4.77718,3.51527,0.11653,4.76038,4.04262,3.58919
63675471792151,0,0,1.67875,1.5823,4.77696,3.48601,0.12229,4.76074,4.03697,3.57891
63675471792184,0,0,1.71973,1.55704,4.77773,3.49623,0.12481,4.76028,4.0361,3.57308
63675471792217,0,0,1.73016,1.55037,4.77793,3.50406,0.1425,4.7611,4.03478,3.56984
63675471792251,0,0,1.67992,1.54609,4.7777,3.50111,0.16141,4.7613,4.03568,3.57423
63675471792268,0,0,1.66497,1.55315,4.77807,3.50724,0.16474,4.76123,4.0345,3.5715
63675471792301,0,0,1.60141,1.55,4.77809,3.50577,0.16176,4.76129,4.0351,3.56632
63675471792318,0,0,1.57446,1.54087,4.7792,3.51279,0.153,4.76151,4.03532,3.56797
63675471792350,0,0,1.54986,1.53917,4.77715,3.48698,0.1635,4.76064,4.03529,3.56418
63675471792383,0,0,1.5895,1.51659,4.77754,3.49009,0.15439,4.76173,4.03576,3.55911
63675471792433,0,0,1.54232,1.51438,4.77196,3.46525,0.1396,4.75986,4.03619,3.55268
63675471792466,0,0,1.56488,1.52012,4.7705,3.45996,0.13999,4.76032,4.03649,3.55774
63675471792482,0,0,1.58714,1.50702,4.76998,3.46054,0.139,4.75985,4.03506,3.55773
63675471792532,0,0,1.58031,1.51029,4.76952,3.45852,0.14446,4.76001,4.03656,3.55075
63675471792549,0,0,1.6147,1.51789,4.77007,3.47044,0.13456,4.76075,4.03663,3.55404
63675471792566,0,0,1.57418,1.52731,4.77047,3.48566,0.13062,4.76035,4.03629,3.56176
63675471792599,0,0,1.62292,1.5348,4.77111,3.51114,0.12133,4.76168,4.0359,3.56186
63675471792632,0,0,1.66885,1.52269,4.77358,3.5021,0.1099,4.7624,4.03794,3.56765
63675471792648,0,0,1.61945,1.52991,4.77409,3.49904,0.11317,4.76339,4.03688,3.56639
63675471792682,0,0,1.654,1.51574,4.77519,3.49028,0.12618,4.76358,4.03817,3.55835
63675471792732,0,0,1.66855,1.48707,4.77523,3.48164,0.15881,4.76406,4.03851,3.56276
63675471792764,0,0,1.70114,1.466,4.77389,3.47154,0.1597,4.76295,4.0393,3.55817
63675471792782,0,0,1.65983,1.4677,4.77366,3.45001,0.16379,4.76247,4.03962,3.55851
63675471792830,0,0,1.6376,1.4671,4.77318,3.44553,0.16234,4.76256,4.03766,3.55014
63675471792846,0,0,1.72033,1.45624,4.77157,3.42327,0.17088,4.76126,4.03826,3.54951
63675471792863,0,0,1.71651,1.46182,4.772,3.4258,0.17129,4.76103,4.03765,3.55387
63675471792913,0,0,1.6578,1.48584,4.77171,3.42134,0.17241,4.76039,4.03731,3.55168
63675471792929,0,0,1.68617,1.48544,4.77042,3.42283,0.17351,4.75988,4.03654,3.54323
63675471792946,0,0,1.66225,1.48864,4.76965,3.41705,0.15565,4.75996,4.03632,3.54306
63675471792980,0,0,1.65427,1.49378,4.77015,3.41746,0.17203,4.76142,4.03631,3.54145
63675471793013,0,0,1.63811,1.46821,4.76771,3.42631,0.19357,4.75993,4.03459,3.53989
63675471793029,0,0,1.60761,1.44752,4.76759,3.44109,0.19659,4.75979,4.034,3.53863
63675471793062,0,0,1.58588,1.43141,4.76743,3.43669,0.20418,4.76047,4.03305,3.53273
63675471793112,0,0,1.72229,1.45082,4.76529,3.43371,0.21344,4.7603,4.03163,3.54273
63675471793146,0,0,1.75212,1.4238,4.76426,3.43633,0.2296,4.75988,4.03163,3.54304
63675471793179,0,0,1.74771,1.4071,4.76384,3.43283,0.23196,4.76013,4.03273,3.54326
63675471793211,0,0,1.73796,1.40627,4.76454,3.40355,0.23827,4.75999,4.03278,3.55859
63675471793228,0,0,1.76117,1.41098,4.76392,3.40196,0.22509,4.76047,4.03111,3.55582
63675471793261,0,0,1.76065,1.40415,4.76449,3.38345,0.21326,4.76209,4.03003,3.55079
63675471793278,0,0,1.65338,1.36097,4.76686,3.353,0.20685,4.76278,4.03156,3.54936
63675471793311,0,0,1.6294,1.33679,4.7659,3.3293,0.19561,4.7617,4.03065,3.54955
63675471793344,0,0,1.62526,1.32606,4.76871,3.33164,0.18407,4.76323,4.03023,3.54366
63675471793360,0,0,1.64821,1.34303,4.76855,3.32471,0.17216,4.76216,4.02902,3.54118
63675471793394,0,0,1.65202,1.35551,4.76902,3.34056,0.19112,4.76278,4.02929,3.52861
63675471793427,0,0,1.63524,1.34078,4.76964,3.32093,0.19886,4.76284,4.03235,3.53066
63675471793444,0,0,1.63177,1.34845,4.76931,3.32485,0.19014,4.76244,4.0335,3.53652
63675471793493,0,0,1.59851,1.36476,4.76941,3.33454,0.19931,4.76253,4.03401,3.54186
63675471793509,0,0,1.68103,1.335,4.76826,3.33506,0.18468,4.7619,4.03364,3.53927
63675471793526,0,0,1.64098,1.33648,4.76947,3.36236,0.17689,4.76312,4.03454,3.53774
63675471793559,0,0,1.57347,1.34368,4.76683,3.35483,0.18239,4.7621,4.03316,3.54178
63675471793592,0,0,1.56684,1.31527,4.76581,3.36282,0.16675,4.76077,4.03407,3.53528
63675471793609,0,0,1.62879,1.30446,4.76562,3.38607,0.16315,4.76102,4.03371,3.53024
63675471793642,0,0,1.59713,1.29995,4.76585,3.39006,0.16957,4.76118,4.03364,3.52513
63675471793693,0,0,1.60197,1.31984,4.76397,3.40839,0.18361,4.76273,4.03549,3.52537
63675471793725,0,0,1.64527,1.32333,4.76365,3.40499,0.18017,4.76236,4.0357,3.52242
63675471793758,0,0,1.66309,1.31506,4.76291,3.40725,0.19429,4.7631,4.03514,3.52064
63675471793792,0,0,1.69427,1.29387,4.76338,3.41811,0.18772,4.76343,4.03722,3.51588
63675471793808,0,0,1.65079,1.30388,4.76274,3.40443,0.18062,4.76424,4.03496,3.52029
63675471793841,0,0,1.67033,1.30033,4.76274,3.39992,0.19658,4.76446,4.03488,3.52564
63675471793890,0,0,1.64233,1.30141,4.76372,3.39663,0.1875,4.76327,4.03354,3.52469
63675471793907,0,0,1.6956,1.26645,4.76387,3.39034,0.17463,4.76298,4.03258,3.52233
63675471793940,0,0,1.65926,1.26371,4.76513,3.39064,0.18221,4.76345,4.03296,3.52035
63675471793958,0,0,1.67594,1.26129,4.7661,3.39608,0.17623,4.76255,4.03221,3.52288
63675471793990,0,0,1.66699,1.27032,4.76589,3.39468,0.17572,4.76234,4.03202,3.51812
63675471794023,0,0,1.74247,1.26141,4.76625,3.3951,0.17313,4.76235,4.03305,3.51052
63675471794073,0,0,1.729,1.26956,4.76663,3.3961,0.15949,4.76173,4.03262,3.51066
63675471794090,0,0,1.69029,1.27949,4.76622,3.40583,0.16742,4.7611,4.03296,3.50424
63675471794123,0,0,1.63906,1.28179,4.76379,3.40479,0.18038,4.7612,4.0334,3.50389
63675471794173,0,0,1.58742,1.29478,4.76252,3.4034,0.1959,4.75988,4.03315,3.49905
63675471794205,0,0,1.58255,1.30574,4.76423,3.42205,0.19057,4.76012,4.03255,3.5076
63675471794239,0,0,1.53409,1.3285,4.76412,3.43737,0.20495,4.76027,4.03171,3.50606
63675471794272,0,0,1.54831,1.32264,4.76357,3.43366,0.19257,4.76055,4.03205,3.50631
63675471794305,0,0,1.50018,1.34315,4.76507,3.43559,0.19554,4.76168,4.03169,3.5089
63675471794322,0,0,1.52445,1.34779,4.76583,3.44595,0.19191,4.76161,4.03242,3.51326
63675471794371,0,0,1.5456,1.33193,4.76646,3.43899,0.17955,4.76218,4.03338,3.51272
63675471794388,0,0,1.56389,1.31142,4.76426,3.43188,0.18509,4.76194,4.03452,3.51055
63675471794421,0,0,1.54791,1.30683,4.76377,3.40837,0.18072,4.76181,4.03571,3.50531
63675471794470,0,0,1.5709,1.30942,4.76313,3.40644,0.17479,4.76286,4.03611,3.50876
63675471794487,0,0,1.59368,1.31034,4.76348,3.3967,0.18869,4.76214,4.03663,3.51239
63675471794521,0,0,1.60434,1.30175,4.76336,3.39368,0.19001,4.76149,4.03734,3.50806
63675471794538,0,0,1.64813,1.32544,4.76274,3.4068,0.19987,4.76191,4.03609,3.5066
63675471794569,0,0,1.62261,1.30771,4.76201,3.39096,0.2096,4.76232,4.03629,3.50667
63675471794602,0,0,1.61741,1.30695,4.76248,3.38293,0.20742,4.76202,4.03621,3.51071
63675471794652,0,0,1.62815,1.30943,4.76282,3.38196,0.20696,4.76211,4.03389,3.5202
63675471794669,0,0,1.5998,1.28919,4.76265,3.39799,0.21286,4.76239,4.03299,3.52008
63675471794702,0,0,1.60442,1.28394,4.76213,3.40243,0.20181,4.76222,4.03337,3.51576
63675471794719,0,0,1.65022,1.26927,4.76061,3.40603,0.20045,4.76355,4.03243,3.51503
63675471794752,0,0,1.59418,1.24839,4.76104,3.40583,0.18368,4.76435,4.03338,3.51797
63675471794785,0,0,1.51575,1.25183,4.75982,3.40909,0.18509,4.76467,4.03183,3.514
63675471794819,0,0,1.49551,1.24083,4.75963,3.41827,0.19036,4.76482,4.03333,3.50814
63675471794852,0,0,1.52624,1.23337,4.75896,3.42318,0.17891,4.76488,4.0329,3.50758
63675471794869,0,0,1.56906,1.24415,4.7584,3.41638,0.18444,4.76554,4.03193,3.50763
63675471794918,0,0,1.56233,1.23338,4.75719,3.42891,0.17804,4.76482,4.03306,3.50922
63675471794951,0,0,1.56886,1.22982,4.75758,3.44108,0.17723,4.76398,4.03282,3.51084
63675471794968,0,0,1.63726,1.22506,4.75872,3.44038,0.17565,4.76481,4.03197,3.51758
63675471795001,0,0,1.65035,1.24544,4.75757,3.45701,0.1712,4.76493,4.03173,3.51604
63675471795017,0,0,1.65382,1.24936,4.75689,3.45221,0.17989,4.7644,4.03112,3.51791
63675471795050,0,0,1.66462,1.22998,4.75567,3.44686,0.19276,4.76429,4.02987,3.51389
63675471795083,0,0,1.58374,1.22799,4.75595,3.45265,0.18684,4.7641,4.03101,3.51734
63675471795134,0,0,1.56588,1.23122,4.75578,3.44595,0.18407,4.7646,4.03009,3.51858
63675471795150,0,0,1.5726,1.23251,4.75757,3.44197,0.18422,4.76528,4.02985,3.5123
63675471795167,0,0,1.55103,1.22575,4.75621,3.44229,0.18614,4.76467,4.02936,3.50883
63675471795199,0,0,1.52639,1.19973,4.75712,3.43245,0.18255,4.76421,4.02985,3.5044
63675471795233,0,0,1.524,1.19945,4.75543,3.42292,0.17669,4.76437,4.02699,3.50714
63675471795266,0,0,1.51453,1.19818,4.75533,3.43776,0.17475,4.76433,4.02377,3.50537
63675471795299,0,0,1.54174,1.19561,4.75505,3.44173,0.17619,4.7644,4.02391,3.50293
63675471795333,0,0,1.55266,1.19865,4.75477,3.42473,0.17465,4.76427,4.02232,3.50024
63675471795365,0,0,1.59414,1.19168,4.75401,3.41796,0.17624,4.76348,4.02456,3.49866
63675471795398,0,0,1.5553,1.23228,4.75438,3.42179,0.19169,4.76392,4.02469,3.50316
63675471795432,0,0,1.52385,1.25435,4.75464,3.44433,0.19151,4.76432,4.02534,3.49978
63675471795447,0,0,1.54375,1.25153,4.75564,3.43486,0.20124,4.76474,4.0244,3.49786
63675471795482,0,0,1.58201,1.24012,4.75591,3.39818,0.20712,4.76478,4.02446,3.49704
63675471795531,0,0,1.5624,1.23667,4.75467,3.40939,0.21337,4.76462,4.02559,3.49665
63675471795548,0,0,1.51718,1.22549,4.75478,3.41702,0.21618,4.76454,4.02325,3.50292
63675471795580,0,0,1.53628,1.21374,4.7548,3.4184,0.22307,4.76416,4.0228,3.50078
63675471795597,0,0,1.58157,1.19172,4.75539,3.41971,0.22936,4.76358,4.02351,3.49313
63675471795646,0,0,1.61361,1.14845,4.75414,3.40208,0.23105,4.76319,4.02599,3.49218
63675471795663,0,0,1.58237,1.15493,4.75336,3.42568,0.23544,4.76354,4.0264,3.49097
63675471795713,0,0,1.61595,1.14871,4.75301,3.42017,0.23959,4.76352,4.02529,3.49146
63675471795730,0,0,1.65137,1.14285,4.75314,3.43172,0.24257,4.76378,4.02522,3.49055
63675471795762,0,0,1.67231,1.14022,4.75301,3.42662,0.25563,4.76386,4.02549,3.49337
63675471795812,0,0,1.66736,1.12476,4.75248,3.41363,0.24378,4.76458,4.02494,3.50221
63675471795829,0,0,1.63139,1.14158,4.75291,3.42224,0.25037,4.76443,4.02523,3.50142
63675471795846,0,0,1.59908,1.17686,4.75545,3.43047,0.23596,4.76376,4.02543,3.49977
63675471795879,0,0,1.60172,1.18785,4.75349,3.42684,0.23103,4.76314,4.02513,3.50178
63675471795912,0,0,1.57866,1.16859,4.75452,3.42752,0.22433,4.76244,4.02403,3.50225
