63675471845677,0,0,2.72261,0.92847,4.71534,3.98433,2.27186,4.34476,4.11359,3.02386
63675471845727,0,0,2.70549,0.93565,4.71111,3.98193,2.2819,4.34243,4.11927,3.01314
63675471845778,0,0,2.70899,0.91329,4.70583,3.97949,2.2818,4.34417,4.11445,3.0211
63675471845811,0,0,2.69877,0.94076,4.70287,3.97829,2.27917,4.34025,4.12048,3.00783
63675471845827,0,0,2.69167,0.94164,4.6988,3.97594,2.28351,4.34147,4.11517,2.99875
63675471845860,0,0,2.67821,0.93672,4.69467,3.97608,2.29603,4.33817,4.11945,2.99392
63675471845893,0,0,2.67867,0.92553,4.69153,3.96859,2.29828,4.33849,4.11507,2.98433
63675471845910,0,0,2.66035,0.95784,4.68706,3.96797,2.32777,4.33667,4.10438,2.97795
63675471845927,0,0,2.6699,0.94945,4.68679,3.96459,2.31661,4.33185,4.09637,2.98105
63675471845960,0,0,2.67352,0.97291,4.68949,3.96305,2.33347,4.33008,4.09122,2.97857
63675471845994,0,0,2.66583,0.95747,4.69152,3.96186,2.33703,4.32942,4.09258,2.97497
63675471846010,0,0,2.66139,0.96241,4.69562,3.96033,2.35283,4.33118,4.08711,2.97897
63675471846027,0,0,2.6657,0.96727,4.69739,3.96039,2.34929,4.33121,4.08609,2.97756
63675471846058,0,0,2.65908,0.98017,4.70109,3.96335,2.34414,4.33248,4.07736,2.98044
63675471846092,0,0,2.65597,0.95665,4.70478,3.96424,2.34737,4.33313,4.07595,2.97867
63675471846109,0,0,2.64707,0.94873,4.70651,3.96152,2.33752,4.33209,4.08044,2.97621
63675471846142,0,0,2.63941,0.92832,4.7101,3.96221,2.35897,4.33685,4.08822,2.97738
63675471846159,0,0,2.63988,0.90813,4.71516,3.96055,2.36526,4.34101,4.08774,2.97879
63675471846192,0,0,2.63364,0.89567,4.71595,3.95912,2.35943,4.33856,4.08894,2.97768
63675471846208,0,0,2.63764,0.87669,4.72059,3.95673,2.36147,4.34041,4.09592,2.9753
63675471846242,0,0,2.63838,0.88212,4.72226,3.9508,2.37764,4.33754,4.09844,2.97461
63675471846292,0,0,2.6409,0.88122,4.7264,3.95262,2.386,4.33712,4.10549,2.97354
63675471846325,0,0,2.63171,0.9014,4.73116,3.95332,2.3941,4.34063,4.10954,2.96947
63675471846341,0,0,2.63757,0.88551,4.72835,3.94953,2.40015,4.3375,4.11001,2.96913
63675471846391,0,0,2.63363,0.85388,4.73174,3.95028,2.4025,4.33777,4.1113,2.9696
63675471846424,0,0,2.62934,0.84654,4.7278,3.95115,2.4315,4.33972,4.11217,2.96233
63675471846457,0,0,2.61961,0.85325,4.72564,3.94811,2.43614,4.34226,4.11116,2.96065
63675471846490,0,0,2.61869,0.83049,4.72318,3.94159,2.44773,4.34297,4.11287,2.95114
63675471846506,0,0,2.6224,0.80883,4.71813,3.93896,2.45103,4.34386,4.11562,2.95175
63675471846540,0,0,2.61766,0.80965,4.71471,3.94122,2.45175,4.3448,4.11637,2.95105
63675471846573,0,0,2.61707,0.82772,4.70831,3.93473,2.45103,4.34473,4.11834,2.94775
63675471846606,0,0,2.61329,0.8002,4.69985,3.93012,2.4702,4.3446,4.11822,2.94245
63675471846639,0,0,2.60466,0.79774,4.69557,3.92687,2.46971,4.34318,4.11691,2.93552
63675471846672,0,0,2.59555,0.7682,4.69242,3.92548,2.46542,4.34345,4.11709,2.92524
63675471846689,0,0,2.59216,0.77223,4.68738,3.92623,2.47239,4.34041,4.11653,2.92283
63675471846723,0,0,2.59531,0.76492,4.68441,3.92336,2.48067,4.34073,4.11311,2.92049
63675471846772,0,0,2.58627,0.7455,4.68185,3.9217,2.4871,4.33864,4.11134,2.9099
63675471846788,0,0,2.5808,0.75478,4.68218,3.92243,2.47632,4.33515,4.11073,2.90392
63675471846821,0,0,2.5766,0.7601,4.6845,3.9226,2.47873,4.3366,4.10626,2.90146
63675471846870,0,0,2.58761,0.76326,4.68629,3.91982,2.48255,4.33381,4.10764,2.90426
63675471846904,0,0,2.5826,0.78022,4.69898,3.91784,2.48562,4.33313,4.10294,2.8928
63675471846937,0,0,2.58076,0.77644,4.70361,3.91553,2.49314,4.33342,4.10462,2.88513
63675471846971,0,0,2.57947,0.80449,4.70661,3.91452,2.49005,4.33315,4.09853,2.88412
63675471847003,0,0,2.57155,0.80502,4.71241,3.9144,2.4914,4.33451,4.09617,2.87612
63675471847054,0,0,2.55685,0.79646,4.71289,3.91376,2.49261,4.33562,4.09151,2.86756
63675471847086,0,0,2.5726,0.80567,4.71491,3.91485,2.50221,4.3368,4.09379,2.86894
63675471847119,0,0,2.56757,0.77878,4.71669,3.91294,2.49162,4.33478,4.09002,2.86489
63675471847153,0,0,2.56046,0.74526,4.71768,3.91546,2.49268,4.33385,4.09133,2.86244
63675471847203,0,0,2.56207,0.73507,4.71982,3.92071,2.49688,4.33615,4.0992,2.87255
63675471847219,0,0,2.56269,0.73128,4.71618,3.9138,2.50441,4.33679,4.09169,2.86291
63675471847252,0,0,2.54822,0.75384,4.71159,3.91434,2.51242,4.33732,4.08827,2.86192
63675471847269,0,0,2.55506,0.74944,4.71372,3.91299,2.50879,4.33607,4.08532,2.86386
63675471847302,0,0,2.54057,0.79201,4.70991,3.90948,2.51587,4.33811,4.09072,2.85302
63675471847351,0,0,2.54747,0.79994,4.70705,3.90619,2.52302,4.33933,4.09085,2.85425
63675471847368,0,0,2.53616,0.80926,4.70366,3.90574,2.52565,4.33859,4.09375,2.83942
63675471847385,0,0,2.53207,0.81956,4.70054,3.89498,2.52807,4.33724,4.08621,2.82902
63675471847418,0,0,2.53069,0.81194,4.69803,3.89508,2.52134,4.33491,4.09505,2.83033
63675471847451,0,0,2.53981,0.80451,4.69262,3.88973,2.52408,4.33501,4.10601,2.82387
63675471847484,0,0,2.53099,0.79192,4.68792,3.88734,2.52092,4.33446,4.10192,2.82367
63675471847517,0,0,2.52977,0.7923,4.68575,3.88537,2.52386,4.33244,4.10333,2.81869
63675471847550,0,0,2.5245,0.7758,4.68155,3.88374,2.52104,4.33145,4.10288,2.81115
63675471847583,0,0,2.51794,0.78341,4.67495,3.87987,2.52429,4.33195,4.10373,2.80688
63675471847600,0,0,2.52196,0.77686,4.67267,3.881,2.52851,4.33029,4.10532,2.81009
63675471847633,0,0,2.5166,0.76049,4.67094,3.88016,2.53141,4.32945,4.10547,2.81099
63675471847667,0,0,2.52247,0.78602,4.66942,3.87848,2.53533,4.32895,4.10584,2.80406
63675471847699,0,0,2.53246,0.77101,4.66894,3.87718,2.54485,4.3285,4.10585,2.80516
63675471847733,0,0,2.53291,0.77523,4.67386,3.8743,2.54705,4.32765,4.10417,2.8053
63675471847766,0,0,2.53054,0.75276,4.67427,3.87228,2.54933,4.32574,4.10434,2.80123
63675471847783,0,0,2.53541,0.74989,4.67576,3.87619,2.54844,4.32607,4.10119,2.80605
63675471847831,0,0,2.52913,0.75469,4.67709,3.8722,2.54806,4.32509,4.1023,2.79044
63675471847848,0,0,2.52631,0.74058,4.68258,3.87044,2.55286,4.32499,4.10148,2.79262
63675471847881,0,0,2.51324,0.75712,4.68611,3.87234,2.54664,4.32449,4.09902,2.77579
63675471847931,0,0,2.50958,0.76752,4.68904,3.87216,2.55223,4.32565,4.09927,2.77372
63675471847948,0,0,2.51094,0.74998,4.68834,3.87492,2.55529,4.3246,4.09788,2.77148
63675471847964,0,0,2.51115,0.76057,4.69337,3.87944,2.55606,4.32673,4.10148,2.77162
63675471847998,0,0,2.50863,0.78523,4.70261,3.8788,2.57098,4.32804,4.09685,2.76373
63675471848030,0,0,2.50207,0.78078,4.70586,3.87793,2.5694,4.32773,4.09185,2.75814
63675471848064,0,0,2.49309,0.78038,4.70822,3.87905,2.5741,4.3298,4.09184,2.74563
63675471848114,0,0,2.50143,0.78581,4.70992,3.8787,2.57836,4.32944,4.08475,2.75413
63675471848130,0,0,2.49657,0.76119,4.71198,3.87883,2.58026,4.33049,4.08403,2.75537
63675471848147,0,0,2.49136,0.75573,4.71402,3.86776,2.58588,4.33115,4.07523,2.74517
63675471848180,0,0,2.48788,0.75446,4.71543,3.86429,2.57859,4.33015,4.07282,2.7387
63675471848213,0,0,2.48251,0.74135,4.71433,3.86215,2.57969,4.32979,4.07527,2.73863
63675471848230,0,0,2.4864,0.73074,4.71611,3.86293,2.58479,4.32996,4.07319,2.74108
63675471848262,0,0,2.48139,0.71628,4.71357,3.86208,2.58346,4.3294,4.07481,2.73142
63675471848313,0,0,2.46975,0.7088,4.71065,3.85933,2.58732,4.32899,4.07734,2.71094
63675471848329,0,0,2.46131,0.69035,4.71038,3.86203,2.59276,4.3291,4.07612,2.69875
63675471848362,0,0,2.46163,0.6812,4.70771,3.86304,2.59314,4.32762,4.07914,2.6954
63675471848379,0,0,2.45915,0.66536,4.70434,3.86182,2.59746,4.32933,4.0758,2.68991
63675471848412,0,0,2.45513,0.6735,4.69886,3.86091,2.59857,4.32826,4.07831,2.68194
63675471848445,0,0,2.4559,0.67229,4.6966,3.86021,2.59483,4.32935,4.07252,2.6767
63675471848478,0,0,2.45453,0.69234,4.68925,3.85369,2.59342,4.32793,4.07015,2.67407
63675471848512,0,0,2.45782,0.69347,4.68502,3.85167,2.59047,4.32607,4.07284,2.67506
63675471848544,0,0,2.45019,0.70123,4.68151,3.84594,2.58867,4.32793,4.06887,2.66556
63675471848561,0,0,2.44898,0.69721,4.67725,3.84337,2.59232,4.32565,4.07342,2.66604
63675471848610,0,0,2.44801,0.69856,4.6745,3.83826,2.58565,4.3238,4.07372,2.66794
63675471848627,0,0,2.44065,0.68939,4.66995,3.83148,2.58726,4.32503,4.07188,2.66375
63675471848661,0,0,2.4481,0.67094,4.6679,3.83073,2.58712,4.32359,4.07539,2.65797
63675471848709,0,0,2.43611,0.69234,4.66721,3.82448,2.60017,4.3224,4.07794,2.64837
63675471848742,0,0,2.45192,0.67294,4.66602,3.82356,2.60017,4.32239,4.07697,2.6567
63675471848793,0,0,2.44706,0.67107,4.66536,3.82028,2.60712,4.32184,4.07677,2.63869
63675471848809,0,0,2.44456,0.63768,4.66614,3.818,2.60794,4.32022,4.07907,2.63718
63675471848843,0,0,2.45237,0.63587,4.66761,3.81728,2.61242,4.31884,4.07683,2.63848
63675471848892,0,0,2.44678,0.64761,4.66697,3.81672,2.60971,4.31668,4.08078,2.63498
63675471848909,0,0,2.4401,0.62067,4.67026,3.82032,2.61187,4.31513,4.07955,2.62603
63675471848926,0,0,2.43319,0.64737,4.6718,3.81996,2.61854,4.31542,4.07627,2.6237
63675471848959,0,0,2.42937,0.61827,4.67418,3.81874,2.62056,4.31473,4.07626,2.61251
63675471848992,0,0,2.4288,0.63031,4.67852,3.81916,2.61884,4.31341,4.07367,2.61151
63675471849009,0,0,2.41995,0.66823,4.68108,3.81976,2.62469,4.31343,4.07386,2.60493
63675471849041,0,0,2.41349,0.67628,4.68396,3.82071,2.62392,4.31347,4.0719,2.59742
63675471849090,0,0,2.41531,0.65826,4.69283,3.8109,2.63645,4.31596,4.06954,2.58362
63675471849124,0,0,2.4031,0.64773,4.69573,3.80763,2.63821,4.31478,4.06544,2.57274
63675471849157,0,0,2.39774,0.6596,4.69843,3.80582,2.64275,4.31618,4.06727,2.57269
63675471849190,0,0,2.38606,0.65258,4.69689,3.80162,2.64798,4.31571,4.06442,2.56593
63675471849207,0,0,2.40361,0.62125,4.69721,3.80042,2.6501,4.31746,4.06464,2.5654
63675471849240,0,0,2.39559,0.64765,4.69857,3.79658,2.65681,4.31704,4.06061,2.55978
63675471849274,0,0,2.38605,0.65927,4.70122,3.79517,2.65773,4.31819,4.06093,2.55849
63675471849290,0,0,2.38216,0.66322,4.70177,3.80045,2.65775,4.31712,4.05681,2.56128
63675471849323,0,0,2.38468,0.67045,4.70149,3.796,2.66554,4.31949,4.057,2.55625
63675471849340,0,0,2.38534,0.6727,4.69886,3.79796,2.67164,4.32,4.0522,2.55385
63675471849373,0,0,2.38902,0.68381,4.69832,3.80142,2.67732,4.31953,4.05126,2.55078
63675471849406,0,0,2.36917,0.69215,4.69971,3.80114,2.67731,4.32002,4.05271,2.53871
63675471849423,0,0,2.36962,0.66444,4.69774,3.80535,2.67605,4.31912,4.05192,2.5369
63675471849472,0,0,2.3702,0.65958,4.69618,3.80306,2.68001,4.31867,4.05364,2.52834
63675471849489,0,0,2.36741,0.67192,4.69306,3.80631,2.68511,4.3188,4.05334,2.52254
63675471849506,0,0,2.36558,0.6495,4.69173,3.80528,2.68817,4.31879,4.05457,2.52996
63675471849538,0,0,2.36759,0.64384,4.68956,3.8016,2.69048,4.31819,4.05621,2.53152
63675471849571,0,0,2.36867,0.63745,4.68775,3.79892,2.69038,4.31861,4.05852,2.52989
63675471849588,0,0,2.3762,0.64396,4.68508,3.79532,2.69127,4.31786,4.05786,2.52987
63675471849621,0,0,2.38026,0.64186,4.67905,3.78207,2.70041,4.31645,4.05938,2.53294
63675471849671,0,0,2.37181,0.62905,4.67288,3.77795,2.7005,4.31558,4.05934,2.51945
63675471849704,0,0,2.35954,0.63429,4.6691,3.77791,2.69638,4.3154,4.05903,2.50451
63675471849738,0,0,2.35378,0.61417,4.66533,3.78021,2.69808,4.31453,4.05777,2.49902
63675471849771,0,0,2.34959,0.62588,4.66461,3.77957,2.69965,4.31415,4.05935,2.49431
63675471849787,0,0,2.34539,0.61299,4.66169,3.78099,2.69729,4.31266,4.06028,2.49243
63675471849821,0,0,2.34585,0.61879,4.66097,3.78097,2.69912,4.31277,4.06102,2.48302
63675471849853,0,0,2.34676,0.60202,4.65712,3.78237,2.69857,4.31199,4.06094,2.48017
63675471849870,0,0,2.33712,0.5888,4.65559,3.77671,2.70035,4.31141,4.0617,2.48015
63675471849903,0,0,2.33595,0.58438,4.65383,3.77373,2.70201,4.30974,4.06259,2.47958
63675471849919,0,0,2.33983,0.59336,4.65961,3.77135,2.70607,4.30679,4.06785,2.47612
63675471849952,0,0,2.33775,0.58284,4.66027,3.76777,2.70556,4.30606,4.06702,2.47313
63675471849986,0,0,2.33282,0.57282,4.66074,3.7637,2.7079,4.30413,4.06935,2.47097
63675471850002,0,0,2.33105,0.56473,4.66166,3.76045,2.70919,4.30428,4.07144,2.46898
63675471850052,0,0,2.33276,0.59854,4.66489,3.76299,2.71214,4.30254,4.07519,2.46044
63675471850084,0,0,2.33611,0.60119,4.66891,3.76419,2.714,4.30232,4.07553,2.46208
63675471850118,0,0,2.332,0.60165,4.67102,3.76234,2.71663,4.30231,4.07337,2.45838
63675471850151,0,0,2.32664,0.60021,4.66945,3.7625,2.71755,4.30326,4.07285,2.4564
63675471850167,0,0,2.32733,0.61479,4.67278,3.76285,2.72615,4.30529,4.07163,2.44728
63675471850201,0,0,2.33273,0.60418,4.67524,3.76677,2.7283,4.30559,4.0691,2.44729
63675471850251,0,0,2.325,0.58404,4.67828,3.76092,2.73585,4.30744,4.0651,2.44219
63675471850284,0,0,2.32284,0.57982,4.67762,3.75937,2.73796,4.30929,4.0658,2.4395
63675471850333,0,0,2.33672,0.57397,4.67903,3.75404,2.74129,4.31068,4.06436,2.43089
63675471850367,0,0,2.33125,0.54516,4.67978,3.74833,2.74249,4.31073,4.06222,2.43147
63675471850399,0,0,2.33541,0.55866,4.68185,3.74593,2.75025,4.31178,4.06468,2.43462
63675471850433,0,0,2.33211,0.55705,4.68182,3.73681,2.74804,4.31106,4.06173,2.43493
63675471850450,0,0,2.33672,0.55263,4.68392,3.73012,2.75217,4.3121,4.06065,2.43001
63675471850466,0,0,2.33959,0.57676,4.68312,3.72947,2.7555,4.31183,4.0608,2.42495
63675471850532,0,0,2.3252,0.56922,4.68361,3.73145,2.7621,4.31247,4.05987,2.42274
63675471850566,0,0,2.32071,0.59296,4.68299,3.73213,2.7654,4.31275,4.05583,2.41416
63675471850582,0,0,2.3179,0.60352,4.68125,3.72765,2.76205,4.31223,4.0548,2.41037
63675471850632,0,0,2.30916,0.62614,4.6811,3.73126,2.76697,4.31265,4.05165,2.40862
63675471850665,0,0,2.31326,0.62029,4.6805,3.7308,2.77551,4.31244,4.04763,2.40164
63675471850698,0,0,2.30173,0.60861,4.67839,3.7263,2.77625,4.31248,4.05036,2.39724
63675471850731,0,0,2.29428,0.61376,4.6748,3.71956,2.77861,4.31206,4.05009,2.39102
63675471850747,0,0,2.2941,0.6096,4.67514,3.71638,2.77964,4.31103,4.04751,2.38789
63675471850781,0,0,2.29521,0.58669,4.67263,3.7219,2.78027,4.31031,4.04881,2.38321
63675471850797,0,0,2.28801,0.57602,4.66963,3.71917,2.78093,4.3079,4.04954,2.37221
63675471850830,0,0,2.28677,0.56782,4.66928,3.7187,2.78159,4.30759,4.05053,2.37001
63675471850863,0,0,2.27828,0.5696,4.66683,3.71686,2.7815,4.3071,4.05078,2.36603
63675471850880,0,0,2.28358,0.57442,4.66779,3.72117,2.78449,4.30674,4.05162,2.3679
63675471850914,0,0,2.28784,0.58258,4.66698,3.71966,2.78449,4.3057,4.0503,2.36977
63675471850947,0,0,2.29377,0.57559,4.66622,3.72201,2.79121,4.30564,4.0497,2.36676
63675471850963,0,0,2.2844,0.5672,4.662,3.72081,2.78933,4.30516,4.05018,2.36131
63675471851013,0,0,2.28058,0.56803,4.65839,3.71806,2.79539,4.30469,4.05142,2.36528
63675471851030,0,0,2.28638,0.56371,4.65537,3.7174,2.80087,4.30462,4.05299,2.3644
63675471851046,0,0,2.27946,0.58328,4.65224,3.71364,2.80182,4.30349,4.05134,2.36262
63675471851079,0,0,2.28271,0.56236,4.64953,3.7104,2.80741,4.30241,4.05097,2.36737
63675471851111,0,0,2.27814,0.54548,4.64791,3.70838,2.81193,4.30148,4.05197,2.36059
63675471851128,0,0,2.27243,0.54455,4.64643,3.70519,2.81134,4.30125,4.0514,2.35677
63675471851161,0,0,2.27235,0.54321,4.64291,3.70325,2.81462,4.30075,4.05027,2.35501
63675471851211,0,0,2.26895,0.53392,4.64182,3.7001,2.82346,4.30021,4.05053,2.35292
63675471851245,0,0,2.26495,0.56132,4.64163,3.70016,2.82831,4.29984,4.05113,2.35302
63675471851277,0,0,2.258,0.5501,4.64342,3.70377,2.82654,4.29975,4.0493,2.33797
63675471851311,0,0,2.24768,0.57532,4.64224,3.70346,2.83268,4.29954,4.05103,2.32701
63675471851328,0,0,2.24186,0.57052,4.64426,3.70313,2.8346,4.29903,4.05109,2.32226
63675471851361,0,0,2.24921,0.57028,4.64787,3.70445,2.84194,4.29875,4.05194,2.32813
63675471851378,0,0,2.24991,0.58773,4.65047,3.70592,2.84492,4.29905,4.05112,2.32444
63675471851410,0,0,2.24457,0.58418,4.65306,3.70277,2.84613,4.29897,4.05199,2.31732
63675471851443,0,0,2.24392,0.56333,4.65439,3.70201,2.84401,4.29808,4.05018,2.31467
63675471851459,0,0,2.24677,0.55811,4.65445,3.69826,2.84605,4.29901,4.05077,2.31875
63675471851493,0,0,2.24885,0.56894,4.6566,3.69844,2.85025,4.29766,4.05193,2.31244
63675471851526,0,0,2.24911,0.53368,4.66056,3.69581,2.84917,4.29853,4.0506,2.30891
63675471851543,0,0,2.23975,0.54075,4.66346,3.6926,2.85482,4.29926,4.04962,2.30163
63675471851592,0,0,2.22545,0.55455,4.66533,3.69444,2.85655,4.29956,4.0487,2.29665
63675471851609,0,0,2.23224,0.55581,4.66481,3.69314,2.85626,4.30091,4.04816,2.28795
63675471851626,0,0,2.22342,0.55471,4.66719,3.6919,2.86101,4.30126,4.04616,2.28368
63675471851659,0,0,2.22275,0.57597,4.66797,3.68753,2.86013,4.30228,4.04991,2.27172
63675471851691,0,0,2.22342,0.57131,4.66762,3.68423,2.87008,4.30208,4.04777,2.27142
63675471851708,0,0,2.21724,0.58491,4.66659,3.6819,2.86883,4.30322,4.04744,2.26785
63675471851742,0,0,2.21672,0.58174,4.66715,3.67655,2.87215,4.30242,4.03157,2.26162
63675471851792,0,0,2.23501,0.55695,4.65937,3.6717,2.86991,4.31116,4.02456,2.26539
63675471851824,0,0,2.22819,0.55284,4.65858,3.66986,2.8732,4.31361,4.01811,2.27342
63675471851841,0,0,2.22058,0.5492,4.65791,3.6732,2.87892,4.31443,4.01773,2.27391
63675471851891,0,0,2.21222,0.55139,4.65798,3.67746,2.87717,4.31381,4.01615,2.2737
63675471851907,0,0,2.21995,0.54981,4.65716,3.67528,2.88029,4.3132,4.01886,2.28135
63675471851924,0,0,2.22744,0.55082,4.65803,3.68009,2.87656,4.3136,4.03138,2.28557
63675471851973,0,0,2.22334,0.54466,4.66323,3.67633,2.8751,4.30786,4.0413,2.27059
63675471851990,0,0,2.22533,0.54957,4.66402,3.67807,2.88494,4.30674,4.03613,2.27284
63675471852007,0,0,2.21845,0.55732,4.66415,3.67445,2.89428,4.30565,4.04101,2.26386
63675471852039,0,0,2.21375,0.56139,4.66382,3.67306,2.89929,4.30612,4.03997,2.25737
63675471852073,0,0,2.21026,0.52712,4.66387,3.67361,2.90001,4.30572,4.04172,2.25768
63675471852089,0,0,2.21172,0.53707,4.66324,3.67189,2.90049,4.30591,4.03998,2.24718
63675471852123,0,0,2.20309,0.53111,4.66062,3.67095,2.9068,4.3061,4.03907,2.24237
63675471852173,0,0,2.19037,0.5136,4.65901,3.66904,2.90713,4.30439,4.03633,2.24186
63675471852205,0,0,2.20734,0.51617,4.6567,3.66967,2.90655,4.30282,4.0367,2.24407
63675471852238,0,0,2.2098,0.50315,4.65615,3.67392,2.90648,4.3023,4.0358,2.24312
63675471852272,0,0,2.21092,0.53477,4.65501,3.67148,2.91,4.30009,4.03452,2.23906
63675471852288,0,0,2.21508,0.53954,4.65708,3.66696,2.91371,4.30192,4.03366,2.24185
63675471852322,0,0,2.21135,0.51458,4.65549,3.66438,2.91916,4.30081,4.03438,2.2417
63675471852338,0,0,2.20583,0.53992,4.6562,3.66485,2.91942,4.30098,4.03378,2.23967
63675471852371,0,0,2.20075,0.55552,4.65219,3.66424,2.92451,4.30066,4.03542,2.2261
63675471852405,0,0,2.17218,0.54874,4.65045,3.66344,2.92394,4.29924,4.03772,2.21421
63675471852421,0,0,2.17569,0.57599,4.64887,3.66042,2.92499,4.29958,4.03474,2.2177
63675471852471,0,0,2.17123,0.54978,4.64568,3.65765,2.92569,4.29914,4.03733,2.21603
63675471852488,0,0,2.16605,0.55303,4.6437,3.66096,2.92948,4.29952,4.03299,2.21038
63675471852504,0,0,2.16057,0.55681,4.64037,3.65777,2.92874,4.29745,4.03507,2.20013
63675471852537,0,0,2.1644,0.55093,4.63852,3.65605,2.93141,4.29857,4.0338,2.19839
63675471852570,0,0,2.1661,0.54183,4.6371,3.65361,2.93898,4.29763,4.03775,2.20259
63675471852587,0,0,2.17375,0.53364,4.63786,3.64879,2.9403,4.29681,4.03627,2.19946
63675471852620,0,0,2.17822,0.52629,4.63813,3.64774,2.94455,4.29547,4.03906,2.19437
63675471852652,0,0,2.1737,0.52202,4.63763,3.64618,2.94725,4.29567,4.03787,2.19024
63675471852669,0,0,2.16991,0.5174,4.63881,3.63932,2.94905,4.29384,4.04039,2.1837
63675471852703,0,0,2.17738,0.5061,4.64119,3.63902,2.95472,4.2927,4.04257,2.18654
63675471852752,0,0,2.16863,0.50625,4.6445,3.64033,2.9556,4.29069,4.04125,2.17212
63675471852786,0,0,2.16825,0.5156,4.64427,3.63801,2.95994,4.29067,4.03638,2.17003
63675471852818,0,0,2.1682,0.51508,4.64614,3.63363,2.95995,4.29027,4.03738,2.16656
63675471852852,0,0,2.16503,0.50946,4.64885,3.63454,2.96197,4.28977,4.03817,2.16434
63675471852868,0,0,2.16793,0.50125,4.64888,3.63326,2.96473,4.28953,4.04007,2.1607
63675471852901,0,0,2.17231,0.50472,4.65093,3.63283,2.96979,4.29019,4.03975,2.16003
63675471852918,0,0,2.16274,0.50449,4.65137,3.63063,2.96994,4.29082,4.04258,2.1534
63675471852951,0,0,2.15529,0.48148,4.65238,3.6295,2.97428,4.29308,4.04194,2.15426
63675471852968,0,0,2.15377,0.4659,4.6537,3.63015,2.97369,4.29389,4.04384,2.1574
63675471853001,0,0,2.15146,0.48716,4.65338,3.62741,2.97616,4.29484,4.04731,2.15646
63675471853050,0,0,2.15375,0.47515,4.65296,3.62535,2.97918,4.29616,4.04554,2.15113
63675471853067,0,0,2.15175,0.46707,4.6516,3.62312,2.98105,4.29691,4.04764,2.15184
63675471853084,0,0,2.14985,0.47352,4.65279,3.62432,2.98319,4.29746,4.04308,2.15177
63675471853133,0,0,2.14426,0.48579,4.65122,3.62283,2.9823,4.29832,4.04342,2.1451
63675471853167,0,0,2.15658,0.47481,4.65073,3.62421,2.99043,4.29852,4.04472,2.14584
63675471853199,0,0,2.15392,0.46221,4.65024,3.62374,2.99894,4.29839,4.04665,2.13887
63675471853233,0,0,2.15622,0.46442,4.64893,3.62404,3.00204,4.29825,4.0447,2.14118
63675471853249,0,0,2.15214,0.4698,4.65236,3.62425,3.00336,4.29864,4.04511,2.1297
63675471853282,0,0,2.14756,0.45559,4.65105,3.62673,3.00661,4.29832,4.0474,2.12664
63675471853332,0,0,2.14968,0.4574,4.65167,3.6195,3.0186,4.29763,4.04748,2.125
63675471853365,0,0,2.14738,0.47334,4.65099,3.61497,3.01466,4.29697,4.04821,2.11937
63675471853382,0,0,2.13864,0.47347,4.64956,3.61467,3.0192,4.29815,4.04537,2.11975
63675471853431,0,0,2.14095,0.49363,4.64925,3.61457,3.01584,4.29725,4.04516,2.11737
63675471853448,0,0,2.14285,0.48127,4.65257,3.61574,3.01543,4.29777,4.04324,2.1101
63675471853464,0,0,2.14256,0.47288,4.64998,3.61216,3.02045,4.2977,4.04378,2.1107
63675471853498,0,0,2.13071,0.4797,4.65022,3.60684,3.0206,4.2979,4.03963,2.09776
63675471853531,0,0,2.13414,0.46828,4.6516,3.60863,3.02408,4.29725,4.04012,2.09535
63675471853548,0,0,2.13327,0.47532,4.6525,3.60449,3.02565,4.29795,4.04084,2.09462
63675471853581,0,0,2.13566,0.50236,4.65339,3.60329,3.02875,4.29757,4.03792,2.09413
63675471853614,0,0,2.13466,0.48075,4.65332,3.60054,3.03224,4.29801,4.03773,2.09193
63675471853630,0,0,2.12347,0.48016,4.6505,3.59906,3.03831,4.29816,4.03635,2.09017
63675471853663,0,0,2.12274,0.48724,4.64991,3.59769,3.03022,4.29794,4.0359,2.09236
63675471853714,0,0,2.13036,0.51723,4.64571,3.59472,3.03723,4.29729,4.03509,2.09437
63675471853747,0,0,2.1256,0.52513,4.64459,3.59467,3.03509,4.29634,4.0338,2.09065
63675471853780,0,0,2.12627,0.48587,4.63995,3.59099,3.03536,4.29557,4.0316,2.08055
63675471853812,0,0,2.12325,0.49053,4.63912,3.58787,3.03435,4.29582,4.03072,2.07746
63675471853829,0,0,2.12282,0.51527,4.6362,3.58751,3.03384,4.29499,4.03038,2.07661
63675471853862,0,0,2.11681,0.5411,4.63553,3.58839,3.03623,4.29513,4.03073,2.06627
63675471853912,0,0,2.10441,0.50143,4.63496,3.58619,3.03009,4.29293,4.03119,2.0609
63675471853945,0,0,2.10528,0.52682,4.63194,3.58343,3.03164,4.29373,4.02876,2.05892
63675471853978,0,0,2.10169,0.52772,4.63349,3.58584,3.0334,4.2928,4.02951,2.05567
63675471854011,0,0,2.09383,0.55168,4.63051,3.58463,3.03484,4.29088,4.0316,2.04616
63675471854028,0,0,2.09405,0.54112,4.63094,3.58299,3.03964,4.28958,4.03077,2.04435
63675471854061,0,0,2.09927,0.50927,4.63043,3.57893,3.0435,4.289,4.03123,2.04254
63675471854111,0,0,2.10193,0.51822,4.62871,3.58059,3.0438,4.28886,4.03113,2.04119
63675471854128,0,0,2.10336,0.47915,4.62868,3.57861,3.05082,4.2889,4.02849,2.03267
63675471854161,0,0,2.10444,0.46612,4.62731,3.57895,3.05048,4.28879,4.0271,2.02804
63675471854193,0,0,2.10058,0.47121,4.62641,3.57638,3.04886,4.28731,4.0264,2.02659
63675471854210,0,0,2.09917,0.44221,4.62863,3.5766,3.05033,4.28733,4.02384,2.0177
63675471854244,0,0,2.09624,0.42975,4.6276,3.57591,3.05263,4.28694,4.02487,2.01235
63675471854293,0,0,2.08838,0.44396,4.63005,3.57551,3.05644,4.28646,4.02432,2.0076
63675471854309,0,0,2.07735,0.46324,4.63136,3.57186,3.05993,4.28632,4.02359,2.00177
63675471854342,0,0,2.07891,0.45608,4.63203,3.57084,3.06204,4.28615,4.02452,2.00384
63675471854359,0,0,2.07887,0.47805,4.63273,3.566,3.06173,4.28659,4.02437,2.00172
63675471854392,0,0,2.0764,0.47193,4.6335,3.5645,3.06855,4.2879,4.02547,1.9978
63675471854425,0,0,2.07182,0.50265,4.6363,3.55976,3.07364,4.28851,4.02529,1.9979
63675471854458,0,0,2.06675,0.51873,4.6359,3.55727,3.07181,4.28818,4.02477,1.99353
63675471854491,0,0,2.06106,0.50608,4.63529,3.55059,3.07403,4.28917,4.02472,1.99009
63675471854525,0,0,2.06118,0.49947,4.63771,3.54791,3.0729,4.28909,4.02702,1.98862
63675471854541,0,0,2.06423,0.51434,4.6366,3.54652,3.07141,4.28908,4.02885,1.98566
63675471854591,0,0,2.06471,0.49515,4.63708,3.54515,3.07854,4.28981,4.02885,1.9859
63675471854608,0,0,2.07092,0.5094,4.63582,3.54625,3.07587,4.28943,4.02999,1.98723
63675471854640,0,0,2.07574,0.48952,4.63403,3.54361,3.0783,4.29015,4.03223,1.99694
63675471854657,0,0,2.07588,0.45864,4.63489,3.54351,3.08201,4.29059,4.03122,1.99074
63675471854691,0,0,2.07236,0.47881,4.6339,3.5465,3.08515,4.29112,4.031,1.99192
63675471854724,0,0,2.07323,0.49056,4.63063,3.55201,3.07406,4.29175,4.01402,2.00275
63675471854774,0,0,2.06582,0.48764,4.62277,3.54842,3.08041,4.29041,3.99838,1.99605
63675471854791,0,0,2.05894,0.48883,4.61982,3.54803,3.07987,4.28969,3.99155,1.9939
63675471854807,0,0,2.05057,0.46134,4.62151,3.5462,3.07807,4.29006,3.9902,1.98695
63675471854840,0,0,2.04776,0.47136,4.62123,3.54865,3.08295,4.28969,3.98852,1.97701
63675471854872,0,0,2.04582,0.49042,4.62151,3.54946,3.06923,4.29009,3.98869,1.97417
63675471854906,0,0,2.04311,0.46076,4.62457,3.54852,3.08459,4.28813,4.00795,1.98876
63675471854938,0,0,2.03673,0.45836,4.6294,3.55105,3.08477,4.28684,4.01842,1.98138
63675471854972,0,0,2.03929,0.46254,4.63329,3.54964,3.09765,4.28993,4.02643,1.97464
63675471855005,0,0,2.03691,0.45828,4.63479,3.54593,3.08751,4.28703,4.04315,1.95387
63675471855038,0,0,2.04544,0.47565,4.63173,3.54996,3.10374,4.29134,4.0386,1.9879
63675471855071,0,0,2.05374,0.47121,4.63082,3.54391,3.1161,4.29157,4.03884,1.99627
63675471855088,0,0,2.05909,0.4731,4.63265,3.54172,3.11495,4.29115,4.04423,2.00643
63675471855122,0,0,2.0565,0.45943,4.63106,3.53694,3.11937,4.29195,4.0411,1.97771
63675471855171,0,0,2.05241,0.44607,4.63033,3.53613,3.11384,4.2912,4.04005,1.96665
63675471855188,0,0,2.05615,0.45335,4.63027,3.53607,3.11948,4.29447,4.03439,1.97482
63675471855204,0,0,2.04463,0.46218,4.63147,3.53083,3.11824,4.29105,4.03559,1.95152
63675471855237,0,0,2.03985,0.44612,4.63343,3.5298,3.11325,4.28966,4.04328,1.93778
63675471855270,0,0,2.03034,0.44026,4.63322,3.53385,3.11405,4.29029,4.0421,1.92082
63675471855303,0,0,2.02637,0.43975,4.62997,3.53247,3.11367,4.2893,4.03968,1.91046
63675471855353,0,0,2.01648,0.46255,4.62708,3.53143,3.10964,4.2905,4.04071,1.89979
63675471855369,0,0,2.01898,0.46362,4.62756,3.53147,3.10893,4.29066,4.03856,1.90111
63675471855386,0,0,2.01119,0.45513,4.62633,3.53279,3.11812,4.28986,4.03979,1.90332
63675471855419,0,0,2.01013,0.46669,4.62711,3.53117,3.12271,4.29042,4.0387,1.90252
63675471855453,0,0,2.00791,0.46461,4.62637,3.53024,3.12198,4.2883,4.03621,1.89197
63675471855486,0,0,2.00832,0.45979,4.62634,3.52848,3.12813,4.28856,4.03841,1.89201
63675471855520,0,0,2.01116,0.47419,4.6283,3.52712,3.12955,4.28856,4.03626,1.8864
63675471855552,0,0,2.01669,0.45538,4.62882,3.5254,3.13645,4.28918,4.03612,1.89037
63675471855569,0,0,2.02182,0.45984,4.63029,3.52162,3.13941,4.28971,4.035,1.88605
63675471855602,0,0,2.01967,0.43264,4.62789,3.51859,3.14269,4.28904,4.03284,1.88331
63675471855651,0,0,2.0263,0.41825,4.62761,3.51103,3.14679,4.28879,4.03253,1.89067
