63675471959045,0,0,1.81972,1.09014,2.12892,1.25546,1.88274,2.73611,2.95742,1.23074
63675471959062,0,0,1.93114,0.99585,2.14059,1.26851,1.90147,2.74222,2.95113,1.17101
63675471959111,0,0,1.96793,0.95481,2.15549,1.27067,1.90337,2.74396,2.95608,1.18082
63675471959144,0,0,1.89387,0.97995,2.15648,1.26705,1.90445,2.74296,2.95768,1.19973
63675471959160,0,0,1.96068,0.90154,2.13975,1.26067,1.90013,2.74093,2.95533,1.19139
63675471959194,0,0,2.11716,0.98157,2.13057,1.25339,1.89227,2.73748,2.95051,1.15814
63675471959211,0,0,2.04505,1.00547,2.12645,1.25178,1.89058,2.73463,2.95439,1.18385
63675471959243,0,0,1.9423,1.05752,2.13722,1.25318,1.89148,2.73429,2.95732,1.14207
63675471959292,0,0,1.87924,1.0764,2.13458,1.25479,1.8909,2.73268,2.95033,1.14526
63675471959309,0,0,1.87779,1.07798,2.10841,1.2475,1.88359,2.73071,2.94659,1.13539
63675471959342,0,0,1.76409,1.0894,2.11011,1.24667,1.88229,2.72889,2.9515,1.13149
63675471959392,0,0,1.51472,0.98921,2.10026,1.24357,1.88221,2.73066,2.95376,1.14386
63675471959426,0,0,1.46195,0.90215,2.10946,1.24382,1.88151,2.72844,2.9442,1.13794
63675471959458,0,0,1.46777,0.79257,2.10479,1.23883,1.87934,2.72776,2.95123,1.12934
63675471959492,0,0,1.43633,0.79671,2.10088,1.23561,1.87617,2.72566,2.94941,1.14795
63675471959525,0,0,1.34384,0.78294,2.1158,1.24096,1.88213,2.73143,2.95333,1.13965
63675471959558,0,0,1.33715,0.87396,2.11441,1.23914,1.88272,2.73264,2.94841,1.11151
63675471959591,0,0,1.31215,0.86848,2.12975,1.24306,1.88544,2.73081,2.94038,1.11195
63675471959624,0,0,1.29444,0.88854,2.11578,1.24046,1.8835,2.72804,2.94314,1.09536
63675471959641,0,0,1.31153,0.87441,2.10007,1.23628,1.87979,2.72397,2.94405,1.10406
63675471959690,0,0,1.24746,0.88673,2.11142,1.2407,1.88274,2.72492,2.94229,1.07126
63675471959707,0,0,1.26698,0.88887,2.10031,1.23486,1.87772,2.71631,2.93762,1.07733
63675471959740,0,0,1.24358,0.83303,2.10785,1.23648,1.87867,2.7161,2.93732,1.06795
63675471959774,0,0,1.2899,0.78918,2.10122,1.23497,1.87546,2.71371,2.94164,1.08246
63675471959807,0,0,1.16483,0.82791,2.09621,1.23314,1.87436,2.71532,2.9446,1.08416
63675471959839,0,0,1.08562,0.78822,2.11357,1.24046,1.88123,2.71972,2.94114,1.07844
63675471959873,0,0,1.05931,0.81722,2.10084,1.23556,1.88064,2.7185,2.93871,1.09983
63675471959890,0,0,1.13675,0.86756,2.11073,1.23463,1.87889,2.71644,2.94206,1.07971
63675471959922,0,0,1.14046,0.92932,2.10653,1.23744,1.88068,2.71646,2.94005,1.08195
63675471959972,0,0,1.11519,0.90906,2.11137,1.24006,1.88369,2.71821,2.94118,1.08585
63675471959988,0,0,1.14439,0.9204,2.09203,1.23634,1.88157,2.71355,2.94164,1.10365
63675471960022,0,0,1.18436,0.88278,2.07412,1.23247,1.87919,2.71253,2.94209,1.09263
63675471960038,0,0,1.20527,0.93304,2.06788,1.22825,1.87675,2.71041,2.94179,1.09304
63675471960087,0,0,1.22551,0.93199,2.06055,1.22575,1.87254,2.70658,2.94158,1.08369
63675471960121,0,0,1.10648,0.91093,2.05452,1.22042,1.8704,2.7049,2.94121,1.11089
63675471960138,0,0,1.10832,0.93156,2.06744,1.22238,1.87281,2.706,2.94033,1.0839
63675471960171,0,0,1.10139,0.94478,2.05538,1.21953,1.8709,2.7054,2.93804,1.10074
63675471960188,0,0,1.11556,0.8828,2.07366,1.22464,1.87351,2.70671,2.93479,1.0806
63675471960221,0,0,1.02804,0.8983,2.08253,1.22542,1.87577,2.70764,2.93706,1.10271
63675471960254,0,0,1.06151,0.91016,2.0897,1.22788,1.87884,2.70762,2.93629,1.09854
63675471960271,0,0,1.07195,0.84455,2.09851,1.23247,1.88227,2.71227,2.93593,1.10294
63675471960303,0,0,1.16859,0.87165,2.08524,1.22694,1.87911,2.70756,2.93016,1.11298
63675471960353,0,0,1.07274,0.83278,2.0882,1.2282,1.87705,2.70715,2.93569,1.09017
63675471960387,0,0,0.98701,0.80832,2.07954,1.22527,1.87702,2.70784,2.93912,1.11158
63675471960419,0,0,1.01846,0.8272,2.07043,1.22306,1.87364,2.70577,2.9433,1.08892
63675471960452,0,0,1.02943,0.82996,2.07701,1.22554,1.8736,2.70638,2.94022,1.09633
63675471960469,0,0,0.96343,0.84703,2.06996,1.22231,1.87099,2.7056,2.94093,1.08131
63675471960502,0,0,0.96278,0.82551,2.07887,1.22711,1.87482,2.70908,2.93641,1.09172
63675471960518,0,0,1.03279,0.88043,2.07505,1.2249,1.87542,2.70974,2.93265,1.08293
63675471960552,0,0,1.08977,0.87184,2.07323,1.22471,1.87514,2.70743,2.92782,1.09543
63675471960585,0,0,1.13484,0.87374,2.05704,1.22008,1.87271,2.69927,2.91667,1.08964
63675471960602,0,0,1.15246,0.83274,2.06313,1.22071,1.8721,2.7019,2.91457,1.09076
63675471960652,0,0,1.11886,0.85687,2.05466,1.21881,1.87122,2.70232,2.91247,1.09314
63675471960667,0,0,1.13437,0.8868,2.05446,1.21785,1.87091,2.69792,2.91381,1.10187
63675471960684,0,0,1.03256,0.88052,2.04998,1.21599,1.8701,2.69537,2.9121,1.08805
63675471960717,0,0,0.95233,0.88718,2.04394,1.21693,1.86869,2.69273,2.91416,1.09445
63675471960751,0,0,0.94628,0.8751,2.03823,1.21423,1.86669,2.69,2.9158,1.09971
63675471960768,0,0,1.02742,0.87509,2.03746,1.21293,1.86716,2.68993,2.91804,1.09322
63675471960801,0,0,0.98878,0.86373,2.03444,1.21288,1.86751,2.69154,2.91833,1.08234
63675471960851,0,0,1.08794,0.78697,2.02734,1.21152,1.86533,2.6857,2.90957,1.06783
63675471960883,0,0,1.13311,0.81772,2.01398,1.20586,1.86101,2.68323,2.90803,1.08266
63675471960933,0,0,1.1817,0.78129,2.01788,1.20382,1.86069,2.68822,2.9008,1.05698
63675471960966,0,0,1.21356,0.75675,2.00884,1.20227,1.8577,2.68724,2.9004,1.04926
63675471960983,0,0,1.22278,0.77356,2.01463,1.20313,1.85758,2.68573,2.8958,1.03795
63675471961032,0,0,1.19828,0.83682,2.01893,1.20504,1.85865,2.68644,2.89854,1.03152
63675471961049,0,0,1.23585,0.83303,2.02195,1.20396,1.85825,2.69042,2.90028,1.05897
63675471961083,0,0,1.29339,0.80989,2.00891,1.20018,1.85565,2.68766,2.90035,1.05593
63675471961099,0,0,1.28682,0.79343,2.01823,1.20457,1.85799,2.68984,2.8984,1.04792
63675471961132,0,0,1.2822,0.80677,2.01384,1.20551,1.85507,2.68244,2.89968,1.04981
63675471961166,0,0,1.20337,0.86464,2.01524,1.20301,1.85531,2.68148,2.90585,1.05321
63675471961182,0,0,1.19376,0.83909,2.0184,1.2062,1.85782,2.68603,2.90763,1.05754
63675471961231,0,0,1.18552,0.80251,2.01466,1.20247,1.85541,2.68625,2.9077,1.06349
63675471961247,0,0,1.07637,0.87452,2.01473,1.20242,1.85426,2.68374,2.90842,1.05037
63675471961264,0,0,1.03609,0.85699,2.02418,1.2026,1.85305,2.68347,2.91063,1.04946
63675471961297,0,0,1.02246,0.82158,2.03022,1.20278,1.85278,2.68473,2.91176,1.04062
63675471961331,0,0,1.00843,0.81467,2.03893,1.20441,1.85491,2.68589,2.90874,1.0569
63675471961347,0,0,0.97694,0.76746,2.04071,1.20498,1.85738,2.68965,2.9092,1.05651
63675471961381,0,0,0.91941,0.75355,2.04733,1.20644,1.85322,2.68743,2.90728,1.04843
63675471961414,0,0,0.95411,0.73566,2.02992,1.20329,1.85109,2.68604,2.9112,1.04946
63675471961430,0,0,0.91811,0.70837,2.034,1.20335,1.85305,2.68838,2.91085,1.04946
63675471961463,0,0,0.93087,0.73135,2.01722,1.19843,1.84955,2.68468,2.91169,1.03636
63675471961513,0,0,0.90439,0.77246,2.00823,1.1939,1.84743,2.68266,2.91426,1.03604
63675471961547,0,0,0.91033,0.80564,1.99961,1.19287,1.84469,2.68263,2.91271,1.03529
63675471961579,0,0,0.90431,0.81268,2.01635,1.19574,1.84621,2.68162,2.91033,1.04206
63675471961612,0,0,0.99485,0.81357,1.99374,1.18775,1.844,2.6787,2.90965,1.0603
63675471961629,0,0,0.94861,0.82879,2.001,1.18957,1.84501,2.67154,2.90222,1.0559
63675471961662,0,0,0.96674,0.85947,2.00425,1.18861,1.84427,2.66894,2.89956,1.06906
63675471961679,0,0,0.92477,0.83264,1.99161,1.18673,1.84301,2.66758,2.89771,1.07261
63675471961711,0,0,0.97299,0.84902,1.99866,1.18743,1.84518,2.6661,2.89641,1.0702
63675471961745,0,0,0.97294,0.84492,2.00027,1.18759,1.84475,2.66425,2.8971,1.06727
63675471961762,0,0,0.97947,0.84652,1.98744,1.18372,1.84341,2.66122,2.89505,1.07708
63675471961811,0,0,0.91181,0.85224,1.98506,1.18443,1.84384,2.661,2.89419,1.0717
63675471961827,0,0,0.91859,0.86225,1.99196,1.18474,1.84363,2.66047,2.89625,1.06734
63675471961844,0,0,0.97022,0.87784,2.00669,1.19052,1.84464,2.66464,2.89661,1.05627
63675471961894,0,0,0.93487,0.86817,1.99332,1.18702,1.84347,2.66204,2.89479,1.05889
63675471961911,0,0,0.90938,0.84327,1.99036,1.18689,1.83887,2.66075,2.89452,1.04565
63675471961928,0,0,0.9085,0.83168,1.98937,1.18667,1.83922,2.66226,2.89363,1.04822
63675471961960,0,0,0.89978,0.79164,1.99072,1.1855,1.83847,2.66032,2.89339,1.03666
63675471961994,0,0,0.92852,0.80135,1.99815,1.18578,1.83526,2.66266,2.89412,1.02881
63675471962010,0,0,0.89098,0.81265,1.98956,1.18533,1.83436,2.66088,2.89405,1.03669
63675471962043,0,0,0.8803,0.76057,1.9655,1.1774,1.83065,2.65659,2.89445,1.03584
63675471962092,0,0,0.92174,0.70624,1.97684,1.18241,1.83067,2.65297,2.89237,1.02397
63675471962125,0,0,0.95116,0.70768,1.97554,1.18097,1.83072,2.65419,2.89956,1.0274
63675471962159,0,0,0.99517,0.69425,1.97624,1.18051,1.82991,2.65443,2.8964,1.03009
63675471962192,0,0,1.07885,0.6835,1.98302,1.18632,1.83163,2.65267,2.89526,1.03946
63675471962209,0,0,1.08726,0.63369,1.98756,1.18582,1.83099,2.65233,2.8946,1.03552
63675471962226,0,0,1.09239,0.69689,1.99165,1.18643,1.83243,2.65524,2.89654,1.04585
63675471962259,0,0,1.05647,0.73505,1.98891,1.18543,1.83256,2.65548,2.89603,1.04527
63675471962292,0,0,1.01084,0.72942,1.98256,1.18253,1.83183,2.65448,2.89543,1.06137
63675471962309,0,0,0.99006,0.7276,1.98912,1.18421,1.83304,2.65331,2.8962,1.05843
63675471962358,0,0,0.9425,0.70677,1.9914,1.18374,1.83294,2.65255,2.89738,1.04883
63675471962390,0,0,0.93754,0.66526,1.98924,1.18176,1.83422,2.65396,2.90034,1.04495
63675471962407,0,0,0.82228,0.65998,1.97595,1.17672,1.83122,2.65246,2.89913,1.04418
63675471962424,0,0,0.84474,0.69011,1.96778,1.1749,1.82917,2.65244,2.9015,1.04285
63675471962457,0,0,0.78008,0.64307,1.97829,1.17693,1.83013,2.65161,2.90057,1.05455
63675471962490,0,0,0.82503,0.67574,1.97343,1.17647,1.82861,2.64941,2.90212,1.05403
63675471962507,0,0,0.81192,0.67791,1.97841,1.1795,1.82845,2.64965,2.90412,1.03845
63675471962539,0,0,0.89456,0.6801,1.98108,1.18037,1.82823,2.64951,2.9022,1.0468
63675471962573,0,0,0.9014,0.75458,1.97766,1.17814,1.82479,2.64569,2.90501,1.06072
63675471962589,0,0,0.95877,0.73698,1.9689,1.17606,1.82601,2.6448,2.90595,1.0559
63675471962623,0,0,0.96199,0.71229,1.98677,1.17978,1.82881,2.64418,2.90486,1.04521
63675471962672,0,0,1.04495,0.69365,1.98193,1.17897,1.82529,2.64227,2.90641,1.02896
63675471962706,0,0,1.0313,0.71876,1.95929,1.17133,1.8235,2.6411,2.90239,1.05395
63675471962740,0,0,0.93474,0.73294,1.95807,1.16982,1.82292,2.64031,2.90095,1.04376
63675471962772,0,0,0.90205,0.72356,1.96102,1.17198,1.82415,2.64147,2.90494,1.03038
63675471962788,0,0,0.89049,0.75559,1.97176,1.17652,1.82469,2.64231,2.9042,1.02063
63675471962821,0,0,0.89887,0.77525,1.95177,1.17084,1.82047,2.63713,2.90848,1.04171
63675471962838,0,0,0.92611,0.81365,1.96504,1.17456,1.82439,2.63909,2.91023,1.03543
63675471962871,0,0,0.89583,0.79883,1.95124,1.1708,1.81978,2.63624,2.90904,1.05041
63675471962904,0,0,0.90876,0.74044,1.9507,1.17018,1.81951,2.63363,2.90848,1.04973
63675471962921,0,0,0.89482,0.76665,1.95493,1.17083,1.81912,2.6335,2.90635,1.02692
63675471962970,0,0,0.88121,0.77916,1.93697,1.16619,1.81499,2.63117,2.90254,1.05235
63675471962987,0,0,0.91637,0.75837,1.93613,1.16421,1.81458,2.62913,2.89983,1.05511
63675471963004,0,0,0.86844,0.74508,1.93823,1.16402,1.81555,2.63205,2.89747,1.0483
63675471963037,0,0,0.87541,0.68834,1.92766,1.16116,1.81314,2.62835,2.89019,1.04065
63675471963069,0,0,0.85213,0.67762,1.94115,1.16299,1.81433,2.62915,2.8938,1.02798
63675471963087,0,0,0.82705,0.65958,1.95047,1.16624,1.81653,2.63316,2.88934,1.02859
63675471963120,0,0,0.85158,0.5931,1.94755,1.16449,1.81407,2.63193,2.89419,1.04245
63675471963153,0,0,0.84933,0.56975,1.95243,1.16491,1.81477,2.62845,2.89358,1.02864
63675471963170,0,0,0.87105,0.60067,1.94888,1.16589,1.81555,2.62902,2.88937,1.03571
63675471963202,0,0,0.8354,0.68972,1.95512,1.16699,1.81681,2.62878,2.88675,1.04214
63675471963252,0,0,0.90149,0.75859,1.94127,1.16356,1.8135,2.62799,2.88312,1.06414
63675471963286,0,0,0.9473,0.78986,1.94272,1.16407,1.81409,2.6253,2.88043,1.08006
63675471963319,0,0,0.90719,0.80838,1.94272,1.1599,1.81,2.62313,2.88225,1.07053
63675471963352,0,0,0.92116,0.76655,1.94725,1.16286,1.81168,2.62556,2.87942,1.06853
63675471963368,0,0,0.87869,0.70088,1.952,1.16281,1.81101,2.62346,2.88059,1.05985
63675471963402,0,0,0.89465,0.62114,1.94188,1.16127,1.80914,2.62081,2.87596,1.07271
63675471963418,0,0,0.91542,0.55187,1.93849,1.15785,1.80595,2.61787,2.87884,1.0621
63675471963451,0,0,0.93164,0.54468,1.94376,1.16115,1.80879,2.62076,2.88239,1.06795
63675471963484,0,0,0.89488,0.54309,1.94268,1.16093,1.80728,2.61909,2.88412,1.06057
63675471963501,0,0,0.92317,0.55664,1.93862,1.16021,1.8099,2.61644,2.88001,1.05305
63675471963550,0,0,0.96823,0.64831,1.94627,1.16297,1.81203,2.61944,2.8854,1.05249
63675471963567,0,0,1.03083,0.7837,1.94197,1.16316,1.81231,2.62142,2.88234,1.05344
63675471963584,0,0,0.98858,0.8329,1.94225,1.16164,1.81406,2.6207,2.8887,1.05571
63675471963633,0,0,0.96046,0.84454,1.94028,1.16399,1.81457,2.61999,2.88783,1.05563
63675471963650,0,0,0.92051,0.85906,1.94139,1.16444,1.81287,2.61942,2.88632,1.04968
63675471963666,0,0,0.98256,0.86469,1.93421,1.16168,1.81198,2.62,2.88471,1.04404
63675471963700,0,0,1.01367,0.91968,1.93568,1.16721,1.81519,2.62119,2.88405,1.05021
63675471963733,0,0,1.06791,0.92111,1.94501,1.16964,1.81338,2.62224,2.88513,1.03214
63675471963750,0,0,1.03906,0.83867,1.94646,1.16948,1.81262,2.62186,2.88311,1.03153
63675471963782,0,0,1.01168,0.74579,1.95,1.16685,1.80727,2.61895,2.88367,1.02794
63675471963799,0,0,1.00891,0.73562,1.93697,1.16093,1.80406,2.61619,2.87742,1.0276
63675471963832,0,0,1.01415,0.75542,1.93038,1.15971,1.80578,2.61464,2.87771,1.02797
63675471963865,0,0,0.98979,0.75421,1.93803,1.16105,1.8033,2.61294,2.87625,1.02482
63675471963899,0,0,0.9945,0.74891,1.92836,1.15632,1.79997,2.61047,2.87354,1.02695
63675471963932,0,0,1.03758,0.71264,1.9305,1.15886,1.80256,2.61121,2.87086,1.04366
63675471963948,0,0,1.09056,0.75224,1.90722,1.1505,1.79783,2.60282,2.86804,1.05236
63675471963981,0,0,1.07653,0.70339,1.91903,1.1555,1.79943,2.60594,2.86677,1.05258
63675471963998,0,0,1.12375,0.72126,1.8994,1.14908,1.79555,2.6022,2.86343,1.05539
63675471964031,0,0,1.19545,0.75108,1.91547,1.1536,1.79666,2.6054,2.86192,1.05947
63675471964048,0,0,1.18471,0.77922,1.91528,1.15292,1.79785,2.60438,2.86052,1.05516
63675471964081,0,0,1.11643,0.73839,1.91653,1.15254,1.7965,2.60384,2.85538,1.06171
63675471964131,0,0,1.08127,0.73267,1.91224,1.15045,1.79482,2.605,2.85215,1.0393
63675471964163,0,0,1.08737,0.73547,1.90973,1.15122,1.79289,2.60295,2.84835,1.04884
63675471964197,0,0,1.13151,0.83844,1.91788,1.1553,1.79533,2.60281,2.84535,1.04297
63675471964230,0,0,1.13769,0.84599,1.91724,1.15553,1.79403,2.6042,2.84197,1.03715
63675471964246,0,0,1.11898,0.83402,1.90617,1.15076,1.79119,2.59841,2.83939,1.02999
63675471964279,0,0,1.11921,0.79814,1.90716,1.15372,1.79089,2.59804,2.83833,1.0305
63675471964313,0,0,1.16699,0.78633,1.91716,1.15588,1.79229,2.59651,2.83925,1.03602
63675471964329,0,0,1.02688,0.76257,1.91271,1.15281,1.78999,2.5973,2.84171,1.03159
63675471964362,0,0,1.04568,0.77361,1.90052,1.14776,1.78804,2.597,2.84346,1.01695
63675471964412,0,0,1.04745,0.73177,1.90348,1.14786,1.78765,2.59456,2.84434,1.03788
63675471964445,0,0,0.9976,0.71737,1.90872,1.14766,1.78719,2.59634,2.84108,1.05255
63675471964478,0,0,0.99596,0.70246,1.9006,1.14538,1.78711,2.59655,2.84343,1.05949
63675471964512,0,0,0.9386,0.73361,1.89576,1.14553,1.78626,2.59859,2.84431,1.06235
63675471964527,0,0,0.93906,0.79334,1.88462,1.14075,1.78337,2.59542,2.84635,1.04668
63675471964561,0,0,0.95855,0.75608,1.89647,1.14642,1.78538,2.59713,2.84817,1.03832
63675471964578,0,0,0.97909,0.69493,1.89041,1.14306,1.78312,2.59504,2.84908,1.02166
63675471964611,0,0,0.91155,0.69192,1.8859,1.14123,1.78075,2.5922,2.85057,1.02971
63675471964644,0,0,1.07436,0.70921,1.8829,1.14114,1.78121,2.5924,2.8566,1.02709
63675471964661,0,0,1.06354,0.70824,1.88085,1.13905,1.77734,2.58998,2.855,1.02859
63675471964694,0,0,1.08426,0.68048,1.88419,1.13976,1.77711,2.59038,2.8553,1.01883
63675471964711,0,0,1.16211,0.61857,1.89303,1.14313,1.77819,2.5923,2.85908,1.03376
63675471964743,0,0,1.11579,0.68082,1.88725,1.14341,1.77821,2.59152,2.85467,1.04423
63675471964793,0,0,1.15991,0.71314,1.88517,1.13996,1.77551,2.58687,2.85144,1.04418
63675471964809,0,0,1.11698,0.71352,1.88954,1.14065,1.7743,2.58634,2.85292,1.05117
63675471964826,0,0,0.98731,0.69005,1.8858,1.14132,1.77691,2.58605,2.84895,1.03593
63675471964859,0,0,1.00527,0.71614,1.8861,1.14024,1.77396,2.58538,2.84675,1.04028
63675471964893,0,0,1.0349,0.72408,1.88033,1.13852,1.7738,2.58245,2.84542,1.04753
63675471964909,0,0,0.93971,0.74609,1.87273,1.13701,1.77284,2.57851,2.84117,1.0377
63675471964942,0,0,0.97293,0.69031,1.86992,1.13321,1.77074,2.57696,2.84629,1.04243
63675471964959,0,0,1.00164,0.68046,1.87525,1.13686,1.77075,2.57786,2.84276,1.02918
63675471964992,0,0,0.99597,0.63532,1.86112,1.13148,1.76795,2.5758,2.84287,1.03233
63675471965026,0,0,0.97347,0.61367,1.86545,1.13287,1.76747,2.57683,2.84818,1.03328
63675471965057,0,0,1.00787,0.63052,1.86813,1.1329,1.76726,2.57661,2.84636,1.04326
63675471965091,0,0,1.03602,0.63259,1.86173,1.13145,1.76744,2.57408,2.84695,1.03274
63675471965107,0,0,1.05953,0.63333,1.86641,1.1325,1.76749,2.57667,2.84497,1.03999
63675471965124,0,0,0.9917,0.62056,1.86441,1.13281,1.76791,2.57811,2.84109,1.03932
63675471965157,0,0,0.91371,0.5847,1.85749,1.13062,1.76671,2.57353,2.84441,1.04606
63675471965191,0,0,0.95803,0.59784,1.87174,1.1351,1.76956,2.58049,2.8456,1.0251
63675471965224,0,0,0.96331,0.61189,1.86999,1.13476,1.76883,2.57584,2.83891,1.02986
63675471965240,0,0,0.89645,0.62024,1.86684,1.13472,1.76785,2.5781,2.83621,1.03184
63675471965274,0,0,0.86256,0.59131,1.86921,1.13467,1.76514,2.5741,2.83568,1.03198
63675471965307,0,0,0.78231,0.54539,1.87368,1.1332,1.7654,2.57088,2.84033,1.02698
63675471965340,0,0,0.77853,0.55893,1.87128,1.13367,1.7656,2.57407,2.84396,1.02268
63675471965373,0,0,0.82875,0.6046,1.87645,1.13567,1.76664,2.57606,2.84116,1.02798
63675471965389,0,0,0.79326,0.63325,1.87217,1.1361,1.76671,2.57616,2.84099,1.04283
63675471965422,0,0,0.7873,0.62514,1.86919,1.13409,1.76515,2.57138,2.83839,1.03232
63675471965471,0,0,0.79773,0.62439,1.86685,1.13282,1.76484,2.57286,2.83512,1.0262
63675471965488,0,0,0.79219,0.66819,1.85866,1.13183,1.76226,2.57349,2.83195,1.03677
63675471965522,0,0,0.81065,0.64628,1.85323,1.13069,1.76119,2.57137,2.82606,1.02263
63675471965538,0,0,0.84147,0.6492,1.85292,1.12957,1.75877,2.56614,2.82727,1.02674
63675471965571,0,0,0.82395,0.59144,1.84349,1.1246,1.75648,2.56211,2.82737,1.0207
63675471965605,0,0,0.79902,0.57458,1.83367,1.12286,1.755,2.56075,2.83095,1.00941
63675471965638,0,0,0.86544,0.5799,1.8359,1.12206,1.75477,2.56307,2.8316,1.01278
63675471965672,0,0,0.80915,0.52969,1.84144,1.12289,1.75462,2.55845,2.83008,1.01157
63675471965704,0,0,0.8321,0.51891,1.84805,1.1229,1.75371,2.56094,2.83338,0.99653
63675471965721,0,0,0.80585,0.53801,1.85335,1.12327,1.75317,2.55732,2.82888,1.02117
63675471965771,0,0,0.81163,0.57825,1.8528,1.12299,1.75304,2.55904,2.82845,1.02513
63675471965787,0,0,0.83287,0.61951,1.85275,1.12349,1.75385,2.56299,2.82579,1.03612
63675471965853,0,0,0.81986,0.60021,1.84837,1.12291,1.75319,2.55752,2.82463,1.03645
63675471965887,0,0,0.84963,0.61593,1.85329,1.12535,1.75615,2.55466,2.824,1.0418
63675471965919,0,0,0.88171,0.65762,1.84832,1.12377,1.75466,2.55202,2.8286,1.01341
63675471965953,0,0,0.88901,0.6927,1.8509,1.12596,1.75746,2.55177,2.82848,0.99798
63675471965970,0,0,0.82359,0.6878,1.84336,1.12215,1.75436,2.55067,2.8254,1.00987
63675471966003,0,0,0.82851,0.7016,1.8463,1.12306,1.75553,2.54624,2.82718,0.9934
63675471966052,0,0,0.83142,0.73592,1.83491,1.11971,1.75183,2.54422,2.83007,1.01193
63675471966068,0,0,0.84462,0.71775,1.83508,1.12001,1.75125,2.54299,2.82756,1.00187
63675471966101,0,0,0.86019,0.70977,1.82881,1.11768,1.74887,2.54359,2.8268,1.00606
63675471966152,0,0,0.86616,0.6074,1.82085,1.11571,1.74606,2.54068,2.81872,1.03433
63675471966184,0,0,0.86891,0.61671,1.82741,1.11612,1.74875,2.53903,2.81786,1.02812
63675471966218,0,0,0.84679,0.58474,1.82336,1.11401,1.74703,2.54019,2.81624,1.0328
63675471966251,0,0,0.8512,0.59526,1.83168,1.11612,1.74823,2.54168,2.81643,1.00884
63675471966284,0,0,0.83161,0.60922,1.81646,1.11097,1.74541,2.53928,2.81406,1.03927
63675471966317,0,0,0.85387,0.60194,1.81639,1.10632,1.74407,2.53386,2.81569,1.02371
63675471966350,0,0,0.84585,0.58405,1.80937,1.10769,1.74487,2.53636,2.81595,1.02096
63675471966367,0,0,0.91964,0.60461,1.81423,1.10594,1.74075,2.53339,2.81879,1.02869
63675471966400,0,0,0.90586,0.60243,1.8172,1.10938,1.7402,2.53735,2.81621,1.03844
63675471966450,0,0,0.92064,0.54101,1.81685,1.10717,1.73769,2.53328,2.8158,1.05237
63675471966466,0,0,0.93913,0.53705,1.82063,1.10763,1.73727,2.53323,2.81836,1.0432
63675471966483,0,0,0.88314,0.54727,1.82215,1.10997,1.73781,2.53456,2.81661,1.04705
63675471966533,0,0,0.8243,0.55477,1.82214,1.11089,1.73587,2.53317,2.82282,1.03454
63675471966549,0,0,0.81538,0.57197,1.8344,1.11122,1.73745,2.53139,2.82181,1.04827
63675471966583,0,0,0.76796,0.56482,1.8254,1.11182,1.7373,2.53231,2.81929,1.02474
63675471966632,0,0,0.87851,0.57152,1.81828,1.10721,1.73407,2.52428,2.81679,1.00185
63675471966665,0,0,0.90589,0.57801,1.81488,1.10726,1.73257,2.5211,2.81241,0.99107
63675471966698,0,0,0.93416,0.5577,1.81466,1.10808,1.73305,2.5247,2.80883,0.98968
63675471966748,0,0,0.9492,0.52607,1.80021,1.10295,1.73006,2.51988,2.79995,0.99727
63675471966764,0,0,1.01476,0.54493,1.80914,1.10575,1.73147,2.52142,2.80123,0.9926
63675471966798,0,0,0.93771,0.57178,1.8032,1.10664,1.73164,2.52153,2.80089,1.00019
63675471966831,0,0,0.91669,0.57839,1.8089,1.10448,1.73072,2.52117,2.79842,1.00355
63675471966864,0,0,0.9019,0.51657,1.81861,1.10675,1.73452,2.52911,2.80298,0.99904
63675471966914,0,0,0.97764,0.55008,1.825,1.10859,1.73656,2.52666,2.8046,0.99628
63675471966947,0,0,0.91849,0.52971,1.82399,1.10857,1.73749,2.52584,2.8039,0.99048
63675471966980,0,0,0.87186,0.50644,1.81765,1.1067,1.73516,2.52425,2.80051,0.99847
63675471967014,0,0,0.86248,0.56184,1.80285,1.10276,1.7333,2.51736,2.80454,1.01066
63675471967046,0,0,0.82247,0.57892,1.80508,1.10154,1.73116,2.51421,2.80673,1.01182
63675471967079,0,0,0.81574,0.59632,1.80631,1.10246,1.72874,2.51225,2.80569,1.00448
63675471967111,0,0,0.76523,0.65997,1.79848,1.09903,1.72692,2.5111,2.80837,1.0225
63675471967146,0,0,0.75927,0.61475,1.78178,1.09257,1.72338,2.50708,2.81159,1.01246
63675471967163,0,0,0.77761,0.65906,1.78375,1.09119,1.72072,2.5068,2.8105,1.02092
63675471967212,0,0,0.82709,0.6494,1.78034,1.09247,1.72089,2.50977,2.81219,1.02369
63675471967229,0,0,0.85704,0.59977,1.782,1.09452,1.71993,2.51069,2.8046,1.01585
63675471967261,0,0,0.86591,0.59803,1.78601,1.09648,1.72181,2.51064,2.79923,1.01986
63675471967310,0,0,0.83514,0.58708,1.7848,1.09779,1.7203,2.50763,2.80103,1.02774
63675471967344,0,0,0.86011,0.58717,1.79671,1.10224,1.72212,2.51218,2.79705,1.03327
63675471967377,0,0,0.86558,0.57447,1.80214,1.1025,1.72233,2.50941,2.79691,1.02963
63675471967410,0,0,0.85294,0.58107,1.79902,1.09674,1.71778,2.50413,2.79518,1.03039
63675471967444,0,0,0.81263,0.58507,1.7842,1.09171,1.71514,2.50277,2.79847,1.03753
63675471967494,0,0,0.85173,0.59199,1.77596,1.09049,1.71524,2.50249,2.79123,1.03407
63675471967510,0,0,0.91376,0.66833,1.77128,1.08696,1.71241,2.50272,2.78684,1.02576
63675471967543,0,0,0.95169,0.63549,1.77444,1.08774,1.70987,2.49603,2.78518,1.01802
63675471967559,0,0,0.95584,0.68438,1.76807,1.08783,1.70862,2.49494,2.78326,1.02948
63675471967593,0,0,1.02906,0.66905,1.78591,1.09268,1.71257,2.50096,2.78379,1.01617
63675471967626,0,0,1.0535,0.66325,1.77529,1.08856,1.70917,2.50003,2.78741,1.01376
63675471967658,0,0,1.0057,0.70173,1.78824,1.09308,1.70961,2.50275,2.79211,1.00264
63675471967692,0,0,0.96545,0.61419,1.78598,1.09212,1.71027,2.50296,2.79184,1.00218
63675471967725,0,0,0.97971,0.61688,1.78202,1.09071,1.7095,2.50271,2.79086,1.00988
63675471967742,0,0,0.94386,0.6215,1.7874,1.09424,1.71092,2.50434,2.7925,1.01907
63675471967791,0,0,0.90648,0.55481,1.77927,1.08999,1.70893,2.50199,2.79611,1.00789
63675471967808,0,0,0.7769,0.54544,1.7661,1.08731,1.70771,2.49602,2.79669,1.02828
63675471967825,0,0,0.79495,0.54275,1.77615,1.08993,1.70731,2.49451,2.79859,1.02316
63675471967858,0,0,0.88614,0.48902,1.77031,1.08716,1.70579,2.49087,2.79757,1.02554
63675471967891,0,0,0.9409,0.54979,1.77178,1.0898,1.70727,2.49128,2.80392,1.03729
63675471967908,0,0,0.95114,0.552,1.75832,1.08448,1.70486,2.48896,2.8012,1.02588
63675471967941,0,0,0.96409,0.61296,1.76053,1.08193,1.70618,2.49071,2.80472,1.01561
63675471967974,0,0,1.00083,0.59662,1.7627,1.08062,1.70342,2.48811,2.80378,1.00909
63675471967990,0,0,0.98528,0.59067,1.76512,1.08176,1.70423,2.49261,2.80488,0.99571
63675471968024,0,0,0.91918,0.6161,1.76509,1.08257,1.70399,2.49251,2.80387,0.99048
63675471968073,0,0,0.88719,0.63138,1.77182,1.08367,1.70242,2.49293,2.80022,0.98837
63675471968107,0,0,0.88394,0.60242,1.77156,1.08124,1.70022,2.49325,2.79734,0.98854
63675471968139,0,0,0.84607,0.53999,1.76556,1.08163,1.69745,2.49059,2.7967,1.01047
63675471968172,0,0,0.83085,0.57853,1.76765,1.08713,1.70035,2.49473,2.79417,1.02688
63675471968189,0,0,0.87386,0.60372,1.75923,1.08385,1.69802,2.48926,2.7909,1.0178
63675471968222,0,0,0.93659,0.58256,1.75454,1.08047,1.69629,2.49036,2.78929,1.03005
63675471968238,0,0,0.94182,0.60174,1.76938,1.08616,1.69939,2.49366,2.78919,1.03355
63675471968272,0,0,0.91004,0.6252,1.74927,1.0799,1.69543,2.49013,2.78946,1.03478
63675471968288,0,0,0.95744,0.59413,1.75613,1.08297,1.69851,2.49073,2.79068,1.04031
63675471968322,0,0,0.90809,0.57612,1.75648,1.08263,1.69625,2.48678,2.78705,1.03812
63675471968371,0,0,0.90942,0.52935,1.74616,1.07536,1.69494,2.48225,2.78706,1.00418
63675471968405,0,0,0.89517,0.57803,1.75041,1.08105,1.69812,2.48038,2.78275,1.03979
63675471968438,0,0,0.94905,0.57581,1.72649,1.07242,1.69392,2.47468,2.78778,1.04454
63675471968471,0,0,0.94038,0.54209,1.74165,1.07665,1.6968,2.47423,2.78895,1.03891
63675471968487,0,0,0.87571,0.60334,1.74867,1.07895,1.69786,2.47394,2.78825,1.03637
63675471968520,0,0,0.88561,0.62194,1.74365,1.07801,1.69485,2.4779,2.79586,1.03637
63675471968569,0,0,0.88404,0.65398,1.75382,1.08184,1.69697,2.48097,2.79717,1.03436
63675471968586,0,0,0.87784,0.68851,1.75952,1.08468,1.69694,2.48067,2.79483,1.04294
63675471968603,0,0,0.87002,0.63076,1.75929,1.0831,1.69632,2.48073,2.7992,1.02557
63675471968653,0,0,0.86461,0.59567,1.77427,1.08987,1.69974,2.48449,2.79499,0.99915
63675471968686,0,0,0.87984,0.65454,1.76643,1.0878,1.69716,2.48328,2.79536,1.00929
63675471968703,0,0,0.83092,0.62305,1.77439,1.0885,1.69793,2.48216,2.78915,1.00235
63675471968752,0,0,0.79343,0.63848,1.75813,1.08456,1.6952,2.48051,2.792,1.00573
63675471968769,0,0,0.79856,0.59769,1.76217,1.08445,1.69395,2.47871,2.78937,0.99334
63675471968786,0,0,0.77972,0.66457,1.75704,1.08177,1.6939,2.47714,2.79207,0.9946
63675471968819,0,0,0.72057,0.63273,1.75913,1.08457,1.6939,2.47595,2.78407,1.00239
63675471968851,0,0,0.80041,0.65491,1.74611,1.08021,1.69228,2.47561,2.78856,1.02198
63675471968868,0,0,0.80321,0.65538,1.75285,1.08222,1.69208,2.47734,2.78823,1.00281
63675471968902,0,0,0.84692,0.67319,1.74356,1.07996,1.69191,2.47831,2.78621,1.00351
63675471968951,0,0,0.88585,0.60174,1.74516,1.07937,1.69246,2.47563,2.78577,1.01674
63675471968985,0,0,0.88686,0.53411,1.75652,1.08197,1.69412,2.47789,2.78555,1.01879
