63675472043211,0,0,0.71819,0.71726,2.98478,2.68401,3.08694,3.71798,4.14206,0.93005
63675472043244,0,0,0.71174,0.70807,2.98105,2.68288,3.08565,3.71712,4.14342,0.93319
63675472043278,0,0,0.70969,0.68144,2.9801,2.68394,3.08272,3.71651,4.14395,0.9289
63675472043310,0,0,0.70296,0.68188,2.98434,2.68844,3.08283,3.71818,4.14557,0.9226
63675472043327,0,0,0.68206,0.65846,2.98287,2.68607,3.08324,3.71718,4.14769,0.92816
63675472043360,0,0,0.70045,0.67455,2.98616,2.6892,3.08317,3.71696,4.14777,0.92374
63675472043392,0,0,0.69803,0.71404,2.98823,2.68711,3.08515,3.71874,4.14819,0.92371
63675472043410,0,0,0.72067,0.66869,2.9854,2.68935,3.08359,3.71675,4.14914,0.92207
63675472043426,0,0,0.72227,0.68512,2.99227,2.69566,3.08373,3.71722,4.14579,0.91961
63675472043459,0,0,0.74076,0.70485,2.9893,2.69231,3.08437,3.71688,4.14723,0.92207
63675472043492,0,0,0.72362,0.70048,2.99101,2.68628,3.08202,3.71591,4.14623,0.91969
63675472043509,0,0,0.7483,0.68011,2.99106,2.68798,3.08101,3.7175,4.1457,0.91917
63675472043542,0,0,0.73125,0.6699,2.99014,2.6868,3.0806,3.71649,4.14522,0.91843
63675472043592,0,0,0.72695,0.69168,2.99635,2.687,3.08034,3.71703,4.14486,0.92164
63675472043609,0,0,0.70883,0.71369,2.99459,2.68183,3.07948,3.71709,4.14734,0.92484
63675472043625,0,0,0.7165,0.71196,2.99429,2.67924,3.08217,3.71767,4.14827,0.93044
63675472043658,0,0,0.70072,0.72872,2.98847,2.67862,3.08257,3.71764,4.14633,0.93423
63675472043692,0,0,0.69881,0.71201,2.98782,2.67711,3.08332,3.71702,4.14465,0.93266
63675472043725,0,0,0.70828,0.68749,2.99135,2.67544,3.08284,3.71632,4.1451,0.92721
63675472043757,0,0,0.69724,0.67874,2.98747,2.67506,3.08318,3.71819,4.14365,0.92978
63675472043791,0,0,0.68426,0.67201,2.97885,2.67396,3.08271,3.71723,4.14294,0.9297
63675472043807,0,0,0.70168,0.64993,2.98049,2.6763,3.08444,3.71742,4.14019,0.92453
63675472043840,0,0,0.71039,0.6212,2.9798,2.68007,3.08069,3.71609,4.14278,0.92278
63675472043873,0,0,0.70606,0.61419,2.97864,2.68003,3.08021,3.71741,4.14345,0.92898
63675472043890,0,0,0.71568,0.64308,2.97973,2.68095,3.08058,3.71651,4.14471,0.92155
63675472043923,0,0,0.71296,0.64747,2.97495,2.68149,3.08013,3.71793,4.14502,0.92636
63675472043972,0,0,0.71632,0.67598,2.97721,2.68122,3.07861,3.71697,4.14641,0.9274
63675472043989,0,0,0.71182,0.64548,2.97723,2.6771,3.07631,3.71681,4.14735,0.92845
63675472044023,0,0,0.70878,0.68714,2.97857,2.67471,3.07344,3.71589,4.14668,0.92194
63675472044072,0,0,0.706,0.70095,2.9772,2.67537,3.07646,3.7155,4.1474,0.9241
63675472044089,0,0,0.70487,0.69479,2.97718,2.6734,3.07439,3.71513,4.14715,0.91973
63675472044122,0,0,0.6902,0.69095,2.97615,2.67458,3.07318,3.71371,4.14707,0.91912
63675472044172,0,0,0.69595,0.70798,2.9793,2.68003,3.07359,3.71234,4.14927,0.9162
63675472044205,0,0,0.72307,0.70057,2.97485,2.6796,3.07349,3.71278,4.14901,0.91404
63675472044238,0,0,0.70942,0.71069,2.9744,2.67682,3.07377,3.71251,4.14912,0.91336
63675472044272,0,0,0.70221,0.6785,2.97186,2.67709,3.07406,3.71163,4.14929,0.90794
63675472044304,0,0,0.70175,0.67035,2.96864,2.67567,3.0756,3.71128,4.14812,0.91429
63675472044321,0,0,0.70679,0.67029,2.9694,2.67493,3.07582,3.7104,4.14854,0.91951
63675472044371,0,0,0.71587,0.66601,2.96511,2.66836,3.07363,3.70911,4.14583,0.91458
63675472044387,0,0,0.71328,0.72056,2.9625,2.66239,3.0733,3.70928,4.1487,0.91876
63675472044420,0,0,0.70678,0.69497,2.96255,2.66302,3.07294,3.70883,4.14877,0.92025
63675472044453,0,0,0.73175,0.66689,2.96077,2.66486,3.07252,3.70931,4.14796,0.91608
63675472044487,0,0,0.75078,0.68994,2.96306,2.66734,3.07219,3.70962,4.14809,0.92197
63675472044520,0,0,0.74697,0.70607,2.96488,2.66496,3.07224,3.70992,4.14877,0.91484
63675472044553,0,0,0.73814,0.68867,2.96584,2.66581,3.07117,3.70997,4.14974,0.92162
63675472044570,0,0,0.73823,0.64886,2.9714,2.66323,3.0706,3.70954,4.14927,0.9177
63675472044603,0,0,0.72798,0.6225,2.9696,2.66973,3.06855,3.70838,4.14807,0.91539
63675472044619,0,0,0.72458,0.63805,2.97158,2.66963,3.06782,3.70775,4.14824,0.92148
63675472044669,0,0,0.73196,0.6303,2.9706,2.66797,3.06797,3.70876,4.14885,0.92227
63675472044702,0,0,0.71726,0.62504,2.9742,2.67172,3.06761,3.71017,4.14421,0.91904
63675472044718,0,0,0.7151,0.606,2.97433,2.67244,3.06712,3.71063,4.14482,0.92385
63675472044752,0,0,0.74143,0.57575,2.97179,2.6709,3.06889,3.71006,4.14525,0.92335
63675472044785,0,0,0.74897,0.59742,2.96913,2.67227,3.06911,3.71067,4.14555,0.92431
63675472044818,0,0,0.75677,0.59947,2.9699,2.67208,3.06914,3.711,4.1458,0.91703
63675472044851,0,0,0.74038,0.59779,2.97322,2.67324,3.07108,3.71107,4.14517,0.91682
63675472044884,0,0,0.73337,0.6107,2.96738,2.67118,3.07014,3.70862,4.14774,0.91857
63675472044934,0,0,0.74378,0.6552,2.96541,2.66681,3.07029,3.70626,4.14984,0.91697
63675472044967,0,0,0.72004,0.66843,2.9635,2.66526,3.07091,3.70599,4.15136,0.91657
63675472045000,0,0,0.70879,0.68468,2.95814,2.66637,3.07003,3.70575,4.15166,0.91971
63675472045034,0,0,0.71853,0.67217,2.96368,2.67006,3.07048,3.70521,4.15183,0.91809
63675472045067,0,0,0.71325,0.69324,2.96523,2.66741,3.07159,3.70675,4.15049,0.91714
63675472045099,0,0,0.69774,0.68491,2.96551,2.66871,3.06977,3.70613,4.15157,0.91533
63675472045133,0,0,0.70553,0.67209,2.96257,2.67132,3.06967,3.70829,4.1525,0.91318
63675472045165,0,0,0.69626,0.66755,2.96546,2.67218,3.06937,3.70782,4.15267,0.91398
63675472045182,0,0,0.7142,0.66197,2.97438,2.66816,3.07139,3.70805,4.15119,0.91099
63675472045232,0,0,0.6982,0.67619,2.97127,2.66498,3.07168,3.70674,4.15085,0.91074
63675472045249,0,0,0.70225,0.68104,2.96931,2.66658,3.07288,3.70605,4.15023,0.90817
63675472045282,0,0,0.69977,0.68009,2.96756,2.66708,3.07269,3.70425,4.1482,0.91001
63675472045332,0,0,0.69648,0.67241,2.96711,2.66559,3.0719,3.70287,4.14636,0.90793
63675472045349,0,0,0.69768,0.67285,2.96423,2.66171,3.07109,3.70314,4.14476,0.90845
63675472045381,0,0,0.71792,0.68173,2.95855,2.66037,3.07078,3.70251,4.14408,0.90691
63675472045397,0,0,0.71417,0.64907,2.95916,2.66399,3.06957,3.70142,4.14433,0.90905
63675472045430,0,0,0.71416,0.65745,2.95748,2.66549,3.06876,3.70199,4.14412,0.90915
63675472045463,0,0,0.72878,0.62205,2.95604,2.6633,3.067,3.70193,4.14868,0.91149
63675472045514,0,0,0.73404,0.61755,2.9578,2.66384,3.06881,3.70257,4.14981,0.91401
63675472045530,0,0,0.73132,0.6183,2.95685,2.66419,3.06824,3.7026,4.14928,0.9179
63675472045547,0,0,0.73516,0.61633,2.96108,2.66923,3.07072,3.70184,4.15075,0.916
63675472045580,0,0,0.73405,0.58645,2.96256,2.66898,3.06938,3.70286,4.15044,0.91568
63675472045614,0,0,0.7184,0.5991,2.95886,2.66742,3.07054,3.70353,4.15143,0.91638
63675472045647,0,0,0.71681,0.62606,2.96047,2.67468,3.06997,3.70367,4.15116,0.91732
63675472045679,0,0,0.72251,0.62678,2.96156,2.67327,3.06945,3.70385,4.14975,0.91334
63675472045713,0,0,0.72724,0.64047,2.96121,2.67204,3.06876,3.70311,4.15113,0.91541
63675472045745,0,0,0.74198,0.63939,2.95888,2.66655,3.06725,3.70395,4.15141,0.90953
63675472045762,0,0,0.7299,0.65686,2.95957,2.66695,3.06847,3.70197,4.15121,0.9104
63675472045812,0,0,0.72003,0.65032,2.96194,2.66638,3.06645,3.70126,4.15012,0.90997
63675472045828,0,0,0.74396,0.65889,2.96128,2.66542,3.06881,3.70155,4.14903,0.91017
63675472045861,0,0,0.74556,0.62771,2.96147,2.656,3.06658,3.70135,4.15101,0.90615
63675472045912,0,0,0.72337,0.64789,2.95739,2.65617,3.06442,3.70136,4.15035,0.90689
63675472045928,0,0,0.72191,0.62308,2.95487,2.65445,3.06505,3.70031,4.14752,0.90536
63675472045945,0,0,0.70409,0.61949,2.95512,2.65548,3.06371,3.69907,4.14632,0.90502
63675472045978,0,0,0.69763,0.61873,2.95303,2.65425,3.0645,3.70025,4.14458,0.90535
63675472046011,0,0,0.70057,0.61833,2.94975,2.65518,3.06336,3.69996,4.14384,0.90766
63675472046044,0,0,0.69933,0.62368,2.94892,2.65643,3.06434,3.69793,4.14447,0.90931
63675472046094,0,0,0.71509,0.62656,2.94765,2.65132,3.06604,3.69761,4.14144,0.90494
63675472046126,0,0,0.71671,0.64839,2.94766,2.65061,3.06305,3.6974,4.14231,0.9087
63675472046160,0,0,0.70335,0.67173,2.9418,2.65349,3.0617,3.69668,4.14502,0.91302
63675472046193,0,0,0.68678,0.65995,2.94413,2.65275,3.06084,3.69562,4.14692,0.91411
63675472046226,0,0,0.70521,0.66589,2.94759,2.65156,3.05974,3.69445,4.14552,0.90899
63675472046243,0,0,0.68862,0.68092,2.94596,2.65228,3.05851,3.69575,4.14468,0.90816
63675472046292,0,0,0.68759,0.64222,2.94639,2.66089,3.05994,3.69518,4.1436,0.91259
63675472046326,0,0,0.66967,0.65741,2.94544,2.65849,3.05852,3.69503,4.14527,0.91002
63675472046342,0,0,0.68203,0.62234,2.94756,2.65865,3.05993,3.69487,4.14601,0.90712
63675472046392,0,0,0.70165,0.61127,2.95078,2.65601,3.05936,3.69529,4.14434,0.90318
63675472046408,0,0,0.71951,0.61991,2.95181,2.65742,3.05781,3.69675,4.14539,0.90056
63675472046442,0,0,0.71198,0.65677,2.94754,2.65608,3.05685,3.69601,4.14489,0.90263
63675472046491,0,0,0.71664,0.63781,2.94945,2.65173,3.0586,3.69505,4.14321,0.90087
63675472046524,0,0,0.71461,0.6486,2.94981,2.65019,3.05797,3.69605,4.14392,0.89624
63675472046557,0,0,0.69819,0.63668,2.94789,2.65073,3.05629,3.69496,4.14385,0.8992
63675472046590,0,0,0.68741,0.66093,2.94227,2.64627,3.05687,3.69298,4.14583,0.89821
63675472046623,0,0,0.67679,0.62309,2.94354,2.64586,3.0577,3.6928,4.1456,0.89987
63675472046657,0,0,0.68641,0.59917,2.9446,2.64602,3.05738,3.69161,4.1477,0.8992
63675472046971,0,0,0.71025,0.63947,2.94253,2.64839,3.05819,3.69104,4.14866,0.9011
63675472047004,0,0,0.72,0.69978,2.94192,2.64713,3.05805,3.69165,4.14994,0.90278
63675472047021,0,0,0.71707,0.70202,2.9436,2.64435,3.0581,3.69183,4.14865,0.90233
63675472047071,0,0,0.72606,0.71473,2.94661,2.64482,3.05893,3.69341,4.14996,0.90288
63675472047104,0,0,0.72387,0.69802,2.94572,2.64605,3.05949,3.69318,4.1516,0.90021
63675472047121,0,0,0.71176,0.71794,2.94827,2.6479,3.05925,3.69421,4.15114,0.89965
63675472047154,0,0,0.70898,0.68724,2.948,2.64821,3.05881,3.69311,4.15026,0.90548
63675472047187,0,0,0.70657,0.64601,2.94772,2.65644,3.05908,3.6924,4.15025,0.90597
63675472047204,0,0,0.69952,0.66014,2.94865,2.65798,3.05773,3.692,4.15134,0.90196
63675472047254,0,0,0.69391,0.63579,2.94406,2.65552,3.05748,3.69168,4.15025,0.90402
63675472047287,0,0,0.69423,0.63386,2.94256,2.65856,3.057,3.69296,4.1489,0.90557
63675472047303,0,0,0.71858,0.63856,2.9434,2.65423,3.05535,3.69089,4.14847,0.90335
63675472047352,0,0,0.73488,0.64483,2.94287,2.65509,3.05523,3.69229,4.14948,0.89806
63675472047369,0,0,0.72698,0.64599,2.93932,2.64917,3.05501,3.69206,4.14864,0.89899
63675472047386,0,0,0.72329,0.63941,2.93831,2.64376,3.05406,3.68855,4.14693,0.8995
63675472047419,0,0,0.72889,0.66667,2.94151,2.64384,3.05281,3.68986,4.14577,0.89755
63675472047452,0,0,0.69569,0.70879,2.9402,2.6416,3.0536,3.68827,4.14777,0.90342
63675472047468,0,0,0.71042,0.70232,2.94118,2.64218,3.05407,3.68846,4.14722,0.90254
63675472047485,0,0,0.70534,0.70622,2.9409,2.64104,3.05361,3.68673,4.14903,0.89941
63675472047519,0,0,0.70161,0.69879,2.94098,2.64084,3.05485,3.6867,4.14972,0.90013
63675472047551,0,0,0.7083,0.68698,2.93945,2.63906,3.05303,3.68773,4.15018,0.89488
63675472047568,0,0,0.71576,0.68481,2.9353,2.64289,3.05483,3.68801,4.15303,0.89579
63675472047601,0,0,0.72862,0.63926,2.93494,2.64177,3.05494,3.68903,4.1538,0.8906
63675472047617,0,0,0.73212,0.6484,2.93436,2.64169,3.05309,3.68732,4.15377,0.89094
63675472047651,0,0,0.72641,0.64324,2.93104,2.6415,3.05419,3.68746,4.15372,0.88795
63675472047668,0,0,0.71665,0.64156,2.93271,2.64225,3.05368,3.68875,4.15308,0.89201
63675472047701,0,0,0.71392,0.64577,2.93262,2.64183,3.05273,3.68981,4.15191,0.89273
63675472047733,0,0,0.71379,0.66913,2.93401,2.64437,3.05382,3.68818,4.15163,0.89324
63675472047750,0,0,0.72849,0.63407,2.93099,2.6439,3.05318,3.68814,4.15144,0.89085
63675472047783,0,0,0.71907,0.64387,2.92939,2.64242,3.0512,3.68616,4.15274,0.89751
63675472047800,0,0,0.72054,0.63372,2.931,2.64222,3.05033,3.68512,4.1522,0.89631
63675472047832,0,0,0.70612,0.61473,2.92813,2.63946,3.04929,3.68517,4.15369,0.90235
63675472047849,0,0,0.7207,0.60304,2.92731,2.63755,3.04992,3.68343,4.15385,0.89979
63675472047883,0,0,0.73461,0.60905,2.92665,2.63967,3.05135,3.68391,4.15532,0.89833
63675472047899,0,0,0.73112,0.59855,2.92411,2.63971,3.05261,3.68326,4.15649,0.90477
63675472047932,0,0,0.7241,0.59076,2.92793,2.63898,3.05269,3.68405,4.15597,0.90739
63675472047949,0,0,0.73002,0.61051,2.93026,2.63901,3.05378,3.68366,4.15556,0.90129
63675472047982,0,0,0.72793,0.62839,2.92637,2.63768,3.05408,3.68356,4.15413,0.9007
63675472048032,0,0,0.75449,0.64242,2.9257,2.63847,3.05302,3.68347,4.15144,0.88787
63675472048064,0,0,0.74857,0.65126,2.923,2.63917,3.0521,3.68249,4.15268,0.88818
63675472048081,0,0,0.71863,0.63596,2.92422,2.63535,3.04628,3.68089,4.15151,0.88534
63675472048131,0,0,0.72819,0.65353,2.92039,2.63664,3.04453,3.67955,4.15191,0.88169
