63675472002979,0,0,0.83132,0.2598,1.08625,0.72989,0.98398,1.33702,2.45605,0.39769
63675472003028,0,0,0.7929,0.26451,1.10225,0.74481,1.00095,1.34052,2.45478,0.38617
63675472003061,0,0,0.76426,0.27282,1.06977,0.74722,0.9817,1.33499,2.44646,0.39523
63675472003078,0,0,0.76809,0.26714,1.06052,0.74918,0.96261,1.33406,2.45372,0.39261
63675472003112,0,0,0.69343,0.27374,1.07004,0.74148,0.97222,1.33714,2.45678,0.39302
63675472003128,0,0,0.66503,0.26957,1.06022,0.74062,0.9698,1.33415,2.46041,0.3845
63675472003161,0,0,0.59161,0.27268,1.05416,0.74364,1.0051,1.33251,2.46342,0.37177
63675472003178,0,0,0.5415,0.27313,1.06365,0.75466,1.00898,1.33367,2.46378,0.36809
63675472003211,0,0,0.53749,0.27522,1.02771,0.73132,0.98642,1.33137,2.46541,0.36955
63675472003228,0,0,0.49798,0.2677,1.06847,0.7405,0.98321,1.33498,2.46875,0.35579
63675472003261,0,0,0.50835,0.26974,1.08061,0.74398,1.00586,1.33586,2.46839,0.35781
63675472003311,0,0,0.55691,0.25559,1.09043,0.75996,1.01193,1.33301,2.46808,0.34227
63675472003344,0,0,0.59592,0.25684,1.12433,0.77147,0.99601,1.32955,2.47327,0.34978
63675472003361,0,0,0.58506,0.2574,1.10508,0.76532,0.99088,1.33333,2.46725,0.35821
63675472003393,0,0,0.60054,0.24919,1.0937,0.75295,0.95459,1.32632,2.45452,0.35245
63675472003409,0,0,0.63908,0.25008,1.08162,0.75235,0.96102,1.32587,2.44954,0.3592
63675472003443,0,0,0.63689,0.24382,1.08464,0.75176,0.95599,1.32583,2.44807,0.35201
63675472003460,0,0,0.6257,0.24137,1.0982,0.74424,0.959,1.32721,2.44349,0.36083
63675472003492,0,0,0.63001,0.24254,1.1037,0.745,0.96635,1.3286,2.43924,0.36602
63675472003526,0,0,0.5797,0.23426,1.0641,0.72762,0.96549,1.32926,2.43615,0.36275
63675472003542,0,0,0.57901,0.22919,1.10418,0.74562,0.97417,1.32749,2.43899,0.36223
63675472003592,0,0,0.52217,0.23032,1.08934,0.75044,0.97922,1.32962,2.44555,0.37043
63675472003626,0,0,0.52421,0.22736,1.08623,0.745,0.9849,1.32758,2.47246,0.36544
63675472003642,0,0,0.47379,0.23131,1.07224,0.75469,0.96162,1.31815,2.49086,0.36827
63675472003692,0,0,0.46868,0.22986,1.06951,0.75788,0.93915,1.31654,2.50883,0.36177
63675472003709,0,0,0.50475,0.2358,1.05998,0.74703,0.96011,1.31315,2.5053,0.3552
63675472003725,0,0,0.48337,0.23405,1.03682,0.73646,0.95981,1.31286,2.50775,0.34978
63675472003758,0,0,0.54411,0.2327,1.03842,0.72279,0.97126,1.30909,2.51079,0.35505
63675472003791,0,0,0.57804,0.22955,1.05105,0.73493,0.9831,1.30745,2.50788,0.35179
63675472003807,0,0,0.54542,0.22948,1.03799,0.7281,0.97243,1.30783,2.47632,0.35735
63675472003841,0,0,0.55546,0.22756,1.03164,0.71668,0.97895,1.31252,2.42053,0.35204
63675472003857,0,0,0.57745,0.21912,1.03897,0.71475,0.96325,1.31084,2.44526,0.34131
63675472003890,0,0,0.5688,0.21787,1.04132,0.70461,0.97406,1.31308,2.42297,0.34638
63675472003924,0,0,0.50832,0.21509,1.0451,0.71132,0.92149,1.3103,2.41194,0.34048
63675472003940,0,0,0.47912,0.21922,1.04185,0.70877,0.91426,1.30977,2.40504,0.3389
63675472003973,0,0,0.42149,0.22167,1.02714,0.7067,0.90011,1.3096,2.40075,0.34599
63675472004007,0,0,0.42434,0.22084,1.04153,0.70792,0.90009,1.30788,2.39442,0.34142
63675472004023,0,0,0.39499,0.22026,1.04715,0.71874,0.91925,1.30666,2.38914,0.34911
63675472004073,0,0,0.3796,0.22579,1.04395,0.71102,0.92652,1.30572,2.39318,0.36618
63675472004089,0,0,0.35021,0.23022,1.03025,0.72181,0.91252,1.30256,2.3984,0.36244
63675472004123,0,0,0.33697,0.22804,1.03492,0.72227,0.92363,1.29955,2.40215,0.37042
63675472004172,0,0,0.34304,0.2311,1.03837,0.72196,0.91969,1.30004,2.39748,0.36043
63675472004188,0,0,0.39723,0.23034,1.05287,0.72069,0.92224,1.2989,2.39246,0.35617
63675472004222,0,0,0.39912,0.23236,1.04738,0.71958,0.92527,1.29953,2.39022,0.35905
63675472004272,0,0,0.44056,0.23249,1.04297,0.70551,0.91062,1.2982,2.3916,0.35319
63675472004305,0,0,0.47596,0.23466,1.01827,0.6999,0.90944,1.29788,2.38871,0.35588
63675472004338,0,0,0.44592,0.23239,1.04502,0.70361,0.89258,1.29878,2.38451,0.35558
63675472004371,0,0,0.503,0.23093,1.04298,0.7051,0.90233,1.29906,2.38642,0.3631
63675472004404,0,0,0.50415,0.22926,1.02475,0.70485,0.91658,1.29879,2.39402,0.36762
63675472004421,0,0,0.50673,0.22354,1.04657,0.71689,0.90693,1.29821,2.39507,0.35912
63675472004470,0,0,0.491,0.22677,1.05461,0.71668,0.91413,1.29935,2.39105,0.35042
63675472004486,0,0,0.51926,0.22439,1.05918,0.72101,0.92429,1.29805,2.39077,0.35312
63675472004503,0,0,0.49904,0.22653,1.08965,0.74081,0.92736,1.29913,2.39287,0.3502
63675472004553,0,0,0.55888,0.22951,1.06031,0.72243,0.94421,1.29791,2.40016,0.34888
63675472004570,0,0,0.52887,0.22616,1.06058,0.71474,0.9057,1.2967,2.39387,0.34727
63675472004603,0,0,0.54213,0.22261,1.05217,0.70873,0.91046,1.29492,2.39737,0.34467
63675472004651,0,0,0.57235,0.2279,1.05109,0.70235,0.93261,1.29412,2.39996,0.35048
63675472004668,0,0,0.63839,0.2275,1.03337,0.69864,0.92043,1.29331,2.40059,0.34951
63675472004702,0,0,0.64714,0.22792,1.0258,0.69895,0.91978,1.29185,2.40277,0.35349
63675472004718,0,0,0.61842,0.22029,1.03749,0.70574,0.92683,1.29155,2.39917,0.35079
63675472004751,0,0,0.62149,0.22075,1.03318,0.6977,0.9304,1.28916,2.40145,0.34519
63675472004785,0,0,0.60651,0.21991,1.04719,0.69909,0.92829,1.29042,2.4032,0.33968
63675472004818,0,0,0.61144,0.21933,1.04122,0.70676,0.92422,1.28989,2.39798,0.34606
63675472004852,0,0,0.57199,0.21858,1.0297,0.69468,0.90978,1.2907,2.40004,0.33815
63675472004868,0,0,0.48834,0.21747,1.04316,0.68894,0.92384,1.28921,2.39247,0.34433
63675472004901,0,0,0.54228,0.21768,1.0287,0.68779,0.90417,1.28935,2.38689,0.36071
63675472004951,0,0,0.53155,0.2152,1.02077,0.68119,0.90265,1.28633,2.38053,0.36382
63675472004968,0,0,0.56597,0.21367,1.01534,0.68369,0.92279,1.2851,2.37684,0.37095
63675472004984,0,0,0.58518,0.21419,1.01196,0.6955,0.94666,1.28666,2.37722,0.36746
63675472005033,0,0,0.62048,0.21677,1.01396,0.68768,0.941,1.28554,2.3765,0.3854
63675472005050,0,0,0.68566,0.21514,1.00702,0.68723,0.92567,1.2859,2.37953,0.38171
63675472005083,0,0,0.79535,0.21628,1.00595,0.69328,0.91698,1.28531,2.38903,0.38721
63675472005133,0,0,0.90303,0.2199,1.00428,0.69241,0.94819,1.28794,2.3808,0.38706
63675472005150,0,0,0.88655,0.21435,1.01164,0.70058,0.95229,1.29039,2.39473,0.38336
63675472005183,0,0,0.84709,0.21549,1.00125,0.69256,0.92877,1.28685,2.39753,0.39514
63675472005199,0,0,0.85991,0.21029,1.00307,0.68731,0.94771,1.28685,2.39268,0.38936
63675472005232,0,0,0.85676,0.20941,1.01844,0.68195,0.93501,1.28729,2.39726,0.37645
63675472005266,0,0,0.84285,0.21362,1.0045,0.6765,0.94074,1.28648,2.39164,0.37057
63675472005299,0,0,0.66406,0.20689,1.00741,0.68321,0.90243,1.28089,2.39229,0.36335
63675472005332,0,0,0.62408,0.2122,0.99714,0.66484,0.89774,1.27935,2.38687,0.35236
63675472005365,0,0,0.6553,0.20955,0.99946,0.65916,0.88545,1.27832,2.38269,0.35838
63675472005381,0,0,0.64001,0.21083,1.00074,0.66906,0.90697,1.28176,2.38354,0.34565
63675472005431,0,0,0.6243,0.2105,0.99288,0.67575,0.8752,1.28045,2.37939,0.3544
63675472005447,0,0,0.57669,0.20699,1.01501,0.6841,0.88517,1.2789,2.37579,0.34547
63675472005481,0,0,0.53782,0.20678,1.01784,0.6817,0.88304,1.27797,2.37357,0.32995
63675472005531,0,0,0.50593,0.20413,1.01743,0.67828,0.89785,1.27892,2.36841,0.33346
63675472005547,0,0,0.51834,0.20084,1.01185,0.68579,0.897,1.28092,2.37104,0.34119
63675472005580,0,0,0.49247,0.20343,1.02293,0.69459,0.90281,1.28125,2.3621,0.33161
63675472005613,0,0,0.49145,0.20883,1.03632,0.68778,0.90679,1.28045,2.3579,0.33003
63675472005630,0,0,0.46381,0.21146,1.02668,0.68946,0.92271,1.28065,2.35574,0.32508
63675472005662,0,0,0.49322,0.21219,1.0267,0.69233,0.93137,1.27983,2.35381,0.33383
63675472005713,0,0,0.49193,0.21004,1.02775,0.69351,0.94397,1.27966,2.35158,0.35378
63675472005729,0,0,0.53717,0.21573,1.00545,0.67934,0.92042,1.27594,2.34868,0.33482
63675472005746,0,0,0.54846,0.21217,1.00113,0.67892,0.92254,1.27595,2.34745,0.33755
63675472005779,0,0,0.55672,0.20776,0.999,0.6887,0.91922,1.27369,2.3454,0.34486
63675472005812,0,0,0.5403,0.20699,0.99187,0.68535,0.8998,1.27174,2.34413,0.34521
63675472005846,0,0,0.54283,0.20385,0.99703,0.682,0.88816,1.27293,2.344,0.34221
63675472005879,0,0,0.52459,0.20318,0.98207,0.67064,0.87338,1.26946,2.33986,0.34365
63675472005911,0,0,0.5248,0.19786,1.01948,0.68942,0.89454,1.27017,2.33406,0.33106
63675472005928,0,0,0.53199,0.20256,1.02313,0.69553,0.90832,1.27155,2.33218,0.32976
63675472005961,0,0,0.50941,0.20361,1.03852,0.69864,0.9094,1.26879,2.32964,0.32568
63675472006011,0,0,0.5258,0.20273,1.04359,0.68344,0.91984,1.27207,2.3268,0.31576
63675472006028,0,0,0.54558,0.20128,1.04258,0.68406,0.92986,1.27188,2.32578,0.31052
63675472006060,0,0,0.52558,0.19867,1.04734,0.68391,0.94304,1.27377,2.32413,0.30993
63675472006094,0,0,0.53071,0.20332,1.02752,0.67971,0.923,1.2724,2.32057,0.31114
63675472006126,0,0,0.54349,0.19987,1.01695,0.67644,0.92185,1.27272,2.31132,0.31626
63675472006160,0,0,0.56657,0.20141,1.01754,0.66637,0.9061,1.27024,2.29979,0.3286
63675472006194,0,0,0.56611,0.19987,0.98949,0.66212,0.8957,1.2668,2.29666,0.33899
63675472006210,0,0,0.53685,0.2021,1.00123,0.66671,0.90952,1.26753,2.28526,0.33877
63675472006243,0,0,0.49838,0.2026,1.00013,0.6645,0.90882,1.2666,2.2767,0.33821
63675472006293,0,0,0.56979,0.20062,0.99551,0.66081,0.89993,1.26195,2.27676,0.33729
63675472006310,0,0,0.55489,0.20064,0.99874,0.66503,0.88939,1.26083,2.28122,0.33467
63675472006342,0,0,0.56099,0.19801,0.98543,0.66692,0.87842,1.2609,2.28238,0.34761
63675472006359,0,0,0.55171,0.20025,0.97177,0.65915,0.87084,1.25826,2.28521,0.3412
63675472006392,0,0,0.541,0.19962,0.97012,0.65386,0.84726,1.25489,2.29736,0.3308
63675472006425,0,0,0.51183,0.20053,0.96706,0.65546,0.82697,1.25351,2.30822,0.33313
63675472006458,0,0,0.46153,0.19475,0.98299,0.6514,0.84003,1.25294,2.3126,0.33795
63675472006492,0,0,0.40011,0.19981,0.98544,0.65266,0.83798,1.25673,2.30832,0.34128
63675472006525,0,0,0.39907,0.19704,0.97122,0.64091,0.85726,1.25345,2.29028,0.33601
63675472006558,0,0,0.39921,0.19079,0.99536,0.65269,0.85874,1.25514,2.28691,0.32659
63675472006591,0,0,0.394,0.19119,1.00441,0.66016,0.87091,1.25844,2.27633,0.3253
63675472006608,0,0,0.39736,0.19146,0.99837,0.65883,0.86494,1.25722,2.26993,0.32848
63675472006641,0,0,0.46476,0.19134,1.01418,0.66408,0.87588,1.25644,2.25532,0.33898
63675472006658,0,0,0.47175,0.19395,1.02039,0.66919,0.8567,1.25706,2.24291,0.33344
63675472006689,0,0,0.46037,0.19188,0.99997,0.65669,0.85464,1.25496,2.24446,0.32996
63675472006723,0,0,0.45626,0.19077,1.00739,0.6557,0.85152,1.25376,2.25694,0.31921
63675472006740,0,0,0.50072,0.19674,1.0138,0.66216,0.83995,1.254,2.25321,0.33206
63675472006773,0,0,0.50078,0.19489,0.99138,0.65262,0.84134,1.24943,2.25519,0.33804
63675472006807,0,0,0.4937,0.19098,1.01932,0.65814,0.84318,1.24972,2.25534,0.33627
63675472006823,0,0,0.4757,0.18977,1.00454,0.64856,0.85079,1.24973,2.25825,0.3439
63675472006872,0,0,0.53204,0.1915,1.00688,0.6557,0.85307,1.24957,2.25799,0.3391
63675472006889,0,0,0.51788,0.19074,1.03178,0.66698,0.85159,1.24623,2.25789,0.34224
63675472006905,0,0,0.51027,0.1921,1.00774,0.66419,0.85234,1.24806,2.26577,0.34651
63675472006938,0,0,0.54891,0.19205,0.9901,0.66356,0.85069,1.24767,2.26879,0.34242
63675472006972,0,0,0.47407,0.19084,0.9901,0.66249,0.86418,1.24873,2.26869,0.35185
63675472007005,0,0,0.46556,0.19097,0.99576,0.66648,0.86475,1.24931,2.26943,0.33954
63675472007021,0,0,0.46729,0.19022,1.00084,0.67592,0.86317,1.24822,2.27215,0.32684
63675472007071,0,0,0.43746,0.18922,0.9881,0.66431,0.86633,1.24685,2.27079,0.32832
63675472007088,0,0,0.47427,0.19021,0.98389,0.65922,0.85935,1.2477,2.2713,0.32106
63675472007105,0,0,0.44485,0.19166,0.99787,0.66694,0.86252,1.24675,2.26403,0.31755
63675472007137,0,0,0.4198,0.18759,0.99805,0.65772,0.87525,1.24575,2.26024,0.31381
63675472007170,0,0,0.43924,0.19086,1.00865,0.65984,0.86557,1.2442,2.25606,0.31613
63675472007187,0,0,0.4552,0.19391,0.99534,0.64687,0.87044,1.2442,2.25084,0.31415
63675472007221,0,0,0.50188,0.19893,0.98968,0.65162,0.85947,1.24274,2.25084,0.31164
63675472007254,0,0,0.5031,0.19832,1.00205,0.65276,0.86228,1.24308,2.24803,0.31496
63675472007270,0,0,0.50146,0.19418,0.97728,0.6508,0.87025,1.2407,2.24524,0.3229
63675472007304,0,0,0.52505,0.1895,0.99689,0.65069,0.86697,1.23944,2.24065,0.31516
63675472007353,0,0,0.5658,0.1922,1.00516,0.65259,0.86768,1.24003,2.23788,0.31873
63675472007387,0,0,0.53952,0.1895,1.00649,0.66553,0.88313,1.24014,2.23956,0.31963
63675472007403,0,0,0.53576,0.18656,1.01747,0.65873,0.86833,1.23834,2.23351,0.32927
63675472007451,0,0,0.59739,0.19209,1.00873,0.665,0.86894,1.23754,2.22794,0.32471
63675472007468,0,0,0.58638,0.18796,1.0044,0.66649,0.86796,1.23892,2.23382,0.32758
63675472007485,0,0,0.59199,0.19544,1.02345,0.67034,0.8659,1.24068,2.2331,0.33644
63675472007518,0,0,0.56643,0.19805,1.00105,0.68442,0.8634,1.24081,2.22657,0.33133
63675472007552,0,0,0.54675,0.19425,1.01198,0.68686,0.86681,1.24281,2.2342,0.33227
63675472007568,0,0,0.55018,0.20126,1.00166,0.67784,0.85755,1.2427,2.23192,0.33972
63675472007602,0,0,0.53612,0.20156,1.00314,0.68706,0.8653,1.24256,2.23562,0.33841
63675472007651,0,0,0.47655,0.19944,1.0041,0.67429,0.8685,1.23986,2.23273,0.33648
63675472007684,0,0,0.45414,0.19482,0.99941,0.67254,0.86229,1.23805,2.23584,0.31946
63675472007734,0,0,0.50307,0.19217,1.00143,0.66503,0.86028,1.23613,2.25174,0.33026
63675472007750,0,0,0.47663,0.19263,0.99305,0.66905,0.86941,1.23696,2.24461,0.33151
63675472007767,0,0,0.4529,0.19005,1.00582,0.65727,0.86,1.2316,2.24286,0.33469
63675472007800,0,0,0.44932,0.18987,1.00035,0.65338,0.86708,1.23198,2.24625,0.33176
63675472007833,0,0,0.45084,0.18931,0.99108,0.64743,0.84802,1.23119,2.2459,0.3375
63675472007850,0,0,0.42829,0.19168,1.01181,0.65289,0.86212,1.2344,2.24355,0.33191
63675472007883,0,0,0.44738,0.19113,1.00556,0.65345,0.8716,1.23543,2.25225,0.33561
63675472007899,0,0,0.39778,0.19905,1.02092,0.64899,0.88363,1.23059,2.23182,0.32759
63675472007932,0,0,0.42105,0.20959,1.03065,0.65514,0.88938,1.2311,2.22727,0.32819
63675472007966,0,0,0.4285,0.21364,1.01408,0.65909,0.88197,1.22786,2.20026,0.32176
63675472007999,0,0,0.46841,0.21519,1.02914,0.6596,0.90083,1.22737,2.21247,0.32207
63675472008032,0,0,0.46605,0.21721,1.02245,0.66709,0.89408,1.22548,2.2227,0.31613
63675472008048,0,0,0.48352,0.21618,1.01344,0.66808,0.8757,1.22201,2.22955,0.32965
63675472008082,0,0,0.48641,0.21829,1.01912,0.66258,0.87833,1.21941,2.22536,0.3392
63675472008132,0,0,0.50118,0.20968,0.98855,0.66314,0.85815,1.22335,2.2478,0.34456
63675472008148,0,0,0.48611,0.20072,0.9891,0.65794,0.84997,1.22239,2.25768,0.34277
63675472008181,0,0,0.46194,0.18521,0.9768,0.65849,0.8482,1.2252,2.27744,0.34707
63675472008232,0,0,0.48087,0.18186,0.99935,0.67383,0.87292,1.22602,2.27197,0.34817
63675472008265,0,0,0.47201,0.18129,0.98071,0.66266,0.87137,1.22676,2.2687,0.34514
63675472008298,0,0,0.45762,0.175,1.00589,0.67239,0.85701,1.2307,2.26531,0.32191
63675472008330,0,0,0.46646,0.17405,0.99318,0.66037,0.863,1.2292,2.26238,0.32889
63675472008363,0,0,0.49058,0.17964,0.98163,0.66506,0.86981,1.22738,2.25996,0.32758
63675472008380,0,0,0.45856,0.18256,0.98808,0.6663,0.86952,1.22701,2.25832,0.32429
63675472008429,0,0,0.48789,0.18622,0.98733,0.65651,0.85819,1.22455,2.25529,0.32556
63675472008446,0,0,0.48386,0.18477,0.98517,0.64984,0.83981,1.22694,2.25571,0.31984
63675472008479,0,0,0.51065,0.19052,0.97495,0.65816,0.85297,1.22758,2.25856,0.32729
63675472008512,0,0,0.46517,0.18708,0.97472,0.65561,0.86348,1.22324,2.2574,0.33705
63675472008546,0,0,0.47205,0.18846,0.98554,0.65603,0.85121,1.2217,2.26568,0.32976
63675472008563,0,0,0.48116,0.18721,0.98932,0.65245,0.84151,1.22445,2.27046,0.32262
63675472008612,0,0,0.47755,0.18799,0.99649,0.65841,0.84654,1.22676,2.2706,0.32598
63675472008629,0,0,0.45284,0.18739,0.99967,0.65704,0.84508,1.22238,2.26942,0.32589
63675472008662,0,0,0.47494,0.18597,0.99654,0.65981,0.85112,1.22283,2.26726,0.32724
63675472008710,0,0,0.46327,0.18063,0.99369,0.65171,0.85243,1.22075,2.26413,0.32706
63675472008727,0,0,0.49577,0.18244,0.98917,0.64582,0.83631,1.22186,2.26254,0.31619
63675472008760,0,0,0.4577,0.18295,0.97124,0.64922,0.85807,1.22039,2.25463,0.32031
63675472008777,0,0,0.48774,0.17822,0.96519,0.64725,0.86064,1.21912,2.25242,0.31703
63675472008811,0,0,0.49352,0.17823,0.95794,0.63423,0.84858,1.21792,2.25315,0.31899
63675472008844,0,0,0.51635,0.18066,0.95985,0.63755,0.84025,1.21892,2.24888,0.31301
63675472008894,0,0,0.48049,0.18451,0.9463,0.62971,0.82843,1.21566,2.24622,0.32654
63675472008910,0,0,0.47188,0.18439,0.94892,0.63388,0.84523,1.21638,2.24021,0.33008
63675472008944,0,0,0.46667,0.1849,0.96991,0.6359,0.84287,1.21506,2.23911,0.3334
63675472008960,0,0,0.45945,0.18289,0.97099,0.63239,0.83383,1.21513,2.23337,0.33534
63675472008993,0,0,0.45382,0.18312,0.97389,0.6369,0.83848,1.21359,2.23296,0.32845
63675472009026,0,0,0.44589,0.18085,0.97279,0.63477,0.86914,1.21143,2.23714,0.33115
63675472009059,0,0,0.44513,0.18326,0.97743,0.63341,0.86284,1.21468,2.23284,0.32537
63675472009092,0,0,0.45241,0.18564,0.96223,0.62707,0.86346,1.2134,2.23609,0.31164
63675472009109,0,0,0.50945,0.18669,0.97361,0.63326,0.86419,1.21346,2.23725,0.31697
63675472009158,0,0,0.50016,0.18365,0.96953,0.6417,0.86004,1.21201,2.23343,0.32153
63675472009192,0,0,0.47092,0.18635,0.97313,0.63894,0.84725,1.21013,2.23199,0.31784
63675472009208,0,0,0.47693,0.18682,0.97759,0.64183,0.87321,1.21362,2.22508,0.32047
63675472009242,0,0,0.4926,0.18736,0.98139,0.63908,0.84284,1.2151,2.22219,0.31691
63675472009291,0,0,0.46581,0.18188,0.99219,0.64567,0.86316,1.21359,2.22223,0.31666
63675472009308,0,0,0.4051,0.18236,0.99442,0.6521,0.84899,1.21299,2.21303,0.3167
63675472009325,0,0,0.40486,0.18439,0.97417,0.64941,0.85547,1.21699,2.20955,0.31161
63675472009358,0,0,0.36685,0.18362,0.97203,0.64252,0.86849,1.21539,2.20416,0.31243
63675472009391,0,0,0.38595,0.18142,0.97861,0.6533,0.87684,1.21587,2.20123,0.31968
63675472009424,0,0,0.36258,0.18036,0.9531,0.64069,0.84242,1.21179,2.2,0.31728
63675472009473,0,0,0.3563,0.17491,0.93878,0.64288,0.85745,1.21297,2.19035,0.31846
63675472009507,0,0,0.33093,0.17006,0.93579,0.63842,0.85485,1.21428,2.18908,0.31966
63675472009539,0,0,0.36854,0.16956,0.94415,0.63662,0.83674,1.21325,2.19154,0.3217
63675472009573,0,0,0.39102,0.1724,0.95493,0.64096,0.83064,1.2128,2.19652,0.31678
63675472009605,0,0,0.40453,0.17558,0.97881,0.65188,0.8577,1.21628,2.19732,0.32283
63675472009638,0,0,0.38813,0.17839,0.98254,0.64757,0.84995,1.21183,2.20061,0.33483
63675472009672,0,0,0.40728,0.18021,0.97762,0.63899,0.85859,1.21211,2.20154,0.33132
63675472009690,0,0,0.40101,0.18484,0.96611,0.63283,0.85086,1.20972,2.20531,0.3339
63675472009722,0,0,0.42006,0.18814,0.96692,0.63001,0.85693,1.20715,2.20365,0.32797
63675472009772,0,0,0.40387,0.18641,0.93938,0.62782,0.86459,1.20794,2.19453,0.33269
63675472009789,0,0,0.37701,0.18226,0.93508,0.61803,0.83642,1.2073,2.19167,0.32793
63675472009821,0,0,0.42661,0.17937,0.93677,0.61454,0.84087,1.20556,2.18889,0.32908
63675472009871,0,0,0.48465,0.17523,0.9346,0.62509,0.83476,1.20547,2.18165,0.32424
63675472009888,0,0,0.50652,0.17323,0.94778,0.63297,0.83251,1.20717,2.18182,0.33268
63675472009905,0,0,0.48845,0.17118,0.9469,0.63288,0.83725,1.20913,2.17869,0.33403
63675472009953,0,0,0.49211,0.1716,0.97055,0.64018,0.8418,1.20636,2.18079,0.33347
63675472009970,0,0,0.49291,0.17272,0.96891,0.6338,0.83889,1.20472,2.18851,0.33367
63675472010003,0,0,0.44874,0.1782,0.9378,0.63575,0.8489,1.20261,2.20135,0.33496
63675472010053,0,0,0.44214,0.17467,0.95254,0.63877,0.85359,1.20423,2.20977,0.33156
63675472010070,0,0,0.42647,0.17853,0.9525,0.63648,0.85676,1.20301,2.21489,0.34356
63675472010086,0,0,0.40062,0.17659,0.9466,0.63961,0.86766,1.2017,2.22049,0.33471
63675472010119,0,0,0.42063,0.18165,0.94505,0.63847,0.87207,1.19866,2.22287,0.34387
63675472010153,0,0,0.45742,0.17977,0.94247,0.63626,0.85589,1.19991,2.22368,0.33349
63675472010186,0,0,0.44547,0.1781,0.94765,0.63445,0.84431,1.19941,2.22035,0.32736
63675472010219,0,0,0.46413,0.17627,0.95715,0.63453,0.84264,1.19954,2.21588,0.32985
63675472010253,0,0,0.49266,0.17805,0.94909,0.63282,0.83494,1.19723,2.21108,0.32157
63675472010285,0,0,0.49713,0.1762,0.94047,0.6243,0.81998,1.19602,2.19873,0.30909
63675472010301,0,0,0.50237,0.17697,0.94684,0.61594,0.81145,1.19573,2.19421,0.30172
63675472010351,0,0,0.47842,0.17473,0.96547,0.61764,0.80917,1.19681,2.19041,0.31322
63675472010368,0,0,0.4277,0.17382,0.95823,0.62028,0.82611,1.19639,2.18514,0.31977
63675472010401,0,0,0.43597,0.17167,0.9723,0.62246,0.82803,1.19674,2.18354,0.31518
63675472010451,0,0,0.40031,0.17359,0.99514,0.62978,0.83379,1.19637,2.18198,0.31543
63675472010500,0,0,0.39501,0.17323,0.97264,0.61969,0.82544,1.19637,2.18732,0.31598
63675472010534,0,0,0.46664,0.17621,0.98174,0.62706,0.81605,1.19434,2.19027,0.33147
63675472010551,0,0,0.54381,0.1813,0.96775,0.62773,0.8165,1.19261,2.19327,0.32703
63675472010584,0,0,0.5725,0.18408,0.97101,0.62511,0.82965,1.19148,2.19721,0.34309
63675472010600,0,0,0.57589,0.18249,0.97541,0.62617,0.82722,1.1893,2.20024,0.34877
63675472010634,0,0,0.60104,0.18448,0.97838,0.63649,0.82737,1.19109,2.19858,0.3394
63675472010666,0,0,0.60343,0.18405,0.96999,0.62444,0.82791,1.19087,2.1949,0.3452
63675472010699,0,0,0.53718,0.18652,0.98211,0.63943,0.84759,1.18977,2.18246,0.32979
63675472010732,0,0,0.50327,0.18622,0.99121,0.63719,0.85636,1.18994,2.18165,0.33518
63675472010765,0,0,0.49826,0.18319,0.97357,0.63059,0.85977,1.18731,2.17329,0.3315
63675472010799,0,0,0.48744,0.18321,0.94053,0.62943,0.87177,1.18572,2.16866,0.32818
63675472010849,0,0,0.44426,0.18809,0.93373,0.62862,0.89106,1.18567,2.16746,0.32852
63675472010865,0,0,0.45973,0.19056,0.93185,0.63411,0.89829,1.18396,2.16851,0.32681
63675472010899,0,0,0.47815,0.18738,0.93239,0.63401,0.8966,1.18333,2.16894,0.3343
63675472010931,0,0,0.44586,0.18124,0.91039,0.6021,0.88466,1.1816,2.16815,0.32741
63675472010948,0,0,0.43621,0.18213,0.93136,0.61526,0.8652,1.17899,2.1652,0.32065
63675472010981,0,0,0.4357,0.18044,0.94878,0.61497,0.83764,1.18108,2.16194,0.30784
63675472011031,0,0,0.465,0.17676,0.92998,0.61132,0.8172,1.17679,2.15128,0.32118
63675472011063,0,0,0.4474,0.17798,0.93607,0.6025,0.81082,1.17601,2.14751,0.31575
63675472011097,0,0,0.4145,0.1787,0.90672,0.59735,0.81476,1.17597,2.14652,0.30594
63675472011129,0,0,0.44329,0.17939,0.9383,0.6342,0.80403,1.17394,2.14327,0.31254
63675472011146,0,0,0.4576,0.18339,0.93473,0.63467,0.81195,1.1754,2.14241,0.31935
63675472011179,0,0,0.44893,0.18188,0.92545,0.63302,0.82067,1.17313,2.14233,0.33431
63675472011213,0,0,0.53229,0.18475,0.94989,0.6456,0.82093,1.17266,2.14245,0.32969
63675472011263,0,0,0.50736,0.18056,0.94311,0.64215,0.82024,1.17077,2.14527,0.3182
63675472011279,0,0,0.48468,0.1771,0.94359,0.64937,0.82061,1.17042,2.1405,0.3163
63675472011312,0,0,0.52072,0.17437,0.97093,0.65345,0.82776,1.16936,2.13976,0.32285
63675472011329,0,0,0.55248,0.17745,0.94584,0.64623,0.84176,1.16909,2.13675,0.31791
63675472011363,0,0,0.56883,0.17545,0.9397,0.63345,0.82786,1.16851,2.13619,0.31578
63675472011379,0,0,0.56592,0.17512,0.93478,0.62566,0.84415,1.16939,2.13809,0.31171
63675472011412,0,0,0.47492,0.17297,0.93049,0.62093,0.82421,1.16846,2.13227,0.31097
63675472011444,0,0,0.45725,0.1785,0.91858,0.60329,0.82628,1.16995,2.12685,0.32645
63675472011461,0,0,0.50063,0.1805,0.91176,0.60668,0.82538,1.16855,2.12915,0.32649
63675472011510,0,0,0.48025,0.17985,0.92121,0.60528,0.80754,1.16683,2.13465,0.32372
63675472011544,0,0,0.49087,0.18045,0.91135,0.60886,0.81361,1.16617,2.13966,0.32186
63675472011561,0,0,0.50785,0.17879,0.91132,0.60592,0.78808,1.1658,2.13743,0.3289
63675472011594,0,0,0.51554,0.18077,0.91904,0.60763,0.78754,1.16508,2.14151,0.33809
63675472011627,0,0,0.58685,0.17484,0.93105,0.63215,0.79829,1.16448,2.15433,0.33529
63675472011660,0,0,0.63305,0.17497,0.93264,0.62831,0.79741,1.16368,2.15385,0.35654
63675472011694,0,0,0.69648,0.17865,0.9294,0.62773,0.78407,1.16387,2.15416,0.35949
63675472011727,0,0,0.73718,0.17892,0.93061,0.62515,0.79127,1.16503,2.15185,0.36175
63675472011744,0,0,0.69203,0.17886,0.96366,0.65381,0.82111,1.16326,2.14431,0.36015
63675472011792,0,0,0.70606,0.17863,0.95844,0.64835,0.82424,1.16298,2.1431,0.35154
63675472011808,0,0,0.69679,0.18127,0.9577,0.64626,0.83533,1.16256,2.1379,0.34711
63675472011842,0,0,0.72458,0.18237,0.95709,0.63759,0.83703,1.16084,2.13886,0.34142
63675472011892,0,0,0.63372,0.18244,0.95398,0.63115,0.83912,1.16132,2.13977,0.32649
63675472011909,0,0,0.58999,0.18095,0.96486,0.64116,0.86075,1.16066,2.14011,0.32812
63675472011942,0,0,0.61156,0.18099,0.94005,0.62414,0.84232,1.15977,2.13891,0.33127
63675472011991,0,0,0.61553,0.17447,0.93693,0.62444,0.83884,1.15675,2.14426,0.32888
63675472012008,0,0,0.67257,0.17898,0.93507,0.62821,0.84666,1.15718,2.14638,0.32618
63675472012025,0,0,0.59963,0.17607,0.92601,0.61831,0.86029,1.15877,2.14652,0.31755
63675472012058,0,0,0.63852,0.17521,0.92173,0.62591,0.84747,1.15776,2.1469,0.31607
63675472012091,0,0,0.60378,0.16787,0.92537,0.62496,0.8413,1.1556,2.14206,0.3058
63675472012141,0,0,0.54829,0.16972,0.90869,0.61597,0.84607,1.15657,2.14749,0.30766
63675472012174,0,0,0.53263,0.1721,0.91679,0.60765,0.83871,1.15836,2.14477,0.30297
63675472012190,0,0,0.52885,0.16558,0.9061,0.60579,0.83261,1.15584,2.14408,0.29659
63675472012223,0,0,0.50683,0.16464,0.91723,0.60835,0.83339,1.15708,2.14601,0.30588
63675472012239,0,0,0.51914,0.1678,0.91521,0.61623,0.80576,1.15384,2.14511,0.30856
63675472012273,0,0,0.55055,0.1685,0.91386,0.61613,0.82961,1.1553,2.14744,0.30951
63675472012323,0,0,0.54993,0.16917,0.91186,0.61512,0.81849,1.15382,2.14507,0.30687
63675472012339,0,0,0.5712,0.16727,0.92774,0.61261,0.79751,1.15129,2.14896,0.29821
63675472012373,0,0,0.58016,0.16643,0.92065,0.61258,0.79893,1.15271,2.14828,0.29418
63675472012406,0,0,0.52101,0.1668,0.91335,0.60327,0.79784,1.15089,2.14401,0.29629
63675472012438,0,0,0.53867,0.16624,0.92649,0.60864,0.79703,1.15089,2.14244,0.30001
63675472012471,0,0,0.53421,0.16651,0.90754,0.59157,0.77556,1.14898,2.14177,0.30567
63675472012489,0,0,0.49012,0.16338,0.91415,0.59843,0.76765,1.14869,2.13909,0.31339
63675472012522,0,0,0.50223,0.16533,0.92584,0.59993,0.77265,1.1518,2.15543,0.3145
63675472012571,0,0,0.43565,0.16786,0.91666,0.61084,0.77071,1.1496,2.14784,0.32856
63675472012588,0,0,0.53259,0.16642,0.91685,0.60969,0.77582,1.14877,2.14809,0.33063
63675472012621,0,0,0.52707,0.16676,0.93179,0.62099,0.77292,1.1493,2.14838,0.33259
63675472012670,0,0,0.52346,0.16614,0.91661,0.60817,0.77379,1.14908,2.14961,0.33231
63675472012687,0,0,0.55242,0.16869,0.91186,0.6058,0.79457,1.15287,2.14784,0.3236
63675472012721,0,0,0.53003,0.16594,0.90499,0.60752,0.79644,1.15096,2.13593,0.32676
63675472012754,0,0,0.53418,0.16571,0.90278,0.60472,0.79223,1.15038,2.13922,0.33309
63675472012770,0,0,0.5417,0.16342,0.90515,0.60367,0.80609,1.15046,2.14381,0.32589
63675472012803,0,0,0.44302,0.16722,0.90797,0.61586,0.76954,1.14861,2.14473,0.31766
63675472012853,0,0,0.41885,0.16935,0.90495,0.61526,0.75609,1.14842,2.14625,0.31944
63675472012887,0,0,0.4137,0.16677,0.90951,0.62166,0.77353,1.14491,2.15042,0.31979
63675472012919,0,0,0.43536,0.16613,0.91374,0.61657,0.75954,1.14309,2.14768,0.31292
