63675471821772,0,0,0.50345,4.93739,4.76155,4.56549,2.53438,4.72023,4.19429,3.3742
63675471821822,0,0,0.50599,4.9374,4.75953,4.55503,2.53831,4.72491,4.18157,3.37166
63675471821838,0,0,0.49092,4.92218,4.75837,4.55474,2.53396,4.72526,4.19054,3.36982
63675471821872,0,0,0.48737,4.94242,4.76031,4.55572,2.5249,4.72952,4.18546,3.36953
63675471821888,0,0,0.47169,4.94242,4.75756,4.55224,2.52972,4.73564,4.19285,3.37194
63675471821921,0,0,0.47556,4.94242,4.75303,4.54904,2.52879,4.74028,4.18315,3.37945
63675471821971,0,0,0.47761,4.97932,4.74588,4.549,2.53402,4.74677,4.19033,3.38307
63675471822005,0,0,0.47219,4.97932,4.74215,4.55755,2.54429,4.74836,4.18901,3.38654
63675471822020,0,0,0.47318,4.996,4.73816,4.55742,2.54424,4.74965,4.19455,3.38594
63675471822070,0,0,0.48753,4.996,4.73559,4.54263,2.53103,4.75715,4.17929,3.38091
63675471822104,0,0,0.51472,4.996,4.74046,4.53813,2.52356,4.7555,4.18172,3.37679
63675471822153,0,0,0.5068,4.996,4.7371,4.53002,2.51303,4.75351,4.18075,3.38141
63675471822187,0,0,0.50303,4.97869,4.7356,4.52702,2.51627,4.75103,4.17471,3.38132
63675471822204,0,0,0.49791,4.98276,4.7359,4.52516,2.51076,4.74911,4.1757,3.38082
63675471822253,0,0,0.5204,4.98276,4.743,4.53355,2.49366,4.73991,4.17321,3.37428
63675471822287,0,0,0.51027,4.98276,4.74444,4.53402,2.49694,4.7351,4.16839,3.37902
63675471822320,0,0,0.51785,4.98276,4.74318,4.53621,2.50747,4.73179,4.16801,3.38047
63675471822353,0,0,0.54631,4.98276,4.74756,4.53672,2.50593,4.71791,4.16467,3.37704
63675471822369,0,0,0.54245,4.97814,4.7523,4.54004,2.48777,4.7176,4.16783,3.37939
63675471822401,0,0,0.5512,4.97814,4.75437,4.54136,2.48615,4.70992,4.16647,3.37989
63675471822418,0,0,0.53825,4.96427,4.75395,4.53983,2.48622,4.70967,4.16753,3.38181
63675471822451,0,0,0.5374,4.94889,4.75385,4.54431,2.47382,4.70547,4.16424,3.38434
63675471822485,0,0,0.54486,4.94889,4.7523,4.54337,2.46488,4.70826,4.17165,3.38726
63675471822501,0,0,0.53343,4.94889,4.75272,4.54441,2.44168,4.70847,4.16664,3.38314
63675471822551,0,0,0.5332,4.94889,4.75276,4.54252,2.43914,4.71359,4.17153,3.38905
63675471822568,0,0,0.52607,4.94889,4.75267,4.54472,2.4305,4.71616,4.16567,3.38888
63675471822584,0,0,0.55028,4.97081,4.7501,4.54682,2.43222,4.71659,4.16977,3.39096
63675471822618,0,0,0.54873,4.98468,4.74471,4.54449,2.41924,4.72577,4.16877,3.39251
63675471822650,0,0,0.56757,5.00007,4.7405,4.54124,2.42049,4.72857,4.16184,3.39313
63675471822667,0,0,0.5741,5.00007,4.73701,4.53723,2.41441,4.73118,4.17086,3.39386
63675471822701,0,0,0.58278,5.00007,4.73233,4.53731,2.41848,4.73143,4.16452,3.39712
63675471822734,0,0,0.57011,5.00007,4.72609,4.53069,2.41655,4.73291,4.17305,3.39484
63675471822750,0,0,0.544,5.00007,4.72069,4.52901,2.41691,4.73652,4.16522,3.39518
63675471822783,0,0,0.53906,4.9979,4.72008,4.51773,2.41052,4.74042,4.17178,3.39497
63675471822799,0,0,0.55159,4.9979,4.71897,4.51458,2.39877,4.74357,4.16675,3.40013
63675471822833,0,0,0.52753,4.97841,4.71657,4.51582,2.39665,4.74243,4.16993,3.39706
63675471822866,0,0,0.51269,4.97693,4.71428,4.51616,2.39029,4.7439,4.16446,3.3959
63675471822899,0,0,0.4928,4.94376,4.71293,4.51171,2.38202,4.74119,4.16325,3.3974
63675471822933,0,0,0.50645,4.94376,4.71587,4.51451,2.36566,4.73759,4.16535,3.3989
63675471822949,0,0,0.54869,4.93431,4.72157,4.51944,2.34836,4.734,4.16037,3.39572
63675471822966,0,0,0.52983,4.93648,4.72335,4.52308,2.34202,4.72908,4.16347,3.39722
63675471822999,0,0,0.52872,4.93571,4.72366,4.52527,2.34171,4.72525,4.15859,3.3953
63675471823031,0,0,0.54457,4.9552,4.7269,4.5271,2.33287,4.7181,4.16258,3.39677
63675471823047,0,0,0.54266,4.95668,4.7312,4.52393,2.32754,4.71448,4.1583,3.39505
63675471823081,0,0,0.53058,4.97283,4.7325,4.52585,2.31373,4.71021,4.159,3.39866
63675471823131,0,0,0.56092,4.98985,4.73793,4.5262,2.31364,4.69699,4.16352,3.39348
63675471823164,0,0,0.57824,4.9993,4.7387,4.52004,2.3142,4.6923,4.16542,3.39231
63675471823214,0,0,0.57556,5.00007,4.73774,4.51848,2.3027,4.69204,4.1694,3.38493
63675471823247,0,0,0.58777,5.00007,4.73739,4.5224,2.30265,4.69102,4.17551,3.38889
63675471823280,0,0,0.58612,5.00007,4.73906,4.52276,2.29525,4.69415,4.17093,3.38485
63675471823314,0,0,0.56598,5.00007,4.73593,4.52409,2.28408,4.69869,4.17057,3.39017
63675471823330,0,0,0.58544,5.00007,4.73623,4.5252,2.28704,4.7005,4.16402,3.38658
63675471823363,0,0,0.57028,5.00007,4.73486,4.52495,2.28469,4.70305,4.16891,3.3881
63675471823412,0,0,0.5737,5.00007,4.72906,4.52676,2.27426,4.71384,4.16806,3.39308
63675471823446,0,0,0.55431,4.97863,4.72341,4.51989,2.27516,4.72035,4.16913,3.40238
63675471823463,0,0,0.59361,4.96894,4.71789,4.5228,2.28959,4.72233,4.16572,3.40152
63675471823513,0,0,0.59308,4.95913,4.71724,4.52113,2.28272,4.72716,4.176,3.40447
63675471823529,0,0,0.59754,4.9391,4.71206,4.52048,2.28401,4.72977,4.1733,3.40591
63675471823545,0,0,0.57658,4.9391,4.71032,4.5112,2.28404,4.73265,4.17903,3.41095
63675471823578,0,0,0.58603,4.92693,4.70812,4.51181,2.28547,4.73307,4.17284,3.41213
63675471823611,0,0,0.58224,4.92694,4.71006,4.5081,2.29667,4.73502,4.17921,3.4141
63675471823628,0,0,0.57659,4.92693,4.7075,4.51373,2.288,4.7356,4.17151,3.41461
63675471823661,0,0,0.58371,4.94837,4.70372,4.50909,2.29204,4.73882,4.17461,3.40993
63675471823711,0,0,0.54367,4.98186,4.71063,4.50484,2.29095,4.73363,4.16593,3.41496
63675471823744,0,0,0.56538,4.98186,4.70977,4.50952,2.29201,4.73211,4.17191,3.41454
63675471823794,0,0,0.54267,4.99402,4.71366,4.50487,2.29545,4.72593,4.1689,3.4185
63675471823827,0,0,0.55341,4.99402,4.71593,4.50622,2.2914,4.71917,4.16479,3.41841
63675471823860,0,0,0.57497,4.99402,4.72293,4.51068,2.28943,4.71464,4.17031,3.4219
63675471823894,0,0,0.55903,5.00007,4.72684,4.50923,2.29113,4.71068,4.16248,3.42127
63675471823927,0,0,0.55844,5.00007,4.72931,4.50598,2.29052,4.70261,4.16079,3.42039
63675471823942,0,0,0.54747,5.00007,4.73379,4.50336,2.28365,4.69899,4.16291,3.41963
63675471823992,0,0,0.54959,5.00007,4.73253,4.51238,2.28114,4.6992,4.16001,3.42166
63675471824009,0,0,0.56269,5.00007,4.73753,4.51327,2.26752,4.69539,4.16109,3.41527
63675471824041,0,0,0.56751,4.99846,4.74242,4.49973,2.27108,4.69819,4.15866,3.41852
63675471824092,0,0,0.54116,4.98694,4.73412,4.50438,2.26143,4.70581,4.15939,3.42156
63675471824125,0,0,0.55257,4.96536,4.73477,4.50305,2.25199,4.70914,4.16394,3.42215
63675471824159,0,0,0.55477,4.95238,4.72792,4.50342,2.25742,4.7138,4.16273,3.42223
63675471824191,0,0,0.5444,4.93592,4.72272,4.49834,2.24668,4.71661,4.16505,3.42419
63675471824225,0,0,0.53528,4.91336,4.70855,4.50194,2.25232,4.72377,4.16601,3.4312
63675471824257,0,0,0.52398,4.90305,4.7026,4.50031,2.25671,4.72607,4.16458,3.43562
63675471824290,0,0,0.53438,4.91394,4.70044,4.49634,2.25753,4.72901,4.16566,3.43308
63675471824307,0,0,0.52815,4.91457,4.70006,4.49504,2.25071,4.73486,4.17022,3.43661
63675471824340,0,0,0.52434,4.93615,4.69481,4.48733,2.26465,4.74195,4.16999,3.4385
63675471824373,0,0,0.53267,4.96559,4.69532,4.47879,2.26486,4.74516,4.17295,3.44069
63675471824407,0,0,0.51732,4.98975,4.697,4.47909,2.26329,4.7434,4.17022,3.43843
63675471824424,0,0,0.52706,4.98975,4.69668,4.48272,2.26263,4.74615,4.17145,3.43889
63675471824474,0,0,0.53644,5.00007,4.69939,4.47931,2.25832,4.74463,4.17022,3.43709
63675471824507,0,0,0.55664,5.00007,4.70218,4.47621,2.26715,4.73777,4.16319,3.43545
63675471824522,0,0,0.56024,5.00007,4.70851,4.4868,2.25106,4.72854,4.16276,3.43709
63675471824573,0,0,0.56588,5.00007,4.71235,4.49272,2.24358,4.72512,4.15721,3.43534
63675471824589,0,0,0.58335,5.00007,4.71805,4.49665,2.25285,4.72088,4.16142,3.43359
63675471824605,0,0,0.59513,5.00007,4.72678,4.49711,2.24948,4.71556,4.15836,3.4308
63675471824639,0,0,0.58243,5.00007,4.73133,4.49158,2.25495,4.70811,4.1602,3.43107
63675471824671,0,0,0.56587,5.00007,4.73897,4.49722,2.25332,4.6992,4.15961,3.4333
63675471824705,0,0,0.57819,5.00007,4.74186,4.49821,2.24649,4.69271,4.16055,3.42525
63675471824737,0,0,0.55401,5.00007,4.74285,4.49684,2.25639,4.69515,4.16673,3.42447
63675471824771,0,0,0.55784,5.00007,4.7417,4.50049,2.25405,4.69031,4.16301,3.42489
63675471824804,0,0,0.53576,4.98229,4.73433,4.49304,2.26105,4.69412,4.16454,3.42431
63675471824820,0,0,0.54016,4.96001,4.73359,4.49749,2.2604,4.69819,4.17285,3.4217
63675471824871,0,0,0.54103,4.94525,4.73116,4.50237,2.25925,4.69784,4.16701,3.41776
63675471824887,0,0,0.53464,4.93337,4.72627,4.50084,2.25905,4.70115,4.17593,3.41737
63675471824904,0,0,0.53119,4.9103,4.71961,4.50386,2.25773,4.70586,4.16301,3.42393
63675471824954,0,0,0.55605,4.90572,4.71217,4.49916,2.2576,4.70985,4.17087,3.42414
63675471824970,0,0,0.54589,4.91254,4.70322,4.49384,2.25965,4.71928,4.17246,3.42846
63675471825004,0,0,0.55228,4.91253,4.70618,4.49718,2.2456,4.72069,4.1669,3.42683
63675471825052,0,0,0.553,4.93481,4.70505,4.49105,2.24814,4.7234,4.17897,3.42803
63675471825069,0,0,0.55314,4.94958,4.70084,4.48664,2.23867,4.72863,4.17198,3.4279
63675471825102,0,0,0.58017,4.98453,4.70286,4.48036,2.2433,4.73343,4.17261,3.42187
63675471825119,0,0,0.56173,4.98911,4.70458,4.47372,2.24144,4.73277,4.18417,3.42275
63675471825152,0,0,0.57913,5.00007,4.70576,4.47046,2.25183,4.73331,4.17232,3.41988
63675471825185,0,0,0.58481,5.00007,4.70671,4.46863,2.25012,4.73143,4.18369,3.41905
63675471825202,0,0,0.58888,5.00007,4.70731,4.46266,2.25497,4.72977,4.17326,3.38994
63675471825251,0,0,0.58463,5.00007,4.70723,4.45669,2.25111,4.72711,4.18075,3.39263
63675471825268,0,0,0.55441,5.00007,4.71638,4.45603,2.25567,4.7201,4.17007,3.38979
63675471825302,0,0,0.54669,5.00007,4.72311,4.44627,2.25364,4.71593,4.1635,3.3929
63675471825352,0,0,0.56957,5.00007,4.72892,4.45246,2.25014,4.71157,4.17179,3.38406
63675471825368,0,0,0.55755,4.99858,4.73154,4.45184,2.23872,4.70626,4.16059,3.38194
63675471825401,0,0,0.54826,4.98117,4.73615,4.45816,2.23268,4.69677,4.15466,3.4024
63675471825417,0,0,0.54328,4.97641,4.73942,4.46578,2.23064,4.69285,4.16288,3.39751
63675471825449,0,0,0.56606,4.95353,4.7384,4.46546,2.2317,4.68873,4.15728,3.39333
63675471825483,0,0,0.5698,4.93771,4.73271,4.46431,2.22995,4.68399,4.16628,3.38852
63675471825533,0,0,0.56911,4.92738,4.72843,4.47408,2.23396,4.68432,4.15708,3.38366
63675471825549,0,0,0.56141,4.90883,4.72294,4.47252,2.2379,4.68402,4.16351,3.37903
63675471825583,0,0,0.57602,4.89042,4.71625,4.46986,2.24683,4.68597,4.16243,3.37866
63675471825600,0,0,0.56471,4.90783,4.71333,4.47086,2.24325,4.68941,4.16272,3.37993
63675471825632,0,0,0.5931,4.91259,4.7071,4.47029,2.24814,4.6909,4.16493,3.37155
63675471825666,0,0,0.58062,4.93547,4.70404,4.47111,2.24551,4.69554,4.16456,3.37124
63675471825699,0,0,0.58179,4.96162,4.70188,4.46531,2.24467,4.70379,4.16919,3.37094
63675471825733,0,0,0.58288,4.98016,4.69937,4.46569,2.24439,4.7049,4.16675,3.36589
63675471825749,0,0,0.58763,4.98196,4.69381,4.46703,2.24455,4.70925,4.16993,3.37068
63675471825781,0,0,0.57845,5.00007,4.69064,4.46786,2.24038,4.71388,4.16406,3.36576
63675471825831,0,0,0.57874,5.00007,4.68429,4.46559,2.24286,4.7155,4.16755,3.36988
63675471825848,0,0,0.56774,5.00007,4.68915,4.45164,2.23697,4.72356,4.16848,3.36592
63675471825881,0,0,0.57214,5.00007,4.68996,4.45209,2.23757,4.72313,4.16163,3.36126
63675471825932,0,0,0.55898,5.00007,4.69595,4.45283,2.24099,4.7267,4.16472,3.36496
63675471825964,0,0,0.56802,5.00007,4.69921,4.45177,2.23396,4.72438,4.17003,3.35804
63675471826013,0,0,0.5673,4.99304,4.7133,4.44628,2.22871,4.72697,4.17848,3.35229
63675471826030,0,0,0.56326,4.9767,4.71644,4.44206,2.23457,4.72039,4.16565,3.35231
63675471826063,0,0,0.54816,4.96691,4.72006,4.44236,2.23255,4.71821,4.17629,3.35386
63675471826113,0,0,0.54691,4.95044,4.72195,4.44266,2.22819,4.71485,4.16523,3.35975
63675471826129,0,0,0.555,4.91997,4.72473,4.44448,2.22624,4.70277,4.1571,3.35535
63675471826146,0,0,0.55363,4.89848,4.72817,4.43514,2.22932,4.699,4.16379,3.35503
63675471826179,0,0,0.54224,4.89302,4.72863,4.43867,2.23072,4.69533,4.15083,3.35237
63675471826213,0,0,0.55136,4.88439,4.7291,4.43861,2.23204,4.69012,4.15971,3.35089
63675471826246,0,0,0.57319,4.90882,4.72618,4.45353,2.22498,4.69139,4.15758,3.34784
63675471826279,0,0,0.56793,4.92529,4.72383,4.45715,2.22549,4.69135,4.14988,3.3434
63675471826312,0,0,0.56359,4.94249,4.72009,4.45935,2.21767,4.68973,4.15678,3.34277
63675471826329,0,0,0.56643,4.95554,4.71748,4.46224,2.21484,4.69551,4.15278,3.34408
63675471826361,0,0,0.56239,4.98708,4.70804,4.47776,2.20689,4.70319,4.15213,3.34898
63675471826411,0,0,0.56352,4.99814,4.70147,4.47805,2.20295,4.70744,4.15596,3.34462
63675471826428,0,0,0.55965,4.99814,4.69524,4.47966,2.20287,4.71309,4.15116,3.34719
63675471826461,0,0,0.56172,4.99984,4.68805,4.47819,2.19738,4.7138,4.15373,3.3475
63675471826478,0,0,0.55997,4.99984,4.68433,4.47513,2.19606,4.71917,4.1545,3.34881
63675471826511,0,0,0.57432,5.00007,4.68406,4.46784,2.19934,4.72562,4.15363,3.34649
63675471826544,0,0,0.56935,5.00007,4.68161,4.46989,2.19234,4.72793,4.15442,3.34588
63675471826561,0,0,0.58003,5.00007,4.68469,4.46748,2.19501,4.72803,4.15845,3.34615
63675471826594,0,0,0.58965,4.99616,4.692,4.4615,2.19566,4.73195,4.16233,3.34206
63675471826611,0,0,0.58555,4.98392,4.69587,4.45683,2.19098,4.73365,4.16628,3.34279
63675471826643,0,0,0.58053,4.979,4.70432,4.45613,2.19185,4.72847,4.16827,3.34107
63675471826693,0,0,0.5871,4.95281,4.70959,4.4631,2.18558,4.72241,4.1672,3.33918
63675471826726,0,0,0.582,4.93119,4.71544,4.45539,2.1861,4.7211,4.1649,3.33722
63675471826758,0,0,0.56272,4.90893,4.7173,4.4568,2.18506,4.71745,4.1684,3.33743
63675471826792,0,0,0.56374,4.89349,4.72089,4.45089,2.18019,4.71392,4.16454,3.33705
63675471826808,0,0,0.55603,4.87109,4.72263,4.44416,2.18183,4.70784,4.16057,3.33663
63675471826842,0,0,0.55976,4.86995,4.72682,4.44619,2.18528,4.7029,4.1555,3.33797
63675471826859,0,0,0.558,4.8671,4.72948,4.43707,2.17561,4.69581,4.15057,3.33781
63675471826892,0,0,0.5618,4.86757,4.72826,4.43525,2.181,4.69354,4.14961,3.33619
63675471826925,0,0,0.57068,4.88918,4.72749,4.44081,2.18577,4.69095,4.14221,3.33837
63675471826942,0,0,0.57071,4.90632,4.72322,4.43457,2.17273,4.68666,4.13795,3.33668
63675471826992,0,0,0.57596,4.92566,4.72174,4.44155,2.17646,4.68643,4.13843,3.33471
63675471827008,0,0,0.57211,4.94806,4.71892,4.44895,2.17082,4.68303,4.13653,3.3349
63675471827025,0,0,0.56008,4.96145,4.71291,4.45243,2.1616,4.68564,4.14193,3.33318
63675471827057,0,0,0.56167,4.97594,4.70777,4.46477,2.15369,4.684,4.14003,3.33363
63675471827090,0,0,0.57385,4.98359,4.70304,4.46323,2.162,4.68743,4.14616,3.3307
63675471827107,0,0,0.56512,4.99494,4.70041,4.46949,2.15929,4.68692,4.14322,3.32864
63675471827140,0,0,0.58745,5.00007,4.69414,4.47151,2.16133,4.69479,4.14991,3.3293
63675471827190,0,0,0.57909,5.00007,4.68505,4.46023,2.16173,4.70246,4.1535,3.32508
63675471827223,0,0,0.5906,5.00007,4.68052,4.4475,2.16644,4.70353,4.1603,3.32605
63675471827272,0,0,0.59157,5.00007,4.67724,4.43832,2.17707,4.70816,4.15508,3.32338
63675471827290,0,0,0.57856,5.00007,4.67605,4.44,2.16557,4.71141,4.16008,3.3254
63675471827305,0,0,0.58274,4.99613,4.67529,4.43867,2.16766,4.71343,4.15311,3.32494
63675471827339,0,0,0.57902,4.99297,4.67649,4.43229,2.16936,4.71699,4.15852,3.32353
63675471827373,0,0,0.57713,4.9784,4.67884,4.4263,2.16613,4.71933,4.15454,3.32387
63675471827389,0,0,0.57627,4.94865,4.68319,4.42352,2.16147,4.72154,4.15164,3.32958
63675471827421,0,0,0.5818,4.9332,4.69019,4.43032,2.15653,4.71953,4.15895,3.32905
63675471827471,0,0,0.56569,4.8869,4.70109,4.42455,2.15985,4.71574,4.16056,3.32993
63675471827504,0,0,0.55543,4.86933,4.70356,4.42086,2.15444,4.71644,4.15071,3.32944
63675471827521,0,0,0.55869,4.84919,4.707,4.42069,2.15558,4.71263,4.15903,3.33683
63675471827571,0,0,0.55243,4.84375,4.71079,4.41643,2.15328,4.71007,4.14971,3.33874
63675471827588,0,0,0.54218,4.84125,4.71874,4.41931,2.15085,4.70733,4.15735,3.33673
63675471827604,0,0,0.54976,4.85229,4.71871,4.41962,2.14971,4.70361,4.1526,3.34017
63675471827654,0,0,0.54402,4.85464,4.72046,4.41248,2.15414,4.7011,4.16024,3.34249
63675471827671,0,0,0.54733,4.87842,4.72336,4.41451,2.15529,4.6951,4.15074,3.34455
63675471827688,0,0,0.54121,4.92222,4.72556,4.41754,2.15447,4.6858,4.14755,3.3478
63675471827720,0,0,0.53983,4.94551,4.72319,4.42218,2.15626,4.67987,4.15296,3.34159
63675471827753,0,0,0.54738,4.96552,4.72023,4.43256,2.16642,4.6737,4.1438,3.34208
63675471827770,0,0,0.54843,4.97945,4.71502,4.43369,2.16244,4.66964,4.15114,3.34267
63675471827803,0,0,0.54656,4.98673,4.71257,4.44196,2.16123,4.66982,4.14116,3.34215
63675471827852,0,0,0.53788,5.00007,4.70116,4.44577,2.16427,4.67199,4.13675,3.33257
63675471827885,0,0,0.55436,5.00007,4.69523,4.44613,2.15765,4.67543,4.13751,3.33195
63675471827918,0,0,0.56731,5.00007,4.68833,4.44734,2.15091,4.67863,4.13613,3.32831
63675471827951,0,0,0.55777,5.00007,4.68331,4.44672,2.14874,4.68322,4.13792,3.32843
63675471827968,0,0,0.54417,4.99853,4.67412,4.44157,2.13876,4.69372,4.13645,3.32915
63675471828001,0,0,0.54605,4.99682,4.67064,4.43595,2.14535,4.69625,4.14124,3.32967
63675471828018,0,0,0.54964,4.98705,4.6678,4.4387,2.1449,4.69972,4.13999,3.33365
63675471828051,0,0,0.55501,4.98177,4.66901,4.43457,2.14011,4.70381,4.14307,3.33735
63675471828084,0,0,0.54586,4.97092,4.66999,4.43626,2.14226,4.70651,4.14129,3.33868
63675471828101,0,0,0.55077,4.96138,4.67196,4.42929,2.14623,4.70976,4.14741,3.33928
63675471828151,0,0,0.5521,4.9448,4.67627,4.4278,2.14616,4.71273,4.14237,3.33351
63675471828168,0,0,0.55534,4.93171,4.68035,4.42494,2.14247,4.71445,4.1439,3.33769
63675471828183,0,0,0.55359,4.90835,4.68434,4.4282,2.14408,4.71455,4.14055,3.33705
63675471828233,0,0,0.54714,4.8605,4.69828,4.42538,2.13412,4.71413,4.14453,3.33606
63675471828267,0,0,0.54815,4.86218,4.69947,4.42492,2.13785,4.71052,4.13797,3.33568
63675471828299,0,0,0.53841,4.85495,4.70416,4.426,2.1368,4.71002,4.14421,3.3395
63675471828333,0,0,0.54247,4.86139,4.70713,4.42621,2.13655,4.70566,4.13883,3.34114
63675471828350,0,0,0.54615,4.86234,4.70834,4.42817,2.14484,4.70469,4.14894,3.3349
63675471828383,0,0,0.54646,4.87928,4.71096,4.424,2.1429,4.7007,4.14442,3.33363
63675471828433,0,0,0.55016,4.90811,4.71055,4.42239,2.14764,4.69348,4.14854,3.33009
63675471828465,0,0,0.55063,4.92883,4.71071,4.4241,2.14313,4.69297,4.15576,3.33171
63675471828482,0,0,0.55721,4.95477,4.71123,4.42508,2.14257,4.68374,4.15704,3.33376
63675471828532,0,0,0.56793,4.96491,4.7078,4.42997,2.13901,4.68001,4.14847,3.33314
63675471828549,0,0,0.56834,4.97705,4.70882,4.42652,2.14016,4.67795,4.1562,3.33455
63675471828565,0,0,0.57487,4.98501,4.70497,4.43073,2.14324,4.67718,4.14418,3.33653
63675471828598,0,0,0.57641,4.99932,4.70223,4.43424,2.14266,4.6754,4.15051,3.33841
63675471828631,0,0,0.57161,4.99932,4.69882,4.43703,2.14242,4.67704,4.14522,3.3414
63675471828664,0,0,0.57897,5.00007,4.69625,4.43433,2.15351,4.67727,4.15155,3.34471
63675471828681,0,0,0.57642,5.00007,4.69355,4.43473,2.14551,4.67968,4.14727,3.34091
63675471828730,0,0,0.57468,5.00007,4.69029,4.43166,2.14873,4.68379,4.15178,3.34096
63675471828747,0,0,0.56319,5.00007,4.68809,4.42572,2.15326,4.68837,4.14645,3.34215
63675471828763,0,0,0.5546,5.00007,4.68259,4.42791,2.14362,4.69009,4.15057,3.34586
63675471828814,0,0,0.5596,4.97252,4.67481,4.42117,2.13902,4.7002,4.1467,3.33669
63675471828847,0,0,0.56254,4.96232,4.67427,4.42066,2.13334,4.70388,4.14825,3.33247
63675471828880,0,0,0.57471,4.94818,4.67039,4.41872,2.13121,4.70698,4.14384,3.33625
63675471828913,0,0,0.56013,4.93433,4.67353,4.42255,2.12863,4.71269,4.14618,3.33562
63675471828930,0,0,0.56664,4.91546,4.67341,4.42171,2.12009,4.71496,4.14427,3.3398
63675471828962,0,0,0.585,4.89876,4.67487,4.42006,2.1235,4.71863,4.1438,3.33379
63675471828978,0,0,0.56485,4.88509,4.67962,4.41985,2.1273,4.72142,4.13915,3.33557
63675471829012,0,0,0.56678,4.86371,4.68188,4.41798,2.12438,4.71983,4.14132,3.34033
63675471829045,0,0,0.55787,4.8574,4.68432,4.41968,2.11843,4.72194,4.14095,3.34371
63675471829062,0,0,0.54205,4.84437,4.69274,4.4143,2.11924,4.71795,4.13793,3.34183
63675471829112,0,0,0.55268,4.8389,4.69498,4.41064,2.12426,4.71207,4.13906,3.34164
63675471829128,0,0,0.54858,4.84687,4.70032,4.41111,2.12567,4.70924,4.13973,3.3397
63675471829145,0,0,0.54,4.85404,4.70507,4.40963,2.11824,4.703,4.14384,3.34347
63675471829178,0,0,0.54385,4.869,4.70595,4.40778,2.1153,4.69907,4.14631,3.34569
63675471829211,0,0,0.55038,4.88359,4.70887,4.40567,2.12205,4.69459,4.14951,3.34273
63675471829228,0,0,0.56528,4.90437,4.71066,4.40604,2.12253,4.68875,4.14812,3.33981
63675471829261,0,0,0.56917,4.91213,4.71142,4.40923,2.12346,4.68315,4.14981,3.34146
63675471829311,0,0,0.55635,4.94573,4.70808,4.42429,2.11961,4.67383,4.15583,3.34459
63675471829343,0,0,0.54835,4.96616,4.70089,4.42068,2.12144,4.66989,4.15079,3.34281
63675471829393,0,0,0.54161,4.98017,4.69472,4.41873,2.12976,4.67189,4.14131,3.3434
63675471829426,0,0,0.52934,4.98394,4.69137,4.41955,2.12574,4.67494,4.1403,3.34364
63675471829459,0,0,0.52657,4.99226,4.68758,4.41703,2.12357,4.6778,4.141,3.3433
63675471829493,0,0,0.53913,4.98981,4.6832,4.41122,2.12476,4.68335,4.1408,3.34346
63675471829510,0,0,0.53432,4.98308,4.67531,4.40256,2.12582,4.68597,4.1331,3.34531
63675471829542,0,0,0.53391,4.97284,4.67206,4.40235,2.12954,4.69322,4.13901,3.34502
63675471829558,0,0,0.54234,4.95562,4.66871,4.39389,2.13618,4.69482,4.12871,3.34974
63675471829592,0,0,0.53538,4.94306,4.66473,4.39205,2.12555,4.70026,4.1401,3.35111
63675471829625,0,0,0.54642,4.90529,4.6597,4.39632,2.13426,4.70672,4.14272,3.34978
63675471829642,0,0,0.54052,4.88812,4.6602,4.39432,2.13599,4.70987,4.13549,3.35238
63675471829692,0,0,0.53745,4.84948,4.6666,4.39969,2.14517,4.71412,4.13649,3.34999
63675471829724,0,0,0.53113,4.83844,4.6687,4.39803,2.14125,4.71297,4.14594,3.3468
63675471829757,0,0,0.52442,4.8399,4.67179,4.39862,2.13943,4.71441,4.13846,3.34703
63675471829791,0,0,0.531,4.836,4.67536,4.3964,2.14202,4.70786,4.14634,3.34365
63675471829807,0,0,0.52883,4.8467,4.67708,4.39478,2.14007,4.70564,4.13792,3.3443
63675471829840,0,0,0.52619,4.85052,4.68118,4.3962,2.13626,4.70081,4.1454,3.34633
63675471829907,0,0,0.53285,4.86425,4.68481,4.3983,2.13865,4.69706,4.13066,3.34313
63675471829924,0,0,0.52296,4.89771,4.68728,4.38877,2.12812,4.68743,4.13394,3.34434
63675471829973,0,0,0.53816,4.93131,4.6924,4.39562,2.12725,4.67717,4.13299,3.34159
63675471830006,0,0,0.53342,4.94636,4.69377,4.39276,2.123,4.67465,4.13887,3.34159
63675471830023,0,0,0.52744,4.95845,4.69405,4.39892,2.12391,4.67146,4.13167,3.34218
63675471830072,0,0,0.52849,4.9704,4.69387,4.39697,2.12187,4.669,4.13769,3.33988
63675471830089,0,0,0.52666,4.98022,4.69153,4.39104,2.11658,4.66797,4.13132,3.34422
63675471830106,0,0,0.5358,4.9847,4.69257,4.3879,2.12599,4.66857,4.13578,3.34141
63675471830139,0,0,0.5479,4.98987,4.68967,4.39667,2.12911,4.66773,4.12622,3.33784
63675471830171,0,0,0.54641,4.98794,4.68574,4.39532,2.13374,4.66926,4.13154,3.33779
63675471830189,0,0,0.53252,4.97641,4.67806,4.41274,2.13705,4.67438,4.12842,3.34205
63675471830205,0,0,0.54086,4.97176,4.67653,4.40711,2.13838,4.67768,4.1233,3.33981
63675471830238,0,0,0.53913,4.95958,4.67229,4.40685,2.14451,4.68216,4.12456,3.33651
63675471830272,0,0,0.53878,4.95401,4.66892,4.41348,2.14448,4.6849,4.12133,3.33127
63675471830288,0,0,0.53669,4.94376,4.66281,4.41135,2.13712,4.68951,4.11915,3.33469
63675471830320,0,0,0.52656,4.93043,4.66278,4.41164,2.1335,4.69287,4.11548,3.34167
63675471830337,0,0,0.52614,4.91052,4.66012,4.41205,2.12674,4.69695,4.116,3.33965
63675471830371,0,0,0.53896,4.89526,4.65884,4.40123,2.1293,4.70175,4.1199,3.33973
63675471830387,0,0,0.53434,4.88122,4.66017,4.39852,2.12674,4.70566,4.11915,3.34001
63675471830420,0,0,0.53131,4.85497,4.66238,4.38518,2.11873,4.70868,4.11952,3.34767
63675471830437,0,0,0.53492,4.8389,4.66417,4.37256,2.1229,4.71043,4.12203,3.35127
63675471830469,0,0,0.53629,4.84208,4.66702,4.37805,2.12548,4.70839,4.122,3.3475
63675471830503,0,0,0.5421,4.83464,4.66963,4.37417,2.12055,4.70968,4.12921,3.34522
63675471830519,0,0,0.54822,4.85024,4.67594,4.37238,2.12703,4.70767,4.12445,3.34394
63675471830553,0,0,0.53535,4.85479,4.68135,4.37186,2.1264,4.70488,4.12955,3.34502
63675471830586,0,0,0.54949,4.87065,4.68359,4.3738,2.12924,4.69921,4.1237,3.34251
63675471830603,0,0,0.55739,4.89279,4.68599,4.37922,2.12985,4.69634,4.13293,3.34262
63675471830652,0,0,0.55555,4.90987,4.68829,4.38445,2.12803,4.69183,4.12714,3.34226
63675471830669,0,0,0.55698,4.9315,4.69153,4.39265,2.13066,4.68857,4.14042,3.34185
63675471830685,0,0,0.547,4.94393,4.69527,4.38755,2.13197,4.6824,4.12861,3.34341
63675471830719,0,0,0.55496,4.97393,4.69585,4.39231,2.13714,4.67328,4.13342,3.34347
63675471830751,0,0,0.56257,4.98833,4.69402,4.3943,2.13497,4.67184,4.14561,3.3419
63675471830768,0,0,0.56527,4.99621,4.69259,4.39606,2.13427,4.66973,4.13595,3.33874
63675471830801,0,0,0.55744,4.99865,4.69029,4.39241,2.1372,4.67037,4.14812,3.33715
63675471830851,0,0,0.54732,4.99577,4.68614,4.39514,2.13811,4.67548,4.14157,3.33741
63675471830884,0,0,0.5494,4.98711,4.68228,4.39522,2.13399,4.67965,4.13484,3.33384
63675471830917,0,0,0.55174,4.98202,4.67834,4.3916,2.13831,4.68429,4.13938,3.33215
63675471830951,0,0,0.5466,4.96867,4.67227,4.39164,2.13635,4.68991,4.12813,3.33077
63675471830967,0,0,0.53826,4.95184,4.67003,4.38606,2.14033,4.69343,4.13209,3.32809
63675471831000,0,0,0.5143,4.90842,4.66214,4.38746,2.14273,4.70253,4.12141,3.33346
63675471831033,0,0,0.52458,4.88975,4.65932,4.38772,2.14493,4.70532,4.11731,3.33121
63675471831049,0,0,0.52973,4.86752,4.65626,4.38442,2.14427,4.70683,4.12094,3.32869
63675471831083,0,0,0.52798,4.8549,4.65365,4.38755,2.14703,4.70872,4.11986,3.33246
63675471831100,0,0,0.53536,4.83688,4.65556,4.38706,2.14559,4.70978,4.12306,3.33428
63675471831133,0,0,0.53475,4.8422,4.65676,4.38944,2.1414,4.70904,4.12762,3.3357
63675471831166,0,0,0.53933,4.84002,4.65691,4.38669,2.1398,4.70769,4.12729,3.33977
63675471831183,0,0,0.54828,4.84712,4.66264,4.37725,2.13747,4.70662,4.13396,3.33755
63675471831232,0,0,0.54648,4.85795,4.66765,4.36438,2.14032,4.7034,4.13792,3.33638
63675471831265,0,0,0.5397,4.87987,4.67269,4.3631,2.13522,4.70315,4.1397,3.33874
63675471831282,0,0,0.5392,4.90486,4.68169,4.36369,2.12774,4.69794,4.14087,3.3377
63675471831331,0,0,0.5288,4.92628,4.68833,4.35552,2.12816,4.69008,4.14041,3.34005
63675471831365,0,0,0.5333,4.94214,4.69085,4.35969,2.12621,4.6854,4.1477,3.33926
63675471831397,0,0,0.52965,4.95449,4.69058,4.35556,2.12117,4.68308,4.14187,3.33794
63675471831431,0,0,0.53328,4.96446,4.69077,4.36714,2.1179,4.67837,4.14441,3.33802
63675471831448,0,0,0.52654,4.96446,4.68873,4.3709,2.12064,4.67442,4.14263,3.33682
63675471831465,0,0,0.51989,4.97381,4.68995,4.37292,2.1194,4.67288,4.14,3.34173
63675471831498,0,0,0.53175,4.97525,4.687,4.38229,2.12762,4.66996,4.14026,3.33967
63675471831531,0,0,0.53462,4.96925,4.68663,4.38472,2.12577,4.6722,4.13555,3.33528
63675471831564,0,0,0.52955,4.96439,4.68359,4.37937,2.12766,4.67185,4.12978,3.33782
63675471831580,0,0,0.5295,4.95318,4.68232,4.38592,2.12437,4.67549,4.12749,3.33685
63675471831613,0,0,0.53719,4.93869,4.67756,4.38561,2.12529,4.67883,4.11909,3.33868
63675471831646,0,0,0.56608,4.90472,4.67215,4.38141,2.1205,4.68553,4.11828,3.33415
63675471831679,0,0,0.56187,4.89153,4.66807,4.36989,2.10949,4.68956,4.11632,3.33601
63675471831712,0,0,0.55893,4.88278,4.66384,4.3652,2.10841,4.69404,4.10764,3.33498
