63675471948044,0,0,0.41735,1.09182,2.17819,1.19284,2.01625,2.84009,2.98492,0.8409
63675471948077,0,0,0.43357,1.11369,2.17772,1.18952,2.00986,2.8258,2.98224,0.82795
63675471948127,0,0,0.4373,1.09046,2.18899,1.20336,1.97121,2.81522,2.97811,0.83069
63675471948160,0,0,0.43128,1.06226,2.19278,1.20835,1.99606,2.79692,2.97182,0.82974
63675471948194,0,0,0.42736,1.04035,2.18543,1.20639,2.00598,2.80569,2.97103,0.837
63675471948210,0,0,0.41403,1.0434,2.17763,1.20695,1.97619,2.79132,2.96642,0.83365
63675471948226,0,0,0.40848,1.06304,2.17377,1.19582,1.97455,2.77656,2.96367,0.83095
63675471948260,0,0,0.40006,1.00021,2.20757,1.19337,1.9822,2.78562,2.96081,0.82617
63675471948293,0,0,0.37694,1.02834,2.20413,1.19554,1.98924,2.80719,2.96066,0.82273
63675471948309,0,0,0.38245,1.02196,2.19015,1.18188,1.99637,2.80366,2.95933,0.81364
63675471948343,0,0,0.3819,1.04244,2.18137,1.17923,1.9912,2.81326,2.96147,0.81195
63675471948360,0,0,0.3831,1.05638,2.1881,1.17908,1.9876,2.79544,2.96426,0.80848
63675471948392,0,0,0.37396,1.04398,2.1823,1.18065,1.98196,2.80397,2.96765,0.81438
63675471948408,0,0,0.35356,1.02582,2.18254,1.18162,1.98332,2.80454,2.9673,0.81398
63675471948442,0,0,0.35472,1.07295,2.15974,1.18511,1.98775,2.7924,2.96249,0.82152
63675471948458,0,0,0.35786,1.09359,2.15011,1.18641,1.98144,2.79346,2.96298,0.82137
63675471948492,0,0,0.3699,1.07092,2.14462,1.18067,1.97597,2.7859,2.96314,0.83418
63675471948525,0,0,0.3655,1.0167,2.1626,1.18907,1.96605,2.78016,2.96009,0.83896
63675471948541,0,0,0.36129,1.01139,2.16639,1.19403,1.95758,2.78327,2.95951,0.8414
63675471948591,0,0,0.36653,1.00999,2.15556,1.18463,1.96079,2.77216,2.95196,0.8409
63675471948625,0,0,0.37786,0.9637,2.1598,1.17948,1.94491,2.78096,2.95257,0.81252
63675471948641,0,0,0.37774,0.97816,2.16537,1.17613,1.94154,2.7786,2.95203,0.81351
63675471948690,0,0,0.37267,0.95049,2.16053,1.17973,1.93989,2.77855,2.94997,0.80422
63675471948706,0,0,0.37448,0.97494,2.16194,1.17168,1.92809,2.77892,2.95232,0.79977
63675471948723,0,0,0.37375,0.96721,2.15479,1.17128,1.92666,2.77452,2.9495,0.80252
63675471948757,0,0,0.37861,0.96825,2.14497,1.16353,1.91937,2.76833,2.94729,0.79564
63675471948789,0,0,0.38824,0.96859,2.15417,1.17144,1.91558,2.77207,2.95106,0.78826
63675471948806,0,0,0.38276,0.96926,2.14428,1.17287,1.91708,2.77308,2.9509,0.79388
63675471948840,0,0,0.39129,0.94232,2.14069,1.17261,1.91087,2.77499,2.94951,0.79205
63675471948873,0,0,0.39152,0.9695,2.14856,1.17026,1.91272,2.77575,2.95024,0.79884
63675471948889,0,0,0.39002,0.93573,2.14988,1.17268,1.91451,2.77386,2.94707,0.80118
63675471948922,0,0,0.39768,0.97874,2.14821,1.1741,1.92225,2.78335,2.94807,0.80292
63675471948938,0,0,0.38369,1.00396,2.14909,1.17415,1.91421,2.78556,2.94839,0.80513
63675471948971,0,0,0.38693,0.98845,2.15662,1.17223,1.91106,2.77751,2.94751,0.7978
63675471948988,0,0,0.39454,0.97854,2.15278,1.16896,1.91458,2.77138,2.9495,0.79998
63675471949022,0,0,0.36969,0.95051,2.1541,1.16255,1.91944,2.77105,2.94571,0.80701
63675471949071,0,0,0.37244,0.90865,2.14635,1.16972,1.9151,2.76311,2.94576,0.80476
63675471949105,0,0,0.37096,0.88644,2.14365,1.16826,1.9063,2.75692,2.94782,0.80358
63675471949138,0,0,0.37512,0.84446,2.14532,1.16801,1.91471,2.75202,2.94502,0.80419
63675471949171,0,0,0.35989,0.84259,2.14094,1.16804,1.90411,2.75799,2.94305,0.80775
63675471949187,0,0,0.34821,0.88318,2.13395,1.16551,1.89954,2.75868,2.93774,0.80452
63675471949221,0,0,0.36164,0.88201,2.13838,1.17038,1.89729,2.76014,2.94151,0.80516
63675471949238,0,0,0.36575,0.88652,2.13875,1.17551,1.90115,2.75326,2.94178,0.79716
63675471949270,0,0,0.36553,0.89184,2.14106,1.16711,1.90155,2.75509,2.94138,0.78133
63675471949303,0,0,0.36891,0.92547,2.13326,1.16417,1.91598,2.7647,2.93949,0.76465
63675471949319,0,0,0.38658,0.93818,2.12524,1.16493,1.92294,2.76545,2.938,0.74951
63675471949369,0,0,0.40224,0.95433,2.12291,1.1654,1.9314,2.76682,2.93958,0.75068
63675471949386,0,0,0.40805,0.90083,2.14157,1.16839,1.9404,2.76693,2.93746,0.7574
63675471949419,0,0,0.39877,0.89213,2.14117,1.16616,1.93325,2.76472,2.93121,0.74946
63675471949452,0,0,0.38755,0.9296,2.13436,1.16014,1.92832,2.76455,2.9312,0.76922
63675471949469,0,0,0.37526,0.92228,2.1255,1.16012,1.93508,2.76258,2.92889,0.7758
63675471949486,0,0,0.3851,0.91769,2.13038,1.16066,1.9229,2.76062,2.92425,0.77171
63675471949518,0,0,0.38571,0.90596,2.13522,1.15981,1.91446,2.75853,2.92508,0.77393
63675471949551,0,0,0.36847,0.92431,2.12798,1.15833,1.91179,2.76034,2.92552,0.78995
63675471949568,0,0,0.3505,0.89335,2.11569,1.15183,1.91232,2.76097,2.92536,0.77251
63675471949601,0,0,0.37742,0.93295,2.11497,1.15235,1.91526,2.75953,2.92785,0.78069
63675471949651,0,0,0.37606,0.87495,2.12294,1.15508,1.89956,2.75885,2.92844,0.77239
63675471949684,0,0,0.36898,0.86631,2.12282,1.15461,1.90471,2.75771,2.93227,0.77342
63675471949717,0,0,0.37574,0.89563,2.11711,1.15412,1.90321,2.75598,2.93313,0.77285
63675471949751,0,0,0.3802,0.86353,2.1266,1.15514,1.89637,2.75243,2.93306,0.76953
63675471949767,0,0,0.37064,0.93659,2.12161,1.14963,1.89705,2.74913,2.93303,0.76967
63675471949800,0,0,0.37202,0.93774,2.11179,1.14946,1.89291,2.74884,2.93371,0.77315
63675471949834,0,0,0.3523,0.95739,2.10274,1.14752,1.89965,2.74949,2.93596,0.76341
63675471949867,0,0,0.35842,0.9548,2.10753,1.14821,1.89767,2.7506,2.93885,0.76657
63675471949883,0,0,0.35645,0.97271,2.10595,1.14726,1.89551,2.7493,2.93667,0.76822
63675471949932,0,0,0.35339,0.94858,2.0971,1.14411,1.90486,2.74747,2.93859,0.76765
63675471949966,0,0,0.37197,0.90929,2.09552,1.14674,1.89267,2.74708,2.93768,0.76919
63675471949999,0,0,0.37209,0.91228,2.09607,1.14524,1.89371,2.74481,2.93652,0.77145
63675471950031,0,0,0.36239,0.94809,2.09437,1.14316,1.89784,2.74286,2.93876,0.76192
63675471950049,0,0,0.36183,0.9151,2.09386,1.14339,1.89243,2.74104,2.93598,0.75802
63675471950082,0,0,0.37247,0.90584,2.09324,1.14333,1.89844,2.73704,2.9277,0.74497
63675471950131,0,0,0.36854,0.90793,2.09199,1.14522,1.8961,2.73325,2.92306,0.73477
63675471950165,0,0,0.35841,0.8947,2.0937,1.14425,1.90585,2.73097,2.92182,0.7296
63675471950198,0,0,0.3557,0.87556,2.09341,1.1445,1.89989,2.73077,2.92116,0.74183
63675471950231,0,0,0.35644,0.85599,2.08718,1.14131,1.89659,2.73046,2.91664,0.75579
63675471950264,0,0,0.34753,0.86027,2.07873,1.13858,1.893,2.73045,2.91471,0.76283
63675471950280,0,0,0.33219,0.89129,2.07019,1.13623,1.89286,2.73034,2.92102,0.76342
63675471950313,0,0,0.32944,0.88509,2.0745,1.13357,1.89161,2.73083,2.91807,0.78038
63675471950346,0,0,0.31693,0.89794,2.0671,1.13023,1.88182,2.72774,2.91885,0.78592
63675471950380,0,0,0.33326,0.89306,2.06989,1.13271,1.88212,2.72941,2.91561,0.76394
63675471950413,0,0,0.34942,0.86383,2.07312,1.13227,1.88183,2.72724,2.9113,0.77367
63675471950446,0,0,0.33836,0.86173,2.06882,1.13143,1.88187,2.72638,2.91203,0.77192
63675471950480,0,0,0.34508,0.85476,2.06585,1.12746,1.86451,2.72143,2.90878,0.76216
63675471950513,0,0,0.36494,0.84194,2.06043,1.12747,1.85356,2.71803,2.90564,0.74587
63675471950546,0,0,0.37959,0.86418,2.0631,1.1296,1.85251,2.71934,2.90617,0.73619
63675471950563,0,0,0.38727,0.87591,2.06168,1.12685,1.8527,2.71507,2.90492,0.74118
63675471950613,0,0,0.37732,0.87483,2.05438,1.12395,1.85508,2.71216,2.90934,0.74363
63675471950628,0,0,0.37572,0.90739,2.05436,1.12269,1.84521,2.70927,2.91142,0.73027
63675471950662,0,0,0.36275,0.89058,2.0601,1.12649,1.8579,2.71219,2.91037,0.74115
63675471950711,0,0,0.35517,0.84183,2.06505,1.12649,1.86167,2.70906,2.91638,0.7468
63675471950761,0,0,0.34839,0.84355,2.05675,1.12435,1.85917,2.70844,2.91882,0.74929
63675471950778,0,0,0.33945,0.82251,2.05887,1.12502,1.85118,2.70813,2.91876,0.75035
63675471950811,0,0,0.33711,0.81829,2.05581,1.1249,1.8557,2.70967,2.91827,0.75358
63675471950843,0,0,0.33726,0.79305,2.05944,1.12578,1.8592,2.70643,2.92261,0.74571
63675471950894,0,0,0.35252,0.80451,2.05703,1.12615,1.86128,2.70913,2.9234,0.74395
63675471950910,0,0,0.35171,0.81837,2.05249,1.12359,1.86674,2.70785,2.91861,0.74049
63675471950926,0,0,0.34578,0.81168,2.04966,1.11937,1.87192,2.70745,2.91217,0.74427
63675471950960,0,0,0.346,0.84462,2.04528,1.11587,1.86742,2.70808,2.90662,0.73579
63675471950993,0,0,0.35369,0.83773,2.04198,1.11583,1.86796,2.70641,2.90978,0.73459
63675471951026,0,0,0.3636,0.82675,2.04579,1.12009,1.86811,2.70797,2.9121,0.72742
63675471951059,0,0,0.36151,0.82439,2.04672,1.11804,1.86657,2.70788,2.91044,0.73824
63675471951093,0,0,0.34582,0.80958,2.0622,1.11868,1.86044,2.70763,2.91129,0.72755
63675471951109,0,0,0.34826,0.77228,2.06574,1.1193,1.85167,2.70772,2.91253,0.72306
63675471951142,0,0,0.3443,0.81982,2.05873,1.11827,1.85513,2.70645,2.91294,0.71674
63675471951192,0,0,0.34181,0.82397,2.05518,1.11866,1.85316,2.70637,2.9155,0.72442
63675471951208,0,0,0.33459,0.837,2.0525,1.12117,1.84779,2.70649,2.91207,0.7272
63675471951242,0,0,0.32244,0.8368,2.04342,1.11837,1.84121,2.70025,2.90449,0.7255
63675471951258,0,0,0.32154,0.85405,2.03437,1.11778,1.84101,2.6994,2.90397,0.72868
63675471951291,0,0,0.33138,0.84621,2.0269,1.11612,1.83768,2.69412,2.90116,0.73295
63675471951324,0,0,0.33398,0.84472,2.02266,1.11745,1.83924,2.69555,2.90074,0.74188
63675471951357,0,0,0.33154,0.81658,2.02364,1.11572,1.83049,2.69275,2.90386,0.74745
63675471951407,0,0,0.34642,0.76969,2.03012,1.11404,1.83073,2.69121,2.90497,0.73482
63675471951424,0,0,0.35054,0.80151,2.02959,1.11316,1.8365,2.69368,2.90338,0.72373
63675471951458,0,0,0.35296,0.79719,2.02285,1.11118,1.83448,2.6914,2.90504,0.72458
63675471951490,0,0,0.34808,0.79214,2.01867,1.11028,1.83364,2.6909,2.90427,0.72308
63675471951506,0,0,0.34178,0.79089,2.01675,1.10958,1.83471,2.69041,2.90803,0.71465
63675471951523,0,0,0.34267,0.80378,2.0114,1.10884,1.83556,2.68738,2.90615,0.70268
63675471951572,0,0,0.33727,0.83298,2.00935,1.10784,1.83197,2.68504,2.90304,0.70561
63675471951589,0,0,0.33504,0.81593,2.00972,1.10685,1.83237,2.68372,2.90422,0.70466
63675471951623,0,0,0.33206,0.78712,2.00627,1.10602,1.82951,2.68179,2.9081,0.72024
63675471951639,0,0,0.33533,0.80479,2.0056,1.10491,1.82778,2.68194,2.91019,0.71972
63675471951689,0,0,0.33544,0.76462,2.0083,1.10317,1.82068,2.68009,2.90526,0.72531
63675471951705,0,0,0.35073,0.80797,2.00978,1.10415,1.81901,2.6808,2.90551,0.73049
63675471951772,0,0,0.35157,0.77673,2.0103,1.10382,1.81715,2.67875,2.9037,0.73286
63675471951805,0,0,0.36033,0.76987,2.00086,1.10186,1.81623,2.67714,2.90576,0.73301
63675471951837,0,0,0.37527,0.7673,2.01276,1.10415,1.81326,2.67444,2.90108,0.72404
63675471951871,0,0,0.38608,0.78032,2.00732,1.10538,1.81907,2.67673,2.90519,0.71267
63675471951888,0,0,0.36949,0.75547,2.00616,1.10298,1.82008,2.67544,2.90619,0.71837
63675471951921,0,0,0.36957,0.76393,2.00651,1.10236,1.82039,2.67473,2.90395,0.71279
63675471951970,0,0,0.38931,0.70829,2.01551,1.10387,1.82541,2.67557,2.90131,0.7098
63675471951987,0,0,0.37644,0.72232,2.02118,1.1045,1.82987,2.67349,2.90187,0.71216
63675471952020,0,0,0.35984,0.73205,2.01794,1.10295,1.83052,2.67378,2.90197,0.72308
63675471952053,0,0,0.37812,0.76242,2.01343,1.105,1.83333,2.67472,2.89828,0.72268
63675471952087,0,0,0.3847,0.76347,2.00898,1.10526,1.83101,2.67329,2.89488,0.72504
63675471952119,0,0,0.38506,0.75273,2.00955,1.10492,1.82792,2.67567,2.89277,0.7271
63675471952153,0,0,0.36021,0.75378,2.00538,1.10452,1.82321,2.67307,2.89241,0.72897
63675471952186,0,0,0.35383,0.76584,2.00284,1.10257,1.81218,2.67179,2.8913,0.73454
63675471952203,0,0,0.36862,0.72734,2.01136,1.10548,1.81092,2.67214,2.88978,0.72264
63675471952252,0,0,0.35764,0.71885,2.00968,1.10303,1.80924,2.66909,2.88808,0.73373
63675471952269,0,0,0.33892,0.72175,2.00985,1.10343,1.80956,2.66784,2.88908,0.72497
63675471952302,0,0,0.33375,0.72313,2.01433,1.10581,1.80777,2.66561,2.89109,0.71281
63675471952352,0,0,0.34379,0.7168,2.01228,1.10327,1.80772,2.66373,2.8929,0.7122
63675471952369,0,0,0.36649,0.74027,2.00604,1.10061,1.80756,2.66146,2.89122,0.70936
63675471952402,0,0,0.34916,0.75123,2.00271,1.09982,1.81213,2.65978,2.8905,0.70807
63675471952450,0,0,0.34388,0.72505,1.98993,1.09264,1.81022,2.65791,2.88588,0.69902
63675471952484,0,0,0.35377,0.74263,1.99371,1.09013,1.80913,2.65596,2.88757,0.70617
63675471952517,0,0,0.33629,0.70734,1.99446,1.09332,1.80803,2.65583,2.888,0.70938
63675471952550,0,0,0.31535,0.6931,1.98902,1.09248,1.80685,2.65437,2.88597,0.71493
63675471952584,0,0,0.32244,0.69532,1.98874,1.0918,1.80622,2.65312,2.88546,0.70904
63675471952600,0,0,0.35265,0.68508,1.98352,1.08906,1.80356,2.64876,2.88536,0.7123
63675471952634,0,0,0.35152,0.68853,1.98435,1.09059,1.80143,2.64621,2.88539,0.72116
63675471952666,0,0,0.3362,0.71026,1.98239,1.08648,1.79828,2.64617,2.88673,0.71921
63675471952683,0,0,0.3431,0.69643,1.97053,1.08415,1.79757,2.64322,2.88425,0.7106
63675471952733,0,0,0.34841,0.71932,1.97265,1.08396,1.7993,2.64441,2.88297,0.7056
63675471952749,0,0,0.35903,0.72028,1.97212,1.08361,1.79689,2.64201,2.87954,0.70151
63675471952766,0,0,0.34828,0.71241,1.97551,1.08487,1.79869,2.64254,2.87756,0.71456
63675471952799,0,0,0.33683,0.70033,1.97424,1.08492,1.797,2.64312,2.87567,0.70218
63675471952832,0,0,0.33468,0.67737,1.97306,1.0797,1.79434,2.64129,2.86741,0.69923
63675471952865,0,0,0.3438,0.64809,1.9819,1.08485,1.79998,2.64228,2.86498,0.68417
63675471952881,0,0,0.32668,0.63574,1.98401,1.08658,1.79711,2.64045,2.86093,0.69082
63675471952931,0,0,0.32321,0.62839,1.97655,1.08416,1.79917,2.6395,2.85875,0.69176
63675471952948,0,0,0.32359,0.6283,1.97668,1.08348,1.80129,2.63893,2.85922,0.68303
63675471952964,0,0,0.33962,0.65776,1.97639,1.08388,1.80099,2.63926,2.8592,0.68347
63675471952998,0,0,0.33725,0.65508,1.97402,1.0824,1.79888,2.63632,2.85716,0.68279
63675471953030,0,0,0.34566,0.69152,1.97149,1.084,1.79865,2.63584,2.85833,0.68605
63675471953048,0,0,0.33498,0.6699,1.97256,1.08618,1.79872,2.63358,2.85787,0.68183
63675471953080,0,0,0.33346,0.69744,1.96462,1.08189,1.79508,2.63144,2.85741,0.70321
63675471953114,0,0,0.3375,0.70683,1.96263,1.07853,1.79485,2.63282,2.85499,0.706
63675471953131,0,0,0.33827,0.70925,1.96051,1.07742,1.79375,2.63211,2.85553,0.70682
63675471953163,0,0,0.3243,0.66935,1.95824,1.07584,1.79447,2.63094,2.85334,0.70206
63675471953180,0,0,0.32732,0.66496,1.9581,1.07533,1.79445,2.63015,2.8552,0.70377
63675471953213,0,0,0.31961,0.6617,1.96397,1.07889,1.7939,2.63033,2.85198,0.69436
63675471953245,0,0,0.32208,0.6915,1.9618,1.07886,1.79586,2.63324,2.85193,0.69267
63675471953262,0,0,0.33281,0.66508,1.96708,1.08153,1.7945,2.63321,2.85081,0.68305
63675471953312,0,0,0.33454,0.65991,1.96863,1.08044,1.79813,2.63214,2.85206,0.68685
63675471953329,0,0,0.33535,0.64998,1.96606,1.07903,1.79257,2.62983,2.85288,0.69088
63675471953345,0,0,0.3364,0.68094,1.95933,1.07839,1.78511,2.62703,2.84881,0.69519
63675471953379,0,0,0.34525,0.68977,1.95594,1.07592,1.78306,2.62601,2.84739,0.68703
63675471953411,0,0,0.35189,0.66419,1.95087,1.07322,1.78225,2.62358,2.84367,0.69774
63675471953428,0,0,0.34407,0.65259,1.95056,1.06919,1.77754,2.6209,2.84048,0.70906
63675471953461,0,0,0.33217,0.66947,1.94242,1.06825,1.77659,2.6191,2.83977,0.70948
63675471953511,0,0,0.33313,0.6638,1.93679,1.06869,1.76932,2.61587,2.83308,0.70282
63675471953544,0,0,0.3386,0.66923,1.9374,1.06794,1.76722,2.61365,2.83636,0.6966
63675471953578,0,0,0.33067,0.67205,1.94107,1.06928,1.76829,2.61138,2.83495,0.69976
63675471953610,0,0,0.3327,0.65147,1.94198,1.06844,1.76543,2.61207,2.83638,0.70115
63675471953627,0,0,0.32983,0.68804,1.93441,1.06834,1.76723,2.61196,2.84245,0.69364
63675471953660,0,0,0.34533,0.67166,1.93772,1.06807,1.7704,2.61124,2.83961,0.68456
63675471953694,0,0,0.34037,0.69935,1.93675,1.06503,1.77208,2.6112,2.84322,0.6884
63675471953711,0,0,0.33248,0.70522,1.93455,1.06571,1.77135,2.61172,2.84354,0.68475
63675471953743,0,0,0.32701,0.69636,1.9365,1.06498,1.77418,2.61214,2.84478,0.68901
63675471953759,0,0,0.32987,0.64574,1.93398,1.06337,1.77321,2.61297,2.84501,0.6878
63675471953793,0,0,0.32502,0.69965,1.92569,1.064,1.77462,2.61168,2.84821,0.69221
63675471953826,0,0,0.33139,0.68261,1.92167,1.06573,1.77096,2.61202,2.84594,0.68951
63675471953842,0,0,0.32476,0.67057,1.91963,1.06716,1.77219,2.61015,2.84534,0.68163
63675471953893,0,0,0.3133,0.68076,1.91715,1.06539,1.76934,2.6076,2.84604,0.69565
63675471953909,0,0,0.31028,0.68888,1.91663,1.06272,1.7632,2.6055,2.84511,0.69715
63675471953926,0,0,0.32299,0.69821,1.90634,1.06077,1.75903,2.60463,2.8466,0.68558
63675471953958,0,0,0.32028,0.71532,1.90422,1.06,1.75974,2.60168,2.84368,0.68932
63675471953991,0,0,0.31469,0.67642,1.90749,1.05774,1.75516,2.60057,2.84371,0.68905
63675471954008,0,0,0.31315,0.68783,1.91487,1.05713,1.75552,2.59808,2.84344,0.68879
63675471954041,0,0,0.31447,0.69051,1.91922,1.05541,1.7511,2.59644,2.85068,0.69531
63675471954091,0,0,0.31505,0.65347,1.91583,1.0584,1.74846,2.59435,2.85065,0.68976
63675471954124,0,0,0.31869,0.61949,1.91788,1.06117,1.7535,2.59365,2.84883,0.68589
63675471954174,0,0,0.30922,0.66146,1.91814,1.05963,1.74518,2.59288,2.84878,0.69936
63675471954207,0,0,0.30033,0.64562,1.91479,1.05979,1.74418,2.59093,2.84423,0.69664
63675471954241,0,0,0.30195,0.64006,1.91205,1.0574,1.74121,2.59044,2.84149,0.69762
63675471954273,0,0,0.30323,0.63743,1.91033,1.05558,1.74844,2.59328,2.83868,0.6866
63675471954290,0,0,0.29921,0.67313,1.90964,1.05237,1.74874,2.59103,2.83912,0.69472
63675471954306,0,0,0.30774,0.6687,1.9081,1.05243,1.7488,2.5904,2.83774,0.69678
63675471954339,0,0,0.30641,0.64856,1.90543,1.05187,1.74549,2.58887,2.83487,0.69775
63675471954373,0,0,0.31648,0.63791,1.90855,1.0517,1.75188,2.58798,2.83745,0.68735
63675471954389,0,0,0.31615,0.63247,1.91214,1.0526,1.7501,2.58595,2.83842,0.68586
63675471954422,0,0,0.32778,0.6487,1.90541,1.0497,1.75246,2.58391,2.84204,0.68129
63675471954472,0,0,0.33407,0.64447,1.905,1.04974,1.7434,2.58033,2.84293,0.68528
63675471954505,0,0,0.33508,0.67383,1.90315,1.04417,1.74091,2.58291,2.84293,0.68973
63675471954538,0,0,0.33137,0.66054,1.89801,1.04277,1.74484,2.5818,2.84179,0.69819
63675471954572,0,0,0.32699,0.68115,1.8911,1.03996,1.74141,2.58217,2.83898,0.70253
63675471954588,0,0,0.32584,0.67578,1.89062,1.04118,1.74222,2.58234,2.8393,0.69978
63675471954622,0,0,0.32933,0.63925,1.89648,1.0473,1.74288,2.58267,2.84061,0.69503
63675471954671,0,0,0.3172,0.61405,1.89471,1.0505,1.74326,2.58031,2.83588,0.70304
63675471954704,0,0,0.3268,0.60196,1.89414,1.0562,1.74328,2.57533,2.83854,0.69006
63675471954720,0,0,0.32962,0.59149,1.90101,1.05862,1.74078,2.57303,2.84183,0.67996
63675471954770,0,0,0.32709,0.58201,1.89881,1.05466,1.74044,2.57265,2.83958,0.67677
63675471954787,0,0,0.33016,0.57647,1.89984,1.05177,1.73711,2.57062,2.84041,0.66921
63675471954803,0,0,0.32564,0.61692,1.89042,1.04093,1.73374,2.56969,2.834,0.67662
63675471954853,0,0,0.31714,0.5976,1.88987,1.04145,1.73754,2.57081,2.83236,0.66996
63675471954870,0,0,0.32503,0.60676,1.89164,1.04231,1.73235,2.56923,2.83132,0.65988
63675471954886,0,0,0.33561,0.62511,1.89548,1.04886,1.73372,2.56935,2.83099,0.66344
63675471954920,0,0,0.31941,0.60428,1.89297,1.04295,1.72964,2.56893,2.82755,0.66587
63675471954953,0,0,0.30804,0.62017,1.88657,1.03856,1.72983,2.56845,2.82269,0.66279
63675471954986,0,0,0.31849,0.63826,1.87989,1.04621,1.7251,2.56567,2.81414,0.67529
63675471955002,0,0,0.32328,0.62535,1.88554,1.04881,1.72549,2.56659,2.81121,0.66923
63675471955051,0,0,0.32732,0.62924,1.88341,1.04403,1.72596,2.56406,2.81269,0.6678
63675471955068,0,0,0.32578,0.63372,1.88202,1.04841,1.72449,2.56374,2.80575,0.66423
63675471955085,0,0,0.30917,0.6451,1.87759,1.04511,1.72803,2.56407,2.80185,0.65925
63675471955118,0,0,0.31647,0.65144,1.86928,1.03904,1.72335,2.55986,2.79326,0.65777
63675471955152,0,0,0.32823,0.63459,1.87358,1.03741,1.72419,2.55603,2.79518,0.6659
63675471955168,0,0,0.31977,0.60565,1.87007,1.03208,1.72511,2.55665,2.79304,0.66335
63675471955201,0,0,0.31353,0.60847,1.8724,1.03442,1.72255,2.5547,2.79727,0.65922
63675471955218,0,0,0.3163,0.5858,1.87624,1.03623,1.72042,2.55376,2.79433,0.64844
63675471955251,0,0,0.31284,0.58413,1.87176,1.03021,1.7116,2.55348,2.79118,0.66901
63675471955284,0,0,0.31417,0.55245,1.86841,1.02665,1.70552,2.55042,2.79347,0.6725
63675471955300,0,0,0.31096,0.58793,1.87547,1.03193,1.70643,2.5518,2.79379,0.67258
63675471955333,0,0,0.31398,0.60195,1.87647,1.03785,1.70599,2.55241,2.79487,0.66594
63675471955366,0,0,0.31164,0.59993,1.8707,1.03509,1.70633,2.55053,2.79358,0.67463
63675471955383,0,0,0.30993,0.60508,1.8669,1.02714,1.70698,2.55019,2.79251,0.67498
63675471955433,0,0,0.30966,0.60275,1.86817,1.02721,1.70663,2.55084,2.79203,0.68068
63675471955449,0,0,0.30634,0.61237,1.86402,1.02215,1.70902,2.55043,2.79205,0.66865
63675471955465,0,0,0.31844,0.63219,1.86337,1.02165,1.71011,2.54995,2.79251,0.66836
63675471955499,0,0,0.31523,0.63939,1.8611,1.02136,1.71185,2.54973,2.79264,0.66724
63675471955532,0,0,0.30932,0.62633,1.84757,1.02676,1.70899,2.54561,2.79311,0.67588
63675471955549,0,0,0.30454,0.63049,1.85857,1.02901,1.70773,2.54552,2.79423,0.66954
63675471955582,0,0,0.31288,0.63798,1.86157,1.03503,1.7095,2.5449,2.79504,0.67587
63675471955632,0,0,0.31753,0.64571,1.85663,1.03156,1.71252,2.54167,2.79867,0.6692
63675471955666,0,0,0.30817,0.65706,1.85584,1.03343,1.71337,2.53875,2.80032,0.66801
63675471955697,0,0,0.31349,0.63903,1.85564,1.03259,1.71295,2.5375,2.8023,0.66487
63675471955731,0,0,0.31374,0.632,1.86076,1.02975,1.71402,2.53785,2.79938,0.66593
63675471955747,0,0,0.31137,0.61569,1.85967,1.0161,1.71279,2.53717,2.80015,0.66212
63675471955781,0,0,0.31159,0.61558,1.85452,1.01407,1.70749,2.53613,2.80019,0.66529
63675471955797,0,0,0.31549,0.6041,1.85082,1.01239,1.70599,2.53402,2.79818,0.66543
63675471955830,0,0,0.30322,0.59189,1.84975,1.01117,1.7025,2.53444,2.79684,0.66731
63675471955863,0,0,0.32321,0.55201,1.84959,1.00984,1.70199,2.53536,2.7948,0.66529
63675471955880,0,0,0.32535,0.59466,1.84597,1.00826,1.69919,2.53466,2.79338,0.67226
63675471955914,0,0,0.31616,0.5968,1.84367,1.01099,1.70013,2.53446,2.79283,0.67374
63675471955947,0,0,0.33193,0.58181,1.85318,1.01624,1.70302,2.53568,2.79213,0.66608
63675471955963,0,0,0.32883,0.60482,1.84371,1.01347,1.70177,2.53571,2.79093,0.67513
63675471956013,0,0,0.32888,0.60098,1.83219,1.0138,1.69883,2.53312,2.79142,0.67916
63675471956030,0,0,0.32119,0.58986,1.83353,1.01237,1.70085,2.53171,2.78807,0.6772
63675471956047,0,0,0.32465,0.64007,1.83232,1.01487,1.69732,2.53001,2.79004,0.67876
63675471956079,0,0,0.2978,0.62622,1.83364,1.02074,1.69696,2.5279,2.78896,0.68551
63675471956112,0,0,0.30159,0.61884,1.82974,1.01695,1.69141,2.52683,2.78995,0.68196
63675471956128,0,0,0.29352,0.62415,1.81991,1.01477,1.68802,2.52477,2.79163,0.68938
63675471956162,0,0,0.31589,0.59937,1.82642,1.01751,1.69392,2.52395,2.79181,0.67824
63675471956212,0,0,0.30934,0.63048,1.83556,1.02122,1.69411,2.52568,2.79584,0.67666
63675471956245,0,0,0.30001,0.60188,1.83211,1.01975,1.69804,2.52645,2.79535,0.67845
63675471956278,0,0,0.30168,0.59954,1.83219,1.01798,1.69353,2.52622,2.79607,0.66798
63675471956311,0,0,0.30187,0.59085,1.83496,1.01274,1.69333,2.52502,2.7949,0.66411
63675471956328,0,0,0.31436,0.63862,1.83148,1.01187,1.69537,2.52744,2.7943,0.66338
63675471956361,0,0,0.28966,0.65149,1.8352,1.01593,1.69688,2.52868,2.79018,0.66606
63675471956378,0,0,0.28417,0.60922,1.83259,1.00663,1.69497,2.52641,2.7868,0.66106
63675471956410,0,0,0.29518,0.60641,1.83065,1.00727,1.69711,2.52858,2.78834,0.64947
63675471956444,0,0,0.30754,0.59553,1.83707,1.01001,1.69716,2.52749,2.78593,0.64308
63675471956460,0,0,0.3223,0.61783,1.83492,1.01253,1.69722,2.5279,2.78837,0.64658
63675471956510,0,0,0.32795,0.60595,1.83636,1.01208,1.69482,2.52777,2.78791,0.65163
63675471956526,0,0,0.32412,0.57788,1.83054,1.01212,1.6941,2.5253,2.78672,0.65319
63675471956543,0,0,0.31188,0.56381,1.83806,1.01389,1.69608,2.52458,2.78694,0.64132
63675471956593,0,0,0.33442,0.54698,1.83021,1.01469,1.69109,2.52119,2.78057,0.64766
63675471956626,0,0,0.32573,0.54462,1.82793,1.009,1.69191,2.51919,2.77674,0.65508
63675471956659,0,0,0.31613,0.5564,1.82309,1.01069,1.68936,2.51596,2.77343,0.65132
63675471956692,0,0,0.31614,0.55263,1.82417,1.01587,1.6928,2.51537,2.77083,0.64721
63675471956709,0,0,0.31184,0.53921,1.82392,1.01362,1.69175,2.51355,2.77063,0.64881
63675471956742,0,0,0.33978,0.56668,1.81649,1.0069,1.69125,2.51152,2.7652,0.64322
63675471956759,0,0,0.33651,0.57037,1.81302,1.00603,1.68764,2.51012,2.76455,0.64476
63675471956791,0,0,0.33807,0.5715,1.81634,1.00423,1.68694,2.50944,2.76541,0.64748
63675471956825,0,0,0.34071,0.58808,1.81724,1.01401,1.68453,2.50828,2.76759,0.65523
63675471956841,0,0,0.35244,0.58817,1.81546,1.0171,1.67904,2.50688,2.77062,0.65306
63675471956891,0,0,0.35786,0.58838,1.8142,1.00863,1.68141,2.50845,2.76914,0.65836
63675471956906,0,0,0.37193,0.58265,1.81499,1.00815,1.68132,2.50906,2.76595,0.65883
63675471956923,0,0,0.35228,0.56087,1.82153,1.01229,1.67839,2.50753,2.76976,0.67688
63675471956957,0,0,0.34784,0.55498,1.82242,1.01282,1.68337,2.50672,2.76928,0.67434
63675471956990,0,0,0.34304,0.53957,1.81371,1.01457,1.68697,2.50754,2.77106,0.67115
63675471957007,0,0,0.35152,0.55944,1.81405,1.00944,1.68641,2.50635,2.76892,0.65759
63675471957040,0,0,0.34406,0.56624,1.80851,1.00911,1.68729,2.50469,2.77199,0.66119
63675471957073,0,0,0.33614,0.54289,1.80318,1.00753,1.6851,2.5038,2.7718,0.66721
63675471957090,0,0,0.32602,0.54018,1.79895,1.00611,1.68289,2.50167,2.77728,0.66817
63675471957122,0,0,0.32004,0.55484,1.80823,1.02065,1.68623,2.50063,2.77801,0.65615
63675471957173,0,0,0.32984,0.56558,1.79965,1.01744,1.67003,2.49645,2.77709,0.64582
63675471957206,0,0,0.3115,0.55145,1.79435,1.01046,1.67173,2.4961,2.77454,0.65485
63675471957238,0,0,0.3223,0.56126,1.79405,1.00317,1.66863,2.49745,2.77514,0.65663
63675471957272,0,0,0.30453,0.56165,1.80153,1.00781,1.66748,2.49507,2.77382,0.6507
63675471957288,0,0,0.3147,0.55676,1.80432,1.00765,1.67044,2.49369,2.77092,0.64367
63675471957321,0,0,0.31797,0.54511,1.7993,0.99697,1.6607,2.49151,2.76709,0.65392
63675471957338,0,0,0.3211,0.53024,1.80075,0.99598,1.66151,2.49203,2.76882,0.65216
63675471957370,0,0,0.31282,0.49347,1.8074,0.99777,1.66518,2.49319,2.76434,0.65418
63675471957404,0,0,0.29613,0.533,1.80087,0.99387,1.66272,2.49286,2.76245,0.65631
63675471957421,0,0,0.29553,0.51817,1.80044,0.99482,1.6608,2.48995,2.76157,0.65945
63675471957471,0,0,0.3122,0.52278,1.79577,0.99468,1.66085,2.48846,2.7582,0.64872
63675471957487,0,0,0.3019,0.53191,1.78731,0.99003,1.65636,2.49069,2.75916,0.65046
63675471957504,0,0,0.30477,0.53153,1.78375,0.99781,1.66274,2.4904,2.75651,0.6514
63675471957554,0,0,0.31095,0.55591,1.78463,0.99725,1.66307,2.4894,2.75633,0.65287
63675471957571,0,0,0.30702,0.57112,1.78044,0.99693,1.65533,2.48696,2.75433,0.65624
63675471957587,0,0,0.3153,0.54415,1.77882,0.99854,1.65874,2.48732,2.75703,0.65741
63675471957620,0,0,0.32726,0.54938,1.78514,1.00116,1.65951,2.48685,2.75433,0.65015
63675471957653,0,0,0.3272,0.55834,1.78875,1.00495,1.65919,2.48715,2.75219,0.64808
63675471957686,0,0,0.33859,0.53678,1.79151,1.00698,1.66193,2.48631,2.75428,0.64925
63675471957718,0,0,0.33445,0.55339,1.78961,0.99409,1.65731,2.48499,2.75385,0.65484
63675471957752,0,0,0.32306,0.56056,1.78133,0.99445,1.65358,2.4855,2.75683,0.6669
63675471957785,0,0,0.31739,0.55266,1.77637,0.995,1.66139,2.48467,2.75751,0.66303
63675471957802,0,0,0.30421,0.56355,1.78191,0.99351,1.66264,2.48242,2.75833,0.65794
63675471957852,0,0,0.3009,0.56439,1.77409,0.98702,1.66266,2.48062,2.76006,0.65575
63675471957868,0,0,0.29065,0.55187,1.77611,0.99673,1.66253,2.47779,2.75776,0.66653
63675471957901,0,0,0.30096,0.61747,1.76963,0.99398,1.65878,2.47711,2.76072,0.65743
63675471957951,0,0,0.29593,0.58586,1.77041,0.99486,1.65351,2.47613,2.75871,0.64069
63675471957968,0,0,0.30815,0.58806,1.77877,0.99417,1.65615,2.4751,2.75452,0.63771
63675471957985,0,0,0.31343,0.58919,1.77978,0.99482,1.65442,2.47406,2.75586,0.63643
