63675472062611,0,0,0.78573,0.63061,2.67959,2.47262,2.87434,3.54966,4.15588,0.75051
63675472062627,0,0,0.80419,0.6193,2.67458,2.46058,2.8722,3.54628,4.15386,0.75757
63675472062694,0,0,0.79032,0.6169,2.67057,2.46178,2.87165,3.5457,4.15437,0.76349
63675472062710,0,0,0.77079,0.62462,2.67052,2.46172,2.87414,3.54485,4.15363,0.77334
63675472062743,0,0,0.75836,0.64459,2.66642,2.45967,2.87142,3.54502,4.15447,0.77103
63675472062760,0,0,0.74709,0.62193,2.67022,2.45848,2.8708,3.54537,4.15438,0.7704
63675472062793,0,0,0.74229,0.62945,2.67145,2.45893,2.87168,3.54436,4.15218,0.77003
63675472062810,0,0,0.76028,0.62027,2.66976,2.45743,2.87042,3.54634,4.15117,0.77088
63675472062843,0,0,0.72997,0.60561,2.67603,2.46066,2.87306,3.54676,4.15058,0.77239
63675472062859,0,0,0.7325,0.6144,2.67903,2.46097,2.87932,3.54932,4.15529,0.7642
63675472062892,0,0,0.72268,0.61843,2.67671,2.45933,2.87776,3.5496,4.15505,0.76544
63675472062925,0,0,0.72383,0.59418,2.67991,2.46033,2.87877,3.54879,4.154,0.76449
63675472062941,0,0,0.73001,0.60982,2.67954,2.46059,2.88084,3.54778,4.15398,0.76511
63675472062992,0,0,0.66119,0.59481,2.67583,2.4565,2.87909,3.54496,4.15627,0.7753
63675472063025,0,0,0.6916,0.61161,2.67261,2.45455,2.87838,3.54599,4.15572,0.77347
63675472063042,0,0,0.70619,0.6124,2.66946,2.45613,2.87659,3.54515,4.15635,0.77819
63675472063090,0,0,0.69483,0.60869,2.67187,2.45607,2.8761,3.54484,4.15513,0.77861
63675472063107,0,0,0.67212,0.58359,2.66902,2.4534,2.87397,3.54334,4.15614,0.77969
63675472063123,0,0,0.68876,0.59441,2.66626,2.45115,2.87239,3.54402,4.15717,0.78131
63675472063173,0,0,0.71686,0.59991,2.6668,2.44927,2.87006,3.54369,4.15482,0.77519
63675472063207,0,0,0.70338,0.57598,2.67064,2.45261,2.87055,3.54145,4.14978,0.77435
63675472063224,0,0,0.69996,0.5838,2.67651,2.45063,2.8712,3.53924,4.14965,0.76708
63675472063273,0,0,0.67783,0.58697,2.67311,2.44929,2.87065,3.53873,4.14936,0.76652
63675472063290,0,0,0.68547,0.59693,2.67744,2.44991,2.87109,3.53813,4.14785,0.76274
63675472063307,0,0,0.68605,0.62391,2.68061,2.45149,2.8748,3.54018,4.14651,0.76463
63675472063339,0,0,0.70732,0.6243,2.6821,2.45554,2.87616,3.53813,4.14563,0.7631
63675472063372,0,0,0.71489,0.63665,2.68034,2.4566,2.87775,3.54143,4.14641,0.76738
63675472063389,0,0,0.72162,0.63804,2.68048,2.46283,2.879,3.54512,4.15448,0.76626
63675472063422,0,0,0.68572,0.64366,2.67581,2.46514,2.87894,3.54852,4.15425,0.77161
63675472063471,0,0,0.74651,0.64581,2.67605,2.46702,2.87654,3.54498,4.15523,0.76986
63675472063505,0,0,0.73958,0.62569,2.67356,2.47228,2.87522,3.54158,4.15667,0.77287
63675472063522,0,0,0.71384,0.61251,2.66757,2.46763,2.87385,3.54373,4.15758,0.76897
63675472063571,0,0,0.70717,0.61374,2.6734,2.47255,2.87442,3.54066,4.15483,0.76638
63675472063588,0,0,0.71586,0.63454,2.67795,2.46882,2.87375,3.53284,4.15214,0.75949
63675472063605,0,0,0.73149,0.65779,2.67249,2.46359,2.87315,3.5358,4.15006,0.75935
63675472063638,0,0,0.75467,0.63585,2.66741,2.46242,2.86925,3.53506,4.15246,0.75919
63675472063671,0,0,0.73123,0.65508,2.66577,2.46504,2.86947,3.54007,4.15311,0.75897
63675472063688,0,0,0.73915,0.64833,2.66655,2.46169,2.86919,3.54295,4.15234,0.75536
63675472063721,0,0,0.74867,0.65634,2.67068,2.46477,2.86785,3.54128,4.1529,0.75524
63675472063753,0,0,0.72696,0.64243,2.66652,2.46223,2.86703,3.54651,4.15437,0.75924
63675472063770,0,0,0.69163,0.62196,2.66326,2.46175,2.86628,3.54653,4.1575,0.76832
63675472063803,0,0,0.68312,0.61217,2.66541,2.4689,2.86975,3.5459,4.15604,0.76924
63675472063853,0,0,0.69528,0.58716,2.66984,2.46263,2.87249,3.54356,4.15552,0.76552
63675472063886,0,0,0.70089,0.59268,2.6687,2.46496,2.87351,3.54308,4.15513,0.76209
63675472063919,0,0,0.70381,0.58879,2.66949,2.46806,2.8712,3.54339,4.15188,0.75945
63675472063953,0,0,0.71257,0.60311,2.66903,2.46762,2.87135,3.53784,4.14843,0.75589
63675472063969,0,0,0.70264,0.60044,2.66787,2.47225,2.87032,3.53564,4.14887,0.75651
63675472064002,0,0,0.70662,0.60041,2.66814,2.4692,2.86576,3.53613,4.14747,0.75471
63675472064019,0,0,0.69574,0.6089,2.66363,2.47436,2.8653,3.53846,4.14729,0.75586
63675472064052,0,0,0.70095,0.61296,2.66692,2.47651,2.86474,3.539,4.1461,0.74949
63675472064085,0,0,0.68871,0.60721,2.66892,2.47948,2.86306,3.538,4.1446,0.75435
63675472064102,0,0,0.6793,0.63026,2.66982,2.47321,2.86792,3.53617,4.14428,0.75744
63675472064151,0,0,0.69083,0.61753,2.67039,2.4706,2.86647,3.53583,4.14405,0.75185
63675472064168,0,0,0.67336,0.60769,2.66851,2.47558,2.86648,3.53674,4.14483,0.76232
63675472064184,0,0,0.69595,0.62124,2.66911,2.47263,2.8667,3.54148,4.14634,0.76696
63675472064217,0,0,0.7319,0.62585,2.67375,2.47097,2.86392,3.5383,4.14574,0.76379
63675472064251,0,0,0.71239,0.63925,2.67198,2.46533,2.86403,3.53609,4.1468,0.76826
63675472064284,0,0,0.72395,0.63346,2.67119,2.46455,2.86565,3.5392,4.14944,0.76728
63675472064300,0,0,0.72365,0.61323,2.66821,2.46654,2.86129,3.53854,4.14957,0.76761
63675472064335,0,0,0.71294,0.62995,2.66573,2.47008,2.85963,3.54419,4.15005,0.77104
63675472064350,0,0,0.72954,0.62316,2.6699,2.46857,2.86031,3.54293,4.14753,0.75761
63675472064383,0,0,0.72663,0.64133,2.66715,2.46899,2.86316,3.54323,4.14897,0.75995
63675472064433,0,0,0.70951,0.63891,2.66279,2.47454,2.8645,3.54615,4.1476,0.76194
63675472064466,0,0,0.68484,0.61359,2.66013,2.4788,2.85843,3.54521,4.14591,0.76519
63675472064499,0,0,0.68178,0.60891,2.65991,2.4855,2.86399,3.54622,4.14423,0.76935
63675472064533,0,0,0.69233,0.60178,2.66037,2.48048,2.86454,3.54151,4.14687,0.76927
63675472064549,0,0,0.67239,0.61842,2.65479,2.47939,2.86388,3.54505,4.14686,0.78021
63675472064582,0,0,0.67499,0.59391,2.65662,2.47756,2.85902,3.54373,4.14783,0.77416
63675472064599,0,0,0.70396,0.62086,2.66188,2.47644,2.86137,3.54632,4.1448,0.7632
63675472064632,0,0,0.67484,0.6168,2.65986,2.4758,2.85926,3.54284,4.14662,0.7656
63675472064665,0,0,0.67829,0.62987,2.66061,2.47615,2.86341,3.54246,4.14231,0.76355
63675472064699,0,0,0.69862,0.63782,2.65949,2.47446,2.86204,3.54476,4.14429,0.76414
63675472064732,0,0,0.68952,0.62786,2.66075,2.46852,2.85307,3.54128,4.14452,0.76122
63675472064747,0,0,0.69962,0.61043,2.66225,2.47058,2.85369,3.5389,4.14088,0.75477
63675472064781,0,0,0.69358,0.61227,2.66189,2.47173,2.85563,3.53949,4.14403,0.75986
63675472064814,0,0,0.68643,0.59456,2.66249,2.47405,2.85473,3.53513,4.14287,0.76446
63675472064847,0,0,0.68561,0.585,2.66042,2.47339,2.85332,3.53449,4.14664,0.76768
63675472064880,0,0,0.67558,0.56334,2.65899,2.47214,2.85246,3.53128,4.14817,0.76242
63675472064913,0,0,0.65577,0.57739,2.66128,2.46635,2.85978,3.53384,4.14683,0.76205
63675472064930,0,0,0.65677,0.58603,2.66277,2.46667,2.86219,3.53557,4.14827,0.76689
63675472064964,0,0,0.6823,0.58325,2.66301,2.46424,2.86209,3.53632,4.1453,0.76748
63675472065012,0,0,0.71112,0.58487,2.66051,2.4562,2.8616,3.53668,4.14208,0.76611
63675472065029,0,0,0.71179,0.59183,2.66122,2.45492,2.86304,3.53645,4.14503,0.76664
63675472065062,0,0,0.72821,0.58577,2.66228,2.45514,2.8632,3.53281,4.1407,0.76841
63675472065112,0,0,0.71455,0.6172,2.66171,2.45306,2.86403,3.53572,4.14445,0.76909
63675472065129,0,0,0.76312,0.63215,2.65493,2.46045,2.8579,3.52983,4.14332,0.76708
63675472065145,0,0,0.75427,0.62879,2.65489,2.46003,2.85991,3.531,4.13881,0.76896
63675472065178,0,0,0.73542,0.64167,2.65371,2.46028,2.86077,3.52833,4.14262,0.77314
63675472065212,0,0,0.72525,0.63267,2.6495,2.4596,2.85906,3.52339,4.13949,0.77381
63675472065245,0,0,0.72354,0.63405,2.65187,2.46288,2.85829,3.5251,4.13801,0.76837
63675472065278,0,0,0.74486,0.63194,2.65204,2.4624,2.85577,3.52861,4.1409,0.77025
63675472065311,0,0,0.7102,0.60985,2.64932,2.45986,2.85603,3.52995,4.13681,0.76981
63675472065344,0,0,0.6999,0.5931,2.648,2.46085,2.85606,3.52833,4.13888,0.76942
63675472065393,0,0,0.70719,0.57989,2.64854,2.45552,2.85059,3.52374,4.14113,0.76531
63675472065410,0,0,0.70984,0.58749,2.65213,2.45861,2.84947,3.53198,4.13554,0.76094
63675472065426,0,0,0.70826,0.59348,2.64885,2.45715,2.84718,3.52866,4.13827,0.75963
63675472065460,0,0,0.70071,0.59758,2.64304,2.4524,2.84469,3.52968,4.13352,0.76668
63675472065493,0,0,0.67502,0.5812,2.64202,2.45231,2.84525,3.52554,4.13514,0.76609
63675472065526,0,0,0.70591,0.59044,2.64349,2.45535,2.83862,3.52573,4.13501,0.76698
63675472065559,0,0,0.71411,0.59762,2.64071,2.45841,2.84089,3.52903,4.12922,0.76525
63675472065593,0,0,0.70908,0.59624,2.64076,2.45898,2.83885,3.52982,4.13169,0.76641
63675472065609,0,0,0.69289,0.57553,2.63757,2.45462,2.84024,3.52154,4.12966,0.76852
63675472065642,0,0,0.72919,0.5774,2.64337,2.45616,2.84235,3.52426,4.13482,0.7645
63675472065692,0,0,0.72062,0.59915,2.64049,2.45558,2.83914,3.52364,4.13573,0.76636
63675472065709,0,0,0.71285,0.59985,2.64049,2.45435,2.84056,3.51821,4.13178,0.76595
63675472065742,0,0,0.70251,0.61935,2.63753,2.4462,2.84123,3.52419,4.13609,0.76641
63675472065758,0,0,0.67809,0.61976,2.63452,2.44415,2.84242,3.51788,4.13273,0.77507
63675472065791,0,0,0.69204,0.63223,2.63569,2.44561,2.84199,3.51911,4.1326,0.76873
63675472065824,0,0,0.6572,0.62824,2.63145,2.44415,2.8377,3.51851,4.13375,0.77281
63675472065857,0,0,0.6644,0.59654,2.63024,2.44431,2.83905,3.51615,4.13325,0.77533
63675472065891,0,0,0.69359,0.6106,2.63439,2.44395,2.8387,3.51438,4.13435,0.77031
63675472065924,0,0,0.71327,0.60659,2.63493,2.45277,2.83612,3.50965,4.13647,0.77135
63675472065974,0,0,0.7171,0.62554,2.63372,2.45264,2.8328,3.51601,4.13676,0.77076
63675472066007,0,0,0.70553,0.62489,2.63272,2.45329,2.83388,3.51834,4.13824,0.77337
63675472066040,0,0,0.72663,0.61847,2.63287,2.45217,2.82977,3.51213,4.13969,0.77319
63675472066073,0,0,0.69547,0.62748,2.63345,2.45326,2.83182,3.51848,4.1389,0.77113
63675472066106,0,0,0.69348,0.62894,2.63539,2.452,2.83132,3.52154,4.13956,0.76503
63675472066123,0,0,0.66827,0.60266,2.63308,2.44861,2.83105,3.52403,4.13747,0.76515
63675472066173,0,0,0.6913,0.59598,2.63573,2.45062,2.83426,3.52174,4.13915,0.76634
63675472066189,0,0,0.68224,0.59711,2.63635,2.4507,2.83391,3.52172,4.13891,0.76308
63675472066222,0,0,0.67931,0.60496,2.64093,2.45577,2.84198,3.52491,4.14234,0.76152
63675472066272,0,0,0.67547,0.58688,2.64137,2.45451,2.84313,3.52528,4.14423,0.76514
63675472066288,0,0,0.72198,0.57973,2.6438,2.45473,2.84202,3.52751,4.14435,0.75751
63675472066305,0,0,0.72507,0.59624,2.65052,2.4572,2.84533,3.52783,4.14542,0.75494
63675472066338,0,0,0.73175,0.6276,2.65219,2.46,2.8508,3.52692,4.14565,0.75725
63675472066371,0,0,0.74514,0.64172,2.65224,2.4576,2.85366,3.52608,4.14719,0.75612
63675472066404,0,0,0.71794,0.64055,2.65068,2.45731,2.85899,3.53176,4.14786,0.75829
63675472066437,0,0,0.71923,0.62788,2.64867,2.45499,2.86031,3.53258,4.14333,0.76307
63675472066471,0,0,0.72657,0.62454,2.64767,2.45755,2.85897,3.53952,4.14444,0.75902
63675472066504,0,0,0.7073,0.64328,2.64744,2.45666,2.85883,3.53293,4.14335,0.76367
63675472066553,0,0,0.6838,0.64133,2.64137,2.44352,2.84849,3.5298,4.14292,0.76504
63675472066587,0,0,0.66983,0.63825,2.64025,2.44323,2.83831,3.52079,4.14196,0.76549
63675472066620,0,0,0.71901,0.65756,2.6406,2.44117,2.83451,3.51487,4.14174,0.76158
63675472066653,0,0,0.67638,0.67511,2.63818,2.44031,2.83412,3.51561,4.14333,0.7699
63675472066687,0,0,0.70787,0.65689,2.63432,2.43924,2.83667,3.51829,4.144,0.76644
63675472066719,0,0,0.70578,0.64072,2.63577,2.44648,2.83838,3.51703,4.14606,0.76745
63675472066752,0,0,0.70454,0.64891,2.63762,2.44831,2.83773,3.5188,4.14387,0.77047
63675472066785,0,0,0.71059,0.64912,2.63645,2.45096,2.84157,3.52489,4.14422,0.7701
63675472066802,0,0,0.70204,0.66519,2.63166,2.44944,2.84199,3.52783,4.14386,0.77467
63675472066852,0,0,0.71697,0.65217,2.63349,2.45086,2.84644,3.5262,4.14283,0.77288
63675472066868,0,0,0.74677,0.64813,2.63208,2.4483,2.8429,3.51401,4.14269,0.77102
63675472066902,0,0,0.71308,0.65752,2.63601,2.44889,2.84483,3.5117,4.13804,0.77691
63675472066917,0,0,0.73071,0.66023,2.63363,2.4483,2.84265,3.5056,4.13712,0.77485
63675472066951,0,0,0.72818,0.66115,2.63685,2.44626,2.8417,3.50699,4.13768,0.77776
63675472066984,0,0,0.7418,0.65093,2.63358,2.44415,2.83863,3.50411,4.13717,0.77516
63675472067018,0,0,0.73886,0.63974,2.63612,2.44455,2.83449,3.50402,4.14138,0.77379
63675472067051,0,0,0.68927,0.64522,2.63218,2.44289,2.83259,3.50493,4.13859,0.78268
63675472067066,0,0,0.6863,0.63301,2.63325,2.44227,2.83329,3.51161,4.13898,0.78007
63675472067100,0,0,0.70442,0.6332,2.6313,2.44213,2.83171,3.50786,4.14254,0.77856
63675472067133,0,0,0.69135,0.62667,2.63199,2.44158,2.83468,3.51204,4.14117,0.77888
63675472067166,0,0,0.67497,0.63375,2.63173,2.44318,2.83428,3.514,4.14419,0.77813
63675472067183,0,0,0.69154,0.62888,2.63189,2.44111,2.83762,3.5143,4.14295,0.77834
63675472067233,0,0,0.69231,0.63217,2.63142,2.44486,2.83944,3.5142,4.14629,0.77655
63675472067249,0,0,0.73144,0.6481,2.63712,2.44615,2.83949,3.51311,4.14921,0.76865
63675472067266,0,0,0.74979,0.66443,2.63473,2.44686,2.84386,3.52041,4.14816,0.77019
63675472067299,0,0,0.74722,0.6707,2.63457,2.44484,2.84833,3.51637,4.14977,0.77332
63675472067332,0,0,0.73583,0.67516,2.63212,2.44556,2.84574,3.51456,4.14966,0.7803
63675472067349,0,0,0.75111,0.65032,2.63009,2.4438,2.84012,3.51308,4.15534,0.77629
63675472067382,0,0,0.73657,0.64373,2.63009,2.44533,2.8408,3.51719,4.15207,0.78025
63675472067431,0,0,0.73217,0.63547,2.62856,2.44244,2.83881,3.52061,4.15212,0.77504
63675472067464,0,0,0.78723,0.63318,2.62867,2.43983,2.84122,3.51634,4.15096,0.78081
63675472067498,0,0,0.78762,0.60035,2.62178,2.43889,2.828,3.51455,4.15319,0.78719
63675472067531,0,0,0.81581,0.59429,2.62748,2.43976,2.83502,3.52012,4.15024,0.77812
63675472067548,0,0,0.7785,0.59725,2.62585,2.44084,2.83645,3.51322,4.14862,0.78668
