63677132173752,6,0,1.43358,1.42985,1.03825,0.56815,1.9881,0.11416,0.6387,4.13536
63677132173784,6,0,1.27317,1.38131,1.03359,0.5606,1.97207,0.09718,0.63233,4.16457
63677132173851,6,0,1.25778,1.34346,1.00287,0.54727,1.95515,0.08823,0.60852,4.16521
63677132173884,6,0,1.11988,1.35226,1.01004,0.5503,1.95349,0.08581,0.61271,4.14513
63677132173901,6,0,1.12369,1.3464,1.00772,0.54548,1.94674,0.08575,0.61037,4.12934
63677132173934,6,0,1.16236,1.34649,1.00841,0.542,1.94041,0.08395,0.60572,4.16742
63677132173967,0,0,1.09752,1.35759,1.01098,0.54142,1.936,0.08443,0.60769,4.19523
63677132173984,0,0,1.14721,1.34083,1.00738,0.53733,1.92649,0.07903,0.60381,4.17625
63677132174018,0,0,1.15263,1.34892,1.01172,0.53963,1.9226,0.07629,0.60805,4.18561
63677132174051,0,0,1.09221,1.38177,1.02406,0.5483,1.92966,0.08382,0.62757,4.16204
63677132174066,6,0,1.14989,1.37282,1.01452,0.5431,1.92026,0.0821,0.6198,4.17556
63677132174083,6,0,1.04855,1.37678,1.01931,0.54742,1.92303,0.08363,0.62237,4.18946
63677132174133,6,0,1.0314,1.37656,1.01769,0.54785,1.91682,0.0823,0.62218,4.20668
63677132174150,6,0,1.10689,1.36963,1.01825,0.54842,1.91941,0.08388,0.62348,4.21145
63677132174166,6,0,1.1929,1.36063,1.01825,0.54699,1.91447,0.086,0.62352,4.20652
63677132174199,6,0,1.22344,1.35705,1.02129,0.54632,1.91467,0.08426,0.62928,4.21547
63677132174232,6,0,1.25888,1.37705,1.01527,0.5461,1.9102,0.08813,0.62473,4.20526
63677132174249,6,0,1.29542,1.38635,1.00671,0.53252,1.89758,0.08221,0.60566,4.19529
63677132174265,6,0,1.37953,1.37766,1.0022,0.53302,1.89574,0.08515,0.603,4.18705
63677132174298,6,0,1.4468,1.37386,0.99931,0.52857,1.8927,0.08429,0.60212,4.15793
63677132174332,6,0,1.40563,1.37771,0.99815,0.52887,1.88907,0.087,0.60082,4.13824
63677132174349,6,0,1.33794,1.38982,0.99811,0.53047,1.88888,0.08694,0.59977,4.18507
63677132174382,6,0,1.25622,1.3803,0.98057,0.52438,1.88046,0.09553,0.58015,4.16803
63677132174432,6,0,1.1038,1.30656,0.99043,0.52981,1.87962,0.08833,0.59212,4.19803
63677132174464,0,0,1.01533,1.31656,1.00154,0.53079,1.87942,0.08268,0.59772,4.1916
63677132174513,0,0,0.90788,1.30028,0.99746,0.53038,1.88098,0.08566,0.59302,4.21223
63677132174547,0,0,0.88846,1.29116,0.99944,0.52838,1.87699,0.0861,0.58541,4.17408
63677132174580,0,0,0.85941,1.30555,1.01382,0.53379,1.87901,0.07706,0.60102,4.17753
63677132174614,0,0,0.89194,1.32068,1.01025,0.53015,1.87828,0.08204,0.59802,4.17858
63677132174663,0,0,0.82713,1.32065,1.00803,0.52528,1.87408,0.085,0.59187,4.18289
63677132174680,6,0,0.7882,1.33545,1.00626,0.52918,1.87653,0.08589,0.59295,4.17295
63677132174712,6,0,0.79528,1.32325,0.99734,0.52555,1.8691,0.08979,0.58553,4.17047
63677132174729,6,0,0.82743,1.3352,1.00063,0.52409,1.86279,0.08829,0.58742,4.18151
63677132174762,6,0,0.81004,1.3412,0.98806,0.52359,1.86297,0.09057,0.58923,4.18807
63677132174779,6,0,0.81891,1.3404,0.98701,0.5222,1.85986,0.0928,0.58728,4.20386
63677132174812,6,0,0.80349,1.32619,0.98618,0.52641,1.85955,0.09155,0.58623,4.20033
63677132174829,0,0,0.82689,1.3208,0.97777,0.52636,1.85789,0.09258,0.5872,4.20374
63677132174861,0,0,0.85997,1.2922,0.97661,0.52356,1.85586,0.09224,0.58669,4.20188
63677132174911,0,0,0.84513,1.29645,0.97486,0.52441,1.85616,0.09097,0.59256,4.20052
63677132174945,0,0,0.73821,1.28839,0.97633,0.52254,1.8558,0.09067,0.58916,4.18347
63677132174962,0,0,0.74595,1.26841,0.97991,0.52315,1.85871,0.08976,0.59319,4.18434
63677132175011,0,0,0.67055,1.27586,0.98831,0.52532,1.86097,0.08704,0.59748,4.18538
63677132175045,0,0,0.67949,1.28237,0.99451,0.52746,1.86109,0.08548,0.59993,4.18656
63677132175094,0,0,0.6957,1.27405,0.99253,0.52395,1.85701,0.08808,0.59759,4.19151
63677132175127,0,0,0.71886,1.25872,0.999,0.52435,1.85818,0.08632,0.59999,4.18664
63677132175160,0,0,0.75256,1.25797,0.99457,0.52468,1.85627,0.08771,0.59904,4.19307
63677132175193,0,0,0.70526,1.2564,0.98565,0.52295,1.8543,0.09209,0.59388,4.19438
63677132175210,0,0,0.71488,1.26198,0.98977,0.52308,1.85227,0.09378,0.59406,4.18131
63677132175242,0,0,0.73384,1.27567,0.98025,0.52005,1.8495,0.09666,0.5891,4.19107
63677132175292,0,0,0.71716,1.25266,0.97904,0.51771,1.84791,0.09762,0.5826,4.19117
63677132175325,0,0,0.77511,1.26297,0.97856,0.51691,1.84635,0.09768,0.58339,4.19987
63677132175359,0,0,0.77276,1.25784,0.97724,0.51732,1.84667,0.0943,0.58565,4.19828
63677132175392,0,0,0.79673,1.2597,0.97645,0.51838,1.84316,0.09193,0.58775,4.1923
63677132175408,0,0,0.85165,1.28142,0.96799,0.51883,1.84153,0.09751,0.57708,4.1899
63677132175442,0,0,0.88599,1.2699,0.96335,0.51442,1.83513,0.09683,0.57414,4.18078
63677132175458,0,0,0.81225,1.25469,0.96196,0.51671,1.83074,0.09385,0.57231,4.17907
63677132175491,0,0,0.88503,1.26558,0.95905,0.51673,1.82812,0.09247,0.57583,4.15795
63677132175525,0,0,0.86126,1.26572,0.95744,0.51555,1.82562,0.09272,0.57481,4.14383
63677132175541,0,0,0.89229,1.27026,0.956,0.51686,1.82784,0.09762,0.57325,4.14135
63677132175590,0,0,0.90221,1.24658,0.9543,0.51243,1.82378,0.10067,0.56895,4.14673
63677132175608,0,0,0.86869,1.23715,0.95789,0.51343,1.82705,0.0981,0.57494,4.1419
63677132175624,0,0,0.84487,1.23532,0.96078,0.51328,1.82765,0.09664,0.57888,4.15892
63677132175658,0,0,0.83835,1.24441,0.96095,0.51363,1.83035,0.09516,0.58018,4.15027
63677132175690,0,0,0.88164,1.24258,0.96089,0.51173,1.83146,0.10045,0.57554,4.17425
63677132175707,0,0,0.82541,1.25099,0.96164,0.51328,1.82926,0.09878,0.58029,4.18356
63677132175740,0,0,0.75528,1.24355,0.95999,0.51049,1.82776,0.09822,0.57562,4.19041
63677132175772,0,0,0.80423,1.24504,0.96079,0.50937,1.82377,0.0973,0.57983,4.2001
63677132175789,0,0,0.82158,1.24066,0.96193,0.50855,1.82308,0.09726,0.57823,4.20957
63677132175822,0,0,0.8072,1.25581,0.96379,0.51164,1.82457,0.09681,0.57743,4.21261
63677132175872,0,0,0.82341,1.26002,0.95429,0.51115,1.82469,0.10281,0.5727,4.21422
63677132175906,0,0,0.81539,1.25956,0.9569,0.51187,1.82443,0.10037,0.57718,4.21381
63677132175939,0,0,0.8549,1.25868,0.95986,0.51365,1.83015,0.10095,0.57862,4.21112
63677132175972,0,0,0.85607,1.2756,0.96052,0.5168,1.83468,0.09838,0.5803,4.21822
63677132175989,0,0,0.87699,1.26315,0.95983,0.51651,1.83126,0.09721,0.58331,4.22768
63677132176022,6,0,0.90299,1.25912,0.96364,0.51764,1.84038,0.09628,0.58644,4.23177
63677132176038,6,0,0.89104,1.26464,0.96788,0.51959,1.83816,0.0904,0.59007,4.24414
63677132176071,6,0,0.81087,1.24981,0.97124,0.52159,1.83662,0.09025,0.59072,4.26824
63677132176105,6,0,0.76351,1.24834,0.96663,0.52076,1.83164,0.09179,0.59152,4.28536
63677132176121,6,0,0.73868,1.25589,0.96744,0.52006,1.82559,0.09029,0.59141,4.29071
63677132176154,6,0,0.75115,1.25444,0.96394,0.51937,1.82008,0.09434,0.58655,4.29454
63677132176187,6,0,0.73364,1.24662,0.95964,0.51898,1.81718,0.09577,0.58513,4.29236
63677132176220,6,0,0.79264,1.25664,0.9489,0.51713,1.80661,0.09849,0.58122,4.28538
63677132176254,6,0,0.80216,1.23921,0.9452,0.51486,1.80628,0.10358,0.57688,4.27352
63677132176287,6,0,0.86702,1.24592,0.94678,0.5151,1.80856,0.10046,0.57959,4.26534
63677132176320,6,0,0.89841,1.24972,0.94844,0.51624,1.81315,0.09957,0.57822,4.24841
63677132176353,6,0,0.85015,1.23431,0.95071,0.51723,1.8203,0.09754,0.58061,4.21251
63677132176370,6,0,0.83659,1.25176,0.95408,0.51927,1.82268,0.09671,0.58484,4.1942
63677132176402,6,0,0.82557,1.25875,0.95798,0.52156,1.82894,0.0952,0.58641,4.17898
63677132176453,6,0,0.74895,1.25548,0.96139,0.52243,1.83074,0.09296,0.59036,4.16356
63677132176470,6,0,0.73659,1.26786,0.96616,0.52526,1.83794,0.09195,0.59468,4.13752
63677132176502,6,0,0.71957,1.27642,0.96535,0.5258,1.84077,0.09116,0.59613,4.13404
63677132176518,6,0,0.74592,1.27843,0.96481,0.52649,1.84416,0.09288,0.59603,4.13106
63677132176551,6,0,0.80293,1.29886,0.9657,0.52631,1.84539,0.09158,0.59574,4.12972
63677132176584,6,0,0.81383,1.28479,0.96712,0.52729,1.85021,0.08836,0.60026,4.13267
63677132176618,6,0,0.76861,1.29692,0.96929,0.52955,1.85369,0.08955,0.59929,4.13096
63677132176651,6,0,0.73557,1.29944,0.97146,0.52936,1.85181,0.08756,0.60195,4.1243
63677132176684,6,0,0.72988,1.28785,0.97178,0.5283,1.85286,0.08678,0.6017,4.11404
63677132176701,6,0,0.69646,1.29226,0.97522,0.52814,1.85153,0.0861,0.60521,4.11185
63677132176734,6,0,0.62487,1.28121,0.97351,0.52604,1.84901,0.08551,0.60439,4.11356
63677132176766,6,0,0.58809,1.29407,0.9749,0.52814,1.84909,0.08684,0.60285,4.11498
63677132176799,6,0,0.61967,1.28674,0.97337,0.52673,1.84672,0.08684,0.59916,4.11171
63677132176833,6,0,0.64583,1.28739,0.97097,0.52828,1.84861,0.08704,0.60136,4.11297
63677132176866,6,0,0.65734,1.29347,0.96958,0.52736,1.8468,0.08845,0.60122,4.11616
63677132176900,6,0,0.70182,1.28097,0.96749,0.52754,1.84442,0.088,0.59846,4.10761
63677132176932,6,0,0.73438,1.2773,0.96994,0.52656,1.84581,0.0891,0.59532,4.1042
63677132176949,6,0,0.77084,1.2808,0.9719,0.52824,1.84544,0.08771,0.60055,4.09764
63677132176999,6,0,0.82234,1.28032,0.96424,0.52153,1.84085,0.09288,0.59308,4.08328
63677132177032,6,0,0.87031,1.25942,0.96686,0.52076,1.84095,0.09193,0.59238,4.07856
63677132177049,6,0,0.86061,1.25973,0.97051,0.52217,1.84021,0.09004,0.59401,4.07017
63677132177082,6,0,0.84028,1.25513,0.96386,0.52165,1.84138,0.09415,0.58929,4.07151
63677132177132,6,0,0.80099,1.25676,0.96444,0.52005,1.84045,0.09516,0.58988,4.07133
63677132177148,6,0,0.80402,1.25127,0.96048,0.52104,1.84069,0.09409,0.58868,4.06507
63677132177181,6,0,0.79175,1.24769,0.9583,0.52157,1.83995,0.09644,0.58963,4.06798
63677132177214,6,0,0.76192,1.2455,0.95935,0.52209,1.84288,0.09517,0.58963,4.05938
63677132177231,6,0,0.75827,1.25513,0.95951,0.52142,1.84275,0.09391,0.59147,4.0614
63677132177264,6,0,0.7566,1.25844,0.95808,0.52361,1.8472,0.09178,0.59388,4.06363
63677132177314,6,0,0.78683,1.2713,0.96229,0.52759,1.85339,0.09038,0.59548,4.06022
63677132177331,6,0,0.80796,1.27026,0.96046,0.52769,1.85451,0.0921,0.59505,4.06466
63677132177346,6,0,0.79277,1.27829,0.95942,0.52599,1.85669,0.095,0.59463,4.06876
63677132177413,6,0,0.84086,1.27414,0.96142,0.52639,1.85678,0.09274,0.59784,4.07462
63677132177430,6,0,0.81284,1.29066,0.95999,0.5302,1.86096,0.09403,0.59872,4.09026
63677132177447,6,0,0.82491,1.299,0.95927,0.52951,1.86106,0.09601,0.59645,4.09367
63677132177480,6,0,0.80134,1.30096,0.96076,0.52891,1.86036,0.09431,0.59835,4.0979
63677132177512,6,0,0.82075,1.30167,0.96341,0.53006,1.85999,0.09395,0.60166,4.10995
63677132177546,6,0,0.74488,1.297,0.96561,0.53058,1.85982,0.09224,0.60293,4.10798
63677132177579,6,0,0.6625,1.28907,0.96889,0.53113,1.8618,0.08771,0.60369,4.11725
63677132177612,6,0,0.71793,1.28717,0.97196,0.53068,1.85983,0.08618,0.60563,4.13081
63677132177629,6,0,0.72038,1.27538,0.97415,0.53071,1.8619,0.08541,0.60941,4.12154
63677132177662,6,0,0.69764,1.26789,0.9715,0.53113,1.86275,0.08555,0.6114,4.12204
63677132178010,6,0,0.72081,1.26746,0.9691,0.52877,1.86124,0.08699,0.6096,4.12076
63677132178042,6,0,0.73001,1.27288,0.96787,0.52767,1.85809,0.08856,0.61218,4.12188
63677132178059,6,0,0.68434,1.28262,0.96542,0.5275,1.85863,0.09051,0.60931,4.12825
63677132178093,6,0,0.54672,1.28039,0.96363,0.52574,1.85745,0.09231,0.60382,4.14434
63677132178109,6,0,0.54948,1.27567,0.96157,0.5245,1.85554,0.09254,0.60217,4.14943
63677132178142,6,0,0.56872,1.27244,0.96001,0.52429,1.85663,0.09511,0.59875,4.15611
63677132178159,6,0,0.60516,1.27147,0.95975,0.52358,1.85478,0.0953,0.60021,4.15216
63677132178192,6,0,0.67152,1.26147,0.96108,0.52274,1.85562,0.09831,0.59326,4.15024
63677132178225,6,0,0.71397,1.2654,0.965,0.52493,1.86005,0.09473,0.59843,4.14585
63677132178241,6,0,0.71475,1.26794,0.96381,0.5264,1.86042,0.09274,0.60186,4.13547
63677132178291,6,0,0.74165,1.28262,0.97149,0.52777,1.86817,0.09012,0.61213,4.12483
63677132178324,6,0,0.77712,1.29582,0.97619,0.53103,1.87109,0.0877,0.61462,4.12383
63677132178341,6,0,0.78271,1.28794,0.97596,0.53289,1.87434,0.08553,0.61782,4.1258
63677132178374,6,0,0.7555,1.30031,0.97719,0.53571,1.87698,0.08341,0.6206,4.11982
63677132178391,6,0,0.76719,1.29131,0.97395,0.53201,1.87615,0.0889,0.61595,4.11781
63677132178424,6,0,0.75244,1.29228,0.97265,0.53321,1.87573,0.08968,0.61478,4.12173
63677132178474,6,0,0.81725,1.26939,0.96819,0.52941,1.87757,0.08915,0.61296,4.12657
63677132178506,6,0,0.81573,1.2736,0.96827,0.5294,1.87636,0.08962,0.6154,4.12443
63677132178523,6,0,0.79714,1.27011,0.96891,0.52914,1.8777,0.08969,0.61265,4.12873
63677132178573,6,0,0.74786,1.26944,0.97238,0.53115,1.87595,0.08806,0.61336,4.13516
63677132178607,6,0,0.67743,1.28226,0.97554,0.53472,1.87814,0.08505,0.61578,4.13889
63677132178639,6,0,0.68819,1.28545,0.97809,0.53476,1.87675,0.08638,0.61346,4.13113
63677132178672,6,0,0.68698,1.28169,0.9763,0.53517,1.87624,0.08718,0.61171,4.13538
63677132178688,6,0,0.76851,1.28737,0.97309,0.53314,1.87483,0.08702,0.61118,4.13478
