63677132081312,6,0,0.16836,1.45987,1.03709,0.60231,1.8602,0.08976,0.58545,3.77716
63677132081362,6,0,0.16831,1.44083,1.03959,0.59028,1.85938,0.09231,0.58389,3.76988
63677132081379,6,0,0.16829,1.45102,1.04293,0.58941,1.86207,0.0917,0.58691,3.76812
63677132081412,6,0,0.17056,1.45028,1.0428,0.58835,1.86031,0.09073,0.58636,3.77288
63677132081429,0,0,0.17018,1.44966,1.04081,0.58862,1.86138,0.09193,0.58637,3.76916
63677132081462,0,0,0.16769,1.43372,1.04049,0.58846,1.8595,0.08823,0.5884,3.76801
63677132081479,0,0,0.16654,1.43591,1.04106,0.58685,1.85674,0.08626,0.58846,3.76033
63677132081511,0,0,0.16627,1.44078,1.04364,0.58666,1.85679,0.08582,0.58919,3.7555
63677132081544,0,0,0.16532,1.4332,1.04335,0.58579,1.85324,0.08596,0.58847,3.75974
63677132081578,0,0,0.16587,1.43455,1.04168,0.58707,1.85128,0.0874,0.58493,3.76579
63677132081611,0,0,0.16699,1.42856,1.0393,0.58613,1.84998,0.08536,0.58917,3.75377
63677132081628,0,0,0.16326,1.44158,1.04075,0.58619,1.85052,0.0865,0.58937,3.74049
63677132081660,0,0,0.16369,1.44429,1.0376,0.58562,1.84845,0.08691,0.58775,3.73049
63677132081694,0,0,0.16426,1.43812,1.0353,0.58648,1.8489,0.08864,0.58503,3.77046
63677132081727,0,0,0.16621,1.4422,1.03806,0.58722,1.85048,0.08731,0.5845,3.78141
63677132081759,0,0,0.16547,1.43964,1.03875,0.58529,1.8465,0.08769,0.58451,3.80325
63677132081792,0,0,0.16378,1.44045,1.03807,0.5855,1.84685,0.08639,0.58601,3.81103
63677132081809,0,0,0.16307,1.44603,1.04008,0.58501,1.8441,0.08785,0.58237,3.84954
63677132081842,0,0,0.16316,1.4403,1.04147,0.58338,1.83942,0.08781,0.57908,3.90216
63677132081893,0,0,0.16379,1.43787,1.03968,0.58325,1.83919,0.08524,0.58192,3.89746
63677132081909,0,0,0.16338,1.4344,1.04,0.58045,1.83593,0.0863,0.58139,3.90593
63677132081942,0,0,0.164,1.422,1.03985,0.58377,1.83779,0.08657,0.58212,3.90826
63677132081991,0,0,0.16341,1.42628,1.03993,0.58448,1.83865,0.08705,0.58316,3.90481
63677132082008,0,0,0.16381,1.41947,1.0357,0.58317,1.83858,0.08759,0.58003,3.90317
63677132082041,0,0,0.16428,1.4111,1.03687,0.58557,1.84285,0.08791,0.58204,3.91021
63677132082091,0,0,0.16509,1.41293,1.03828,0.58715,1.8437,0.08807,0.58202,3.90697
63677132082124,0,0,0.16447,1.41687,1.03667,0.58399,1.84035,0.08791,0.58452,3.89954
63677132082158,0,0,0.16303,1.41806,1.03626,0.58372,1.84186,0.08654,0.58444,3.90492
63677132082191,0,0,0.1655,1.40643,1.03558,0.5824,1.84036,0.08577,0.58548,3.91275
63677132082223,0,0,0.16492,1.40982,1.03566,0.58385,1.83846,0.08505,0.58463,3.91137
63677132082273,0,0,0.16354,1.40665,1.0323,0.58307,1.83831,0.08707,0.58287,3.9246
63677132082290,0,0,0.16508,1.40634,1.02937,0.5812,1.83573,0.08631,0.585,3.92609
63677132082323,0,0,0.16513,1.40067,1.02931,0.58162,1.838,0.08347,0.58191,3.94516
63677132082340,0,0,0.16755,1.39266,1.02897,0.58309,1.84123,0.08489,0.58232,3.9522
63677132082373,0,0,0.1641,1.39883,1.02633,0.583,1.8417,0.08489,0.58232,3.96378
63677132082406,0,0,0.16397,1.40015,1.02438,0.58333,1.84384,0.08452,0.58216,3.97597
63677132082439,0,0,0.16717,1.39904,1.02503,0.58359,1.84585,0.08195,0.58968,3.98936
63677132082473,0,0,0.16518,1.40238,1.02436,0.58401,1.84426,0.08093,0.58797,4.00315
63677132082489,0,0,0.16495,1.40011,1.02542,0.58452,1.84566,0.08166,0.58944,4.01336
63677132082523,0,0,0.16482,1.40213,1.02696,0.58547,1.84358,0.08362,0.58789,4.01942
63677132082571,0,0,0.1642,1.40926,1.02694,0.5856,1.84433,0.08308,0.58633,4.02417
63677132082588,0,0,0.16378,1.4101,1.03074,0.58529,1.84187,0.08457,0.59032,4.02758
63677132082621,0,0,0.1626,1.40861,1.03274,0.58467,1.84088,0.08618,0.58945,4.02996
63677132082671,0,0,0.16205,1.40994,1.03125,0.58492,1.84,0.08547,0.58545,4.02524
63677132082688,0,0,0.16174,1.40804,1.0335,0.5848,1.84007,0.08674,0.58515,4.026
63677132082720,0,0,0.16179,1.40945,1.03023,0.58335,1.84034,0.08769,0.58704,4.02085
63677132082754,0,0,0.15976,1.40335,1.02805,0.58231,1.83867,0.08661,0.58848,4.01666
63677132082771,0,0,0.164,1.39888,1.02761,0.58249,1.83984,0.08433,0.5878,4.0129
63677132082803,0,0,0.16214,1.40062,1.02718,0.58283,1.83916,0.08294,0.58619,4.01187
63677132082854,0,0,0.16292,1.39084,1.02464,0.58226,1.83856,0.08426,0.58653,4.00185
63677132082870,0,0,0.16423,1.38863,1.02459,0.58218,1.84019,0.08463,0.5861,3.99167
63677132082903,0,0,0.16529,1.38722,1.02547,0.58183,1.83731,0.08401,0.58733,3.98517
63677132082952,0,0,0.16363,1.38587,1.02545,0.58228,1.83802,0.08401,0.58715,3.97568
63677132082969,0,0,0.17253,1.38348,1.02432,0.58142,1.83502,0.08726,0.58426,3.97439
63677132082986,0,0,0.1733,1.37808,1.02515,0.58049,1.83277,0.08843,0.58427,3.97514
63677132083019,0,0,0.1731,1.37984,1.02565,0.5798,1.83207,0.08637,0.58384,3.97422
63677132083052,0,0,0.17069,1.3854,1.02738,0.57974,1.83106,0.08691,0.58421,3.97847
63677132083085,0,0,0.17065,1.38494,1.02579,0.57924,1.82934,0.08585,0.58469,3.97631
63677132083119,0,0,0.17012,1.3864,1.02323,0.57791,1.82915,0.08427,0.58437,3.97922
63677132083152,0,0,0.16682,1.38458,1.02304,0.57827,1.8312,0.0817,0.58719,3.97519
63677132083168,0,0,0.16203,1.38537,1.02237,0.57795,1.83034,0.08277,0.58679,3.97255
63677132083234,0,0,0.16289,1.38116,1.0246,0.57785,1.83207,0.08108,0.58555,3.97224
63677132083267,0,0,0.16216,1.3791,1.02291,0.57753,1.82886,0.08136,0.58556,3.98031
63677132083333,0,0,0.16402,1.37388,1.02188,0.57784,1.82765,0.08351,0.58277,3.99717
63677132083366,0,0,0.16089,1.37142,1.02363,0.57626,1.82528,0.08444,0.58286,4.01273
63677132083400,0,0,0.16222,1.37449,1.02167,0.57643,1.82407,0.0851,0.58111,4.01979
63677132083433,0,0,0.16202,1.37454,1.0205,0.57679,1.8243,0.08597,0.57982,4.02568
63677132083466,0,0,0.1683,1.39402,1.03193,0.57437,1.82275,0.08688,0.5785,4.03529
63677132083499,0,0,0.16802,1.39291,1.0298,0.57252,1.82114,0.08634,0.57959,4.03722
63677132083533,0,0,0.16524,1.39249,1.02947,0.57201,1.82059,0.08678,0.57862,4.03825
63677132083565,0,0,0.16729,1.38839,1.02955,0.57142,1.8179,0.08502,0.57989,4.03505
63677132083599,0,0,0.16706,1.40381,1.03061,0.57337,1.81668,0.08538,0.57916,4.0353
63677132083632,0,0,0.16585,1.39378,1.03027,0.57278,1.8168,0.0843,0.57877,4.03624
63677132083648,0,0,0.165,1.36298,1.02607,0.57285,1.8144,0.08493,0.5787,4.03351
63677132083681,0,0,0.16278,1.36751,1.01723,0.57426,1.81554,0.08681,0.57797,4.02881
63677132083731,0,0,0.16175,1.36462,1.02109,0.57447,1.814,0.08597,0.57755,4.02502
63677132083748,0,0,0.162,1.3684,1.02249,0.57369,1.81482,0.08618,0.57669,4.01936
63677132083764,0,0,0.16621,1.36002,1.02332,0.57304,1.81722,0.085,0.57659,4.01216
63677132083814,0,0,0.16368,1.3488,1.02033,0.57268,1.81645,0.0873,0.57629,4.01422
63677132083831,0,0,0.16503,1.35419,1.02063,0.57227,1.81734,0.08756,0.57621,4.00801
63677132083864,0,0,0.16457,1.35145,1.01974,0.57388,1.81875,0.0848,0.57666,4.00746
63677132083914,0,0,0.16599,1.36837,1.01561,0.57413,1.81513,0.08514,0.5774,4.01393
63677132083930,0,0,0.1645,1.37591,1.01461,0.57534,1.81628,0.08527,0.57659,4.00949
63677132083946,0,0,0.16496,1.36912,1.01317,0.57653,1.81556,0.08558,0.57652,4.01271
63677132083980,0,0,0.16189,1.37165,1.01245,0.57727,1.81595,0.08595,0.5742,4.01012
63677132084012,0,0,0.16339,1.36871,1.01313,0.57686,1.81253,0.08515,0.57416,4.0159
63677132084046,0,0,0.16215,1.37385,1.01315,0.57572,1.81125,0.08536,0.57339,4.02259
63677132084079,0,0,0.16158,1.38282,1.01315,0.57637,1.81197,0.08423,0.5745,4.03111
63677132084112,0,0,0.16274,1.36499,1.0168,0.5758,1.81174,0.08482,0.57532,4.02622
63677132084146,0,0,0.16207,1.36326,1.01427,0.57552,1.81118,0.08639,0.57433,4.03554
63677132084178,0,0,0.16138,1.36502,1.01514,0.57404,1.80969,0.08528,0.57577,4.0429
63677132084212,0,0,0.15878,1.36328,1.01453,0.57367,1.8116,0.0839,0.57667,4.04105
63677132084245,0,0,0.15763,1.36327,1.01486,0.57336,1.80984,0.08479,0.57631,4.03891
63677132084262,0,0,0.15878,1.34495,1.01498,0.57211,1.81019,0.0853,0.57619,4.03841
63677132084310,0,0,0.15679,1.34509,1.01286,0.57222,1.81094,0.08591,0.57337,4.04277
63677132084327,0,0,0.15969,1.34146,1.01146,0.56983,1.80663,0.08399,0.57381,4.04674
63677132084360,0,0,0.15954,1.34097,1.01261,0.57028,1.8065,0.0818,0.57306,4.04852
63677132084394,0,0,0.15876,1.34021,1.00901,0.5688,1.8017,0.08279,0.57293,4.05288
63677132084410,0,0,0.16148,1.34362,1.0108,0.56872,1.79982,0.08312,0.57211,4.05533
63677132084444,0,0,0.16193,1.33672,1.00748,0.56718,1.79556,0.08116,0.57139,4.06581
63677132084460,0,0,0.16033,1.34453,1.00456,0.56853,1.79085,0.07975,0.56917,4.07725
63677132084493,0,0,0.15842,1.34444,1.00552,0.56821,1.79027,0.08072,0.57026,4.08834
63677132084527,0,0,0.15703,1.34398,1.00464,0.56947,1.79044,0.08194,0.56937,4.09188
63677132084543,0,0,0.1578,1.34096,1.00395,0.56912,1.78896,0.08436,0.56887,4.10172
63677132084592,0,0,0.15911,1.33702,1.00326,0.57023,1.79196,0.0836,0.56793,4.10271
63677132084609,0,0,0.15705,1.32961,1.0018,0.56944,1.79029,0.08449,0.56759,4.12125
63677132084626,0,0,0.15876,1.32922,1.00013,0.56959,1.78984,0.08346,0.56772,4.12072
63677132084659,0,0,0.15832,1.33061,0.99693,0.56802,1.78636,0.08478,0.5672,4.13971
63677132084691,0,0,0.16401,1.32243,0.99519,0.56465,1.77871,0.08437,0.56438,4.14962
63677132084708,0,0,0.16292,1.31774,0.99428,0.56416,1.77612,0.08215,0.56388,4.15316
63677132084741,0,0,0.16203,1.31242,0.99061,0.56211,1.76886,0.08032,0.56305,4.17219
63677132084792,0,0,0.16244,1.29973,0.98264,0.55797,1.75555,0.08103,0.55897,4.19344
63677132084825,0,0,0.16014,1.30105,0.98281,0.55702,1.75285,0.08259,0.55744,4.20217
63677132084874,0,0,0.15771,1.29479,0.98104,0.55429,1.74669,0.0787,0.55562,4.22386
63677132084908,0,0,0.1532,1.29495,0.97722,0.55346,1.74437,0.07938,0.55529,4.2337
63677132084941,0,0,0.15615,1.29534,0.9759,0.55188,1.74425,0.08291,0.55222,4.2471
63677132084974,0,0,0.15535,1.30536,0.97795,0.55298,1.74614,0.08163,0.55399,4.25171
63677132084990,0,0,0.15201,1.30935,0.97977,0.55261,1.74712,0.08036,0.55592,4.25384
63677132085023,0,0,0.15627,1.3087,0.97922,0.55357,1.75088,0.08125,0.55605,4.25637
63677132085073,0,0,0.16208,1.30566,0.98133,0.55703,1.75432,0.08373,0.55855,4.25993
63677132085106,0,0,0.16377,1.30312,0.98263,0.55684,1.75109,0.08237,0.55728,4.25664
63677132085140,0,0,0.16027,1.3083,0.98362,0.55908,1.75299,0.08085,0.56022,4.25662
63677132085173,0,0,0.15997,1.30573,0.98596,0.55847,1.75253,0.08119,0.55919,4.25284
63677132085189,0,0,0.16316,1.29716,0.98559,0.55785,1.75247,0.08227,0.55678,4.24913
63677132085221,0,0,0.16268,1.29521,0.98418,0.55826,1.75023,0.08066,0.55798,4.24616
63677132085238,0,0,0.15879,1.30011,0.98355,0.5575,1.75029,0.08055,0.55466,4.24633
63677132085272,0,0,0.15715,1.29946,0.98277,0.55692,1.74869,0.07878,0.55478,4.24768
63677132085289,0,0,0.15731,1.29836,0.98294,0.55682,1.75086,0.0795,0.55403,4.25516
63677132085322,0,0,0.16015,1.29542,0.98215,0.5556,1.74897,0.07964,0.55415,4.25961
63677132085372,0,0,0.16007,1.29245,0.98168,0.55834,1.75253,0.07864,0.55591,4.26827
63677132085388,0,0,0.16009,1.29528,0.98211,0.55674,1.75062,0.08026,0.55661,4.28161
63677132085421,0,0,0.16091,1.29476,0.98238,0.55659,1.75076,0.08155,0.55595,4.29842
63677132085471,0,0,0.15936,1.2977,0.98273,0.5557,1.74881,0.08229,0.55604,4.30801
63677132085504,0,0,0.1595,1.29946,0.98265,0.5561,1.75044,0.08242,0.55742,4.30461
63677132085521,0,0,0.15936,1.29589,0.98348,0.55593,1.74864,0.08254,0.55864,4.31013
63677132085570,0,0,0.16032,1.29757,0.98106,0.55214,1.74437,0.08235,0.55638,4.30226
63677132085587,0,0,0.15981,1.29368,0.98221,0.55169,1.74155,0.07996,0.55601,4.30611
63677132085619,0,0,0.1574,1.29416,0.98297,0.5521,1.74068,0.07843,0.5583,4.29837
63677132085653,0,0,0.15727,1.29349,0.98168,0.55155,1.73799,0.0807,0.55693,4.30242
63677132085670,0,0,0.15795,1.28927,0.98047,0.55152,1.73897,0.08051,0.55875,4.31385
63677132085686,0,0,0.15889,1.28565,0.98002,0.55037,1.73707,0.08116,0.5578,4.30875
63677132085719,0,0,0.15866,1.28758,0.97848,0.54982,1.73645,0.08102,0.55577,4.32153
63677132085752,0,0,0.15768,1.28617,0.97829,0.55036,1.73584,0.08049,0.55614,4.3161
63677132085786,0,0,0.15815,1.28317,0.97753,0.55122,1.738,0.08125,0.55398,4.32372
63677132085802,0,0,0.15847,1.28086,0.97503,0.55002,1.73491,0.08348,0.55197,4.32061
63677132085852,0,0,0.15899,1.27879,0.97658,0.55022,1.73574,0.08225,0.55177,4.32432
63677132085869,0,0,0.1567,1.27944,0.9746,0.54954,1.73216,0.08157,0.5531,4.31985
63677132085885,0,0,0.15595,1.27877,0.97643,0.55029,1.73263,0.08087,0.55189,4.32312
63677132085919,0,0,0.15222,1.27861,0.97563,0.55037,1.73028,0.08178,0.55463,4.31978
63677132085951,0,0,0.15236,1.27857,0.97383,0.54888,1.72836,0.08185,0.55536,4.3181
63677132085967,0,0,0.15294,1.27878,0.97333,0.54824,1.72637,0.08036,0.55769,4.32031
63677132086001,0,0,0.15124,1.27481,0.97236,0.54689,1.7251,0.07733,0.5578,4.32274
63677132086034,0,0,0.14998,1.27457,0.97207,0.54823,1.72589,0.07725,0.55917,4.32623
63677132086051,0,0,0.15128,1.27408,0.97143,0.54671,1.72488,0.0774,0.55552,4.33457
63677132086084,0,0,0.15065,1.27431,0.97089,0.54682,1.72502,0.07879,0.55476,4.33876
63677132086134,0,0,0.15225,1.27227,0.9708,0.54648,1.72303,0.07828,0.55345,4.34805
63677132086150,0,0,0.15133,1.27025,0.96971,0.54618,1.72039,0.07868,0.54982,4.36244
63677132086183,0,0,0.15126,1.27421,0.96919,0.54746,1.7219,0.07959,0.54971,4.36467
63677132086199,0,0,0.15361,1.27681,0.96849,0.54658,1.71969,0.08076,0.55162,4.36957
63677132086232,0,0,0.15652,1.27764,0.96626,0.54505,1.71892,0.08125,0.54766,4.37057
63677132086249,0,0,0.15714,1.27465,0.96758,0.5457,1.71823,0.07982,0.55204,4.37199
63677132086283,0,0,0.1578,1.27417,0.96649,0.54559,1.71901,0.07927,0.56093,4.37129
63677132086300,0,0,0.15867,1.27433,0.96642,0.54542,1.719,0.0798,0.55619,4.37432
63677132086332,0,0,0.15684,1.27687,0.96736,0.54602,1.7206,0.08019,0.55288,4.37771
63677132086366,0,0,0.15823,1.27766,0.96699,0.54571,1.72045,0.08122,0.55588,4.38224
63677132086398,0,0,0.15332,1.27397,0.96838,0.54625,1.72285,0.08286,0.54534,4.3953
63677132086431,0,0,0.15244,1.27317,0.96905,0.546,1.72198,0.08154,0.54452,4.4061
63677132086447,0,0,0.15247,1.2749,0.96837,0.54656,1.72468,0.08185,0.54717,4.40962
63677132086481,0,0,0.15148,1.2747,0.96892,0.54649,1.723,0.08091,0.54469,4.41996
63677132086531,0,0,0.15074,1.27497,0.97083,0.54683,1.72395,0.08127,0.55108,4.42581
63677132086564,0,0,0.15075,1.2764,0.97027,0.54775,1.72669,0.08123,0.53917,4.42844
63677132086614,0,0,0.14987,1.27779,0.97176,0.54626,1.72306,0.08177,0.55124,4.43816
63677132086646,0,0,0.14671,1.27831,0.97201,0.54655,1.72347,0.08252,0.54911,4.44459
63677132086680,0,0,0.14788,1.27568,0.97417,0.54479,1.72102,0.08515,0.53994,4.44907
63677132086713,0,0,0.14513,1.27589,0.97245,0.54548,1.7202,0.08447,0.54473,4.45401
63677132086730,0,0,0.14597,1.27106,0.9734,0.5449,1.71772,0.08356,0.54158,4.46313
63677132086763,0,0,0.14509,1.27682,0.97094,0.54342,1.71559,0.08459,0.54883,4.46793
63677132086779,0,0,0.14861,1.2646,0.97183,0.54218,1.71325,0.0839,0.5465,4.47231
63677132086812,0,0,0.14535,1.26717,0.9698,0.54284,1.711,0.08421,0.54245,4.482
63677132086845,0,0,0.1492,1.26212,0.96384,0.54056,1.70607,0.08219,0.54158,4.49186
63677132086862,0,0,0.15031,1.25866,0.96168,0.54074,1.70437,0.08015,0.5463,4.49645
63677132086912,0,0,0.15128,1.25911,0.96059,0.53971,1.70079,0.08017,0.54812,4.50577
63677132086929,0,0,0.15262,1.2615,0.95905,0.53958,1.70026,0.08031,0.54641,4.50669
63677132086945,0,0,0.15244,1.25704,0.9579,0.53981,1.69718,0.07899,0.54891,4.51684
63677132086978,0,0,0.15046,1.26186,0.95526,0.53991,1.69702,0.07746,0.54594,4.51681
63677132087012,0,0,0.1537,1.26038,0.95398,0.53918,1.69429,0.077,0.54532,4.52171
63677132087029,0,0,0.1517,1.25815,0.95547,0.53835,1.69304,0.07618,0.5454,4.51753
63677132087061,0,0,0.15012,1.26974,0.95557,0.53728,1.69098,0.079,0.54376,4.52644
63677132087094,0,0,0.14763,1.26109,0.95313,0.53528,1.68625,0.07667,0.53654,4.53232
63677132087111,0,0,0.14613,1.25619,0.95233,0.53405,1.68693,0.07592,0.53826,4.53502
63677132087144,0,0,0.14687,1.25535,0.95281,0.53441,1.68373,0.07685,0.53728,4.5367
63677132087193,0,0,0.1464,1.25008,0.9512,0.53111,1.67716,0.07834,0.53326,4.53848
63677132087226,0,0,0.14784,1.25272,0.94902,0.53073,1.6761,0.07723,0.53512,4.54381
63677132087260,0,0,0.14756,1.23786,0.94807,0.52964,1.67163,0.07487,0.5353,4.54176
63677132087293,0,0,0.14968,1.25218,0.94821,0.5298,1.67109,0.07411,0.53049,4.54988
63677132087310,0,0,0.14971,1.24853,0.94905,0.529,1.66671,0.07585,0.53762,4.54025
63677132087343,0,0,0.14741,1.24135,0.94474,0.52658,1.66196,0.07558,0.53175,4.53615
63677132087393,0,0,0.14642,1.24114,0.94313,0.52731,1.65956,0.07559,0.53725,4.53696
63677132087426,0,0,0.14541,1.23358,0.94367,0.52828,1.65821,0.07713,0.53065,4.5372
63677132087459,0,0,0.14585,1.23886,0.94362,0.52876,1.65984,0.07766,0.53045,4.53656
63677132087491,0,0,0.1459,1.22873,0.94059,0.52802,1.65585,0.07964,0.52588,4.53368
63677132087524,0,0,0.1437,1.22725,0.93942,0.52692,1.65561,0.07878,0.52397,4.52923
63677132087558,0,0,0.14389,1.21824,0.93879,0.52858,1.65664,0.08009,0.52374,4.52965
63677132087591,0,0,0.14596,1.21812,0.93861,0.52654,1.65433,0.07831,0.52367,4.52719
63677132087608,0,0,0.1457,1.22063,0.93786,0.52715,1.65488,0.07834,0.5286,4.52743
63677132087624,0,0,0.1453,1.21905,0.93607,0.52446,1.64851,0.07647,0.53423,4.5278
63677132087658,0,0,0.14383,1.21862,0.9349,0.52483,1.64954,0.07735,0.53173,4.52501
63677132087690,0,0,0.14437,1.21079,0.9363,0.52179,1.64415,0.07703,0.53312,4.52941
63677132087707,0,0,0.14395,1.20699,0.93379,0.52129,1.64279,0.07702,0.53286,4.52544
63677132087741,0,0,0.1482,1.21575,0.93485,0.52119,1.64113,0.07537,0.53113,4.52721
63677132087773,0,0,0.14381,1.21093,0.93645,0.52189,1.63928,0.07814,0.53409,4.5344
63677132087789,0,0,0.14493,1.20704,0.93657,0.52265,1.63866,0.0777,0.52209,4.53012
63677132087823,0,0,0.14368,1.20534,0.93598,0.52238,1.63787,0.07961,0.52223,4.53482
63677132087873,0,0,0.14502,1.20261,0.93588,0.52365,1.63768,0.07983,0.52234,4.53556
63677132087889,0,0,0.14478,1.20223,0.934,0.52363,1.63714,0.07973,0.52304,4.53674
63677132087906,0,0,0.1448,1.20659,0.93297,0.52374,1.63683,0.07882,0.52281,4.54364
63677132087939,0,0,0.14375,1.20285,0.9325,0.52321,1.63756,0.07865,0.52053,4.54133
63677132087972,0,0,0.1442,1.20187,0.93083,0.522,1.63512,0.07753,0.51913,4.54498
63677132087989,0,0,0.14206,1.20496,0.92862,0.52135,1.63396,0.07717,0.5223,4.55802
63677132088022,0,0,0.14403,1.20377,0.93013,0.52056,1.63332,0.07739,0.51888,4.54964
63677132088072,0,0,0.1435,1.21236,0.93095,0.51759,1.63194,0.0755,0.51887,4.55307
63677132088104,0,0,0.14297,1.21257,0.93116,0.51743,1.63107,0.07714,0.51698,4.56072
63677132088137,0,0,0.14192,1.21277,0.93314,0.51661,1.63006,0.07809,0.51757,4.55716
63677132088171,0,0,0.14425,1.21194,0.93104,0.51504,1.62834,0.07663,0.52217,4.56013
63677132088188,0,0,0.14331,1.21138,0.93095,0.51568,1.62884,0.07649,0.51917,4.56238
63677132088221,0,0,0.14278,1.21398,0.9319,0.51549,1.6294,0.07577,0.52607,4.56687
63677132088238,0,0,0.14263,1.2086,0.93007,0.51614,1.62822,0.07628,0.52484,4.562
63677132088271,0,0,0.14266,1.20985,0.92972,0.51712,1.62717,0.0774,0.52788,4.56967
63677132088304,0,0,0.14498,1.20517,0.9298,0.51603,1.62544,0.07639,0.52872,4.56328
63677132088320,0,0,0.14404,1.20657,0.9289,0.51683,1.62476,0.074,0.52923,4.56827
63677132088353,0,0,0.14292,1.20383,0.92965,0.51654,1.62342,0.07376,0.53273,4.5634
63677132088386,0,0,0.14347,1.20454,0.9297,0.51607,1.62266,0.07384,0.53522,4.56625
63677132088403,0,0,0.14438,1.19916,0.92903,0.51588,1.62174,0.07357,0.52886,4.56446
63677132088453,0,0,0.14186,1.20291,0.92819,0.51667,1.62039,0.07466,0.52859,4.56446
63677132088469,0,0,0.14169,1.20019,0.92822,0.51557,1.62132,0.07204,0.52903,4.56617
63677132088502,0,0,0.13929,1.20691,0.92856,0.51666,1.62305,0.07188,0.53317,4.56889
63677132088519,0,0,0.14,1.20268,0.92729,0.51604,1.62179,0.07394,0.53623,4.57124
63677132088552,0,0,0.1401,1.20422,0.92763,0.51727,1.62539,0.07466,0.52473,4.57191
63677132088586,0,0,0.14134,1.20337,0.92781,0.51744,1.6223,0.07393,0.52473,4.57552
63677132088602,0,0,0.14107,1.20121,0.92802,0.51759,1.62459,0.07381,0.52031,4.57301
63677132088652,0,0,0.14175,1.19914,0.92683,0.5162,1.62275,0.07292,0.5234,4.57856
63677132088669,0,0,0.14116,1.1995,0.92685,0.51717,1.62417,0.07558,0.52097,4.57161
63677132088701,0,0,0.14216,1.19196,0.92733,0.51796,1.62342,0.07629,0.52352,4.56835
63677132088751,0,0,0.14114,1.19277,0.92733,0.5157,1.61761,0.07448,0.52083,4.5726
63677132088767,0,0,0.13962,1.19327,0.92701,0.51584,1.61854,0.07554,0.52617,4.56445
63677132088800,0,0,0.13948,1.19018,0.92635,0.51531,1.61725,0.07646,0.53176,4.56355
63677132088833,0,0,0.13984,1.18881,0.92728,0.51438,1.61539,0.07811,0.52839,4.55635
63677132088850,0,0,0.14046,1.18902,0.92786,0.51411,1.61607,0.07699,0.52992,4.56011
63677132088884,0,0,0.14062,1.18553,0.92583,0.51277,1.61428,0.07774,0.52178,4.55293
63677132088933,0,0,0.14218,1.18338,0.92525,0.51242,1.61611,0.07843,0.52132,4.54962
63677132088950,0,0,0.14281,1.18245,0.92738,0.51284,1.61681,0.07648,0.52291,4.55839
63677132088983,0,0,0.1445,1.18139,0.92747,0.51428,1.61594,0.07723,0.52275,4.54526
63677132089033,0,0,0.14456,1.18298,0.92923,0.51334,1.61571,0.07486,0.52255,4.55077
63677132089050,0,0,0.14414,1.17976,0.92633,0.51334,1.61352,0.0734,0.51809,4.54745
63677132089081,0,0,0.14435,1.17544,0.9271,0.51281,1.61338,0.07434,0.51873,4.54001
63677132089098,0,0,0.14379,1.17711,0.92561,0.51239,1.61122,0.07304,0.5224,4.54207
63677132089132,0,0,0.14253,1.17937,0.9263,0.51371,1.61206,0.07245,0.51759,4.53601
63677132089181,0,0,0.14213,1.18126,0.92482,0.51321,1.60963,0.07351,0.51355,4.53688
63677132089198,0,0,0.14083,1.18357,0.92087,0.51276,1.61127,0.07638,0.51078,4.53794
63677132089231,0,0,0.14169,1.18489,0.92209,0.51349,1.61295,0.07528,0.51564,4.54004
63677132089264,0,0,0.1419,1.18631,0.92112,0.51378,1.61517,0.07809,0.51797,4.54188
63677132089314,0,0,0.14235,1.19043,0.92364,0.51403,1.61903,0.07849,0.51454,4.54903
63677132089331,0,0,0.14462,1.19061,0.92196,0.51493,1.62008,0.0797,0.52037,4.55728
63677132089347,0,0,0.14314,1.19065,0.92304,0.51534,1.62199,0.08012,0.51895,4.55583
63677132089380,0,0,0.14166,1.19243,0.92261,0.51522,1.62223,0.07879,0.51686,4.56397
63677132089414,0,0,0.14188,1.19241,0.92451,0.51625,1.62207,0.0792,0.52539,4.55972
63677132089447,0,0,0.14028,1.19708,0.92384,0.5165,1.62046,0.07601,0.52308,4.56072
63677132089480,0,0,0.13889,1.19998,0.92091,0.51716,1.6207,0.07666,0.52395,4.56264
63677132089513,0,0,0.13935,1.19905,0.92199,0.51779,1.62082,0.07724,0.52498,4.55962
63677132089529,0,0,0.13721,1.20058,0.9223,0.51756,1.62004,0.0761,0.52452,4.55816
63677132089562,0,0,0.1383,1.19827,0.92343,0.51806,1.62111,0.0764,0.52923,4.55747
63677132089613,0,0,0.13788,1.19711,0.92306,0.51791,1.62163,0.07664,0.52335,4.55872
63677132089629,0,0,0.13978,1.1979,0.92134,0.5165,1.61949,0.07792,0.51945,4.55957
63677132089663,0,0,0.13979,1.1932,0.92193,0.51651,1.62215,0.07977,0.52058,4.56033
63677132089711,0,0,0.14178,1.19058,0.92216,0.51656,1.61792,0.07935,0.52207,4.56151
63677132089728,0,0,0.14048,1.18583,0.9212,0.51628,1.61842,0.07743,0.51884,4.56013
63677132089761,0,0,0.14123,1.18406,0.9209,0.51577,1.61902,0.07769,0.51802,4.55339
63677132089811,0,0,0.13934,1.18532,0.92081,0.51458,1.61518,0.07609,0.51879,4.55422
63677132089828,0,0,0.13993,1.18195,0.92147,0.51421,1.61549,0.07279,0.52189,4.54427
63677132089860,0,0,0.13844,1.184,0.92203,0.51531,1.61621,0.07335,0.52266,4.53464
63677132089894,0,0,0.13458,1.18538,0.92108,0.51343,1.61579,0.07292,0.52212,4.53387
63677132089911,0,0,0.13651,1.18879,0.92165,0.51341,1.61619,0.07472,0.51962,4.52719
63677132089944,0,0,0.13737,1.18678,0.92215,0.51376,1.61701,0.07338,0.52563,4.52409
63677132089994,0,0,0.13891,1.18544,0.92267,0.51454,1.61982,0.07477,0.52679,4.5225
63677132090011,0,0,0.13811,1.18685,0.92416,0.51524,1.61984,0.0736,0.52752,4.52591
63677132090044,0,0,0.13936,1.18702,0.92327,0.51545,1.6218,0.07366,0.52605,4.52259
63677132090093,0,0,0.14021,1.18789,0.92378,0.51541,1.62092,0.0737,0.52261,4.52967
63677132090109,0,0,0.14259,1.1869,0.92358,0.51524,1.62109,0.07246,0.52781,4.5352
63677132090159,0,0,0.1431,1.19258,0.91823,0.51443,1.62147,0.07352,0.52173,4.52849
63677132090192,0,0,0.14419,1.19364,0.91961,0.51389,1.6193,0.07454,0.52079,4.53703
63677132090209,0,0,0.14198,1.19369,0.92036,0.51517,1.62068,0.07345,0.51595,4.5289
63677132090226,0,0,0.14376,1.19193,0.9194,0.51437,1.61844,0.07578,0.50843,4.52972
63677132090258,0,0,0.14316,1.19116,0.91835,0.51398,1.6173,0.07525,0.51354,4.53376
63677132090291,0,0,0.1405,1.19002,0.91798,0.51439,1.61831,0.07552,0.50693,4.5293
63677132090308,0,0,0.14042,1.18949,0.91748,0.51529,1.6176,0.07564,0.50701,4.52987
63677132090358,0,0,0.13927,1.18344,0.91843,0.51531,1.61779,0.07583,0.50404,4.52988
63677132090391,0,0,0.13988,1.1853,0.9176,0.51537,1.61747,0.07602,0.50359,4.53675
63677132090408,0,0,0.13713,1.18219,0.91869,0.51488,1.61667,0.07616,0.50691,4.53209
63677132090473,0,0,0.13607,1.18452,0.91756,0.51438,1.61539,0.07847,0.51261,4.54441
63677132090507,0,0,0.13709,1.18116,0.91844,0.51364,1.61323,0.07859,0.51127,4.54124
63677132090541,0,0,0.13695,1.18257,0.91802,0.51348,1.61371,0.07676,0.51081,4.54503
63677132090574,0,0,0.13645,1.18118,0.92108,0.51358,1.61399,0.07624,0.51322,4.54492
63677132090606,0,0,0.13779,1.17803,0.91921,0.51289,1.61445,0.07616,0.5178,4.5443
63677132090639,0,0,0.13841,1.18063,0.91776,0.51329,1.61422,0.07436,0.52111,4.54168
63677132090672,0,0,0.14123,1.19283,0.91869,0.51156,1.61438,0.07547,0.51635,4.54486
63677132090706,0,0,0.14172,1.19549,0.91986,0.51064,1.6126,0.07304,0.51161,4.54349
63677132090722,0,0,0.14435,1.19319,0.91841,0.51061,1.61111,0.075,0.5158,4.54778
63677132090771,0,0,0.14504,1.1869,0.91857,0.51036,1.61257,0.07294,0.51899,4.54346
63677132090789,0,0,0.14339,1.18973,0.91861,0.50978,1.60891,0.07206,0.51604,4.54666
63677132090821,0,0,0.14309,1.18896,0.92005,0.51063,1.60854,0.07246,0.51584,4.54222
63677132090872,0,0,0.14306,1.17233,0.91992,0.51001,1.60433,0.07311,0.5217,4.5462
63677132090921,0,0,0.14171,1.17229,0.92005,0.50869,1.60284,0.07115,0.52419,4.5392
63677132090954,0,0,0.13842,1.17423,0.92084,0.50855,1.60202,0.07096,0.51951,4.5411
63677132090971,0,0,0.13829,1.17716,0.92022,0.50784,1.59934,0.07276,0.51648,4.54675
63677132091004,0,0,0.13864,1.17767,0.92036,0.50828,1.59749,0.07241,0.52146,4.54912
63677132091038,0,0,0.13819,1.17614,0.91926,0.50831,1.59854,0.07366,0.51915,4.54975
63677132091071,0,0,0.13733,1.17702,0.91851,0.50898,1.59772,0.0749,0.51235,4.55453
63677132091104,0,0,0.1353,1.1776,0.91846,0.51039,1.6011,0.07313,0.51255,4.55048
63677132091153,0,0,0.13626,1.18304,0.91773,0.51186,1.60429,0.07414,0.51573,4.55433
63677132091169,0,0,0.13522,1.18692,0.91855,0.51261,1.60541,0.07381,0.52086,4.55881
63677132091203,0,0,0.13474,1.19228,0.91803,0.51305,1.60883,0.07452,0.51754,4.56491
63677132091253,0,0,0.13523,1.1933,0.92108,0.51409,1.61124,0.07365,0.52025,4.5583
