63677213740432,5,0,0.73481,2.8214,4.34567,0.38051,1.19084,0.45189,0.7413,2.58874
63677213740465,5,0,0.73525,2.81731,4.35106,0.38125,1.19129,0.45061,0.74142,2.59308
63677213740513,5,0,0.7367,2.8123,4.3781,0.3808,1.19165,0.44994,0.74375,2.59634
63677213740547,5,0,0.73443,2.81552,4.35704,0.38161,1.19026,0.44941,0.74219,2.59091
63677213740563,5,0,0.7361,2.8099,4.36361,0.38141,1.19067,0.44982,0.7435,2.59229
63677213740597,5,0,0.73578,2.80974,4.37031,0.38046,1.18903,0.4503,0.74433,2.59506
63677213740613,5,0,0.73392,2.80545,4.35529,0.3812,1.18994,0.45008,0.74256,2.59513
63677213740647,5,0,0.73184,2.79858,4.38228,0.38204,1.1875,0.44914,0.74098,2.59811
63677213740663,5,0,0.73154,2.7974,4.38181,0.38217,1.18615,0.44805,0.74364,2.60004
63677213740697,5,0,0.73026,2.7938,4.34341,0.38314,1.18692,0.44825,0.74339,2.59472
63677213740713,5,0,0.73526,2.79242,4.37106,0.38452,1.18673,0.44794,0.74338,2.6013
63677213740746,5,0,0.73318,2.7945,4.33797,0.38507,1.18661,0.44707,0.74337,2.59748
63677213740779,5,0,0.73466,2.79233,4.35115,0.38414,1.18637,0.4468,0.73931,2.60001
63677213740796,5,0,0.73437,2.79481,4.33851,0.38487,1.18549,0.44648,0.74121,2.59314
63677213740846,5,0,0.73549,2.8017,4.34724,0.38283,1.1851,0.44698,0.74001,2.59333
63677213740878,5,0,0.73616,2.80184,4.35417,0.38261,1.18601,0.44666,0.74035,2.59585
63677213740895,5,0,0.73523,2.80606,4.35678,0.38219,1.18389,0.44632,0.74185,2.59315
63677213740944,5,0,0.73534,2.81039,4.35789,0.37873,1.18252,0.44636,0.743,2.59258
63677213740961,5,0,0.73746,2.80911,4.36056,0.38103,1.18386,0.44575,0.74546,2.59486
63677213740977,5,0,0.73783,2.81691,4.36084,0.3793,1.18143,0.44492,0.74581,2.59692
63677213741010,5,0,0.73837,2.81214,4.35511,0.37967,1.18334,0.44443,0.74609,2.59726
63677213741044,5,0,0.73537,2.82039,4.3657,0.38067,1.18094,0.4434,0.74636,2.59517
63677213741061,5,0,0.73575,2.81259,4.35734,0.38013,1.18132,0.44391,0.74544,2.59429
63677213741094,5,0,0.73376,2.8197,4.38348,0.37976,1.17848,0.44367,0.74508,2.59573
63677213741144,5,0,0.73156,2.81696,4.39867,0.37879,1.17533,0.4408,0.74566,2.59279
63677213741177,5,0,0.72979,2.81208,4.36231,0.37819,1.17584,0.44083,0.74617,2.58738
63677213741227,5,0,0.72947,2.81326,4.38194,0.37955,1.17406,0.44232,0.74917,2.58593
63677213741260,5,0,0.72623,2.8078,4.36035,0.38082,1.17338,0.44033,0.74843,2.58211
63677213741292,5,0,0.72519,2.80986,4.36227,0.38133,1.17455,0.44118,0.74897,2.58046
63677213741326,5,0,0.72541,2.80989,4.36647,0.38136,1.17328,0.44055,0.7478,2.58149
63677213741342,5,0,0.72463,2.80941,4.35128,0.38201,1.17522,0.44101,0.74871,2.57974
63677213741376,5,0,0.72456,2.80823,4.37903,0.38261,1.1724,0.43932,0.74672,2.58113
63677213741392,5,0,0.72275,2.80669,4.34908,0.38186,1.17271,0.43984,0.74669,2.57565
63677213741425,5,0,0.72414,2.80725,4.37883,0.38223,1.17156,0.43776,0.74623,2.58024
63677213741458,5,0,0.72741,2.81055,4.34251,0.38145,1.17206,0.43838,0.7444,2.57555
63677213741475,5,0,0.73062,2.81668,4.34297,0.38108,1.1701,0.43838,0.74336,2.57708
63677213741524,5,0,0.72841,2.81501,4.36003,0.37973,1.17028,0.43807,0.74382,2.57521
63677213741541,5,0,0.72591,2.81835,4.34426,0.3802,1.16896,0.43871,0.74244,2.57433
63677213741557,5,0,0.72672,2.8191,4.3523,0.37919,1.17026,0.43907,0.74322,2.57546
63677213741607,5,0,0.72709,2.8151,4.34878,0.37947,1.1674,0.43972,0.74289,2.57834
63677213741625,5,0,0.72632,2.81714,4.3553,0.37938,1.16714,0.43902,0.74211,2.5742
63677213741641,5,0,0.72589,2.81048,4.35782,0.37837,1.16529,0.43944,0.74345,2.57913
63677213741674,5,0,0.72441,2.80511,4.35402,0.37772,1.16452,0.43929,0.74405,2.57581
63677213741707,5,0,0.72199,2.80026,4.35975,0.37734,1.16283,0.43724,0.74338,2.57623
63677213741724,5,0,0.72008,2.79051,4.35601,0.3771,1.15631,0.4356,0.74446,2.55877
63677213741756,5,0,0.70423,2.74946,4.35822,0.3701,1.13312,0.4261,0.74184,2.4976
63677213741807,5,0,0.68418,2.70853,4.35875,0.35805,1.10534,0.41451,0.73529,2.42436
63677213741839,5,0,0.67454,2.69217,4.38477,0.35114,1.09095,0.40747,0.72994,2.38876
63677213741872,5,0,0.66474,2.6699,4.36048,0.34679,1.07418,0.40152,0.72724,2.342
63677213741906,5,0,0.656,2.65153,4.3819,0.34027,1.05978,0.3953,0.72266,2.30162
63677213741923,5,0,0.64517,2.63083,4.34152,0.33335,1.04624,0.39033,0.71867,2.26664
63677213741955,5,0,0.64166,2.62084,4.35536,0.32888,1.03869,0.38768,0.7147,2.2437
63677213741972,5,0,0.63582,2.61373,4.33119,0.32681,1.03038,0.38454,0.71122,2.22339
63677213742005,5,0,0.63453,2.60778,4.33175,0.32609,1.02614,0.3825,0.71052,2.20727
63677213742037,5,0,0.62619,2.59285,4.31573,0.3257,1.01624,0.3789,0.70722,2.17581
63677213742055,5,0,0.62493,2.58855,4.33302,0.32307,1.01073,0.37599,0.70595,2.16968
63677213742104,5,0,0.62476,2.5839,4.31298,0.32072,1.00796,0.37496,0.70398,2.15611
63677213742121,5,0,0.62427,2.57834,4.34632,0.32176,1.0025,0.3719,0.70101,2.14989
63677213742137,5,0,0.62364,2.58081,4.30995,0.32171,1.00021,0.37109,0.7007,2.14312
63677213742171,5,0,0.62354,2.57967,4.32931,0.32083,0.99795,0.36979,0.70099,2.13984
63677213742204,5,0,0.61838,2.57805,4.30398,0.31898,0.99562,0.37107,0.70097,2.13489
63677213742220,5,0,0.61731,2.57734,4.32031,0.31837,0.99521,0.37014,0.6996,2.12819
63677213742253,5,0,0.61606,2.57743,4.30344,0.31718,0.99313,0.36966,0.69886,2.1275
63677213742287,5,0,0.61264,2.5714,4.30876,0.31747,0.99239,0.36867,0.69773,2.11885
63677213742303,5,0,0.61211,2.57825,4.30604,0.31779,0.99011,0.36938,0.70112,2.117
63677213742336,5,0,0.61137,2.57393,4.31581,0.31704,0.98791,0.36864,0.69977,2.11643
63677213742353,5,0,0.61034,2.57476,4.31646,0.3177,0.98713,0.36825,0.69893,2.10976
63677213742386,5,0,0.61408,2.57338,4.31991,0.31909,0.9863,0.36608,0.69687,2.10972
63677213742419,5,0,0.61171,2.57175,4.31411,0.31861,0.98337,0.36583,0.69672,2.10233
63677213742452,5,0,0.6072,2.56646,4.31902,0.31596,0.9795,0.36213,0.69515,2.09309
63677213742485,5,0,0.60549,2.56061,4.31409,0.31359,0.97297,0.36134,0.69539,2.07908
63677213742502,5,0,0.59879,2.54851,4.32716,0.30966,0.96706,0.3575,0.69073,2.06135
63677213742535,5,0,0.59095,2.52854,4.3157,0.30703,0.9564,0.35368,0.6891,2.03415
63677213742552,5,0,0.57259,2.48878,4.31434,0.29633,0.92954,0.34239,0.6835,1.96456
63677213742585,5,0,0.56236,2.47238,4.3302,0.29001,0.91577,0.33749,0.67751,1.92619
63677213742618,5,0,0.55245,2.44513,4.30456,0.28452,0.89919,0.33174,0.67408,1.88866
63677213742635,5,0,0.54588,2.42494,4.31732,0.28214,0.88656,0.32749,0.66922,1.8532
63677213742684,5,0,0.53427,2.40157,4.28747,0.27686,0.87239,0.32087,0.66532,1.8162
63677213742701,5,0,0.52664,2.38182,4.28585,0.27116,0.8618,0.31783,0.66134,1.78592
63677213742717,5,0,0.5194,2.36784,4.26801,0.26683,0.85033,0.3126,0.65712,1.76157
63677213742751,5,0,0.51495,2.35508,4.26512,0.26448,0.84294,0.31008,0.65282,1.73975
63677213742783,5,0,0.50967,2.34197,4.25954,0.26082,0.83587,0.30668,0.65038,1.72357
63677213742800,5,0,0.5008,2.31832,4.26108,0.25378,0.82481,0.30123,0.64601,1.6941
63677213742834,5,0,0.49815,2.31286,4.23801,0.2508,0.82036,0.29933,0.64372,1.67943
63677213742867,5,0,0.49759,2.30513,4.25629,0.24978,0.81555,0.29786,0.6424,1.66918
63677213742883,5,0,0.49383,2.30316,4.23172,0.24934,0.81221,0.29469,0.64126,1.65718
63677213742917,5,0,0.49257,2.29181,4.24498,0.24725,0.80935,0.29376,0.63965,1.64787
63677213742965,5,0,0.48938,2.28291,4.23025,0.24555,0.80458,0.29257,0.63692,1.63769
63677213742998,5,0,0.48959,2.27831,4.21221,0.24459,0.8006,0.29053,0.63607,1.63442
63677213743032,5,0,0.48832,2.27732,4.21854,0.24579,0.79967,0.28927,0.6347,1.62605
63677213743065,5,0,0.48911,2.27674,4.21714,0.24465,0.79687,0.2884,0.63403,1.62459
63677213743082,5,0,0.48581,2.27069,4.2206,0.24348,0.79288,0.28787,0.63117,1.61732
63677213743115,5,0,0.48534,2.27291,4.21385,0.24204,0.79125,0.28636,0.63017,1.61029
63677213743132,5,0,0.4882,2.26813,4.22299,0.24008,0.78937,0.28607,0.63074,1.60977
63677213743165,5,0,0.48516,2.26776,4.20953,0.23776,0.787,0.28493,0.62964,1.60339
63677213743198,5,0,0.48222,2.26255,4.21909,0.23714,0.78632,0.28434,0.63037,1.60159
63677213743231,5,0,0.48148,2.26051,4.20274,0.2349,0.78429,0.28485,0.62926,1.59692
63677213743264,5,0,0.482,2.25937,4.21119,0.23343,0.78464,0.28428,0.62972,1.5953
63677213743297,5,0,0.48065,2.25456,4.20226,0.2323,0.78152,0.28337,0.62867,1.58998
63677213743314,5,0,0.4791,2.24998,4.21443,0.23168,0.7809,0.28252,0.62896,1.58769
63677213743348,5,0,0.47705,2.2443,4.2072,0.23252,0.77733,0.282,0.62565,1.57814
63677213743380,5,0,0.47242,2.23403,4.20868,0.23146,0.77263,0.27877,0.6221,1.56232
63677213743397,5,0,0.4747,2.23057,4.21705,0.23018,0.77099,0.27773,0.62208,1.5554
63677213743446,5,0,0.46244,2.21167,4.20823,0.22806,0.76043,0.27295,0.6184,1.53156
63677213743480,5,0,0.46108,2.2043,4.19524,0.22659,0.75555,0.27129,0.61751,1.52431
63677213743513,5,0,0.45993,2.1995,4.19114,0.22396,0.7518,0.27027,0.61627,1.51115
63677213743546,5,0,0.45448,2.1929,4.18461,0.22195,0.74702,0.26888,0.61506,1.50593
63677213743563,5,0,0.45391,2.18443,4.17512,0.22124,0.74407,0.2671,0.6144,1.49501
63677213743578,5,0,0.45212,2.17994,4.18291,0.2203,0.74066,0.26639,0.61346,1.4908
63677213743612,5,0,0.4507,2.16639,4.18457,0.21921,0.73686,0.26607,0.61192,1.48149
63677213743645,5,0,0.44823,2.15673,4.16409,0.21813,0.7347,0.26627,0.61203,1.47362
63677213743662,5,0,0.4452,2.15532,4.17924,0.21586,0.73437,0.26611,0.6094,1.46897
63677213743695,5,0,0.44214,2.14899,4.15483,0.21665,0.7324,0.26503,0.61023,1.46441
63677213743711,5,0,0.44389,2.14918,4.17179,0.21596,0.7314,0.26522,0.61018,1.46181
63677213743744,5,0,0.44368,2.14157,4.14999,0.2149,0.72862,0.26586,0.61156,1.4613
63677213743778,5,0,0.44269,2.14032,4.16004,0.2141,0.72832,0.2647,0.60998,1.45542
63677213743794,5,0,0.44249,2.14046,4.14561,0.21481,0.72647,0.26466,0.61037,1.45615
63677213743844,5,0,0.44413,2.14418,4.15223,0.21306,0.72549,0.26287,0.6098,1.44868
63677213743861,5,0,0.44496,2.14577,4.15273,0.2144,0.72083,0.26117,0.60855,1.44007
63677213743894,5,0,0.44676,2.13732,4.15127,0.21386,0.72022,0.25961,0.60912,1.43986
63677213743927,5,0,0.44333,2.13551,4.15022,0.21142,0.7181,0.25822,0.60747,1.43305
63677213743943,5,0,0.4397,2.12495,4.14766,0.2119,0.71538,0.25547,0.60619,1.42778
63677213743960,5,0,0.43898,2.12805,4.14975,0.21059,0.71262,0.25572,0.60647,1.42233
63677213743992,5,0,0.43722,2.1214,4.14602,0.21016,0.71079,0.25268,0.6068,1.41482
63677213744026,5,0,0.43161,2.12225,4.1495,0.2102,0.70828,0.25349,0.60512,1.40967
63677213744059,5,0,0.42936,2.11821,4.14703,0.20837,0.70551,0.25058,0.60373,1.40161
63677213744075,5,0,0.42877,2.11746,4.14366,0.20731,0.7034,0.25062,0.60217,1.40028
63677213744126,5,0,0.42614,2.12009,4.14822,0.20546,0.69928,0.24893,0.5989,1.38591
63677213744159,5,0,0.42486,2.12287,4.1429,0.20604,0.69808,0.24898,0.59683,1.38226
63677213744191,5,0,0.42418,2.11758,4.1465,0.20472,0.69678,0.24797,0.59615,1.3791
63677213744224,5,0,0.42398,2.11716,4.13619,0.204,0.6944,0.24803,0.59567,1.37725
63677213744258,5,0,0.42224,2.10749,4.13776,0.20395,0.69496,0.24891,0.59679,1.37473
63677213744292,5,0,0.42468,2.10542,4.13434,0.20316,0.69284,0.24693,0.59669,1.37283
63677213744324,5,0,0.42246,2.10691,4.13446,0.20433,0.69149,0.24517,0.5952,1.36322
63677213744341,5,0,0.41686,2.10074,4.12827,0.20407,0.689,0.24555,0.59449,1.35611
63677213744373,5,0,0.42023,2.10558,4.13127,0.20368,0.68816,0.24409,0.59336,1.36
63677213744423,5,0,0.41998,2.09967,4.12023,0.20414,0.68626,0.24485,0.59252,1.35631
63677213744440,5,0,0.41496,2.09722,4.11518,0.20337,0.68426,0.24368,0.59144,1.34945
63677213744474,5,0,0.4142,2.1034,4.12392,0.20011,0.68676,0.24521,0.58964,1.34941
63677213744523,5,0,0.41423,2.09614,4.11938,0.19836,0.68579,0.24619,0.59012,1.35539
63677213744556,5,0,0.41929,2.09435,4.11451,0.20022,0.6853,0.24416,0.5911,1.35719
63677213744606,5,0,0.4159,2.08632,4.12151,0.19749,0.68523,0.24327,0.58997,1.35613
63677213744623,5,0,0.41293,2.08847,4.12287,0.19894,0.6872,0.24449,0.58755,1.35618
63677213744656,5,0,0.41647,2.08305,4.1293,0.19689,0.68544,0.24314,0.58647,1.35887
63677213744706,5,0,0.41332,2.08939,4.12977,0.19805,0.68419,0.24263,0.5872,1.35584
63677213744723,5,0,0.41447,2.09289,4.11764,0.19809,0.68452,0.2414,0.58631,1.35541
63677213744739,5,0,0.41358,2.08611,4.12326,0.1972,0.68221,0.24065,0.58557,1.35289
63677213744771,5,0,0.4094,2.08867,4.11634,0.19712,0.6821,0.24049,0.58577,1.34946
63677213744805,5,0,0.40952,2.08572,4.12267,0.19719,0.6802,0.2401,0.58663,1.34805
63677213744839,5,0,0.41427,2.0919,4.12556,0.19821,0.67859,0.23894,0.58933,1.35084
63677213744872,5,0,0.41496,2.08989,4.12638,0.19909,0.67849,0.23816,0.58879,1.35305
63677213744904,5,0,0.41508,2.08629,4.1296,0.19837,0.67758,0.23675,0.59005,1.34946
63677213744921,5,0,0.4153,2.08679,4.13001,0.19814,0.67819,0.23838,0.58879,1.35065
63677213744953,5,0,0.41482,2.08164,4.13363,0.19715,0.67756,0.23881,0.58946,1.34992
63677213744987,5,0,0.41832,2.09067,4.12692,0.19951,0.67873,0.24108,0.58831,1.34909
63677213745021,5,0,0.41533,2.0935,4.12221,0.19928,0.67943,0.24117,0.58769,1.34882
63677213745054,5,0,0.41835,2.08741,4.12313,0.19966,0.67821,0.24164,0.5874,1.34729
63677213745087,5,0,0.41582,2.09426,4.12236,0.1998,0.67738,0.24235,0.58745,1.34689
63677213745120,5,0,0.41582,2.0971,4.12191,0.20127,0.67694,0.24309,0.58648,1.34457
63677213745152,5,0,0.41276,2.09405,4.11423,0.20291,0.67548,0.2429,0.58495,1.33943
63677213745185,5,0,0.41141,2.09151,4.11834,0.20229,0.67403,0.24089,0.58633,1.34199
63677213745219,5,0,0.41376,2.08502,4.1146,0.20243,0.67417,0.24017,0.58786,1.34059
63677213745235,5,0,0.41032,2.0835,4.1006,0.20208,0.67284,0.23932,0.58717,1.33768
63677213745285,5,0,0.41286,2.08158,4.10042,0.2019,0.67475,0.2405,0.58958,1.3402
63677213745301,5,0,0.41086,2.07938,4.09878,0.20138,0.67182,0.24017,0.58819,1.34075
63677213745335,5,0,0.41175,2.08117,4.09506,0.19915,0.67197,0.23927,0.58956,1.33866
63677213745352,5,0,0.40875,2.07758,4.10067,0.19831,0.67056,0.23988,0.58863,1.33775
63677213745385,5,0,0.40765,2.07483,4.10923,0.19985,0.6697,0.24081,0.58846,1.3325
63677213745418,5,0,0.41011,2.0821,4.09228,0.20019,0.67015,0.24091,0.58938,1.33529
63677213745468,5,0,0.40628,2.07451,4.11237,0.19879,0.66791,0.24071,0.58718,1.33321
63677213745485,5,0,0.40556,2.07797,4.09354,0.19928,0.66883,0.24038,0.58667,1.32963
63677213745516,5,0,0.40352,2.0768,4.1067,0.2004,0.66866,0.24069,0.58716,1.3287
63677213745534,5,0,0.40477,2.06857,4.10421,0.20377,0.66834,0.23905,0.58758,1.32785
63677213745566,5,0,0.4042,2.06766,4.09405,0.20337,0.66652,0.23799,0.58634,1.32377
63677213745600,5,0,0.40479,2.06885,4.10135,0.20367,0.66611,0.23759,0.58643,1.32384
63677213745633,5,0,0.40658,2.06854,4.10168,0.20411,0.66537,0.23714,0.58509,1.32396
63677213745666,5,0,0.40739,2.07097,4.10389,0.20501,0.66533,0.23685,0.58716,1.32098
63677213745698,5,0,0.40621,2.06398,4.10698,0.2124,0.66221,0.23509,0.58249,1.31544
63677213745716,5,0,0.40669,2.05886,4.10376,0.21486,0.66119,0.23534,0.58317,1.31633
63677213745766,5,0,0.41046,2.06212,4.09913,0.2164,0.66095,0.23571,0.58093,1.31292
63677213745799,5,0,0.40728,2.05963,4.10192,0.21874,0.66088,0.2361,0.58091,1.31765
63677213745815,5,0,0.40605,2.0507,4.10233,0.22272,0.65798,0.23476,0.58016,1.31326
63677213745865,5,0,0.40743,2.05256,4.10594,0.22662,0.65755,0.23319,0.57917,1.30964
63677213745899,5,0,0.4079,2.0493,4.08761,0.22431,0.65551,0.23297,0.57795,1.30597
63677213745964,5,0,0.40338,2.04948,4.10493,0.22546,0.65383,0.2305,0.57874,1.30125
63677213745998,5,0,0.40085,2.04755,4.08852,0.2242,0.65209,0.23081,0.57934,1.30067
63677213746031,5,0,0.39903,2.04908,4.0938,0.22354,0.6537,0.23013,0.58046,1.29824
63677213746064,5,0,0.39967,2.04623,4.08828,0.22235,0.65022,0.22969,0.57894,1.29788
63677213746080,5,0,0.39687,2.04503,4.09274,0.22282,0.6507,0.22848,0.57915,1.29493
63677213746114,5,0,0.39993,2.04576,4.08038,0.22159,0.65078,0.22799,0.57967,1.29398
63677213746147,5,0,0.399,2.0459,4.10042,0.22168,0.64859,0.2276,0.57839,1.29332
63677213746180,5,0,0.39884,2.04486,4.0789,0.22207,0.64942,0.22825,0.57914,1.29156
63677213746197,5,0,0.399,2.04555,4.10551,0.22247,0.64888,0.22833,0.57582,1.29214
63677213746247,5,0,0.4013,2.04432,4.09927,0.22184,0.64873,0.22755,0.57315,1.28978
63677213746280,5,0,0.39691,2.04047,4.07239,0.22115,0.64762,0.22735,0.57225,1.28674
63677213746312,5,0,0.39913,2.04418,4.09375,0.22059,0.64723,0.22792,0.57158,1.28771
63677213746379,5,0,0.39881,2.0357,4.07908,0.22048,0.64335,0.22714,0.57181,1.28061
63677213746412,5,0,0.39768,2.03831,4.08776,0.2219,0.6424,0.22584,0.5725,1.27894
63677213746445,5,0,0.39225,2.03439,4.09036,0.22393,0.64081,0.22651,0.57329,1.27501
63677213746478,5,0,0.39384,2.02567,4.08589,0.22464,0.63866,0.22608,0.57322,1.27469
63677213746494,5,0,0.38969,2.02377,4.08231,0.2253,0.63758,0.22587,0.57231,1.27065
63677213746544,5,0,0.38924,2.01379,4.08143,0.22584,0.63565,0.22476,0.57187,1.27051
63677213746561,5,0,0.38675,2.01192,4.07246,0.2264,0.63543,0.2249,0.5687,1.26434
63677213746594,5,0,0.38792,2.00463,4.0625,0.2229,0.63118,0.22455,0.5682,1.25737
63677213746643,5,0,0.38776,1.99971,4.07633,0.22031,0.62909,0.22351,0.56678,1.25363
63677213746660,5,0,0.38734,2.00036,4.05548,0.21725,0.62687,0.22284,0.56607,1.24652
63677213746694,5,0,0.3876,1.99673,4.07699,0.21561,0.62493,0.22219,0.56693,1.24449
63677213746726,5,0,0.3866,1.99859,4.07695,0.20808,0.62189,0.22048,0.56485,1.23763
63677213746760,5,0,0.3857,2.00093,4.05343,0.20403,0.61995,0.2201,0.5655,1.23467
63677213746777,5,0,0.38516,1.9973,4.06565,0.19955,0.62008,0.21862,0.5648,1.23178
63677213746826,5,0,0.38315,1.99239,4.05537,0.1986,0.61783,0.21831,0.56385,1.22696
63677213746843,5,0,0.38246,1.99116,4.05094,0.19693,0.61729,0.21843,0.56252,1.22767
63677213746858,5,0,0.37901,1.98634,4.0497,0.19475,0.61817,0.21842,0.5628,1.22257
63677213746891,5,0,0.37849,1.98291,4.05414,0.19554,0.61655,0.21873,0.56278,1.22239
63677213746925,5,0,0.37946,1.98367,4.04587,0.19551,0.61631,0.21815,0.56256,1.21928
63677213746941,5,0,0.37911,1.97883,4.05604,0.19473,0.6151,0.21761,0.56102,1.2187
63677213746975,5,0,0.37919,1.98097,4.04381,0.19562,0.61542,0.21898,0.5613,1.21655
63677213747025,5,0,0.37349,1.96953,4.04004,0.19763,0.61507,0.21735,0.56139,1.21366
63677213747058,5,0,0.37559,1.96748,4.04738,0.19723,0.6153,0.21772,0.56201,1.21555
63677213747091,5,0,0.37808,1.96809,4.04199,0.19824,0.61443,0.21818,0.56219,1.2137
63677213747124,5,0,0.37676,1.96833,4.03807,0.19808,0.61355,0.21843,0.56191,1.21165
63677213747140,5,0,0.37805,1.97054,4.04061,0.19965,0.6136,0.21826,0.56201,1.21269
63677213747174,5,0,0.378,1.96984,4.04684,0.20092,0.61218,0.21676,0.56308,1.20991
63677213747207,5,0,0.38396,1.97711,4.04054,0.19814,0.61298,0.21737,0.56195,1.20965
63677213747224,5,0,0.38601,1.98375,4.05046,0.19475,0.61045,0.21777,0.56044,1.20997
63677213747256,5,0,0.38684,1.98465,4.0377,0.19599,0.61007,0.21531,0.56168,1.20924
63677213747273,5,0,0.38556,1.98763,4.05166,0.19684,0.60942,0.21502,0.5619,1.21033
63677213747306,5,0,0.38451,1.98635,4.03845,0.19638,0.60959,0.21376,0.56163,1.21063
63677213747339,5,0,0.38801,1.98921,4.05233,0.19649,0.60873,0.21381,0.56186,1.21004
63677213747356,5,0,0.38784,1.98984,4.05467,0.19466,0.60816,0.21417,0.56138,1.20873
63677213747406,5,0,0.38445,1.98622,4.04929,0.19473,0.60744,0.2132,0.56114,1.20642
63677213747423,5,0,0.38391,1.99045,4.0627,0.19639,0.60704,0.21416,0.56219,1.20596
63677213747439,5,0,0.38169,1.98417,4.05951,0.1943,0.60733,0.21497,0.55961,1.20411
63677213747472,5,0,0.38047,1.98694,4.06244,0.19209,0.60672,0.21576,0.55968,1.20322
63677213747505,5,0,0.38073,1.98247,4.06085,0.19203,0.60619,0.21539,0.55673,1.20192
63677213747522,5,0,0.37956,1.9848,4.05862,0.19378,0.60533,0.21466,0.55882,1.20109
63677213747555,5,0,0.37893,1.97864,4.05601,0.19652,0.60392,0.21276,0.55618,1.20107
63677213747572,5,0,0.37868,1.97803,4.05085,0.19895,0.6035,0.21289,0.55765,1.19913
63677213747604,5,0,0.37683,1.96895,4.05606,0.20288,0.60261,0.21204,0.55805,1.19997
63677213747638,5,0,0.37574,1.96565,4.05308,0.21079,0.60255,0.21106,0.55814,1.19821
63677213747688,5,0,0.37367,1.96243,4.0511,0.21968,0.60218,0.21136,0.56075,1.19521
63677213747720,5,0,0.37018,1.96384,4.04182,0.2211,0.60284,0.21296,0.55906,1.1933
63677213747753,5,0,0.36916,1.96613,4.0518,0.22402,0.60328,0.21305,0.56,1.19287
63677213747786,5,0,0.36897,1.96925,4.03804,0.22364,0.6033,0.21239,0.55905,1.19129
63677213747803,5,0,0.36953,1.97117,4.04411,0.21995,0.60304,0.21262,0.55879,1.18969
63677213747836,5,0,0.37045,1.97557,4.02986,0.21695,0.60182,0.21122,0.55794,1.19298
63677213747853,5,0,0.36724,1.97081,4.03595,0.21936,0.60215,0.21117,0.5593,1.19136
63677213747886,5,0,0.36761,1.97625,4.03027,0.22138,0.6022,0.21045,0.55822,1.19291
63677213747903,5,0,0.37237,1.97702,4.03377,0.22274,0.6013,0.20922,0.55933,1.19312
63677213747936,5,0,0.36989,1.97362,4.03555,0.22135,0.60232,0.21044,0.55891,1.1905
63677213747986,5,0,0.36846,1.97777,4.04179,0.22401,0.60219,0.21097,0.55888,1.19247
63677213748002,5,0,0.36764,1.97803,4.03072,0.23018,0.60282,0.21093,0.56069,1.19034
63677213748018,5,0,0.36806,1.97683,4.04672,0.23269,0.60276,0.21203,0.56048,1.19267
63677213748052,5,0,0.37108,1.98022,4.02989,0.23221,0.60251,0.21164,0.56013,1.19147
63677213748085,5,0,0.37153,1.97874,4.04297,0.23101,0.60195,0.21004,0.55795,1.19212
63677213748102,5,0,0.37139,1.9813,4.02999,0.23363,0.60088,0.20943,0.55825,1.18813
63677213748135,5,0,0.37045,1.98332,4.04168,0.23319,0.60136,0.20947,0.55747,1.19049
63677213748152,5,0,0.37169,1.98452,4.03111,0.23444,0.60011,0.20834,0.55748,1.1899
63677213748184,5,0,0.37047,1.98183,4.03795,0.23438,0.59837,0.20713,0.55519,1.19099
63677213748217,5,0,0.37287,1.99206,4.04683,0.23455,0.59943,0.20641,0.5547,1.19018
63677213748234,5,0,0.37242,1.98804,4.04752,0.23471,0.59809,0.20689,0.55401,1.18984
63677213748267,5,0,0.37193,1.9916,4.04832,0.23529,0.59916,0.20779,0.55452,1.18861
63677213748300,5,0,0.36985,1.98794,4.04893,0.2326,0.59862,0.20869,0.55186,1.19016
63677213748317,5,0,0.3718,1.99427,4.0451,0.23356,0.6002,0.20935,0.55238,1.1891
63677213748366,5,0,0.37236,1.98839,4.04608,0.23465,0.59774,0.20796,0.55297,1.18908
63677213748383,5,0,0.37288,1.9955,4.03991,0.23733,0.59936,0.2091,0.555,1.18755
63677213748417,5,0,0.37281,1.99072,4.04825,0.23611,0.59899,0.20864,0.55398,1.19019
63677213748433,5,0,0.37151,1.99249,4.03523,0.23957,0.59997,0.21012,0.55485,1.18961
63677213748466,5,0,0.37486,1.99928,4.03427,0.24484,0.59958,0.20987,0.55506,1.19153
63677213748515,5,0,0.37073,1.99547,4.03223,0.25048,0.59831,0.20828,0.55711,1.19005
63677213748566,5,0,0.37222,1.99869,4.02784,0.25325,0.5976,0.20859,0.5543,1.19087
63677213748599,5,0,0.37002,1.99926,4.03638,0.25387,0.59852,0.20874,0.5553,1.18691
63677213748632,5,0,0.37264,1.99699,4.02811,0.25355,0.59822,0.20792,0.55516,1.19173
63677213748665,5,0,0.36494,1.99328,4.03661,0.25435,0.5983,0.20758,0.55618,1.18758
63677213748682,5,0,0.3645,1.99321,4.03078,0.25307,0.59769,0.2065,0.55703,1.18888
63677213748715,5,0,0.36792,1.99183,4.0325,0.25138,0.5987,0.20668,0.55871,1.19018
63677213748732,5,0,0.37157,1.99362,4.0343,0.24727,0.59844,0.20658,0.55854,1.1933
63677213748763,5,0,0.37414,1.9938,4.04727,0.24605,0.59814,0.20654,0.55834,1.19772
63677213748797,5,0,0.37654,1.99112,4.03624,0.24407,0.59856,0.20579,0.55842,1.19744
63677213748814,5,0,0.37367,1.9911,4.0513,0.24134,0.59776,0.2056,0.557,1.19535
63677213748847,5,0,0.37863,1.99243,4.03649,0.23969,0.59706,0.20491,0.5582,1.19407
63677213748880,5,0,0.38088,1.99424,4.052,0.23919,0.59821,0.20538,0.55597,1.19924
63677213748897,5,0,0.3766,1.99576,4.04319,0.23595,0.59769,0.20498,0.55428,1.19566
63677213748947,5,0,0.37623,1.99757,4.05727,0.23426,0.5984,0.20485,0.55469,1.19809
63677213748963,5,0,0.37668,1.99624,4.04538,0.23434,0.59817,0.20425,0.5539,1.19648
63677213748980,5,0,0.37542,1.99792,4.05585,0.24134,0.59655,0.20373,0.55343,1.19529
63677213749012,5,0,0.37805,2.00444,4.06027,0.24244,0.59873,0.20341,0.55436,1.19735
63677213749046,5,0,0.37749,2.00229,4.06218,0.24392,0.59805,0.20386,0.5532,1.19717
63677213749063,5,0,0.37906,2.00464,4.06126,0.24507,0.59918,0.2052,0.55264,1.2
63677213749096,5,0,0.37878,2.00143,4.06041,0.24835,0.59799,0.20481,0.55239,1.1994
63677213749145,5,0,0.38335,2.0064,4.06114,0.25136,0.59715,0.20433,0.55418,1.20422
63677213749179,5,0,0.38822,2.00912,4.0462,0.25027,0.59977,0.206,0.55535,1.20605
63677213749211,5,0,0.38607,2.00654,4.0548,0.25237,0.599,0.20617,0.55598,1.21011
63677213749244,5,0,0.38729,2.01001,4.04677,0.25649,0.60082,0.20736,0.55634,1.21145
63677213749261,5,0,0.38957,2.0147,4.0446,0.25782,0.6025,0.20768,0.55892,1.21787
63677213749295,5,0,0.38684,2.01412,4.05732,0.25482,0.60248,0.20732,0.56017,1.21953
63677213749344,5,0,0.38575,2.01597,4.07236,0.26106,0.6067,0.20928,0.56154,1.2266
63677213749377,5,0,0.38308,2.0189,4.06604,0.26044,0.60752,0.20823,0.56102,1.22815
63677213749427,5,0,0.38254,2.02356,4.06617,0.25242,0.60894,0.20951,0.56139,1.23624
63677213749460,5,0,0.38003,2.02571,4.07378,0.24896,0.60931,0.20908,0.56132,1.23487
63677213749494,5,0,0.37403,2.02335,4.0749,0.24687,0.60996,0.20884,0.5625,1.2387
63677213749527,5,0,0.3817,2.02748,4.07503,0.23835,0.61207,0.21,0.56468,1.25009
63677213749543,5,0,0.38448,2.03082,4.05981,0.22935,0.61209,0.2104,0.56495,1.25126
63677213749576,5,0,0.38258,2.02866,4.07227,0.22915,0.61247,0.21064,0.56635,1.25608
63677213749592,5,0,0.38146,2.02633,4.05449,0.22788,0.61548,0.2121,0.56611,1.25635
63677213749626,5,0,0.38061,2.02234,4.07261,0.23038,0.61483,0.21182,0.56741,1.25738
63677213749658,5,0,0.38101,2.02209,4.06142,0.22965,0.61528,0.21212,0.56728,1.25966
63677213749675,5,0,0.3897,2.02842,4.07738,0.22841,0.61656,0.21231,0.56668,1.26438
63677213749725,5,0,0.39223,2.02663,4.0704,0.2312,0.61657,0.21286,0.5651,1.26362
63677213749742,5,0,0.38774,2.02715,4.08326,0.23502,0.61746,0.213,0.56578,1.2605
63677213749758,5,0,0.39048,2.02408,4.08541,0.23432,0.6192,0.21397,0.56406,1.26097
63677213749791,5,0,0.3905,2.02507,4.09315,0.23722,0.61768,0.21204,0.56291,1.26023
63677213749825,5,0,0.39439,2.02823,4.08908,0.23323,0.61916,0.21262,0.56359,1.2682
63677213749842,5,0,0.3949,2.0281,4.08731,0.23252,0.61941,0.2124,0.56248,1.26815
63677213749875,5,0,0.3956,2.02524,4.08276,0.23949,0.61973,0.21334,0.56444,1.2688
63677213749908,5,0,0.38507,2.02373,4.08212,0.24345,0.61859,0.21367,0.56123,1.26691
63677213749924,5,0,0.3898,2.02881,4.07452,0.24374,0.6189,0.21271,0.56137,1.27096
63677213749957,5,0,0.38751,2.03124,4.08086,0.23987,0.61677,0.21361,0.56166,1.27587
63677213750007,5,0,0.39074,2.02694,4.08072,0.25559,0.6152,0.21491,0.56409,1.28698
63677213750040,5,0,0.39143,2.03687,4.08925,0.27106,0.61596,0.2145,0.56618,1.29081
63677213750073,5,0,0.38647,2.03239,4.07606,0.27523,0.61854,0.21447,0.56726,1.28919
63677213750106,5,0,0.39663,2.04165,4.08966,0.28738,0.61912,0.21585,0.57056,1.2998
63677213750122,5,0,0.39546,2.04011,4.07434,0.30573,0.62032,0.21702,0.56962,1.29829
63677213750156,5,0,0.39528,2.04179,4.08342,0.32278,0.62139,0.21654,0.5689,1.29699
63677213750172,5,0,0.39981,2.04736,4.06369,0.33094,0.62143,0.21673,0.5686,1.30157
63677213750206,5,0,0.39214,2.04589,4.07319,0.33845,0.6202,0.21374,0.56731,1.29508
63677213750239,5,0,0.38928,2.03468,4.05291,0.34541,0.61897,0.2129,0.56913,1.29336
63677213750256,5,0,0.38705,2.03623,4.06476,0.35149,0.62041,0.21496,0.56464,1.28728
63677213750305,5,0,0.39045,2.02049,4.06978,0.34642,0.615,0.2111,0.56412,1.2859
63677213750338,5,0,0.3933,2.02765,4.07952,0.34748,0.616,0.21166,0.56483,1.28702
63677213750371,5,0,0.39615,2.0274,4.08168,0.34216,0.61384,0.21078,0.56516,1.28704
