63675905737786,0,0,2.74747,2.49538,0.82641,0.27118,0.19074,0.32303,3.27803,2.09445
63675905737835,0,0,2.83629,2.5198,0.89779,0.28655,0.19088,0.31701,3.2345,2.10781
63675905737869,0,0,2.64137,2.41617,0.8558,0.28777,0.18284,0.30128,3.15765,2.25529
63675905737902,0,0,2.69281,2.44631,0.83761,0.29465,0.18737,0.3112,3.11482,2.27137
63675905737935,0,0,2.80076,2.42792,0.81645,0.28652,0.19087,0.32835,3.08338,2.33483
63675905737952,0,0,2.90658,2.45232,0.81967,0.26038,0.19573,0.33686,3.23067,2.35637
63675905737968,0,0,2.86096,2.31483,0.80877,0.2522,0.17973,0.3236,3.35209,2.25052
63675905738002,0,0,2.91793,2.36043,0.79481,0.25153,0.17786,0.31749,3.36139,2.28474
63675905738034,0,0,2.74004,2.20118,0.73119,0.22705,0.16698,0.29814,3.39806,2.19286
63675905738051,0,0,2.81473,2.2117,0.72645,0.21359,0.16291,0.29335,3.36379,2.00966
63675905738068,0,0,2.8319,2.27499,0.72018,0.20835,0.16334,0.29572,3.30057,1.92959
63675905738101,0,0,2.66289,2.27752,0.72475,0.20505,0.15508,0.28102,3.2948,1.81022
63675905738135,0,0,2.76912,2.46088,0.775,0.22495,0.17182,0.30758,3.25092,1.76601
63675905738151,0,0,2.69678,2.46388,0.7235,0.20682,0.16309,0.29857,3.11172,1.76072
63675905738184,0,0,2.77904,2.28697,0.71646,0.20196,0.16382,0.30573,3.0797,1.74484
63675905738216,0,0,2.84115,2.33904,0.73386,0.21626,0.17336,0.3215,3.1245,1.78615
63675905738233,0,0,2.70634,2.33567,0.80906,0.23972,0.18676,0.34001,3.13539,1.8152
63675905738250,0,0,2.59534,2.1671,0.76261,0.22759,0.17516,0.33035,3.16795,1.85068
63675905738283,0,0,2.66948,2.19708,0.78606,0.22952,0.17307,0.33174,3.27081,1.80764
63675905738316,0,0,2.55304,1.95158,0.76434,0.21227,0.1522,0.30198,3.29969,1.80448
63675905738333,0,0,2.60936,1.83078,0.76576,0.20556,0.14273,0.28868,3.30063,1.79083
63675905738366,0,0,2.66645,1.88782,0.7948,0.21154,0.14415,0.29907,3.267,1.71005
63675905738383,0,0,2.50316,1.97117,0.75818,0.19901,0.13729,0.28015,3.30558,1.64086
63675905738416,0,0,2.50613,1.97087,0.67111,0.16396,0.1238,0.26628,3.18345,1.52999
63675905738433,0,0,2.55486,2.02984,0.69066,0.16942,0.12688,0.2569,3.08736,1.47616
63675905738465,0,0,2.53378,2.01658,0.67443,0.16694,0.12795,0.26005,2.94113,1.43571
63675905738481,0,0,2.466,2.04203,0.66554,0.16784,0.13275,0.26296,2.92169,1.39594
63675905738515,0,0,2.3802,2.03724,0.64218,0.16618,0.13522,0.2644,2.85956,1.37417
63675905738565,0,0,2.30138,2.15408,0.69621,0.18308,0.14493,0.26152,2.80663,1.43672
63675905738614,0,0,2.34166,2.31194,0.73575,0.19273,0.14621,0.26919,2.77787,1.46551
63675905738631,0,0,2.55364,2.37795,0.77747,0.21369,0.16256,0.29632,2.70911,1.50121
63675905738648,0,0,2.59502,2.36859,0.81184,0.2281,0.17545,0.31224,2.57453,1.67584
63675905738681,0,0,2.71589,2.39494,0.79252,0.22498,0.18061,0.33109,2.62939,1.6938
63675905738714,0,0,2.80155,2.50229,0.82375,0.23277,0.17983,0.33161,2.5539,1.82602
63675905738731,0,0,2.91827,2.48302,0.82128,0.23667,0.18295,0.34272,2.55593,1.86578
63675905738764,0,0,3.08007,2.44318,0.80592,0.2279,0.17498,0.3241,2.56152,1.87394
63675905738813,0,0,3.09014,2.30707,0.74332,0.21447,0.1713,0.31317,2.54728,1.99075
63675905738847,0,0,3.13194,2.297,0.72256,0.20734,0.1579,0.28855,2.54195,2.13141
63675905738863,0,0,3.10201,2.34221,0.73669,0.20902,0.15492,0.27666,2.48152,2.15702
63675905738896,0,0,2.98409,2.27953,0.68795,0.1966,0.13646,0.23984,2.24989,2.37204
63675905738929,0,0,3.01546,2.37906,0.661,0.19256,0.13825,0.23619,2.21653,2.41718
63675905738963,0,0,2.70952,2.36475,0.65198,0.18682,0.13276,0.22575,2.11774,2.55852
63675905738996,0,0,2.47949,2.37838,0.66925,0.18048,0.12324,0.20597,2.09246,2.56392
63675905739029,0,0,2.30933,2.28624,0.62484,0.16793,0.12075,0.20165,2.13281,2.42028
63675905739046,0,0,2.44238,2.25748,0.61205,0.16334,0.11897,0.19718,2.17032,2.42708
63675905739095,0,0,2.32814,2.29368,0.58775,0.15819,0.12257,0.20884,2.21558,2.27483
63675905739112,0,0,2.22987,2.23581,0.69245,0.1792,0.13204,0.22268,2.23024,1.89217
63675905739145,0,0,2.19896,2.38449,0.65276,0.178,0.13101,0.2212,2.30306,1.81099
63675905739162,0,0,2.22856,2.33009,0.66708,0.18116,0.12561,0.21553,2.18495,1.67128
63675905739211,0,0,2.37248,2.2903,0.63907,0.17625,0.12412,0.21592,2.175,1.47476
63675905739227,0,0,2.27048,2.22085,0.6355,0.17845,0.12367,0.21915,2.16219,1.41921
63675905739277,0,0,2.3213,2.2045,0.666,0.1918,0.13397,0.23356,2.11372,1.46214
63675905739294,0,0,2.32061,2.26852,0.67859,0.19138,0.13539,0.24419,2.28291,1.48463
63675905739326,0,0,2.39176,2.28551,0.69044,0.19369,0.14526,0.26435,2.20752,1.42321
63675905739343,0,0,2.5756,2.2003,0.75778,0.20534,0.15408,0.27939,2.11583,1.3998
63675905739394,0,0,2.61364,2.36461,0.80648,0.21717,0.17071,0.30925,2.03998,1.42003
63675905739410,0,0,2.7288,2.57687,0.82403,0.22174,0.17779,0.31886,2.08659,1.39998
63675905739442,0,0,2.61102,2.57054,0.86627,0.2348,0.18403,0.32715,2.02307,1.40616
63675905739475,0,0,2.6927,2.57612,0.84382,0.22733,0.17751,0.32058,2.15005,1.3867
63675905739492,0,0,2.68948,2.7023,0.79655,0.22326,0.17449,0.31037,2.12623,1.34524
63675905739525,0,0,2.65862,2.7364,0.80965,0.2286,0.17508,0.30692,2.22717,1.48314
63675905739575,0,0,2.52026,2.5982,0.82259,0.23294,0.18306,0.31926,2.45101,1.60455
63675905739592,0,0,2.62101,2.5651,0.76134,0.21698,0.17427,0.31287,2.48491,1.68505
63675905739624,0,0,2.5382,2.53245,0.79088,0.22351,0.17124,0.31435,2.49342,1.78754
63675905739674,0,0,2.53429,2.4464,0.77287,0.21056,0.1643,0.30163,2.43137,2.01376
63675905739708,0,0,2.54822,2.21362,0.73274,0.19316,0.15879,0.29197,2.28222,2.17129
63675905739741,0,0,2.49129,2.28638,0.72507,0.18943,0.15582,0.28915,2.30811,2.24912
63675905739774,0,0,2.52522,2.35028,0.71401,0.18203,0.15275,0.28414,2.29598,2.41948
63675905739791,0,0,2.34849,2.36806,0.71923,0.19503,0.15859,0.28478,2.3628,2.52311
63675905739840,0,0,2.38795,2.37002,0.67948,0.18607,0.15681,0.27354,2.43557,2.67661
63675905739873,0,0,2.42628,2.56274,0.69436,0.19102,0.15534,0.27476,2.5879,2.86568
63675905739890,0,0,2.42121,2.55397,0.71081,0.19514,0.15606,0.27468,2.6324,2.81951
63675905739923,0,0,2.46548,2.53085,0.76471,0.21185,0.16838,0.30382,2.77211,2.80065
63675905739956,0,0,2.43965,2.4346,0.77461,0.20926,0.16464,0.2939,2.82729,2.94053
63675905739989,0,0,2.59871,2.4962,0.7446,0.20605,0.15536,0.28323,2.92891,2.90324
63675905740023,0,0,2.63263,2.48501,0.7669,0.20772,0.15492,0.2867,2.91913,2.76317
63675905740055,0,0,2.72594,2.39781,0.70484,0.1959,0.15363,0.29046,2.97291,2.71439
63675905740072,0,0,2.76127,2.34307,0.72367,0.19011,0.14788,0.27851,2.99245,2.56677
63675905740105,0,0,2.58839,2.21583,0.68321,0.17667,0.13834,0.24926,3.20709,2.85211
63675905740155,0,0,2.68837,2.2049,0.64973,0.18414,0.1347,0.23216,3.17021,2.8123
63675905740172,0,0,2.71361,2.26491,0.68969,0.18577,0.13727,0.24025,3.21685,2.76773
63675905740205,0,0,2.72827,2.15473,0.70391,0.18534,0.13701,0.24951,3.274,2.95692
63675905740254,0,0,2.80898,1.99215,0.71262,0.21616,0.15093,0.27805,3.35168,3.18926
63675905740270,0,0,2.7122,2.2313,0.80975,0.23875,0.16461,0.29566,3.34148,3.30523
63675905740287,0,0,2.69122,2.30651,0.80472,0.2368,0.15773,0.28821,3.35995,3.1543
63675905740354,0,0,2.88252,2.22782,0.85286,0.24555,0.17096,0.32792,3.60242,3.14897
63675905740386,0,0,2.86396,2.25786,0.84955,0.26395,0.18087,0.33626,3.66628,2.98856
63675905740421,0,0,2.78164,2.25855,0.8106,0.25859,0.17188,0.30469,3.81071,3.07042
63675905740454,0,0,2.69893,2.24229,0.80896,0.23057,0.16338,0.29992,3.77236,2.9482
63675905740470,0,0,2.73087,2.08793,0.71729,0.21822,0.16327,0.30242,3.79295,2.92337
63675905740535,0,0,2.63184,2.12882,0.67925,0.21091,0.17053,0.31457,3.80455,3.15586
63675905740568,0,0,2.74269,2.11434,0.6323,0.18727,0.16182,0.29887,3.80991,3.01636
63675905740602,0,0,2.84641,2.25053,0.65569,0.17989,0.16579,0.30216,3.82162,3.02352
63675905740635,0,0,2.87324,2.38859,0.72764,0.18743,0.17267,0.32317,3.79092,2.91008
63675905740669,0,0,2.79955,2.34964,0.73284,0.18531,0.16342,0.30612,3.87299,2.7794
63675905740685,0,0,2.78429,2.36614,0.71822,0.17612,0.14737,0.27268,3.88295,2.6047
63675905740735,0,0,2.74012,2.32876,0.71891,0.17172,0.14133,0.26075,3.81712,2.51183
63675905740752,0,0,2.83606,2.34147,0.68471,0.16494,0.14111,0.2628,3.84874,2.52024
63675905740784,0,0,2.90146,2.37162,0.8031,0.21448,0.17548,0.31348,3.8622,2.50025
63675905740834,0,0,2.86515,2.26497,0.74263,0.2049,0.17303,0.30486,3.90199,2.52803
63675905740851,0,0,2.95549,2.34409,0.78888,0.23358,0.18818,0.3278,3.95169,2.49094
63675905740883,0,0,2.98481,2.33538,0.7867,0.22998,0.1821,0.31878,3.88158,2.4336
63675905740933,0,0,2.96031,2.32891,0.79839,0.23863,0.18751,0.33466,3.90723,2.29392
63675905740950,0,0,2.7954,2.28288,0.81684,0.24722,0.18592,0.32942,3.93815,2.24684
63675905740967,0,0,2.65658,2.25298,0.7263,0.22932,0.16875,0.31215,3.91007,2.24861
63675905741017,0,0,2.47578,2.18607,0.63311,0.19217,0.14247,0.2716,3.89058,2.22693
63675905741033,0,0,2.50529,2.08018,0.62906,0.1739,0.13715,0.25458,3.87255,2.17743
63675905741066,0,0,2.45461,2.1911,0.65261,0.18823,0.1498,0.2725,3.92532,2.23637
63675905741116,0,0,2.44178,2.30227,0.66548,0.19465,0.15364,0.27155,3.94068,2.28876
63675905741133,0,0,2.41462,2.18052,0.61946,0.18771,0.15012,0.26604,3.91556,2.34593
63675905741165,0,0,2.71572,2.181,0.68355,0.20348,0.17124,0.29513,3.87068,2.34639
63675905741215,0,0,2.75716,2.11009,0.71957,0.20966,0.17757,0.30069,3.88452,2.29637
63675905741232,0,0,2.64091,2.1974,0.66476,0.20115,0.16426,0.27771,3.85361,2.32668
63675905741248,0,0,2.69945,2.27093,0.69132,0.20535,0.17007,0.29431,3.88383,2.30876
63675905741281,0,0,2.76219,2.06968,0.65132,0.19428,0.15516,0.27262,3.82879,2.21003
63675905741315,0,0,2.68404,2.16782,0.70126,0.19961,0.16129,0.27758,3.9085,2.19307
63675905741347,0,0,2.66642,2.14117,0.6706,0.19205,0.14982,0.26295,3.91471,2.17798
63675905741381,0,0,2.62286,2.11892,0.60535,0.17892,0.14421,0.26274,3.8798,2.14835
63675905741414,0,0,2.60162,2.05671,0.64221,0.17496,0.14403,0.2652,3.83232,2.12609
63675905741431,0,0,2.53535,2.10697,0.58828,0.1677,0.13776,0.25075,3.81492,2.13436
63675905741464,0,0,2.57043,2.29629,0.58009,0.17173,0.14885,0.27346,3.82633,2.18247
63675905741513,0,0,2.55058,2.18951,0.61003,0.18135,0.16043,0.30401,3.77598,2.18854
63675905741530,0,0,2.54487,2.18874,0.60348,0.18482,0.16222,0.31279,3.72528,2.19271
63675905741546,0,0,2.43169,2.14375,0.59257,0.18253,0.16156,0.30908,3.72483,2.2358
63675905741596,0,0,2.31223,2.12482,0.61007,0.19374,0.16682,0.32377,3.66368,2.27333
63675905741630,0,0,2.20142,1.9444,0.58696,0.19032,0.17115,0.33706,3.71403,2.49506
63675905741663,0,0,2.24751,1.80084,0.54208,0.17246,0.15094,0.29902,3.68505,2.54681
63675905741696,0,0,2.23917,1.93336,0.53435,0.16467,0.1426,0.27297,3.69592,2.70393
63675905741712,0,0,2.3605,1.84183,0.52662,0.16356,0.14017,0.26673,3.71106,2.8338
63675905741761,0,0,2.45267,1.89471,0.56711,0.17853,0.14519,0.25896,3.64191,3.15077
63675905741795,0,0,2.36177,1.86868,0.49063,0.15502,0.12836,0.22873,3.51199,3.11962
63675905741828,0,0,2.35794,1.92661,0.48354,0.15568,0.1287,0.23081,3.40907,3.08446
63675905741845,0,0,2.33379,2.00137,0.46524,0.15116,0.12608,0.2187,3.24061,3.18317
63675905741895,0,0,2.21578,2.10145,0.47979,0.15736,0.13271,0.22605,3.16269,3.24916
63675905741911,0,0,2.01661,2.00486,0.46393,0.14817,0.1223,0.21231,3.00023,3.07495
63675905741928,0,0,1.94975,1.96769,0.49992,0.14709,0.1196,0.20865,2.94422,3.02078
63675905741961,0,0,1.98684,1.959,0.47133,0.13054,0.1071,0.19154,2.86399,3.10974
63675905741994,0,0,2.00317,2.01362,0.4869,0.13388,0.10758,0.19405,2.81656,3.29159
63675905742027,0,0,2.00088,1.97968,0.46947,0.12814,0.10151,0.18239,2.70192,3.37866
63675905742044,0,0,2.12185,2.0632,0.49458,0.13727,0.1056,0.18447,2.71928,3.33066
63675905742077,0,0,2.17931,2.00322,0.49268,0.14048,0.10975,0.19935,2.6995,3.29954
63675905742111,0,0,2.14058,2.03014,0.50023,0.14318,0.10706,0.18687,2.61072,3.3272
63675905742126,0,0,2.20248,2.06015,0.49927,0.14719,0.10841,0.18494,2.50998,3.33684
63675905742175,0,0,2.32757,2.21329,0.54303,0.17367,0.13336,0.2396,2.52231,2.87146
63675905742192,0,0,2.51053,2.14492,0.58226,0.19468,0.14854,0.27029,2.38718,2.59207
63675905742209,0,0,2.53044,2.20136,0.65852,0.21926,0.16094,0.28876,2.44131,2.37627
63675905742242,0,0,2.52351,2.16816,0.678,0.22715,0.17332,0.32387,2.45186,2.14505
63675905742276,0,0,2.5932,2.15731,0.72565,0.24038,0.17917,0.3335,2.4621,2.042
63675905742293,0,0,2.67211,2.18887,0.7579,0.2531,0.1952,0.3709,2.46767,1.93183
63675905742326,0,0,2.69314,2.12876,0.74539,0.2465,0.1945,0.37641,2.42609,1.7409
63675905742374,0,0,2.75379,2.18901,0.75182,0.25533,0.20255,0.38643,2.33305,1.69281
63675905742408,0,0,2.59074,2.10381,0.6757,0.2058,0.17489,0.34674,2.37354,1.65226
63675905742441,0,0,2.37403,2.01591,0.61256,0.18506,0.15516,0.31256,2.38842,1.67651
63675905742474,0,0,2.08778,1.99461,0.56846,0.16635,0.14025,0.2754,2.23115,1.5104
63675905742491,0,0,1.93031,1.95602,0.50546,0.14538,0.1195,0.23591,2.1648,1.43122
63675905742524,0,0,1.93695,2.04975,0.54806,0.15393,0.12977,0.24546,2.31134,1.42466
63675905742541,0,0,1.78966,2.00196,0.5241,0.13709,0.11516,0.21653,2.25831,1.38749
63675905742573,0,0,1.91137,2.007,0.5232,0.13723,0.10991,0.20174,2.16307,1.33943
63675905742606,0,0,1.9929,1.98605,0.48784,0.13336,0.10482,0.18975,2.16914,1.33903
63675905742623,0,0,1.93821,1.94832,0.48939,0.13697,0.10474,0.17926,2.13088,1.32072
63675905742657,0,0,1.99888,2.01761,0.54034,0.14372,0.10918,0.18301,2.05179,1.25709
63675905742690,0,0,1.92021,1.91859,0.52921,0.13837,0.11063,0.20148,2.10585,1.30725
63675905742724,0,0,1.8845,1.91332,0.47705,0.13141,0.09993,0.18983,1.98128,1.37503
