63675905349546,0,0,1.16274,0.62602,1.51108,0.95913,0.50265,0.18962,3.57437,2.69964
63675905349596,0,0,1.21888,0.66362,1.57101,0.9094,0.48653,0.19429,3.5716,2.84459
63675905349630,0,0,1.10044,0.65936,1.50198,0.87193,0.48207,0.18686,3.57598,2.8064
63675905349646,0,0,1.088,0.66764,1.45975,0.84853,0.44011,0.18035,3.53015,2.90791
63675905349696,0,0,0.94766,0.63161,1.47879,0.63978,0.36311,0.14582,3.54733,2.81032
63675905349728,0,0,0.8947,0.61485,1.39635,0.53485,0.33804,0.13175,3.554,2.84676
63675905349745,0,0,0.98986,0.5884,1.42219,0.51959,0.34811,0.13278,3.47577,2.80539
63675905349795,0,0,0.96407,0.56174,1.37106,0.59995,0.37974,0.12789,3.45946,2.78851
63675905349812,0,0,1.00235,0.49763,1.31116,0.53734,0.35812,0.1135,3.45077,2.80377
63675905349828,0,0,0.91007,0.46197,1.20274,0.5012,0.35057,0.10494,3.49017,2.7778
63675905349861,0,0,0.90094,0.50285,1.05645,0.54214,0.36685,0.10534,3.48053,2.79831
63675905349895,0,0,0.89266,0.50161,1.1495,0.59797,0.37457,0.12093,3.49082,2.79718
63675905349911,0,0,0.90115,0.56907,1.16397,0.71047,0.37526,0.1213,3.46728,2.81012
63675905349927,0,0,0.84513,0.63899,1.13286,0.7011,0.3603,0.11393,3.54907,2.84477
63675905349960,0,0,0.79574,0.68501,1.18895,0.61042,0.34085,0.11028,3.55652,2.85454
63675905349994,0,0,0.84672,0.71947,1.19332,0.70146,0.36756,0.12533,3.49553,2.85804
63675905350010,0,0,0.94562,0.74258,1.28817,0.81011,0.43093,0.14646,3.56144,2.88278
63675905350044,0,0,0.97538,0.74454,1.38086,0.84315,0.45547,0.15801,3.5623,2.88806
63675905350061,0,0,0.9814,0.7716,1.32171,0.83522,0.46045,0.14884,3.60024,2.904
63675905350093,0,0,0.95765,0.75318,1.42665,0.76481,0.45338,0.14695,3.65034,2.87828
63675905350109,0,0,1.06259,0.72421,1.42645,0.81311,0.5316,0.1648,3.63224,2.90074
63675905350142,0,0,1.2206,0.70362,1.691,0.91599,0.59753,0.18074,3.55363,2.91489
63675905350176,0,0,1.15934,0.67828,1.80784,0.86625,0.53555,0.17093,3.60611,2.88789
63675905350192,0,0,1.10354,0.6299,1.77834,0.78534,0.49739,0.15686,3.56276,2.8507
63675905350225,0,0,1.14735,0.66023,1.79801,0.75084,0.46897,0.15409,3.53506,2.84786
63675905350242,0,0,1.17821,0.6074,1.91685,0.76857,0.48213,0.16602,3.51836,2.85629
63675905350275,0,0,1.12963,0.59941,1.91446,0.74994,0.47511,0.16304,3.50454,2.90584
63675905350292,0,0,0.98929,0.64262,1.83948,0.71406,0.42751,0.15405,3.58536,2.90062
63675905350324,0,0,0.90789,0.60631,1.71753,0.62999,0.35446,0.14593,3.59498,2.87648
63675905350375,0,0,0.95602,0.58078,1.68534,0.59884,0.35191,0.15298,3.55479,2.82401
63675905350391,0,0,1.08195,0.61603,1.74441,0.75049,0.45229,0.18112,3.56614,2.91029
63675905350408,0,0,1.06988,0.66415,1.73333,0.79486,0.47252,0.18375,3.59032,2.93846
63675905350441,0,0,1.00981,0.64894,1.68269,0.75752,0.4601,0.17008,3.58789,2.92617
63675905350474,0,0,1.03109,0.63386,1.63953,0.74584,0.45551,0.16765,3.56686,2.9031
63675905350491,0,0,1.06933,0.68507,1.75409,0.6877,0.43371,0.1627,3.536,2.89676
63675905350524,0,0,1.0165,0.72127,1.71419,0.6569,0.44058,0.16065,3.53782,2.90812
63675905350540,0,0,1.01945,0.72942,1.83299,0.67476,0.46517,0.15939,3.58713,2.92542
63675905350573,0,0,0.95307,0.78811,1.69577,0.58948,0.4142,0.14331,3.58043,2.91873
63675905350606,0,0,0.83017,0.77065,1.75402,0.61309,0.42134,0.14382,3.59374,2.91563
63675905350656,0,0,0.85398,0.78932,1.74682,0.63683,0.4202,0.15265,3.53897,2.88993
63675905350689,0,0,0.8411,0.68216,1.62019,0.64528,0.4022,0.14857,3.53431,2.91303
63675905350723,0,0,0.86234,0.6677,1.69013,0.66147,0.40807,0.15194,3.56262,2.91094
63675905350755,0,0,0.76274,0.65232,1.60743,0.66096,0.38963,0.15195,3.57314,2.91339
63675905350772,0,0,0.74922,0.64983,1.72468,0.67491,0.3939,0.16118,3.50707,2.92126
63675905350805,0,0,0.82195,0.69969,1.66338,0.67332,0.39227,0.16251,3.49202,2.95409
63675905350822,0,0,0.83798,0.71444,1.72129,0.69801,0.39893,0.1606,3.45709,2.9833
63675905350855,0,0,0.76091,0.68091,1.80985,0.74731,0.385,0.15486,3.47758,2.95978
63675905350888,0,0,0.74652,0.73974,1.675,0.75698,0.38709,0.14643,3.50388,2.98298
63675905350921,0,0,0.63925,0.71684,1.63861,0.72795,0.37679,0.13789,3.49895,2.95365
63675905350954,0,0,0.73399,0.72375,1.6723,0.70545,0.36556,0.12722,3.50703,2.93585
63675905350971,0,0,0.68375,0.6581,1.51088,0.64613,0.34097,0.11223,3.54685,2.9204
63675905351004,0,0,0.63978,0.65975,1.41801,0.58589,0.33429,0.11189,3.52885,2.89621
63675905351020,0,0,0.63783,0.68174,1.36863,0.53957,0.30787,0.11276,3.53233,2.87339
63675905351054,0,0,0.65543,0.70524,1.49046,0.5178,0.31496,0.1175,3.53652,2.91625
63675905351071,0,0,0.70209,0.65902,1.5147,0.53169,0.3335,0.12664,3.51126,2.9063
63675905351104,0,0,0.72908,0.68099,1.52453,0.5269,0.33742,0.13563,3.53677,2.91659
63675905351153,0,0,0.73067,0.7213,1.48193,0.56505,0.34238,0.13629,3.54418,2.91562
63675905351170,0,0,0.71123,0.72609,1.55156,0.59006,0.36318,0.15317,3.52059,2.9133
63675905351203,0,0,0.78319,0.68602,1.58449,0.59038,0.34758,0.15671,3.51073,2.92148
63675905351236,0,0,0.76115,0.67104,1.60465,0.64149,0.3784,0.15925,3.54074,2.91893
63675905351253,0,0,0.75367,0.64121,1.37377,0.59815,0.35789,0.15091,3.55755,2.90111
63675905351287,0,0,0.80531,0.64718,1.5016,0.60353,0.34034,0.16041,3.53807,2.88318
63675905351303,0,0,0.76377,0.62224,1.5702,0.59883,0.32965,0.14885,3.50626,2.86846
63675905351335,0,0,0.79411,0.60961,1.46744,0.57932,0.33319,0.15371,3.51338,2.86886
63675905351351,0,0,0.78263,0.61644,1.31923,0.56184,0.31461,0.14303,3.48166,2.88022
63675905351385,0,0,0.72186,0.58926,1.3928,0.58497,0.31024,0.14356,3.48523,2.86834
63675905351435,0,0,0.76967,0.64629,1.30757,0.59588,0.30741,0.14033,3.49993,2.87171
63675905351468,0,0,0.66864,0.62878,1.18239,0.53045,0.28907,0.12304,3.53099,2.8872
63675905351485,0,0,0.69236,0.71138,1.11974,0.58459,0.30972,0.12785,3.52628,2.89173
63675905351534,0,0,0.67359,0.70872,1.14505,0.59376,0.30507,0.12616,3.53518,2.9093
63675905351551,0,0,0.61635,0.69649,1.15605,0.57406,0.30492,0.12011,3.56871,2.89555
63675905351568,0,0,0.66116,0.69631,0.99092,0.55183,0.31779,0.12341,3.58009,2.90866
63675905351601,0,0,0.59951,0.66016,1.00795,0.59798,0.3189,0.12014,3.56594,2.90905
63675905351634,0,0,0.6557,0.66944,1.04946,0.55893,0.29845,0.12293,3.577,2.88682
63675905351651,0,0,0.6731,0.62637,1.17297,0.53375,0.29081,0.11506,3.57421,2.92231
63675905351684,0,0,0.71303,0.58953,1.23777,0.50849,0.27348,0.11687,3.53468,2.97183
63675905351733,0,0,0.75087,0.63006,1.32224,0.47736,0.27729,0.12577,3.49757,2.93556
63675905351766,0,0,0.70827,0.67832,1.46754,0.47924,0.26495,0.1281,3.48761,2.91307
63675905351816,0,0,0.68101,0.71826,1.42207,0.43841,0.26011,0.12325,3.52774,2.95833
63675905351883,0,0,0.69667,0.62601,1.29458,0.41051,0.27271,0.13427,3.49489,2.95583
63675905351915,0,0,0.7058,0.63775,1.32027,0.39512,0.27864,0.12724,3.54484,2.89829
63675905351932,0,0,0.8217,0.6543,1.32087,0.40346,0.28122,0.12778,3.526,2.93822
63675905351966,0,0,0.84262,0.631,1.3642,0.4529,0.30122,0.13635,3.55343,2.96576
63675905352015,0,0,0.95269,0.58433,1.43234,0.50893,0.36061,0.15076,3.5072,2.9375
63675905352049,0,0,0.93252,0.60084,1.39705,0.50999,0.3646,0.15027,3.53895,2.93078
63675905352081,0,0,0.95273,0.69273,1.46453,0.51485,0.35734,0.15005,3.53611,2.91772
63675905352114,0,0,0.93942,0.71614,1.42908,0.51663,0.36307,0.15632,3.51319,2.9167
63675905352131,0,0,0.8123,0.68325,1.50978,0.55242,0.38612,0.16334,3.52036,2.9294
63675905352164,0,0,0.79945,0.67929,1.45525,0.56762,0.39627,0.16966,3.54602,2.93678
63675905352180,0,0,0.69474,0.61908,1.36363,0.48491,0.34241,0.14593,3.56041,2.93014
63675905352214,0,0,0.70666,0.62406,1.45406,0.46677,0.30975,0.14847,3.544,2.93652
63675905352230,0,0,0.64492,0.66385,1.53235,0.47319,0.31572,0.14493,3.57134,2.93775
63675905352263,0,0,0.60785,0.56402,1.50394,0.47882,0.32719,0.14582,3.54272,2.93283
63675905352296,0,0,0.61974,0.55024,1.53819,0.48567,0.33774,0.1593,3.49522,2.92784
63675905352330,0,0,0.6667,0.5681,1.5167,0.44718,0.31374,0.15206,3.49253,2.95009
63675905352346,0,0,0.72556,0.58201,1.63696,0.50389,0.31977,0.14637,3.53816,2.94383
63675905352395,0,0,0.70772,0.57729,1.57639,0.50522,0.3315,0.14298,3.57266,2.94796
63675905352412,0,0,0.78104,0.61664,1.61753,0.51937,0.34225,0.14496,3.51144,2.96626
63675905352429,0,0,0.88054,0.58565,1.44772,0.53096,0.34146,0.14202,3.50946,2.96394
63675905352462,0,0,0.92595,0.62868,1.49114,0.56151,0.33681,0.14613,3.52945,2.97042
63675905352495,0,0,0.98235,0.63664,1.53947,0.56261,0.32734,0.1293,3.5662,2.98726
63675905352512,0,0,0.93217,0.62814,1.44158,0.54617,0.3241,0.1284,3.58556,2.9621
63675905352545,0,0,0.92505,0.66246,1.36916,0.50551,0.30534,0.12841,3.5307,2.95921
63675905352594,0,0,0.91633,0.67029,1.3258,0.48355,0.28033,0.1263,3.55773,2.94719
63675905352628,0,0,0.89029,0.67663,1.4309,0.48234,0.29546,0.13015,3.50759,2.93947
63675905352661,0,0,0.85181,0.67824,1.4166,0.51697,0.30275,0.12973,3.52959,2.97339
63675905352695,0,0,0.80858,0.67113,1.34675,0.49933,0.28848,0.12063,3.51232,2.96943
63675905352711,0,0,0.74862,0.65981,1.45747,0.5239,0.2905,0.12291,3.52086,2.96095
63675905352744,0,0,0.69522,0.60318,1.3874,0.48202,0.29837,0.1216,3.54678,2.96035
63675905352760,0,0,0.71569,0.61737,1.44637,0.4538,0.29006,0.11559,3.51377,2.95835
63675905352793,0,0,0.73211,0.64045,1.38774,0.46051,0.30702,0.11896,3.50946,2.96601
63675905352827,0,0,0.68874,0.64005,1.36556,0.41221,0.27266,0.11047,3.54663,2.96657
63675905352843,0,0,0.65745,0.66858,1.34469,0.38066,0.24835,0.1057,3.55077,2.96818
63675905352876,0,0,0.71064,0.66167,1.40366,0.4019,0.25933,0.10754,3.59407,2.98637
63675905352910,0,0,0.75559,0.63567,1.27104,0.38958,0.25206,0.10112,3.54152,2.97983
63675905352926,0,0,0.78336,0.6058,1.29506,0.39606,0.2426,0.09542,3.53971,2.9953
63675905352976,0,0,0.84525,0.66654,1.2615,0.44993,0.23205,0.09176,3.55288,3.00171
63675905352993,0,0,0.78342,0.62049,1.21629,0.509,0.27984,0.0981,3.56644,3.00252
63675905353009,0,0,0.80146,0.63669,1.1807,0.53746,0.30203,0.10471,3.54056,3.00994
63675905353042,0,0,0.85065,0.59544,1.19905,0.53156,0.30666,0.1118,3.48439,3.0116
63675905353076,0,0,0.8813,0.61199,1.15275,0.49043,0.30383,0.11729,3.49808,3.00637
63675905353108,0,0,0.85107,0.6597,1.17855,0.47621,0.30513,0.12411,3.51911,3.01494
63675905353141,0,0,0.7263,0.57052,1.1086,0.46401,0.33107,0.13871,3.47056,3.00848
63675905353174,0,0,0.68096,0.60557,1.2922,0.4297,0.31406,0.13965,3.50177,3.02654
63675905353191,0,0,0.69599,0.60673,1.2734,0.38167,0.26017,0.13425,3.47923,3.02399
63675905353224,0,0,0.69473,0.59053,1.28259,0.37288,0.26004,0.13063,3.53719,3.02662
63675905353273,0,0,0.68406,0.65138,1.25803,0.39629,0.27123,0.1258,3.56771,3.03048
63675905353290,0,0,0.65403,0.63705,1.45828,0.45484,0.3084,0.12617,3.54147,3.04009
63675905353323,0,0,0.69458,0.72901,1.52611,0.46862,0.31042,0.11772,3.53322,3.04339
63675905353373,0,0,0.7118,0.76128,1.50036,0.43916,0.31155,0.11769,3.59959,3.02837
63675905353390,0,0,0.74379,0.80946,1.39495,0.51207,0.37432,0.12642,3.62768,3.04499
63675905353423,0,0,0.77865,0.83289,1.36188,0.54455,0.38825,0.13759,3.61615,3.02429
63675905353457,0,0,0.76034,0.7859,1.40509,0.52201,0.36697,0.13332,3.61626,3.04028
63675905353473,0,0,0.74242,0.79369,1.40828,0.4909,0.3188,0.12282,3.62383,3.03213
63675905353506,0,0,0.7587,0.78269,1.30319,0.4659,0.32863,0.12609,3.63093,3.03206
63675905353555,0,0,0.75846,0.73498,1.39551,0.49911,0.32867,0.13081,3.63767,3.05352
63675905353572,0,0,0.82303,0.67846,1.44923,0.51268,0.31172,0.13279,3.63278,3.06356
63675905353589,0,0,0.75734,0.70054,1.51048,0.49749,0.30443,0.1252,3.65004,3.0644
63675905353622,0,0,0.76206,0.67057,1.57844,0.46706,0.27429,0.11519,3.6223,3.09739
63675905353655,0,0,0.78813,0.64204,1.56856,0.48941,0.28513,0.12191,3.64672,3.07475
63675905353688,0,0,0.80109,0.61859,1.67805,0.55445,0.32112,0.14185,3.69621,3.07528
63675905353722,0,0,0.77142,0.60735,1.60277,0.50946,0.3203,0.14029,3.69677,3.08238
63675905353771,0,0,0.80252,0.60458,1.52748,0.50883,0.3143,0.1422,3.68246,3.08243
63675905353788,0,0,0.74707,0.54692,1.42566,0.4531,0.30042,0.13826,3.75432,3.04115
63675905353821,0,0,0.78857,0.61791,1.42118,0.46075,0.30902,0.14103,3.76094,3.04323
63675905353854,0,0,0.77273,0.60112,1.35399,0.4343,0.30176,0.1364,3.74472,3.05565
63675905353870,0,0,0.78432,0.59299,1.34995,0.40707,0.28195,0.13227,3.71569,3.10584
63675905353937,0,0,0.88205,0.62258,1.43623,0.41057,0.30194,0.1335,3.74904,3.17408
63675905353969,0,0,0.95627,0.62173,1.54811,0.40386,0.31241,0.1328,3.73157,3.1518
63675905354003,0,0,0.99153,0.71283,1.47995,0.39584,0.31011,0.14094,3.68182,3.12592
63675905354036,0,0,0.92859,0.66934,1.45205,0.43116,0.33962,0.14607,3.73338,3.22253
63675905354069,0,0,0.90632,0.76155,1.56904,0.42495,0.33208,0.15036,3.78322,3.10473
63675905354086,0,0,0.83247,0.7689,1.54515,0.43248,0.31478,0.13036,3.74464,3.22561
63675905354136,0,0,0.70364,0.73102,1.49826,0.42556,0.29918,0.12413,3.73634,3.03727
63675905354152,0,0,0.70957,0.74073,1.36617,0.41889,0.29786,0.12851,3.73779,3.09354
63675905354186,0,0,0.61547,0.77514,1.242,0.43781,0.30678,0.12934,3.76631,3.02838
63675905354235,0,0,0.63105,0.72013,1.3285,0.44161,0.30003,0.12515,3.74798,3.00902
63675905354251,0,0,0.66404,0.70996,1.28399,0.42599,0.29138,0.12722,3.76315,2.96675
63675905354284,0,0,0.62674,0.7427,1.27231,0.43876,0.31971,0.12936,3.77799,3.08812
63675905354334,0,0,0.76703,0.71167,1.28287,0.4295,0.30203,0.14092,3.72373,3.13145
63675905354384,0,0,0.80303,0.66874,1.29011,0.42982,0.28764,0.13365,3.66011,3.18936
63675905354401,0,0,0.74928,0.67178,1.3003,0.4241,0.2944,0.12743,3.62385,3.24129
63675905354434,0,0,0.7548,0.62751,1.26661,0.43618,0.3057,0.13258,3.64417,3.23015
63675905354466,0,0,0.81923,0.52919,1.34805,0.4536,0.28764,0.11998,3.53021,3.30454
63675905354516,0,0,0.88351,0.59862,1.29128,0.47852,0.29331,0.11259,3.55217,3.38936
63675905354550,0,0,0.90169,0.55325,1.41142,0.48536,0.31867,0.11179,3.57939,3.36131
63675905354583,0,0,0.9411,0.55117,1.4668,0.47449,0.29876,0.12559,3.57574,3.32515
63675905354632,0,0,0.98076,0.55112,1.38155,0.44421,0.31193,0.12509,3.58688,3.33255
63675905354649,0,0,0.89883,0.62735,1.40882,0.42606,0.31606,0.12755,3.63315,3.293
63675905354715,0,0,0.85485,0.70305,1.2341,0.43328,0.31795,0.1215,3.68049,3.24566
63675905354731,0,0,0.75142,0.69854,1.32387,0.41012,0.31968,0.12965,3.71569,3.15188
63675905354748,0,0,0.82205,0.72848,1.35844,0.39949,0.3112,0.1647,3.73139,3.11769
63675905354782,0,0,0.82993,0.76825,1.38003,0.3915,0.33005,0.16357,3.73707,3.18954
63675905354815,0,0,0.82479,0.80402,1.36265,0.41918,0.34069,0.1621,3.78206,3.20716
63675905354847,0,0,0.82041,0.72217,1.2669,0.4797,0.35692,0.16759,3.75267,3.1706
63675905354864,0,0,0.82259,0.75533,1.3327,0.48693,0.36368,0.18305,3.74785,3.04115
63675905354914,0,0,0.7883,0.69598,1.43292,0.55089,0.38937,0.19461,3.75903,3.05416
63675905354931,0,0,0.7823,0.70425,1.3472,0.52683,0.37802,0.18418,3.72495,3.09318
63675905354964,0,0,0.67921,0.69882,1.269,0.53289,0.33971,0.13812,3.75815,3.01816
63675905355013,0,0,0.65239,0.72048,1.36616,0.48793,0.33451,0.14341,3.7625,3.00527
63675905355030,0,0,0.72313,0.73503,1.41834,0.46026,0.30222,0.14708,3.77841,2.98148
63675905355046,0,0,0.65492,0.76998,1.47324,0.42126,0.27873,0.14342,3.69601,2.97299
63675905355096,0,0,0.69773,0.75345,1.43808,0.4092,0.29129,0.12869,3.68128,3.12408
63675905355112,0,0,0.71315,0.71563,1.44015,0.3633,0.30037,0.13243,3.70262,3.06304
63675905355146,0,0,0.73854,0.67553,1.43216,0.3463,0.31533,0.14612,3.69914,3.01792
63675905355196,0,0,0.80817,0.72033,1.4199,0.34837,0.30759,0.14398,3.69085,3.09517
63675905355211,0,0,0.87587,0.71461,1.2975,0.34073,0.3053,0.1417,3.66078,3.11703
63675905355245,0,0,0.83387,0.71104,1.28531,0.38779,0.34338,0.13835,3.75672,3.10556
63675905355262,0,0,0.84949,0.7401,1.33928,0.35266,0.32708,0.14693,3.78213,3.05388
63675905355295,0,0,0.85259,0.81314,1.32548,0.35763,0.36931,0.15512,3.78823,3.10529
63675905355328,0,0,0.79947,0.81337,1.35781,0.35927,0.36076,0.16007,3.7788,3.14124
63675905355361,0,0,0.7537,0.74274,1.40827,0.41898,0.39978,0.17618,3.82535,3.14987
63675905355395,0,0,0.75112,0.68065,1.43853,0.45618,0.40551,0.17798,3.82997,3.20319
63675905355427,0,0,0.81772,0.65115,1.48113,0.44413,0.40128,0.18194,3.80878,3.2532
63675905355460,0,0,0.88615,0.68934,1.5413,0.40527,0.39671,0.18883,3.80032,3.24793
63675905355494,0,0,0.83549,0.70132,1.42896,0.44602,0.40442,0.17668,3.78131,3.2757
63675905355526,0,0,0.86425,0.57855,1.43027,0.41518,0.35244,0.16275,3.78079,3.29441
63675905355577,0,0,0.922,0.63302,1.44442,0.39714,0.32925,0.13901,3.73374,3.27578
63675905355609,0,0,0.79563,0.68467,1.39207,0.41877,0.33221,0.14042,3.75555,3.19467
63675905355643,0,0,0.77602,0.67592,1.29768,0.44445,0.33242,0.14055,3.69855,3.22093
63675905355676,0,0,0.8026,0.65224,1.40759,0.42993,0.30816,0.14155,3.71997,3.20428
63675905355710,0,0,0.84946,0.66346,1.42028,0.48487,0.36144,0.15184,3.75316,3.19913
63675905355726,0,0,0.83648,0.68898,1.38747,0.54199,0.37886,0.16093,3.7577,3.26363
63675905355775,0,0,0.80348,0.61546,1.1622,0.51186,0.35972,0.16563,3.72577,3.25918
63675905355792,0,0,0.8613,0.6473,1.20846,0.54445,0.42217,0.19329,3.7514,3.3071
63675905355808,0,0,0.90819,0.64386,1.18827,0.48635,0.38446,0.18309,3.78856,3.28509
63675905355842,0,0,0.92077,0.6241,1.15772,0.47718,0.37396,0.17659,3.8148,3.28784
63675905355875,0,0,0.86453,0.61408,1.15066,0.45687,0.37692,0.18069,3.84809,3.28919
63675905355892,0,0,0.8163,0.62574,1.07772,0.39189,0.33642,0.17576,3.81357,3.236
63675905355925,0,0,0.88183,0.67427,1.0144,0.35911,0.31154,0.15248,3.76428,3.09324
63675905355975,0,0,0.77344,0.71119,1.20796,0.37874,0.3338,0.16589,3.7485,3.00383
63675905356007,0,0,0.82139,0.67282,1.2138,0.33243,0.27854,0.14419,3.68486,2.92134
63675905356040,0,0,0.84922,0.71779,1.27818,0.35814,0.28603,0.14348,3.5675,2.78385
63675905356073,0,0,0.86761,0.72059,1.26465,0.36142,0.30931,0.14704,3.50854,2.80095
63675905356090,0,0,0.85602,0.77116,1.30345,0.37909,0.32159,0.14615,3.50601,2.84133
63675905356123,0,0,0.8921,0.76496,1.34914,0.38034,0.32589,0.15219,3.49808,2.85353
63675905356157,0,0,0.8658,0.78753,1.3711,0.38083,0.29898,0.14921,3.49239,2.83699
63675905356173,0,0,0.9668,0.77984,1.28365,0.37056,0.29667,0.1319,3.49751,2.89738
63675905356207,0,0,0.91532,0.80834,1.32818,0.41979,0.32094,0.13178,3.50628,2.92842
63675905356223,0,0,0.81861,0.82409,1.31478,0.46654,0.3689,0.14532,3.56226,2.96779
63675905356256,0,0,0.77511,0.79736,1.27686,0.47411,0.37468,0.1441,3.54676,3.0111
63675905356289,0,0,0.8137,0.74893,1.27345,0.46978,0.33188,0.14426,3.55359,2.9489
63675905356306,0,0,0.7465,0.73334,1.36036,0.49205,0.35102,0.14701,3.59478,2.96704
63675905356356,0,0,0.75129,0.72498,1.25912,0.4622,0.35542,0.14955,3.63092,2.97927
63675905356372,0,0,0.79012,0.7542,1.28119,0.455,0.34622,0.15211,3.62013,3.0061
63675905356388,0,0,0.74475,0.70669,1.19503,0.42984,0.32477,0.14961,3.63972,3.01836
63675905356422,0,0,0.76939,0.66145,1.14921,0.37885,0.27934,0.13416,3.67198,3.06647
63675905356455,0,0,0.83161,0.69422,1.16632,0.3708,0.28055,0.13743,3.73779,3.10054
63675905356471,0,0,0.83066,0.71628,1.19201,0.36663,0.26965,0.12381,3.70527,3.11204
63675905356504,0,0,0.83713,0.73669,1.15611,0.34705,0.27172,0.12206,3.7329,3.19099
63675905356554,0,0,0.83557,0.7281,1.16924,0.38039,0.28155,0.13196,3.74795,3.30641
63675905356587,0,0,0.84747,0.76852,1.19135,0.37827,0.29274,0.13478,3.76546,3.33678
63675905356620,0,0,0.83972,0.73927,1.1418,0.33505,0.29125,0.13626,3.82169,3.32837
63675905356653,0,0,0.8788,0.69687,1.11347,0.36219,0.30995,0.13326,3.81468,3.34898
63675905356669,0,0,0.84884,0.65225,1.08952,0.37374,0.32011,0.14287,3.88918,3.38394
63675905356703,0,0,0.85517,0.60307,1.20621,0.42032,0.34244,0.16298,3.919,3.32855
63675905356736,0,0,0.85792,0.6095,1.16385,0.38402,0.32764,0.16113,3.97277,3.3388
63675905356753,0,0,0.86564,0.65502,1.20409,0.4079,0.31773,0.15356,4.0001,3.37226
63675905356786,0,0,0.79491,0.72395,1.16809,0.43676,0.31665,0.15364,4.13648,3.45211
63675905356836,0,0,0.72318,0.73925,1.23295,0.45913,0.31409,0.15469,4.1836,3.5343
63675905356869,0,0,0.69874,0.7476,1.25149,0.50036,0.33583,0.15785,4.24525,3.56012
63675905356886,0,0,0.82476,0.75117,1.15012,0.49237,0.33849,0.14249,4.27048,3.61768
63675905356935,0,0,0.83244,0.79208,1.25086,0.52443,0.35575,0.13951,4.30721,3.61621
63675905356952,0,0,0.86815,0.7782,1.19608,0.52823,0.3647,0.14561,4.33595,3.66687
63675905356985,0,0,0.86838,0.79777,1.1541,0.53118,0.38827,0.1518,4.34203,3.65969
63675905357002,0,0,0.90109,0.75012,1.31179,0.53426,0.40906,0.16396,4.35213,3.6614
63675905357035,0,0,0.90482,0.77506,1.29169,0.51429,0.37854,0.1582,4.38779,3.66627
63675905357067,0,0,0.9106,0.80893,1.2639,0.47544,0.34908,0.15152,4.4014,3.70413
63675905357084,0,0,0.80736,0.78761,1.31865,0.45902,0.32402,0.148,4.41023,3.71278
63675905357134,0,0,0.76948,0.75508,1.27069,0.41577,0.309,0.14526,4.43571,3.73564
63675905357150,0,0,0.78676,0.7474,1.37528,0.40924,0.30587,0.14025,4.41202,3.723
63675905357167,0,0,0.76234,0.70484,1.33461,0.3526,0.26347,0.12399,4.44701,3.76166
63675905357217,0,0,0.75633,0.6956,1.18883,0.33551,0.229,0.1083,4.45171,3.79436
63675905357233,0,0,0.82767,0.81428,1.26544,0.34974,0.21993,0.1116,4.44668,3.80511
63675905357250,0,0,0.77052,0.78993,1.23857,0.32421,0.22173,0.11136,4.44726,3.8157
63675905357283,0,0,0.75937,0.74354,1.31247,0.32294,0.21781,0.11096,4.44029,3.79123
63675905357316,0,0,0.76002,0.72078,1.20312,0.32562,0.21515,0.11387,4.46682,3.78916
63675905357333,0,0,0.75455,0.76307,1.19181,0.313,0.20835,0.10846,4.4691,3.78624
63675905357366,0,0,0.82883,0.72843,1.19278,0.33108,0.21429,0.11543,4.45168,3.78997
63675905357416,0,0,0.72128,0.70845,1.1575,0.36263,0.21834,0.10964,4.44623,3.75825
63675905357448,0,0,0.77751,0.70196,1.10513,0.35812,0.22107,0.11048,4.40881,3.74292
63675905357481,0,0,0.80947,0.719,1.02532,0.36282,0.2363,0.10714,4.36482,3.74727
63675905357514,0,0,0.78521,0.71364,1.05232,0.37849,0.2433,0.10849,4.36126,3.73563
63675905357532,0,0,0.80168,0.69887,0.9833,0.34306,0.24773,0.11263,4.31911,3.71902
63675905357564,0,0,0.6925,0.62871,0.93155,0.36424,0.25961,0.11353,4.30568,3.69394
63675905357581,0,0,0.73501,0.56859,1.00205,0.36807,0.26606,0.11523,4.24231,3.65803
63675905357615,0,0,0.72359,0.53626,0.96365,0.3546,0.25564,0.11361,4.20152,3.64357
63675905357648,0,0,0.69063,0.53933,1.01132,0.37963,0.25222,0.11047,4.19531,3.68584
63675905357665,0,0,0.72129,0.55414,1.04711,0.37433,0.23779,0.11893,4.16573,3.56857
63675905357714,0,0,0.7422,0.5683,1.07171,0.4011,0.24239,0.11811,4.08214,3.52397
63675905357731,0,0,0.74448,0.59721,1.13007,0.42453,0.2387,0.11708,4.03015,3.52473
63675905357764,0,0,0.71563,0.56451,1.20685,0.41351,0.23911,0.12352,3.96241,3.52004
63675905357781,0,0,0.66162,0.60621,1.27399,0.43363,0.2556,0.12955,3.87956,3.59433
63675905357813,0,0,0.66246,0.63522,1.26876,0.43892,0.27947,0.13761,3.73044,3.58161
63675905357830,0,0,0.70875,0.60719,1.29245,0.42897,0.28458,0.14718,3.71807,3.43657
63675905357862,0,0,0.67103,0.60395,1.30719,0.4373,0.30871,0.14571,3.69244,3.47389
63675905357896,0,0,0.68241,0.60064,1.26755,0.4091,0.29633,0.136,3.63958,3.40116
63675905357913,0,0,0.66622,0.59567,1.22281,0.40663,0.30733,0.14419,3.60188,3.40325
63675905357945,0,0,0.70788,0.63243,1.18422,0.40249,0.30324,0.14293,3.53781,3.4853
63675905357995,0,0,0.72213,0.5793,1.07295,0.35603,0.25763,0.12292,3.5033,3.27988
63675905358028,0,0,0.72389,0.60135,0.99012,0.37017,0.25734,0.1214,3.56453,3.28939
63675905358061,0,0,0.69415,0.64615,0.88655,0.33552,0.23171,0.1123,3.48524,3.23423
63675905358095,0,0,0.65979,0.65557,0.89197,0.37482,0.25878,0.11726,3.49769,3.39263
63675905358111,0,0,0.62892,0.63404,0.9444,0.3843,0.28814,0.12549,3.46051,3.28565
63675905358144,0,0,0.76496,0.67181,0.94405,0.37341,0.28328,0.12599,3.39917,3.10253
63675905358161,0,0,0.78494,0.69355,1.04693,0.3946,0.29184,0.12154,3.40231,2.99065
63675905358194,0,0,0.77394,0.67345,1.07109,0.39576,0.30297,0.11864,3.38238,3.05936
63675905358228,0,0,0.7475,0.66067,1.07956,0.36364,0.30207,0.12412,3.38664,3.03111
63675905358244,0,0,0.7563,0.64983,1.12302,0.37199,0.31611,0.13062,3.37267,3.10942
63675905358294,0,0,0.71408,0.60323,1.04544,0.37538,0.31181,0.12557,3.35036,3.07942
63675905358311,0,0,0.77364,0.60796,1.07278,0.35266,0.2941,0.11796,3.35048,2.92079
63675905358343,0,0,0.7008,0.58974,1.03559,0.33143,0.25403,0.10812,3.43484,2.96337
63675905358376,0,0,0.69012,0.5841,1.04819,0.34498,0.25404,0.10889,3.41257,2.93108
63675905358393,0,0,0.75027,0.6033,1.0754,0.35888,0.27199,0.11791,3.45256,2.94288
63675905358410,0,0,0.81596,0.58571,1.14574,0.37545,0.28189,0.116,3.42756,3.04521
63675905358443,0,0,0.81597,0.58482,1.24791,0.35813,0.26318,0.11148,3.39445,3.02685
63675905358476,0,0,0.86188,0.63413,1.26529,0.35628,0.25035,0.10705,3.47142,3.09326
63675905358492,0,0,0.84304,0.65686,1.23773,0.34965,0.25793,0.12236,3.47939,3.22656
63675905358526,0,0,0.82798,0.62735,1.21872,0.39548,0.27659,0.1275,3.49936,3.26456
63675905358575,0,0,0.78843,0.6104,1.35128,0.43591,0.25942,0.13515,3.51937,3.41074
63675905358608,0,0,0.7682,0.65705,1.41776,0.45115,0.26635,0.14137,3.54684,3.35426
63675905358641,0,0,0.77387,0.65079,1.34729,0.51799,0.30074,0.14328,3.52287,3.3926
63675905358675,0,0,0.79513,0.60669,1.46426,0.55764,0.32874,0.15448,3.51724,3.37428
63675905358691,0,0,0.81227,0.55928,1.4854,0.55624,0.31175,0.14996,3.55836,3.36049
63675905358724,0,0,0.75169,0.58212,1.49159,0.54208,0.31046,0.15453,3.56544,3.307
63675905358774,0,0,0.79108,0.61977,1.49199,0.54289,0.33717,0.1633,3.71487,3.27357
63675905358808,0,0,0.78452,0.68886,1.52618,0.56647,0.35311,0.16565,3.79727,3.27581
63675905358841,0,0,0.88866,0.65239,1.35049,0.57337,0.33688,0.17815,3.83652,3.28607
63675905358874,0,0,0.83831,0.68366,1.28228,0.54622,0.33293,0.17434,3.82714,3.30739
63675905358891,0,0,0.82054,0.74307,1.41196,0.57185,0.33704,0.18703,3.86884,3.29549
63675905358924,0,0,0.87114,0.74535,1.42754,0.57411,0.34762,0.18656,3.90944,3.40381
63675905358940,0,0,0.84913,0.78779,1.39834,0.62714,0.3577,0.19304,3.86964,3.44101
63675905358972,0,0,0.87967,0.84113,1.35663,0.6241,0.36212,0.19828,3.8975,3.42801
63675905359006,0,0,0.90286,0.77082,1.2264,0.60419,0.36915,0.20429,3.90276,3.51897
63675905359055,0,0,0.74378,0.79742,1.35907,0.53874,0.36235,0.18029,4.00674,3.63923
63675905359089,0,0,0.81892,0.84515,1.40046,0.58072,0.39384,0.19417,4.01011,3.76073
63675905359105,0,0,0.88796,0.82226,1.37944,0.52738,0.4067,0.17359,3.99548,3.74675
63675905359155,0,0,0.90912,0.77068,1.32866,0.47976,0.4184,0.15848,4.03634,3.78766
63675905359172,0,0,0.90812,0.69097,1.30298,0.47743,0.4436,0.15255,3.97327,3.84173
63675905359189,0,0,0.988,0.66013,1.39229,0.48268,0.46544,0.14734,3.92247,3.76743
63675905359221,0,0,0.99515,0.67937,1.36071,0.49471,0.51689,0.14828,3.94442,3.7254
63675905359255,0,0,1.00614,0.63277,1.42692,0.53505,0.51186,0.15802,3.99165,3.72798
63675905359272,0,0,0.94617,0.62249,1.47405,0.50602,0.48678,0.15347,3.97677,3.62985
63675905359305,0,0,0.90676,0.59939,1.42139,0.47032,0.4607,0.1568,4.01233,3.63482
63675905359353,0,0,0.92589,0.72043,1.57858,0.5609,0.41727,0.17814,4.13051,3.54152
63675905359387,0,0,0.80589,0.74979,1.50767,0.51509,0.36504,0.17159,4.18314,3.60741
63675905359436,0,0,0.84926,0.8292,1.51156,0.47673,0.29382,0.15963,4.18038,3.59347
63675905359469,0,0,0.84768,0.78721,1.4603,0.50446,0.31193,0.1557,4.23028,3.59322
