63675905326072,0,0,0.1471,0.17764,0.08998,0.15081,0.47164,0.29947,3.6296,3.88159
63675905326155,0,0,0.12315,0.11735,0.03771,0.06321,0.0753,0.07237,3.68032,3.4564
63675905326188,0,0,0.12635,0.11422,0.03068,0.05231,0.05511,0.06403,3.65832,3.35043
63675905326205,0,0,0.1418,0.11298,0.03151,0.0436,0.04056,0.05568,3.69321,3.21841
63675905326253,0,0,0.14367,0.12821,0.03024,0.04502,0.03766,0.03657,3.74741,3.41203
63675905326287,0,0,0.14318,0.12937,0.02932,0.04599,0.03884,0.03813,3.7889,3.56834
63675905326336,0,0,0.13454,0.11354,0.0312,0.04307,0.04364,0.03871,3.76966,3.50042
63675905326370,0,0,0.16323,0.126,0.0332,0.04228,0.04265,0.03773,3.79834,3.56637
63675905326403,0,0,0.16345,0.11818,0.0354,0.04169,0.04389,0.03886,3.78063,3.56376
63675905326435,0,0,0.16197,0.10611,0.03401,0.03996,0.04269,0.03991,3.73807,3.62975
63675905326452,0,0,0.15677,0.10378,0.03457,0.03768,0.04837,0.04884,3.74956,3.58584
63675905326486,0,0,0.16073,0.10009,0.0343,0.03676,0.05787,0.06271,3.74678,3.68292
63675905326535,0,0,0.1729,0.10503,0.03438,0.03985,0.08061,0.06863,3.707,3.67108
63675905326552,0,0,0.1363,0.09648,0.0337,0.03936,0.0804,0.07263,3.70761,3.86614
63675905326585,0,0,0.14407,0.09571,0.02909,0.03663,0.07672,0.0717,3.70241,3.77402
63675905326634,0,0,0.1646,0.09884,0.02877,0.03645,0.0723,0.07207,3.69369,3.63242
63675905326651,0,0,0.15866,0.09689,0.02698,0.03621,0.06248,0.06039,3.68624,3.45543
63675905326668,0,0,0.16839,0.09887,0.02685,0.03584,0.05129,0.04448,3.68287,3.23647
63675905326701,0,0,0.17004,0.0968,0.02601,0.03136,0.03033,0.04313,3.70064,2.99964
63675905326733,0,0,0.16919,0.10106,0.02359,0.03138,0.02039,0.03881,3.66474,3.01815
63675905326767,0,0,0.16697,0.09551,0.02372,0.03255,0.01955,0.03692,3.65506,2.62801
63675905326784,0,0,0.14545,0.09657,0.02108,0.03157,0.02129,0.03634,3.65975,2.63241
63675905326817,0,0,0.15053,0.098,0.02187,0.03048,0.02105,0.03586,3.65333,2.6513
63675905326850,0,0,0.14416,0.09962,0.02213,0.03129,0.021,0.03506,3.64552,2.70339
63675905326883,0,0,0.12188,0.09787,0.02088,0.03067,0.02005,0.03505,3.64181,2.71526
63675905326917,0,0,0.11769,0.09168,0.02165,0.03137,0.01756,0.03206,3.64729,2.60256
63675905326949,0,0,0.11979,0.09264,0.02148,0.03155,0.01677,0.03144,3.63844,2.52876
63675905326983,0,0,0.13729,0.09733,0.02196,0.03052,0.01598,0.03015,3.63528,2.5863
63675905327015,0,0,0.15492,0.10035,0.02423,0.03125,0.01397,0.03128,3.63079,2.57956
63675905327032,0,0,0.14783,0.09846,0.02259,0.03136,0.01413,0.03166,3.62295,2.55874
63675905327066,0,0,0.18183,0.11011,0.02402,0.03031,0.01335,0.03181,3.61287,2.53052
63675905327115,0,0,0.18795,0.10759,0.02469,0.02961,0.01355,0.03176,3.60622,2.51239
63675905327132,0,0,0.18112,0.10372,0.02455,0.02982,0.01448,0.03182,3.61517,2.49102
63675905327165,0,0,0.17458,0.10355,0.0254,0.02972,0.0151,0.03174,3.61168,2.4688
63675905327215,0,0,0.15215,0.11009,0.02658,0.03052,0.01518,0.03177,3.60033,2.60386
63675905327248,0,0,0.14405,0.10523,0.02687,0.03068,0.01701,0.03375,3.6048,2.68276
63675905327280,0,0,0.13529,0.10426,0.02729,0.03078,0.02064,0.03586,3.60075,2.70695
63675905327314,0,0,0.12236,0.11175,0.02567,0.02993,0.02146,0.0359,3.5993,2.70709
63675905327347,0,0,0.14074,0.11767,0.02664,0.02999,0.02083,0.03602,3.60609,2.71201
63675905327363,0,0,0.14854,0.11669,0.02901,0.02994,0.02115,0.03577,3.61855,2.72104
63675905327397,0,0,0.14348,0.10512,0.0285,0.02985,0.02113,0.03549,3.63056,2.70861
63675905327430,0,0,0.13427,0.10525,0.02673,0.03013,0.02058,0.03442,3.64386,2.60986
63675905327463,0,0,0.13226,0.11175,0.02633,0.03062,0.01667,0.03132,3.66032,2.50165
63675905327496,0,0,0.1902,0.10952,0.02625,0.02987,0.01471,0.03175,3.66122,2.48681
63675905327529,0,0,0.19698,0.11467,0.02589,0.03008,0.01406,0.03165,3.66718,2.49027
63675905327546,0,0,0.17912,0.10579,0.02526,0.03047,0.01426,0.03212,3.67224,2.49732
63675905327596,0,0,0.20475,0.11033,0.02402,0.0308,0.01405,0.03121,3.67661,2.48705
63675905327613,0,0,0.20813,0.11389,0.02335,0.03012,0.01679,0.03263,3.68197,2.49371
63675905327644,0,0,0.22683,0.11413,0.0228,0.02949,0.01726,0.03196,3.68581,2.45134
63675905327711,0,0,0.17148,0.11578,0.02363,0.02987,0.01872,0.03213,3.70407,2.41438
63675905327744,0,0,0.16485,0.1216,0.02312,0.02951,0.01901,0.03339,3.70686,2.45714
63675905327761,0,0,0.13423,0.11706,0.02224,0.02988,0.0233,0.04279,3.71832,2.5034
63675905327794,0,0,0.13321,0.11651,0.02298,0.03114,0.02796,0.05062,3.72671,2.54398
63675905327827,0,0,0.12999,0.11428,0.02335,0.03167,0.02774,0.05237,3.74586,2.53591
63675905327860,0,0,0.12458,0.11208,0.02276,0.03241,0.02858,0.05194,3.75143,2.60257
63675905327893,0,0,0.12088,0.11593,0.02177,0.03246,0.02811,0.05238,3.76199,2.60865
63675905327910,0,0,0.12739,0.10129,0.02118,0.03317,0.02728,0.05023,3.78179,2.63731
63675905327944,0,0,0.14898,0.10026,0.02169,0.03349,0.02758,0.04879,3.78617,2.5822
63675905327961,0,0,0.15141,0.10118,0.02118,0.03325,0.0228,0.04018,3.79006,2.53475
63675905327993,0,0,0.14721,0.09348,0.02118,0.03212,0.01807,0.03183,3.78467,2.49559
63675905328026,0,0,0.14916,0.09647,0.02075,0.03191,0.01624,0.02991,3.78351,2.50317
63675905328042,0,0,0.13415,0.08911,0.02246,0.03181,0.01446,0.03029,3.78931,2.48305
63675905328076,0,0,0.15988,0.09544,0.02485,0.03238,0.01494,0.03062,3.78925,2.49013
63675905328109,0,0,0.17279,0.1108,0.02508,0.03152,0.01475,0.03133,3.78338,2.48662
63675905328126,0,0,0.17188,0.11014,0.02503,0.03229,0.0153,0.03226,3.78688,2.49783
63675905328175,0,0,0.16436,0.11244,0.02374,0.03189,0.01521,0.03202,3.78914,2.51858
63675905328208,0,0,0.1646,0.11916,0.02488,0.03161,0.01554,0.03252,3.78545,2.5183
63675905328242,0,0,0.1724,0.1236,0.02321,0.03082,0.01571,0.03198,3.78529,2.52113
63675905328275,0,0,0.15091,0.11575,0.02194,0.03044,0.01575,0.03155,3.78838,2.51485
63675905328291,0,0,0.14567,0.1023,0.02126,0.03052,0.01473,0.03103,3.79383,2.51392
63675905328325,0,0,0.1513,0.10592,0.02195,0.03034,0.01478,0.03193,3.79151,2.51446
63675905328341,0,0,0.14422,0.107,0.02177,0.03021,0.01598,0.03239,3.79518,2.49402
63675905328374,0,0,0.15538,0.10304,0.02179,0.0299,0.01541,0.03218,3.80184,2.50336
63675905328407,0,0,0.15833,0.10504,0.02218,0.02905,0.01458,0.03268,3.80104,2.49409
63675905328424,0,0,0.15806,0.09855,0.02132,0.02961,0.01443,0.03152,3.80826,2.48491
63675905328474,0,0,0.15304,0.09266,0.02198,0.02907,0.01352,0.03233,3.81655,2.46401
63675905328490,0,0,0.14886,0.09585,0.02225,0.02881,0.0138,0.0318,3.82228,2.46103
63675905328506,0,0,0.16306,0.10549,0.02178,0.0284,0.01468,0.0312,3.83306,2.45436
63675905328556,0,0,0.1681,0.10253,0.02266,0.02877,0.0136,0.03014,3.84039,2.46408
63675905328572,0,0,0.15952,0.10522,0.02322,0.02941,0.01396,0.02945,3.84521,2.44687
63675905328590,0,0,0.16212,0.10425,0.02383,0.02988,0.01434,0.02899,3.8502,2.44699
63675905328622,0,0,0.16269,0.10536,0.02315,0.02878,0.01422,0.02958,3.84775,2.44974
63675905328672,0,0,0.16358,0.11226,0.02175,0.02993,0.01532,0.02849,3.853,2.45012
63675905328705,0,0,0.13488,0.09366,0.02577,0.03024,0.01406,0.02921,3.84501,2.45056
63675905328755,0,0,0.14157,0.09927,0.02417,0.02965,0.01437,0.03095,3.84416,2.45561
63675905328772,0,0,0.1339,0.09508,0.02545,0.02956,0.01444,0.03128,3.84557,2.46066
63675905328788,0,0,0.14846,0.10643,0.02586,0.02963,0.01388,0.03126,3.84582,2.46223
63675905328854,0,0,0.15083,0.10292,0.02683,0.03082,0.01437,0.0318,3.85034,2.46464
63675905328871,0,0,0.1505,0.10301,0.02833,0.03094,0.01499,0.03251,3.84925,2.47979
63675905328888,0,0,0.13911,0.10083,0.02836,0.03092,0.01455,0.03215,3.84916,2.48242
63675905328921,0,0,0.14201,0.10334,0.02803,0.0311,0.01449,0.03012,3.85322,2.4855
63675905328955,0,0,0.13459,0.0984,0.02559,0.03194,0.01401,0.02853,3.85657,2.49631
63675905328971,0,0,0.14445,0.10006,0.0244,0.03191,0.01475,0.03046,3.85797,2.50035
63675905329003,0,0,0.11732,0.08792,0.02383,0.0321,0.01667,0.03073,3.85669,2.49802
63675905329020,0,0,0.13251,0.09138,0.0242,0.03125,0.01747,0.03188,3.86184,2.49893
63675905329053,0,0,0.13111,0.0856,0.02397,0.03086,0.01796,0.03329,3.8552,2.49677
63675905329069,0,0,0.1381,0.08875,0.02374,0.03123,0.01767,0.03403,3.8436,2.48783
63675905329103,0,0,0.12195,0.08954,0.02315,0.03109,0.01828,0.0355,3.83553,2.49038
63675905329136,0,0,0.13331,0.08964,0.02353,0.03052,0.01903,0.03627,3.83109,2.50763
63675905329153,0,0,0.14854,0.08977,0.02449,0.03068,0.01949,0.03491,3.83024,2.5005
63675905329186,0,0,0.16282,0.09387,0.02481,0.03048,0.01922,0.03333,3.82063,2.49629
63675905329203,0,0,0.15184,0.09512,0.02425,0.03097,0.01652,0.03118,3.80873,2.49604
63675905329236,0,0,0.15229,0.09951,0.02519,0.0313,0.01575,0.02913,3.81193,2.4911
63675905329269,0,0,0.15086,0.10004,0.02599,0.03094,0.01629,0.0292,3.81517,2.51065
63675905329286,0,0,0.15945,0.1005,0.02517,0.03097,0.01631,0.02948,3.80836,2.51165
63675905329336,0,0,0.16041,0.10205,0.02435,0.0305,0.01533,0.02914,3.80533,2.50159
63675905329351,0,0,0.15153,0.10867,0.02296,0.03013,0.01536,0.03075,3.79628,2.49879
63675905329367,0,0,0.14603,0.10803,0.02209,0.03045,0.0149,0.03025,3.79459,2.50627
63675905329401,0,0,0.14189,0.10808,0.02289,0.03035,0.01542,0.03047,3.79783,2.50792
63675905329434,0,0,0.1465,0.106,0.02241,0.03022,0.01607,0.03007,3.78882,2.51165
63675905329451,0,0,0.15031,0.10859,0.02027,0.03047,0.01678,0.02979,3.77215,2.51752
63675905329484,0,0,0.15284,0.10509,0.02168,0.03099,0.01647,0.02942,3.76591,2.5155
63675905329534,0,0,0.14148,0.09478,0.02208,0.03154,0.01645,0.02847,3.76044,2.51713
63675905329567,0,0,0.1337,0.09688,0.02362,0.03129,0.0162,0.02916,3.75716,2.52298
63675905329617,0,0,0.14337,0.09772,0.02395,0.03165,0.01494,0.0277,3.76071,2.51532
63675905329650,0,0,0.14889,0.09495,0.02473,0.0316,0.01469,0.02697,3.76748,2.50224
63675905329683,0,0,0.16049,0.09598,0.02602,0.03094,0.01417,0.02677,3.76886,2.50093
63675905329716,0,0,0.16106,0.09982,0.02595,0.03009,0.01377,0.0274,3.77511,2.49743
63675905329732,0,0,0.17086,0.10675,0.02604,0.03069,0.01424,0.02691,3.77498,2.49175
63675905329765,0,0,0.16917,0.10156,0.02546,0.03081,0.01481,0.02553,3.77594,2.47594
63675905329816,0,0,0.17122,0.09892,0.02596,0.03041,0.0153,0.02413,3.77071,2.47589
63675905329832,0,0,0.15789,0.10061,0.02522,0.03011,0.01445,0.02435,3.76367,2.48275
63675905329865,0,0,0.15248,0.09854,0.02387,0.03014,0.0141,0.02461,3.76501,2.48732
63675905329882,0,0,0.16437,0.10495,0.02513,0.03073,0.01497,0.0263,3.7621,2.47579
63675905329915,0,0,0.16971,0.1017,0.02604,0.03056,0.01448,0.02624,3.76159,2.47055
63675905329948,0,0,0.16085,0.10314,0.02557,0.03034,0.01374,0.02567,3.75749,2.46659
63675905329981,0,0,0.16138,0.10761,0.02433,0.03054,0.01388,0.02682,3.75961,2.46076
63675905330014,0,0,0.16018,0.10909,0.02486,0.03128,0.01394,0.02845,3.76256,2.4456
63675905330047,0,0,0.16328,0.11139,0.02547,0.03185,0.01567,0.02995,3.76224,2.45705
63675905330064,0,0,0.14805,0.09871,0.02545,0.03158,0.01488,0.02957,3.76223,2.45406
63675905330114,0,0,0.15388,0.10238,0.02458,0.03165,0.01494,0.02819,3.75175,2.46245
63675905330131,0,0,0.14674,0.10745,0.02422,0.03193,0.0154,0.02784,3.75183,2.46401
63675905330164,0,0,0.14156,0.10776,0.0243,0.03218,0.01504,0.0287,3.74809,2.47016
63675905330197,0,0,0.13616,0.10674,0.02251,0.03094,0.0143,0.02888,3.7465,2.48305
63675905330230,0,0,0.13773,0.10845,0.0221,0.03107,0.01366,0.02815,3.74497,2.4706
63675905330262,0,0,0.14124,0.10478,0.02344,0.03165,0.01368,0.02739,3.74407,2.46607
63675905330296,0,0,0.11402,0.09965,0.02237,0.03113,0.01389,0.02762,3.75876,2.46434
63675905330313,0,0,0.12976,0.09914,0.0221,0.03116,0.01336,0.02824,3.75917,2.4608
63675905330346,0,0,0.13468,0.09341,0.024,0.03061,0.01242,0.02767,3.76858,2.46143
63675905330395,0,0,0.1386,0.09113,0.02435,0.0302,0.01373,0.02729,3.77141,2.4716
63675905330412,0,0,0.16285,0.08945,0.02576,0.03044,0.01488,0.02656,3.77891,2.48379
63675905330444,0,0,0.16539,0.09177,0.02478,0.02974,0.01852,0.02793,3.7857,2.55515
63675905330494,0,0,0.15837,0.09302,0.02447,0.02978,0.01969,0.02862,3.78369,2.54459
63675905330511,0,0,0.15784,0.09653,0.02372,0.02975,0.01984,0.02796,3.79065,2.54202
63675905330544,0,0,0.16001,0.09667,0.02291,0.03026,0.02132,0.02801,3.79922,2.53876
63675905330594,0,0,0.14809,0.09982,0.02255,0.0301,0.02053,0.02858,3.79679,2.53664
63675905330628,0,0,0.1342,0.10978,0.02165,0.0296,0.02014,0.02965,3.78999,2.50946
63675905330677,0,0,0.12943,0.10392,0.02192,0.03035,0.01569,0.02857,3.78449,2.47418
63675905330694,0,0,0.13104,0.10228,0.02175,0.03055,0.01526,0.02876,3.77785,2.47512
63675905330727,0,0,0.12039,0.10003,0.02149,0.03042,0.01483,0.02985,3.76527,2.47787
63675905330777,0,0,0.09822,0.09652,0.02196,0.03017,0.01508,0.0281,3.76791,2.48336
63675905330793,0,0,0.11385,0.09739,0.02259,0.03107,0.01515,0.02813,3.76865,2.4785
63675905330825,0,0,0.0918,0.08836,0.02391,0.03252,0.02461,0.0279,3.77037,2.49181
63675905330876,0,0,0.09227,0.0903,0.02402,0.032,0.02902,0.02741,3.77824,2.4899
63675905330892,0,0,0.0903,0.09542,0.02655,0.03181,0.02968,0.02695,3.78652,2.49572
63675905330926,0,0,0.08705,0.0958,0.02684,0.03214,0.02998,0.02618,3.78905,2.48334
63675905330975,0,0,0.11029,0.10295,0.02723,0.03203,0.02939,0.02686,3.7946,2.4801
63675905331009,0,0,0.10321,0.1004,0.02504,0.03015,0.01888,0.02569,3.79623,2.46612
63675905331042,0,0,0.1126,0.10122,0.02557,0.03002,0.01438,0.02572,3.79506,2.47297
63675905331075,0,0,0.11123,0.0921,0.02477,0.02921,0.01385,0.02597,3.79208,2.46707
63675905331108,0,0,0.11357,0.09527,0.0246,0.02851,0.01473,0.02583,3.79651,2.45465
63675905331141,0,0,0.12945,0.09905,0.0249,0.02897,0.01422,0.02646,3.80452,2.45321
63675905331174,0,0,0.11375,0.0941,0.02365,0.02865,0.01429,0.02567,3.80591,2.44698
63675905331190,0,0,0.11628,0.09096,0.02404,0.02862,0.0145,0.02543,3.81043,2.44702
63675905331223,0,0,0.12382,0.08894,0.0257,0.02828,0.01419,0.02663,3.81165,2.44383
63675905331256,0,0,0.1224,0.09331,0.02457,0.02829,0.01421,0.02763,3.81466,2.43496
63675905331290,0,0,0.12913,0.0936,0.02511,0.02902,0.01304,0.02764,3.81251,2.44335
63675905331323,0,0,0.12598,0.09201,0.02426,0.02962,0.01331,0.0277,3.80798,2.44567
63675905331356,0,0,0.12536,0.09219,0.02526,0.02909,0.01373,0.02765,3.80333,2.4468
63675905331389,0,0,0.11924,0.09194,0.02412,0.02979,0.0135,0.02836,3.79341,2.45688
63675905331422,0,0,0.11008,0.09764,0.02387,0.0311,0.01352,0.02707,3.78516,2.45633
63675905331456,0,0,0.10776,0.09527,0.02385,0.03161,0.01297,0.02544,3.78415,2.45975
63675905331472,0,0,0.10325,0.0935,0.02301,0.03132,0.01369,0.02567,3.78518,2.46281
63675905331505,0,0,0.08938,0.09422,0.02199,0.03183,0.01301,0.02493,3.786,2.45606
63675905331555,0,0,0.08688,0.09383,0.02242,0.03113,0.01287,0.02391,3.78054,2.46041
63675905331572,0,0,0.11064,0.10075,0.0219,0.03053,0.01246,0.02337,3.77906,2.46205
63675905331589,0,0,0.11059,0.10149,0.02112,0.02953,0.01204,0.02425,3.78408,2.45895
63675905331621,0,0,0.10634,0.09879,0.02068,0.02919,0.01275,0.02451,3.78762,2.45942
63675905331655,0,0,0.11369,0.09858,0.02098,0.02927,0.01353,0.02572,3.7818,2.45974
63675905331688,0,0,0.11199,0.0999,0.02085,0.02997,0.01296,0.02566,3.76545,2.45717
63675905331720,0,0,0.11388,0.10183,0.02126,0.03048,0.0128,0.02712,3.75816,2.46271
63675905331754,0,0,0.10906,0.10182,0.02193,0.03062,0.01244,0.02684,3.75899,2.46082
63675905331787,0,0,0.10384,0.09533,0.02286,0.03037,0.01286,0.02665,3.75445,2.46048
63675905331836,0,0,0.11325,0.09921,0.02321,0.0309,0.01289,0.02711,3.73709,2.46307
63675905331853,0,0,0.1036,0.09872,0.02269,0.03062,0.01246,0.02683,3.74386,2.45637
63675905331870,0,0,0.10806,0.09937,0.024,0.0305,0.01211,0.02647,3.7564,2.45602
63675905331902,0,0,0.11272,0.09603,0.02371,0.0304,0.0125,0.02667,3.76184,2.46006
63675905331936,0,0,0.11182,0.09593,0.02387,0.03032,0.01272,0.02635,3.76045,2.4606
63675905331969,0,0,0.09431,0.09436,0.02302,0.02972,0.01379,0.02597,3.76125,2.46595
63675905332002,0,0,0.10351,0.09211,0.02323,0.02987,0.01353,0.02509,3.76066,2.47799
63675905332035,0,0,0.0947,0.09233,0.02246,0.02971,0.01282,0.02508,3.76184,2.47939
63675905332069,0,0,0.08846,0.09122,0.02195,0.02993,0.01307,0.02487,3.76115,2.49054
63675905332085,0,0,0.09396,0.09329,0.02171,0.02948,0.01429,0.02513,3.745,2.51523
63675905332135,0,0,0.09621,0.09733,0.02062,0.02861,0.01406,0.02617,3.74205,2.51178
63675905332152,0,0,0.10476,0.09998,0.02014,0.02926,0.01388,0.02629,3.74408,2.51372
63675905332185,0,0,0.11266,0.10011,0.02012,0.02986,0.01349,0.0264,3.74307,2.51079
63675905332235,0,0,0.11397,0.09619,0.02278,0.02972,0.01364,0.02616,3.74073,2.49771
63675905332268,0,0,0.11754,0.09307,0.02191,0.02978,0.01313,0.02662,3.74637,2.48445
63675905332300,0,0,0.11201,0.09335,0.02222,0.03026,0.0126,0.02642,3.75121,2.48453
63675905332333,0,0,0.09976,0.08648,0.02394,0.03005,0.01344,0.02625,3.75035,2.4875
63675905332367,0,0,0.09798,0.08956,0.02394,0.03007,0.01319,0.02694,3.74057,2.48654
63675905332417,0,0,0.09058,0.08567,0.02407,0.02949,0.01305,0.02681,3.73783,2.49142
63675905332450,0,0,0.1048,0.08766,0.02257,0.03008,0.01404,0.02707,3.74697,2.47622
63675905332482,0,0,0.10831,0.09278,0.02281,0.02955,0.01411,0.0263,3.74754,2.46693
63675905332516,0,0,0.10067,0.09038,0.02167,0.03055,0.01441,0.02619,3.74689,2.46882
63675905332549,0,0,0.10342,0.09435,0.02107,0.03028,0.01506,0.02647,3.75171,2.46574
63675905332583,0,0,0.10601,0.09144,0.0215,0.03008,0.01502,0.0269,3.76615,2.46625
63675905332616,0,0,0.11412,0.09674,0.02152,0.0306,0.0153,0.02731,3.77094,2.46515
63675905332632,0,0,0.10571,0.10104,0.02127,0.03062,0.01453,0.02687,3.76766,2.50353
63675905332664,0,0,0.1032,0.09849,0.02106,0.0307,0.01547,0.02755,3.76693,2.50934
63675905332681,0,0,0.10431,0.10291,0.02069,0.03067,0.01502,0.02773,3.7694,2.49379
63675905332714,0,0,0.10914,0.10386,0.02132,0.03024,0.01411,0.02731,3.77045,2.48815
63675905332747,0,0,0.10198,0.09992,0.02209,0.03008,0.01307,0.027,3.7722,2.49315
63675905332764,0,0,0.10663,0.10206,0.02185,0.0301,0.014,0.02656,3.77375,2.49782
63675905332814,0,0,0.09983,0.10183,0.02153,0.03006,0.01411,0.02634,3.76989,2.49915
63675905332831,0,0,0.09574,0.10177,0.02101,0.02973,0.01485,0.02578,3.76837,2.47707
63675905332847,0,0,0.09508,0.10026,0.02176,0.02886,0.01495,0.0266,3.76544,2.47986
63675905332881,0,0,0.09599,0.10386,0.02221,0.02947,0.01403,0.02679,3.77497,2.47775
63675905332913,0,0,0.08717,0.0969,0.02218,0.0294,0.01591,0.02671,3.78848,2.50754
63675905332930,0,0,0.09187,0.09822,0.02135,0.02945,0.01541,0.02757,3.78993,2.5044
63675905332963,0,0,0.08744,0.09631,0.02151,0.02985,0.01566,0.02706,3.7997,2.50133
63675905332997,0,0,0.09522,0.09072,0.02222,0.02974,0.01584,0.02728,3.80773,2.49357
63675905333014,0,0,0.0954,0.09056,0.02189,0.02992,0.01484,0.02788,3.80896,2.49233
63675905333046,0,0,0.09013,0.08987,0.0214,0.0302,0.01475,0.02849,3.81212,2.49068
63675905333095,0,0,0.09058,0.08904,0.02023,0.02929,0.01335,0.02914,3.79012,2.49375
63675905333129,0,0,0.08941,0.08666,0.0209,0.02925,0.01304,0.02817,3.78624,2.50194
63675905333162,0,0,0.09231,0.08447,0.02194,0.02916,0.01334,0.02667,3.77891,2.50506
63675905333195,0,0,0.07921,0.0918,0.02002,0.02894,0.01271,0.02819,3.76015,2.511
63675905333212,0,0,0.07974,0.09198,0.02109,0.02915,0.01263,0.02756,3.762,2.51935
63675905333244,0,0,0.0859,0.09586,0.02185,0.0294,0.01315,0.02675,3.76278,2.51961
63675905333261,0,0,0.08672,0.09357,0.02209,0.02996,0.01314,0.02549,3.7752,2.529
63675905333295,0,0,0.08348,0.09048,0.02253,0.02973,0.01331,0.02592,3.78679,2.52784
63675905333328,0,0,0.08493,0.09297,0.0219,0.02986,0.01309,0.02635,3.79371,2.51448
63675905333345,0,0,0.078,0.09936,0.02076,0.02993,0.01303,0.02697,3.79701,2.50489
63675905333394,0,0,0.08201,0.09695,0.02215,0.02955,0.01409,0.0264,3.80031,2.50691
63675905333410,0,0,0.07892,0.09208,0.02296,0.02988,0.01327,0.02566,3.80281,2.50103
63675905333427,0,0,0.08901,0.0937,0.02079,0.02871,0.01281,0.02567,3.80638,2.48223
63675905333460,0,0,0.08136,0.09426,0.02019,0.02891,0.0136,0.02565,3.81164,2.4731
63675905333493,0,0,0.08325,0.09337,0.02035,0.02949,0.01446,0.0256,3.80336,2.47668
63675905333510,0,0,0.07875,0.09125,0.02032,0.0292,0.01443,0.02507,3.79323,2.47541
63675905333543,0,0,0.07363,0.08449,0.02032,0.03008,0.01514,0.02544,3.78149,2.4778
63675905333576,0,0,0.07489,0.08976,0.01973,0.02987,0.01457,0.02525,3.77757,2.48234
63675905333609,0,0,0.07987,0.09105,0.0193,0.02984,0.0143,0.02584,3.76778,2.48795
63675905333626,0,0,0.07237,0.08831,0.0198,0.03004,0.01407,0.02617,3.75564,2.49991
63675905333676,0,0,0.07487,0.08803,0.02173,0.02973,0.01305,0.02716,3.73522,2.48348
63675905333709,0,0,0.08167,0.08952,0.02177,0.03003,0.01349,0.02786,3.73494,2.48648
63675905333742,0,0,0.08801,0.09291,0.02249,0.02876,0.01307,0.02702,3.74187,2.49064
63675905333775,0,0,0.08166,0.08885,0.02254,0.0293,0.01298,0.0264,3.728,2.48239
63675905333791,0,0,0.08085,0.09106,0.02254,0.02912,0.0138,0.02565,3.70499,2.48594
63675905333825,0,0,0.08516,0.09215,0.02254,0.02986,0.0148,0.02591,3.68048,2.48423
63675905333841,0,0,0.0888,0.09603,0.02153,0.0299,0.01565,0.02546,3.65967,2.48499
63675905333874,0,0,0.08447,0.09248,0.02195,0.03005,0.01526,0.02589,3.62959,2.48664
63675905333907,0,0,0.083,0.09282,0.02345,0.02987,0.01536,0.02562,3.58085,2.48786
63675905333924,0,0,0.08386,0.0964,0.02318,0.0296,0.01512,0.02544,3.53434,2.48353
63675905333973,0,0,0.09732,0.09382,0.02312,0.03006,0.01417,0.02571,3.47062,2.50476
63675905333990,0,0,0.09388,0.09157,0.02265,0.03013,0.01367,0.02664,3.46228,2.49485
63675905334023,0,0,0.09637,0.09494,0.02283,0.02973,0.01329,0.02592,3.44044,2.49145
63675905334056,0,0,0.10116,0.09668,0.0236,0.02961,0.01236,0.02567,3.42265,2.49671
63675905334073,0,0,0.09657,0.10028,0.02283,0.02977,0.01249,0.02632,3.40865,2.50479
63675905334106,0,0,0.10275,0.09765,0.02229,0.03025,0.01225,0.02514,3.41955,2.51268
63675905334123,0,0,0.1016,0.09462,0.02335,0.03111,0.01276,0.02476,3.42255,2.51359
63675905334156,0,0,0.09083,0.09139,0.02559,0.0321,0.01335,0.02598,3.42687,2.50941
63675905334189,0,0,0.09811,0.10014,0.02419,0.03211,0.01482,0.0256,3.41491,2.51345
63675905334222,0,0,0.09796,0.09671,0.02458,0.03158,0.01544,0.02523,3.43171,2.52203
63675905334255,0,0,0.08888,0.0922,0.02499,0.0313,0.01652,0.02482,3.43241,2.51287
63675905334272,0,0,0.093,0.09103,0.02473,0.03102,0.01631,0.02433,3.43865,2.49891
63675905334289,0,0,0.08697,0.09132,0.02402,0.03093,0.01567,0.02578,3.43831,2.49976
63675905334321,0,0,0.08541,0.08935,0.02341,0.0302,0.01485,0.02649,3.44722,2.50494
63675905334355,0,0,0.08899,0.08954,0.02113,0.02945,0.01484,0.02578,3.4441,2.50433
63675905334372,0,0,0.07601,0.08425,0.02304,0.02895,0.01444,0.02535,3.45946,2.5003
63675905334404,0,0,0.07403,0.08455,0.02268,0.02829,0.01423,0.02549,3.47062,2.49609
63675905334455,0,0,0.06654,0.08058,0.02091,0.02912,0.01211,0.02662,3.48361,2.50704
63675905334486,0,0,0.07091,0.08292,0.02164,0.02868,0.01287,0.02547,3.49305,2.50111
63675905334536,0,0,0.07191,0.08246,0.02232,0.02884,0.01307,0.0256,3.51795,2.51302
63675905334570,0,0,0.07484,0.08297,0.02108,0.02986,0.01258,0.0266,3.5218,2.51371
63675905334603,0,0,0.07342,0.08191,0.02208,0.02984,0.0123,0.02689,3.52283,2.50896
63675905334637,0,0,0.08452,0.0857,0.02161,0.02983,0.01274,0.02711,3.52776,2.50527
63675905334653,0,0,0.08863,0.08332,0.02285,0.02995,0.01324,0.02635,3.54714,2.51283
63675905334685,0,0,0.08758,0.08394,0.02125,0.02951,0.01261,0.02569,3.56589,2.51589
63675905334736,0,0,0.08696,0.0862,0.02069,0.03002,0.0118,0.02453,3.5742,2.49866
63675905334769,0,0,0.08459,0.08582,0.02128,0.02946,0.01275,0.02377,3.58621,2.5021
63675905334802,0,0,0.09462,0.087,0.02089,0.02933,0.01359,0.02341,3.59797,2.50208
63675905334835,0,0,0.09024,0.08796,0.02193,0.0298,0.01317,0.02269,3.60837,2.50281
63675905334852,0,0,0.09237,0.09165,0.02302,0.02968,0.0125,0.02462,3.6047,2.50526
63675905334885,0,0,0.08025,0.09225,0.02235,0.03013,0.01332,0.0244,3.60769,2.49
63675905334902,0,0,0.08904,0.0933,0.02298,0.03001,0.01294,0.02362,3.61229,2.48819
63675905334935,0,0,0.08849,0.09244,0.02336,0.02932,0.01345,0.02417,3.61612,2.49517
63675905334968,0,0,0.08942,0.09459,0.02199,0.02952,0.01318,0.02424,3.62471,2.47234
63675905334984,0,0,0.08751,0.09353,0.02212,0.02957,0.01267,0.02395,3.61985,2.47441
63675905335033,0,0,0.08458,0.08817,0.02307,0.02917,0.0128,0.02415,3.62113,2.4796
63675905335050,0,0,0.08855,0.08901,0.02099,0.02886,0.01286,0.02403,3.62259,2.4775
63675905335066,0,0,0.09335,0.09014,0.02188,0.02871,0.01247,0.02325,3.62699,2.49451
63675905335117,0,0,0.08619,0.08942,0.02208,0.02988,0.01199,0.02513,3.62361,2.49713
63675905335150,0,0,0.08355,0.08948,0.02252,0.02905,0.01206,0.02529,3.62167,2.53356
63675905335183,0,0,0.08869,0.08891,0.02339,0.02917,0.01186,0.02549,3.61066,2.5236
63675905335216,0,0,0.08155,0.08814,0.02291,0.0292,0.01173,0.02534,3.61553,2.526
63675905335233,0,0,0.07984,0.08842,0.02202,0.03,0.01199,0.02493,3.61506,2.51914
63675905335266,0,0,0.07555,0.08194,0.02167,0.02891,0.01294,0.02609,3.61908,2.51116
63675905335283,0,0,0.08877,0.08565,0.02216,0.029,0.01465,0.02644,3.61755,2.51478
63675905335316,0,0,0.08958,0.08719,0.02188,0.02798,0.0159,0.02603,3.62013,2.51273
63675905335349,0,0,0.08942,0.08545,0.02236,0.02899,0.01534,0.02524,3.62337,2.51386
63675905335382,0,0,0.0866,0.0862,0.02239,0.02857,0.01555,0.02556,3.63133,2.52503
63675905335414,0,0,0.09273,0.08639,0.02235,0.02935,0.0159,0.0255,3.63154,2.52699
63675905335431,0,0,0.08799,0.08359,0.02248,0.02993,0.01563,0.02532,3.63914,2.52189
63675905335465,0,0,0.09062,0.08561,0.0236,0.02999,0.01373,0.02572,3.63221,2.53657
63675905335480,0,0,0.08321,0.08265,0.02288,0.0299,0.01229,0.02471,3.63627,2.54727
63675905335514,0,0,0.08403,0.0807,0.02277,0.03018,0.01093,0.02422,3.63335,2.55793
63675905335547,0,0,0.08973,0.08245,0.02273,0.0297,0.01076,0.02466,3.63224,2.55553
63675905335564,0,0,0.094,0.08387,0.02199,0.0299,0.01096,0.02474,3.63305,2.55049
63675905335614,0,0,0.08937,0.08494,0.02145,0.02969,0.01099,0.02441,3.62894,2.54786
63675905335630,0,0,0.0948,0.08577,0.02212,0.02936,0.0113,0.02486,3.6256,2.5492
63675905335647,0,0,0.0915,0.08917,0.02182,0.02889,0.01138,0.02445,3.62298,2.54602
63675905335697,0,0,0.09015,0.08736,0.02262,0.02933,0.01289,0.02413,3.62201,2.54703
63675905335714,0,0,0.08975,0.08555,0.02264,0.02948,0.01338,0.02426,3.62549,2.51804
63675905335730,0,0,0.08738,0.08643,0.02242,0.02931,0.01575,0.02495,3.62533,2.49977
63675905335764,0,0,0.0781,0.08472,0.02292,0.02977,0.01636,0.02479,3.61993,2.49656
63675905335796,0,0,0.08293,0.08612,0.02341,0.02931,0.01655,0.02489,3.6167,2.49802
63675905335813,0,0,0.08195,0.08611,0.02231,0.02909,0.01672,0.0239,3.61116,2.5095
63675905335846,0,0,0.08261,0.08155,0.02251,0.02967,0.01646,0.0243,3.60966,2.5164
63675905335895,0,0,0.08999,0.0882,0.02139,0.02943,0.01581,0.0239,3.57932,2.51432
63675905335929,0,0,0.0809,0.09008,0.02001,0.02978,0.01526,0.02402,3.55594,2.51106
63675905335961,0,0,0.07998,0.08955,0.02074,0.02981,0.0163,0.02328,3.53828,2.50825
63675905335995,0,0,0.08905,0.09202,0.02079,0.02954,0.01643,0.02274,3.53092,2.49234
63675905336011,0,0,0.08388,0.08961,0.02304,0.0285,0.01675,0.02325,3.52036,2.48558
