63677213395528,5,0,0.54409,0.96529,0.86168,0.18897,0.07027,1.09621,0.21345,0.51663
63677213395561,5,0,0.55287,0.95849,0.86875,0.18693,0.06954,1.09464,0.21658,0.51768
63677213395626,5,0,0.56389,0.94435,0.86579,0.1864,0.07,1.08978,0.21431,0.51243
63677213395643,5,0,0.55683,0.94273,0.86748,0.18858,0.06917,1.08922,0.21445,0.51158
63677213395676,5,0,0.55094,0.93766,0.8676,0.1927,0.06802,1.08717,0.21499,0.51224
63677213395693,5,0,0.56404,0.95615,0.87647,0.18773,0.0677,1.08701,0.21145,0.51386
63677213395726,5,0,0.55706,0.96611,0.88729,0.18847,0.06775,1.08946,0.21328,0.50902
63677213395743,5,0,0.5457,0.95905,0.88657,0.18839,0.06563,1.08798,0.21179,0.50384
63677213395776,5,0,0.54274,0.98101,0.8956,0.1944,0.06597,1.08921,0.21058,0.50005
63677213395825,5,0,0.54571,0.97043,0.88877,0.19499,0.06916,1.08527,0.21014,0.49281
63677213395859,5,0,0.5445,0.96293,0.88752,0.1898,0.06931,1.08011,0.21071,0.49507
63677213395893,5,0,0.54465,0.94941,0.88175,0.19524,0.06792,1.07937,0.21195,0.49402
63677213395926,5,0,0.55445,0.94484,0.86636,0.20157,0.06571,1.07659,0.20991,0.49518
63677213395959,5,0,0.55973,0.94535,0.86456,0.19535,0.06514,1.07449,0.20994,0.49874
63677213395991,5,0,0.55607,0.94155,0.85825,0.20371,0.06841,1.07211,0.21006,0.49876
63677213396024,5,0,0.56342,0.95171,0.87142,0.20783,0.06482,1.07201,0.20929,0.50359
63677213396058,5,0,0.55767,0.9495,0.86635,0.20746,0.06463,1.07434,0.20961,0.50213
63677213396091,5,0,0.56061,0.94619,0.87369,0.20921,0.0629,1.07117,0.20763,0.50074
63677213396123,5,0,0.54528,0.95934,0.87674,0.21187,0.06248,1.06961,0.20854,0.49968
63677213396157,5,0,0.54588,0.95038,0.87989,0.20562,0.06352,1.06532,0.20721,0.49493
63677213396174,5,0,0.54394,0.9477,0.87247,0.19807,0.06081,1.06209,0.20672,0.4925
63677213396207,5,0,0.5455,0.94962,0.86905,0.1867,0.06131,1.05693,0.20741,0.48942
63677213396240,5,0,0.5368,0.94887,0.86541,0.18447,0.0614,1.05122,0.20757,0.48993
63677213396273,5,0,0.53993,0.93729,0.86853,0.18914,0.06197,1.04705,0.20752,0.48743
63677213396306,5,0,0.53843,0.92798,0.86044,0.17917,0.06431,1.04016,0.20837,0.4858
63677213396340,5,0,0.5348,0.91976,0.86034,0.17866,0.06265,1.03668,0.20709,0.48387
63677213396356,5,0,0.52986,0.91212,0.85417,0.18286,0.06348,1.03168,0.20827,0.48424
63677213396405,5,0,0.53494,0.92251,0.85334,0.18421,0.06383,1.02934,0.20738,0.4856
63677213396422,5,0,0.53251,0.9149,0.85235,0.18124,0.06484,1.02683,0.20628,0.48632
63677213396439,5,0,0.54233,0.91303,0.84876,0.18741,0.06632,1.02794,0.20701,0.48155
63677213396471,5,0,0.5424,0.92385,0.8407,0.18877,0.0644,1.01829,0.20624,0.4824
63677213396505,5,0,0.53812,0.91856,0.84146,0.1877,0.06523,1.0191,0.20604,0.4828
63677213396539,5,0,0.53463,0.92534,0.83834,0.19015,0.06755,1.02052,0.20743,0.48323
63677213396555,5,0,0.53005,0.93054,0.84118,0.1857,0.06838,1.01922,0.20714,0.48327
63677213396604,5,0,0.52777,0.92021,0.84917,0.19333,0.07008,1.01545,0.20785,0.47903
63677213396637,5,0,0.52481,0.91643,0.85003,0.18956,0.06734,1.01036,0.2055,0.47817
63677213396671,5,0,0.51959,0.92152,0.85075,0.18895,0.06716,1.01031,0.20605,0.47721
63677213396703,5,0,0.52024,0.91369,0.85065,0.1877,0.06797,1.00871,0.20514,0.47552
63677213396720,5,0,0.51946,0.91493,0.84887,0.19252,0.06508,1.00749,0.20539,0.4751
63677213396754,5,0,0.52425,0.90137,0.84798,0.19134,0.06347,1.00703,0.20557,0.47682
63677213396787,5,0,0.52011,0.90827,0.84408,0.18864,0.06251,1.0055,0.2051,0.47511
63677213396803,5,0,0.50901,0.91976,0.84468,0.19051,0.0621,1.00313,0.20391,0.47726
63677213396837,5,0,0.51112,0.91228,0.84271,0.18642,0.06346,1.00212,0.20504,0.47681
63677213396853,5,0,0.51543,0.90543,0.83436,0.18555,0.06259,1.00206,0.20345,0.47552
63677213396886,5,0,0.50294,0.90012,0.83917,0.18446,0.06261,0.99894,0.20348,0.47505
63677213396920,5,0,0.50841,0.90029,0.83506,0.18476,0.0633,0.99607,0.2023,0.47343
63677213396936,5,0,0.50611,0.90622,0.83389,0.18466,0.06248,0.99354,0.20282,0.47013
63677213396985,5,0,0.50311,0.90966,0.83301,0.18564,0.06171,0.9898,0.20127,0.46992
63677213397002,5,0,0.49711,0.89582,0.84096,0.18909,0.06364,0.98672,0.20174,0.46993
63677213397018,5,0,0.49195,0.89143,0.83703,0.19014,0.06449,0.99046,0.20261,0.46866
63677213397051,5,0,0.49236,0.89176,0.83707,0.18858,0.0656,0.98818,0.20202,0.47147
63677213397085,5,0,0.49886,0.90113,0.83331,0.19209,0.06577,0.98925,0.20434,0.46736
63677213397102,5,0,0.49284,0.90811,0.83577,0.18854,0.06441,0.99182,0.20457,0.46496
63677213397134,5,0,0.49347,0.90883,0.83322,0.18306,0.07092,0.98742,0.20487,0.46521
63677213397184,5,0,0.50759,0.90875,0.83937,0.17935,0.07052,0.98621,0.20756,0.46712
63677213397218,5,0,0.51697,0.91628,0.84012,0.17392,0.0723,0.98509,0.20729,0.46741
63677213397267,5,0,0.52002,0.91407,0.84383,0.18561,0.06898,0.98357,0.20791,0.47007
63677213397301,5,0,0.53131,0.90951,0.84359,0.18316,0.07425,0.98396,0.20851,0.47323
63677213397332,5,0,0.53513,0.90472,0.84565,0.19166,0.06969,0.98217,0.20762,0.47159
63677213397366,5,0,0.53039,0.91381,0.83959,0.18902,0.0687,0.98349,0.20556,0.47012
63677213397383,5,0,0.5227,0.91112,0.83689,0.18513,0.06999,0.98157,0.20514,0.47022
63677213397432,5,0,0.50791,0.90656,0.83409,0.20221,0.06837,0.98026,0.20603,0.46866
63677213397465,5,0,0.50766,0.90627,0.83789,0.20104,0.06933,0.97989,0.20666,0.46828
63677213397482,5,0,0.50187,0.91258,0.83682,0.19346,0.06806,0.97915,0.20823,0.46625
63677213397499,5,0,0.491,0.90467,0.83293,0.19083,0.06705,0.98041,0.20741,0.46402
63677213397532,5,0,0.49088,0.90151,0.83682,0.18985,0.06472,0.98102,0.208,0.46349
63677213397566,5,0,0.49983,0.91216,0.83076,0.19247,0.06459,0.98306,0.21038,0.46259
63677213397582,5,0,0.49543,0.91582,0.82864,0.19894,0.06605,0.98169,0.21192,0.46087
63677213397615,5,0,0.50192,0.9111,0.82724,0.18683,0.06788,0.98289,0.21283,0.45913
63677213397632,5,0,0.50315,0.91814,0.82645,0.19191,0.06476,0.97951,0.21214,0.45668
63677213397665,5,0,0.50331,0.91849,0.82092,0.18045,0.06531,0.97795,0.21051,0.45988
63677213397698,5,0,0.51118,0.915,0.82236,0.18265,0.06581,0.97362,0.20946,0.45881
63677213397714,5,0,0.5046,0.92004,0.82749,0.18396,0.06474,0.97136,0.20931,0.45842
63677213397763,5,0,0.4999,0.92614,0.8234,0.18575,0.06577,0.9711,0.21028,0.45781
63677213397780,5,0,0.49223,0.90188,0.82213,0.18608,0.06704,0.96541,0.20959,0.45525
63677213397796,5,0,0.48495,0.90296,0.8175,0.18796,0.06459,0.96382,0.20946,0.45527
63677213397847,5,0,0.48977,0.88478,0.81313,0.18404,0.0664,0.96216,0.21022,0.45741
63677213397863,5,0,0.49625,0.88555,0.81225,0.1829,0.0664,0.95931,0.21159,0.45387
63677213397896,5,0,0.49326,0.89052,0.80994,0.17472,0.06617,0.95909,0.21305,0.4531
63677213397913,5,0,0.49551,0.88332,0.79783,0.18684,0.06654,0.95805,0.2127,0.45238
63677213397946,5,0,0.49388,0.87754,0.7983,0.17608,0.06904,0.95507,0.21169,0.45112
63677213397980,5,0,0.49976,0.87848,0.80018,0.17245,0.06457,0.95459,0.21151,0.45121
63677213397996,5,0,0.50246,0.87921,0.80026,0.1699,0.06692,0.95324,0.2132,0.45167
63677213398046,5,0,0.50039,0.88734,0.80205,0.17718,0.06861,0.95591,0.21316,0.44918
63677213398079,5,0,0.49754,0.88414,0.80108,0.17774,0.07179,0.95423,0.21306,0.449
63677213398113,5,0,0.49289,0.88469,0.80797,0.17829,0.07064,0.95215,0.21462,0.44913
63677213398145,5,0,0.49483,0.89158,0.80836,0.18362,0.06679,0.94695,0.21608,0.44947
63677213398161,5,0,0.49595,0.89781,0.80615,0.18837,0.0677,0.94869,0.2178,0.45177
63677213398194,5,0,0.50248,0.89903,0.80495,0.18745,0.06564,0.94761,0.21755,0.45006
63677213398244,5,0,0.50031,0.90716,0.80241,0.18454,0.06648,0.94714,0.21776,0.44764
63677213398278,5,0,0.50024,0.90921,0.80447,0.18073,0.06122,0.94341,0.21902,0.44448
63677213398311,5,0,0.50026,0.90507,0.80492,0.16614,0.06141,0.94392,0.2207,0.44198
63677213398344,5,0,0.49433,0.90299,0.79846,0.17521,0.06302,0.94807,0.22057,0.44081
63677213398360,5,0,0.49169,0.90258,0.80274,0.17374,0.06151,0.94315,0.22012,0.43731
63677213398393,5,0,0.4889,0.90109,0.8035,0.17358,0.06551,0.94132,0.22141,0.43733
63677213398427,5,0,0.5016,0.91486,0.80569,0.17762,0.06611,0.93918,0.22098,0.43807
63677213398443,5,0,0.49597,0.91314,0.8093,0.17343,0.06886,0.93807,0.22009,0.43722
63677213398477,5,0,0.48275,0.91502,0.80635,0.17308,0.0711,0.93703,0.21945,0.43558
63677213398493,5,0,0.47458,0.90861,0.806,0.18164,0.07025,0.93571,0.2182,0.43629
63677213398526,5,0,0.48532,0.91364,0.80732,0.18172,0.07018,0.9303,0.2161,0.43645
63677213398559,5,0,0.48214,0.90846,0.80752,0.18124,0.0746,0.9283,0.21464,0.43709
63677213398592,5,0,0.49104,0.90119,0.80348,0.18337,0.07083,0.92767,0.21286,0.43729
63677213398625,5,0,0.47388,0.89283,0.79737,0.17653,0.07099,0.92732,0.21297,0.43304
63677213398642,5,0,0.48176,0.88994,0.80139,0.17396,0.06917,0.92598,0.21367,0.4314
63677213398659,5,0,0.48303,0.88158,0.79391,0.17312,0.06749,0.92707,0.21372,0.43174
63677213398692,5,0,0.49647,0.88744,0.79261,0.17228,0.06769,0.9253,0.2136,0.43078
63677213398724,5,0,0.49742,0.88417,0.79228,0.17773,0.06972,0.92369,0.21232,0.4298
63677213398742,5,0,0.48919,0.87975,0.79175,0.17424,0.06948,0.92286,0.21213,0.42736
63677213398775,5,0,0.47107,0.88326,0.79224,0.17174,0.0673,0.92287,0.2119,0.42884
63677213398824,5,0,0.47802,0.87848,0.78478,0.18375,0.06646,0.91909,0.21272,0.43102
63677213398858,5,0,0.47082,0.88168,0.78964,0.1816,0.06766,0.91674,0.21152,0.4325
63677213398907,5,0,0.46381,0.86992,0.78927,0.17055,0.0693,0.91374,0.21046,0.43189
63677213398940,5,0,0.46111,0.87519,0.78575,0.17351,0.06808,0.91071,0.20987,0.43341
63677213398973,5,0,0.46071,0.87928,0.78811,0.16945,0.06772,0.90895,0.2115,0.4296
63677213399006,5,0,0.46349,0.87554,0.78449,0.18032,0.06988,0.90242,0.2098,0.42802
63677213399023,5,0,0.4619,0.8757,0.78266,0.17217,0.06883,0.89742,0.2089,0.42705
63677213399056,5,0,0.46416,0.86733,0.77882,0.17079,0.06935,0.89443,0.20863,0.42722
63677213399073,5,0,0.46796,0.86346,0.77541,0.17331,0.07012,0.89127,0.2091,0.42746
63677213399106,5,0,0.46342,0.86636,0.78203,0.18128,0.06871,0.8907,0.21064,0.42457
63677213399139,5,0,0.46105,0.85356,0.77967,0.17984,0.06796,0.88782,0.20978,0.42327
63677213399156,5,0,0.46476,0.85102,0.77284,0.18379,0.066,0.88652,0.20873,0.42204
63677213399205,5,0,0.46406,0.85251,0.77184,0.17532,0.06226,0.88538,0.20912,0.42058
63677213399222,5,0,0.46418,0.84998,0.77105,0.17613,0.06429,0.88627,0.20953,0.41962
63677213399239,5,0,0.462,0.85032,0.77304,0.17801,0.06462,0.88441,0.2099,0.41869
63677213399271,5,0,0.46372,0.85462,0.77258,0.18323,0.06297,0.88518,0.20933,0.41673
63677213399304,5,0,0.45888,0.85592,0.7747,0.18546,0.06058,0.88423,0.20854,0.41653
63677213399338,5,0,0.45148,0.85868,0.76964,0.1782,0.06328,0.88553,0.20826,0.41641
63677213399354,5,0,0.45105,0.8581,0.77124,0.19146,0.0665,0.88684,0.20914,0.41704
63677213399404,5,0,0.45126,0.86819,0.78059,0.18305,0.06436,0.88793,0.20901,0.41698
63677213399437,5,0,0.4499,0.87137,0.78257,0.18341,0.06339,0.88999,0.21005,0.41837
63677213399471,5,0,0.44433,0.87535,0.78334,0.1827,0.06342,0.89286,0.21332,0.41641
63677213399520,5,0,0.44865,0.88065,0.78789,0.1863,0.06319,0.89694,0.21505,0.41414
63677213399537,5,0,0.45131,0.88761,0.78908,0.18156,0.0613,0.89817,0.21603,0.41599
63677213399587,5,0,0.45755,0.89859,0.7941,0.16892,0.05765,0.89856,0.21519,0.41732
63677213399604,5,0,0.45021,0.89419,0.79315,0.17791,0.05841,0.8987,0.2161,0.41566
63677213399635,5,0,0.44511,0.89272,0.79601,0.17985,0.06065,0.89952,0.21654,0.41367
63677213399685,5,0,0.44884,0.90477,0.80056,0.18038,0.05875,0.89876,0.21575,0.41578
63677213399719,5,0,0.44843,0.90534,0.80014,0.18289,0.06133,0.89828,0.21609,0.41558
63677213399735,5,0,0.45127,0.90315,0.80252,0.18375,0.06275,0.89741,0.2161,0.4135
63677213399785,5,0,0.44856,0.89709,0.7997,0.18589,0.06628,0.89674,0.21826,0.41247
63677213399802,5,0,0.45148,0.89654,0.79832,0.18042,0.06534,0.89612,0.21602,0.41352
63677213399819,5,0,0.45537,0.88902,0.79969,0.18134,0.06758,0.8951,0.21614,0.41309
63677213399851,5,0,0.45267,0.89479,0.7951,0.17819,0.06909,0.89065,0.21598,0.41471
63677213399884,5,0,0.4616,0.88272,0.78986,0.17791,0.07414,0.88348,0.21798,0.41176
63677213399901,5,0,0.45951,0.87621,0.78582,0.17256,0.06935,0.87788,0.21929,0.41278
63677213399933,5,0,0.461,0.88167,0.78017,0.17287,0.07183,0.87317,0.21939,0.41336
63677213399967,5,0,0.45794,0.88144,0.78067,0.18064,0.0686,0.87184,0.2198,0.41341
63677213399983,5,0,0.46517,0.88016,0.78199,0.18882,0.06793,0.87773,0.22252,0.41028
63677213400017,5,0,0.47099,0.88737,0.78011,0.18639,0.06455,0.87629,0.22287,0.41033
63677213400067,5,0,0.45768,0.88554,0.78129,0.17618,0.06028,0.8752,0.22058,0.40749
63677213400100,5,0,0.45444,0.89393,0.78254,0.18301,0.05738,0.87371,0.22079,0.41737
63677213400117,5,0,0.45788,0.89942,0.78784,0.18721,0.06306,0.88023,0.2219,0.42028
63677213400167,5,0,0.46611,0.89635,0.79152,0.18385,0.05943,0.88588,0.22225,0.41635
63677213400183,5,0,0.46015,0.90584,0.78575,0.17049,0.06203,0.87886,0.22083,0.41512
63677213400200,5,0,0.45812,0.90229,0.78849,0.17477,0.06361,0.87733,0.22184,0.41377
63677213400232,5,0,0.47127,0.90072,0.79318,0.17645,0.06632,0.87863,0.22145,0.41352
63677213400265,5,0,0.47761,0.90056,0.79434,0.17373,0.06773,0.87759,0.22366,0.41374
63677213400282,5,0,0.47603,0.89174,0.79581,0.17107,0.06808,0.882,0.22097,0.4031
63677213400332,5,0,0.48167,0.89353,0.79512,0.174,0.06538,0.87743,0.22017,0.39945
63677213400365,5,0,0.48123,0.89547,0.79365,0.17684,0.06795,0.87575,0.21955,0.40088
63677213400382,5,0,0.4812,0.89515,0.79733,0.18362,0.06692,0.87645,0.22089,0.39946
63677213400398,5,0,0.4722,0.88806,0.79813,0.18254,0.06516,0.87539,0.22062,0.40132
63677213400432,5,0,0.47028,0.88598,0.79954,0.17831,0.06388,0.87702,0.22231,0.40158
63677213400464,5,0,0.46364,0.88969,0.80029,0.1883,0.06372,0.87572,0.22257,0.40318
63677213400481,5,0,0.48169,0.90026,0.79723,0.1866,0.06699,0.87873,0.22481,0.40183
63677213400514,5,0,0.46699,0.90283,0.79873,0.17765,0.06698,0.88082,0.22603,0.40142
63677213400547,5,0,0.46547,0.90258,0.79989,0.18032,0.06409,0.88219,0.2271,0.40011
63677213400565,5,0,0.46142,0.90849,0.8015,0.18431,0.07066,0.88411,0.22802,0.40156
63677213400598,5,0,0.47296,0.9151,0.80166,0.17947,0.06895,0.88559,0.22826,0.40093
63677213400612,5,0,0.46719,0.91711,0.80137,0.18633,0.06849,0.88726,0.22937,0.40096
63677213400646,5,0,0.46238,0.92031,0.79884,0.18576,0.06823,0.88511,0.22787,0.40066
63677213400679,5,0,0.47217,0.91885,0.80015,0.17929,0.06815,0.88743,0.22785,0.39971
63677213400696,5,0,0.45785,0.91395,0.80122,0.19441,0.06675,0.8847,0.22815,0.39823
63677213400746,5,0,0.45378,0.91602,0.79978,0.18871,0.06801,0.8831,0.22756,0.39967
63677213400763,5,0,0.46326,0.91174,0.79749,0.18276,0.06298,0.88339,0.22646,0.39886
63677213400779,5,0,0.46382,0.9088,0.79602,0.17978,0.06455,0.88145,0.22815,0.39719
63677213400812,5,0,0.46779,0.90654,0.79468,0.18137,0.06578,0.88152,0.22795,0.39604
63677213400845,5,0,0.4651,0.90189,0.79622,0.19036,0.06622,0.88194,0.22918,0.39316
63677213400879,5,0,0.45295,0.90328,0.79403,0.19055,0.06551,0.88281,0.22973,0.39145
63677213400912,5,0,0.46292,0.90272,0.79588,0.17774,0.06463,0.88209,0.22941,0.38977
63677213400946,5,0,0.47388,0.90781,0.79432,0.18432,0.06813,0.87895,0.22995,0.39136
63677213400978,5,0,0.45949,0.89968,0.79447,0.17838,0.06701,0.87781,0.2315,0.38936
63677213400994,5,0,0.45727,0.90512,0.79709,0.18129,0.06694,0.87566,0.2295,0.38808
63677213401044,5,0,0.4592,0.91196,0.7953,0.17707,0.0657,0.87138,0.22769,0.38999
63677213401060,5,0,0.46687,0.91093,0.79527,0.16757,0.06615,0.87026,0.22734,0.38954
63677213401094,5,0,0.45526,0.91085,0.79522,0.17403,0.06646,0.86737,0.22716,0.38985
63677213401127,5,0,0.45748,0.89765,0.79322,0.17467,0.06931,0.86821,0.22713,0.38708
63677213401143,5,0,0.4533,0.90105,0.7952,0.16536,0.06573,0.86557,0.2259,0.38535
63677213401177,5,0,0.45076,0.90322,0.79216,0.16826,0.06708,0.86466,0.22515,0.38542
63677213401227,5,0,0.44476,0.89257,0.79116,0.16548,0.06608,0.86407,0.22619,0.38539
63677213401243,5,0,0.4475,0.89307,0.7894,0.16877,0.0682,0.86109,0.22568,0.38447
63677213401277,5,0,0.45046,0.89267,0.78342,0.17414,0.06215,0.85987,0.22489,0.38609
63677213401326,5,0,0.44426,0.89393,0.78402,0.17238,0.05987,0.85834,0.22564,0.38545
63677213401342,5,0,0.44483,0.89964,0.78316,0.17082,0.05786,0.85707,0.22481,0.38678
63677213401375,5,0,0.45544,0.90132,0.78065,0.17294,0.057,0.85702,0.22536,0.3855
63677213401425,5,0,0.45826,0.90965,0.77646,0.18567,0.05916,0.85243,0.22483,0.38496
63677213401442,5,0,0.45773,0.90601,0.77913,0.18253,0.05753,0.85393,0.22563,0.3847
63677213401458,5,0,0.4628,0.91255,0.7778,0.17639,0.05859,0.85351,0.22648,0.38447
63677213401492,5,0,0.45636,0.90737,0.77588,0.1829,0.05951,0.85211,0.22718,0.38417
63677213401525,5,0,0.45792,0.90795,0.77391,0.18379,0.05889,0.85091,0.22569,0.38393
63677213401558,5,0,0.45723,0.8984,0.7704,0.18215,0.05798,0.84578,0.22447,0.38417
63677213401608,5,0,0.47137,0.89424,0.77032,0.16752,0.06041,0.8454,0.22463,0.38527
63677213401625,5,0,0.46155,0.88853,0.76938,0.16634,0.0595,0.84437,0.22517,0.38359
63677213401657,5,0,0.45837,0.88662,0.76893,0.15906,0.06069,0.84113,0.22373,0.38318
63677213401707,5,0,0.46451,0.88773,0.76581,0.1537,0.05952,0.84105,0.22238,0.37904
63677213401724,5,0,0.4578,0.88917,0.76625,0.15252,0.06029,0.83714,0.22338,0.37971
63677213401757,5,0,0.46097,0.88697,0.77045,0.15932,0.06472,0.84039,0.22777,0.37608
63677213401807,5,0,0.45354,0.88725,0.76902,0.1632,0.06139,0.8397,0.22743,0.37463
63677213401823,5,0,0.45136,0.88634,0.77035,0.16309,0.06228,0.83444,0.22504,0.37936
63677213401840,5,0,0.45807,0.88944,0.76425,0.17507,0.06027,0.83683,0.22444,0.37723
63677213401872,5,0,0.45006,0.88775,0.76701,0.17163,0.06093,0.83339,0.22418,0.37787
63677213401906,5,0,0.45216,0.88689,0.76817,0.17521,0.06334,0.83281,0.22386,0.37608
63677213401939,5,0,0.4433,0.88909,0.76607,0.17127,0.06134,0.83171,0.22165,0.37341
63677213401972,5,0,0.44094,0.89225,0.76476,0.16957,0.06151,0.82928,0.22025,0.37764
63677213402005,5,0,0.4456,0.89334,0.7636,0.17058,0.06242,0.83004,0.21964,0.37509
63677213402022,5,0,0.46022,0.89503,0.76397,0.1713,0.06273,0.83264,0.22105,0.3708
63677213402054,5,0,0.4564,0.88908,0.7705,0.17156,0.06142,0.83436,0.22174,0.37345
63677213402104,5,0,0.45791,0.8886,0.77051,0.17175,0.05981,0.83515,0.2213,0.37272
63677213402121,5,0,0.45338,0.88833,0.77128,0.1732,0.0605,0.8372,0.22215,0.3719
63677213402154,5,0,0.45926,0.88768,0.77224,0.17038,0.06136,0.83928,0.22127,0.374
63677213402203,5,0,0.45757,0.88388,0.77326,0.16167,0.06131,0.83861,0.21953,0.36975
63677213402220,5,0,0.44277,0.88033,0.77749,0.16623,0.06353,0.84057,0.22155,0.37126
63677213402237,5,0,0.44296,0.88785,0.7762,0.16062,0.0629,0.84147,0.2219,0.36955
63677213402287,5,0,0.44675,0.89049,0.77593,0.1573,0.06405,0.83859,0.22138,0.36903
63677213402303,5,0,0.44112,0.89599,0.77161,0.15947,0.06329,0.83961,0.22139,0.36857
63677213402337,5,0,0.46375,0.89923,0.77176,0.15815,0.06265,0.83744,0.21776,0.37068
63677213402386,5,0,0.46212,0.89875,0.77585,0.16547,0.0629,0.83679,0.21961,0.37322
63677213402403,5,0,0.46878,0.9023,0.77704,0.1618,0.06546,0.83683,0.21815,0.37206
63677213402436,5,0,0.47807,0.906,0.77916,0.15693,0.06156,0.83552,0.21593,0.37377
63677213402452,5,0,0.48019,0.90491,0.77897,0.16201,0.06013,0.83669,0.21527,0.37405
63677213402485,5,0,0.48718,0.90544,0.77935,0.15982,0.06044,0.83771,0.21391,0.37574
63677213402518,5,0,0.4723,0.9039,0.77846,0.16813,0.06192,0.83786,0.21678,0.37055
63677213402551,5,0,0.46787,0.90486,0.77852,0.16921,0.06183,0.83715,0.2161,0.3701
63677213402584,5,0,0.45845,0.90486,0.77557,0.16787,0.06103,0.83816,0.21489,0.37039
63677213402601,5,0,0.45634,0.90615,0.76938,0.16376,0.05806,0.83735,0.21459,0.3709
63677213402635,5,0,0.44936,0.90176,0.76602,0.17806,0.05872,0.83589,0.21186,0.37078
63677213402684,5,0,0.45066,0.89482,0.76492,0.1848,0.06207,0.83099,0.21077,0.36962
63677213402734,5,0,0.44721,0.88905,0.76583,0.17506,0.06024,0.83154,0.20975,0.37062
63677213402767,5,0,0.45544,0.88677,0.76473,0.17419,0.05879,0.83189,0.20959,0.37119
63677213402784,5,0,0.46102,0.8814,0.76944,0.17594,0.06425,0.83122,0.20919,0.36772
63677213402817,5,0,0.46091,0.88214,0.76982,0.16307,0.06498,0.82812,0.21088,0.36754
63677213402867,5,0,0.45437,0.88297,0.77051,0.16019,0.06418,0.82869,0.21199,0.36602
63677213402883,5,0,0.45785,0.88534,0.7683,0.16157,0.06086,0.82907,0.21137,0.36659
63677213402916,5,0,0.45887,0.89091,0.77172,0.15299,0.06372,0.83057,0.21181,0.36863
63677213402933,5,0,0.44674,0.89738,0.77398,0.15012,0.06587,0.82944,0.21283,0.36731
63677213402966,5,0,0.43962,0.8993,0.77496,0.15222,0.06485,0.82767,0.21103,0.36837
63677213402999,5,0,0.44546,0.90006,0.77399,0.15749,0.06182,0.82746,0.21252,0.36985
63677213403032,5,0,0.44817,0.89541,0.77779,0.16596,0.06218,0.82904,0.21093,0.37107
63677213403065,5,0,0.43516,0.89712,0.77744,0.17298,0.06305,0.82893,0.21117,0.36966
63677213403098,5,0,0.43253,0.89474,0.77938,0.16691,0.06255,0.82884,0.21176,0.36741
63677213403132,5,0,0.42384,0.88822,0.77761,0.17251,0.06159,0.82589,0.21177,0.36632
63677213403165,5,0,0.43509,0.88679,0.773,0.17396,0.05971,0.82316,0.20849,0.36611
63677213403198,5,0,0.43405,0.88736,0.77115,0.16563,0.06008,0.82041,0.20732,0.36563
63677213403215,5,0,0.43428,0.8855,0.76586,0.18046,0.06063,0.8165,0.21141,0.36208
63677213403247,5,0,0.4321,0.88869,0.76595,0.17733,0.06031,0.81512,0.21057,0.35899
63677213403280,5,0,0.44543,0.88091,0.76997,0.16659,0.0607,0.81049,0.21122,0.35768
63677213403313,5,0,0.44476,0.88356,0.76269,0.17511,0.06085,0.80421,0.20859,0.35803
63677213403347,5,0,0.44065,0.87943,0.76232,0.17181,0.06058,0.80131,0.20976,0.35868
63677213403380,5,0,0.44387,0.87942,0.76028,0.17368,0.06137,0.79875,0.21209,0.35742
63677213403397,5,0,0.43656,0.87823,0.76143,0.19042,0.06095,0.79848,0.2136,0.36151
63677213403447,5,0,0.43649,0.8748,0.7591,0.17643,0.06097,0.79854,0.209,0.36067
63677213403463,5,0,0.43168,0.8766,0.75528,0.17314,0.06055,0.79942,0.20883,0.36056
63677213403496,5,0,0.43541,0.87749,0.75548,0.18544,0.05992,0.79912,0.21016,0.35668
63677213403512,5,0,0.44145,0.87796,0.75564,0.17211,0.05924,0.7984,0.2103,0.35523
63677213403546,5,0,0.43888,0.87786,0.75398,0.17268,0.05965,0.79895,0.21003,0.35268
63677213403579,5,0,0.43351,0.87955,0.75891,0.16941,0.05928,0.79772,0.20984,0.35196
63677213403596,5,0,0.43532,0.8828,0.75814,0.15912,0.06116,0.79594,0.21085,0.34777
63677213403644,5,0,0.43225,0.88598,0.75965,0.1579,0.06154,0.79174,0.21172,0.34951
63677213403661,5,0,0.4339,0.88741,0.75792,0.16231,0.06076,0.79138,0.21094,0.34797
63677213403678,5,0,0.44389,0.88814,0.75733,0.15069,0.05922,0.79002,0.21052,0.35073
63677213403711,5,0,0.43239,0.88477,0.75268,0.1569,0.06004,0.7906,0.21179,0.34883
63677213403745,5,0,0.43464,0.88818,0.75109,0.15518,0.06012,0.78931,0.21103,0.34912
63677213403761,5,0,0.44242,0.88124,0.7488,0.15791,0.05965,0.78775,0.20942,0.34868
63677213403794,5,0,0.43274,0.87894,0.74708,0.15628,0.05784,0.78642,0.2083,0.34793
63677213403844,5,0,0.42702,0.87747,0.74156,0.15887,0.05581,0.78381,0.20714,0.34412
63677213403877,5,0,0.41715,0.87251,0.7432,0.15976,0.05784,0.77531,0.20859,0.33673
63677213403927,5,0,0.40802,0.86452,0.73443,0.17693,0.05564,0.7679,0.2029,0.34359
63677213403960,5,0,0.4091,0.85846,0.73253,0.1704,0.05557,0.76447,0.2023,0.34089
63677213403993,5,0,0.40752,0.85531,0.7301,0.16679,0.05617,0.76457,0.20122,0.34022
63677213404025,5,0,0.41355,0.84814,0.73122,0.17236,0.05944,0.76209,0.19937,0.341
63677213404043,5,0,0.41094,0.84582,0.72936,0.17531,0.05925,0.76088,0.19935,0.34117
63677213404076,5,0,0.42124,0.84544,0.72461,0.17602,0.0565,0.76636,0.19783,0.34488
63677213404093,5,0,0.4185,0.84853,0.72628,0.16569,0.05651,0.77062,0.19912,0.34455
63677213404126,5,0,0.41241,0.84752,0.73174,0.15822,0.05737,0.76967,0.20181,0.33742
63677213404158,5,0,0.41715,0.84877,0.73033,0.15118,0.05897,0.7661,0.20069,0.34345
63677213404175,5,0,0.40951,0.85349,0.72771,0.16815,0.06151,0.76736,0.20161,0.3449
63677213404225,5,0,0.40168,0.85144,0.72929,0.16405,0.05978,0.7644,0.20324,0.34478
63677213404242,5,0,0.41053,0.85444,0.72762,0.16368,0.06053,0.76641,0.20141,0.34616
63677213404258,5,0,0.41302,0.85332,0.73011,0.1656,0.06129,0.76189,0.20055,0.34901
63677213404291,5,0,0.41863,0.85329,0.72622,0.17687,0.06289,0.76203,0.20053,0.34405
63677213404324,5,0,0.41651,0.85697,0.72367,0.17297,0.06513,0.76027,0.19659,0.34309
63677213404341,5,0,0.41974,0.85881,0.72123,0.17116,0.06344,0.76461,0.19981,0.33967
63677213404374,5,0,0.42028,0.85716,0.72478,0.16407,0.06274,0.75962,0.1966,0.33804
63677213404407,5,0,0.42863,0.85926,0.72327,0.1655,0.05863,0.75879,0.1983,0.34159
63677213404424,5,0,0.41987,0.86244,0.72242,0.16629,0.05837,0.75948,0.1993,0.33622
63677213404457,5,0,0.41696,0.86391,0.72289,0.16137,0.05787,0.75948,0.19897,0.33644
63677213404507,5,0,0.41762,0.85874,0.72491,0.15477,0.05379,0.75805,0.20067,0.33559
63677213404539,5,0,0.4125,0.86035,0.72843,0.15783,0.05312,0.75546,0.19928,0.33556
63677213404573,5,0,0.41658,0.86212,0.72632,0.17099,0.05188,0.75773,0.19996,0.33542
63677213404606,5,0,0.41026,0.86228,0.72648,0.17653,0.05431,0.75648,0.19944,0.33252
63677213404623,5,0,0.42008,0.86188,0.73022,0.16307,0.05485,0.75577,0.1997,0.33465
63677213404656,5,0,0.42656,0.86315,0.72762,0.16218,0.05468,0.75525,0.19863,0.3324
63677213404673,5,0,0.42113,0.86295,0.72832,0.17777,0.05417,0.75315,0.19764,0.33272
63677213404706,5,0,0.40995,0.85746,0.72966,0.18378,0.05262,0.75404,0.19717,0.33365
63677213404738,5,0,0.41667,0.85871,0.72764,0.18601,0.05463,0.75427,0.19762,0.3321
63677213404755,5,0,0.41031,0.85805,0.72688,0.17675,0.05516,0.75451,0.19795,0.33487
63677213404804,5,0,0.41093,0.86092,0.72887,0.16498,0.05456,0.75503,0.19888,0.33391
63677213404821,5,0,0.41105,0.85922,0.73068,0.16437,0.05287,0.75404,0.19899,0.33147
63677213404838,5,0,0.406,0.86147,0.72968,0.16579,0.05161,0.75265,0.1986,0.33581
63677213404871,5,0,0.40306,0.85948,0.7293,0.1497,0.05215,0.7538,0.20249,0.33294
63677213404904,5,0,0.40861,0.86568,0.72794,0.15885,0.05246,0.75263,0.20552,0.3345
63677213404921,5,0,0.41389,0.86588,0.7233,0.15362,0.05452,0.75223,0.20917,0.33281
63677213404954,5,0,0.40462,0.86618,0.72203,0.14984,0.05292,0.75018,0.20956,0.33188
63677213405003,5,0,0.41464,0.86587,0.72161,0.16406,0.05537,0.74276,0.21215,0.33949
63677213405037,5,0,0.4194,0.85961,0.72129,0.16401,0.05635,0.74484,0.2137,0.33836
63677213405086,5,0,0.4214,0.85515,0.72085,0.15231,0.05735,0.74257,0.20655,0.33597
63677213405120,5,0,0.42105,0.85607,0.72124,0.15567,0.05522,0.73844,0.2015,0.33747
63677213405153,5,0,0.42492,0.85378,0.72076,0.1656,0.05436,0.73906,0.20079,0.33814
63677213405185,5,0,0.41446,0.8512,0.72114,0.16174,0.05334,0.74186,0.20355,0.33544
63677213405202,5,0,0.42022,0.8472,0.72379,0.15568,0.05247,0.73942,0.19329,0.3322
63677213405236,5,0,0.41369,0.84461,0.7193,0.15042,0.05204,0.73246,0.19117,0.32071
63677213405285,5,0,0.41222,0.84103,0.71987,0.14986,0.05051,0.7286,0.19048,0.32028
63677213405318,5,0,0.4059,0.83785,0.71984,0.1476,0.05183,0.72884,0.19069,0.31828
63677213405352,5,0,0.40513,0.83664,0.72348,0.13336,0.0525,0.72596,0.18921,0.31825
63677213405385,5,0,0.40352,0.8384,0.72327,0.14543,0.05207,0.71928,0.18783,0.31976
63677213405401,5,0,0.40877,0.84193,0.71964,0.14629,0.05333,0.71839,0.18708,0.31852
63677213405417,5,0,0.40316,0.84101,0.71839,0.14513,0.05383,0.71967,0.1909,0.32057
63677213405451,5,0,0.39934,0.84173,0.7156,0.13592,0.05193,0.71575,0.18668,0.32085
63677213405484,5,0,0.40066,0.83927,0.71135,0.14928,0.05222,0.71353,0.19262,0.32105
63677213405501,5,0,0.39968,0.83765,0.70894,0.148,0.05252,0.70806,0.19252,0.31578
