63677213458417,5,0,0.36087,1.88619,1.37062,0.20284,0.04127,0.78607,0.23912,0.1013
63677213458466,5,0,0.36487,1.88099,1.37047,0.20338,0.04727,0.78723,0.23851,0.09977
63677213458499,5,0,0.3605,1.89115,1.37163,0.20342,0.03956,0.78739,0.2388,0.09932
63677213458516,5,0,0.36928,1.87992,1.37205,0.20434,0.04134,0.78661,0.23844,0.09959
63677213458566,5,0,0.33854,1.88205,1.38021,0.20382,0.04087,0.78602,0.238,0.09843
63677213458599,5,0,0.34256,1.88193,1.38157,0.20381,0.03778,0.78535,0.2362,0.09965
63677213458632,5,0,0.32765,1.86935,1.38514,0.20311,0.0385,0.78398,0.23548,0.10027
63677213458665,5,0,0.33452,1.86914,1.38438,0.20342,0.03232,0.7846,0.23486,0.10124
63677213458682,5,0,0.34856,1.86753,1.38629,0.2039,0.03328,0.78617,0.23521,0.10223
63677213458699,5,0,0.34382,1.87169,1.38384,0.20332,0.03196,0.78502,0.23422,0.10111
63677213458732,5,0,0.3455,1.86646,1.38396,0.2049,0.03179,0.78515,0.23499,0.10062
63677213458765,5,0,0.35264,1.86789,1.38251,0.20392,0.03483,0.78498,0.23404,0.10209
63677213458782,5,0,0.35533,1.86487,1.38076,0.20361,0.03601,0.78349,0.23383,0.10203
63677213458799,5,0,0.35072,1.87163,1.37669,0.20444,0.03588,0.78479,0.23353,0.10182
63677213458831,5,0,0.34402,1.8577,1.37543,0.20263,0.03591,0.78333,0.23208,0.10052
63677213458864,5,0,0.34563,1.85863,1.37437,0.2032,0.03567,0.78293,0.23177,0.10265
63677213458881,5,0,0.3452,1.85221,1.37134,0.20271,0.03725,0.78208,0.23106,0.10345
63677213458914,5,0,0.33708,1.85469,1.37314,0.2023,0.03793,0.78104,0.23185,0.10232
63677213458931,5,0,0.34052,1.8494,1.37171,0.20064,0.0411,0.77989,0.23235,0.10207
63677213458964,5,0,0.3464,1.8547,1.36937,0.20215,0.04138,0.77908,0.2324,0.10331
63677213458980,5,0,0.35633,1.85309,1.37362,0.20214,0.04031,0.77737,0.23423,0.10276
63677213459013,5,0,0.35557,1.85481,1.37088,0.20338,0.04068,0.77548,0.23655,0.10406
63677213459046,5,0,0.35456,1.8585,1.37252,0.20303,0.03986,0.77657,0.2376,0.10084
63677213459063,5,0,0.36191,1.8555,1.37402,0.20281,0.03899,0.77527,0.23844,0.09914
63677213459095,5,0,0.36782,1.85777,1.37132,0.20414,0.03785,0.77617,0.23813,0.10141
63677213459146,5,0,0.36054,1.86164,1.3706,0.20423,0.03718,0.7775,0.24058,0.09886
63677213459179,5,0,0.37641,1.85959,1.36689,0.20552,0.04768,0.77546,0.24087,0.0997
63677213459212,5,0,0.36523,1.86288,1.36306,0.20468,0.04823,0.7772,0.23961,0.10047
63677213459245,5,0,0.36248,1.86601,1.36018,0.204,0.05046,0.77548,0.23783,0.10125
63677213459262,5,0,0.35649,1.85858,1.35957,0.20348,0.0496,0.77399,0.2375,0.10188
63677213459295,5,0,0.36858,1.8629,1.3583,0.20301,0.05003,0.77446,0.23669,0.10114
63677213459312,5,0,0.37501,1.86593,1.35874,0.20185,0.04791,0.77273,0.23415,0.10178
63677213459344,5,0,0.37349,1.87055,1.35751,0.20166,0.04977,0.7714,0.23323,0.10105
63677213459378,5,0,0.35544,1.86968,1.35916,0.20047,0.0381,0.77158,0.23308,0.09989
63677213459411,5,0,0.35088,1.87666,1.35999,0.20161,0.03709,0.77078,0.23448,0.09875
63677213459444,5,0,0.36026,1.87222,1.36013,0.20017,0.03547,0.77014,0.23253,0.10057
63677213459461,5,0,0.34058,1.87559,1.36131,0.20231,0.03541,0.77046,0.2334,0.09896
63677213459477,5,0,0.34334,1.88551,1.35833,0.2024,0.03553,0.76954,0.23383,0.1004
63677213459527,5,0,0.33482,1.87862,1.35707,0.20267,0.03925,0.7681,0.23276,0.10058
63677213459543,5,0,0.33615,1.86786,1.35784,0.2013,0.03476,0.76876,0.23535,0.10055
63677213459560,5,0,0.34324,1.865,1.3582,0.20036,0.03582,0.76795,0.23445,0.09942
63677213459593,5,0,0.35145,1.85826,1.3566,0.20069,0.03651,0.76815,0.23292,0.10102
63677213459627,5,0,0.35677,1.86729,1.35833,0.20092,0.0361,0.76831,0.23444,0.10121
63677213459659,5,0,0.36561,1.864,1.35792,0.20066,0.03537,0.76767,0.23266,0.1008
63677213459676,5,0,0.36946,1.86426,1.35898,0.20076,0.03553,0.76599,0.23267,0.10127
63677213459726,5,0,0.36702,1.87186,1.35945,0.202,0.03284,0.76643,0.22924,0.10418
63677213459759,5,0,0.38329,1.87476,1.36195,0.20203,0.03323,0.76593,0.22957,0.10555
63677213459792,5,0,0.37654,1.87579,1.35695,0.20124,0.03384,0.76491,0.2302,0.10559
63677213459825,5,0,0.3683,1.86653,1.35623,0.20104,0.03376,0.7655,0.22932,0.10474
63677213459842,5,0,0.36493,1.86899,1.3553,0.20067,0.03262,0.7656,0.22941,0.10447
63677213459875,5,0,0.36017,1.86353,1.35913,0.20101,0.03381,0.76743,0.23044,0.1026
63677213459892,5,0,0.35813,1.87103,1.3577,0.20282,0.03266,0.76629,0.23026,0.10313
63677213459924,5,0,0.35723,1.87004,1.35986,0.20138,0.03471,0.76821,0.23075,0.10289
63677213459958,5,0,0.36009,1.87475,1.3618,0.20218,0.03549,0.76858,0.23234,0.10189
63677213460006,5,0,0.3637,1.88656,1.37039,0.20447,0.03475,0.76856,0.23068,0.10031
63677213460040,5,0,0.35843,1.89313,1.36957,0.20486,0.03501,0.76889,0.23109,0.10231
63677213460057,5,0,0.36751,1.89645,1.37025,0.20429,0.03295,0.76795,0.23074,0.104
63677213460107,5,0,0.36011,1.89719,1.36949,0.20286,0.03376,0.77,0.2308,0.10263
63677213460123,5,0,0.36107,1.89172,1.37018,0.20377,0.03199,0.76892,0.23085,0.1026
63677213460156,5,0,0.36785,1.89599,1.36936,0.20281,0.03154,0.76983,0.2294,0.10295
63677213460173,5,0,0.3664,1.90064,1.37007,0.20241,0.03225,0.76841,0.23005,0.10179
63677213460206,5,0,0.3695,1.89871,1.36845,0.2019,0.03175,0.76916,0.23082,0.10264
63677213460240,5,0,0.36423,1.89853,1.36748,0.20141,0.03061,0.76808,0.23093,0.10426
63677213460256,5,0,0.36354,1.89318,1.36789,0.20046,0.03148,0.76764,0.22927,0.10279
63677213460305,5,0,0.37533,1.8967,1.36734,0.20135,0.03102,0.76737,0.22903,0.10278
63677213460339,5,0,0.37421,1.89892,1.36607,0.20174,0.03062,0.76915,0.23025,0.10229
63677213460372,5,0,0.38506,1.90758,1.36439,0.20099,0.02992,0.76859,0.22933,0.10268
63677213460405,5,0,0.36834,1.90461,1.36584,0.20092,0.0322,0.77058,0.2303,0.10011
63677213460421,5,0,0.36246,1.89451,1.36654,0.20165,0.03312,0.76855,0.22919,0.10016
63677213460455,5,0,0.37378,1.89989,1.36575,0.20218,0.0325,0.77187,0.23,0.09927
63677213460472,5,0,0.36695,1.89512,1.36486,0.2015,0.03209,0.77012,0.23103,0.09894
63677213460504,5,0,0.36235,1.89893,1.36417,0.20109,0.03118,0.7716,0.23086,0.09917
63677213460537,5,0,0.35525,1.89964,1.36511,0.20021,0.03095,0.77047,0.23135,0.09729
63677213460553,5,0,0.34041,1.89464,1.36553,0.20263,0.03197,0.76926,0.23028,0.09914
63677213460587,5,0,0.35268,1.90166,1.36624,0.20277,0.02989,0.77002,0.22917,0.1004
63677213460620,5,0,0.36329,1.9041,1.36756,0.20148,0.03032,0.77008,0.22943,0.09986
63677213460637,5,0,0.35385,1.90388,1.36648,0.2015,0.03175,0.76714,0.22776,0.10135
63677213460687,5,0,0.34952,1.90886,1.36639,0.20292,0.03222,0.76767,0.22779,0.1024
63677213460703,5,0,0.34653,1.90718,1.36749,0.20217,0.03272,0.76678,0.22678,0.10183
63677213460720,5,0,0.3473,1.91552,1.3634,0.20333,0.03338,0.76505,0.22541,0.10417
63677213460753,5,0,0.35186,1.90628,1.36504,0.20284,0.03265,0.76519,0.22547,0.10427
63677213460786,5,0,0.35482,1.90638,1.36681,0.20277,0.03201,0.76517,0.22754,0.1029
63677213460803,5,0,0.34482,1.89839,1.36574,0.20256,0.03134,0.76372,0.22763,0.10317
63677213460836,5,0,0.33789,1.89915,1.36482,0.2031,0.02962,0.76458,0.22806,0.10197
63677213460885,5,0,0.34253,1.89153,1.36296,0.20307,0.0279,0.76293,0.22845,0.10166
63677213460918,5,0,0.35201,1.88328,1.36131,0.20297,0.02727,0.76352,0.22986,0.10153
63677213460952,5,0,0.34321,1.88527,1.35978,0.20219,0.02673,0.76336,0.23084,0.10076
63677213460985,5,0,0.33471,1.88656,1.35647,0.20171,0.02755,0.76313,0.23058,0.09933
63677213461001,5,0,0.34027,1.89073,1.35803,0.20235,0.02848,0.76321,0.23139,0.09911
63677213461034,5,0,0.35393,1.89351,1.35282,0.20267,0.02709,0.76317,0.23101,0.09894
63677213461051,5,0,0.3531,1.89452,1.35316,0.20264,0.02727,0.76111,0.23085,0.09939
63677213461085,5,0,0.35368,1.89772,1.35034,0.20213,0.02881,0.76185,0.22952,0.10036
63677213461117,5,0,0.36087,1.90585,1.35257,0.20057,0.02965,0.76276,0.2325,0.10623
63677213461134,5,0,0.36059,1.90778,1.35525,0.20141,0.03023,0.7616,0.23106,0.10573
63677213461168,5,0,0.36661,1.90693,1.3517,0.2009,0.03033,0.76163,0.23109,0.10679
63677213461200,5,0,0.36679,1.89988,1.35292,0.20002,0.03022,0.76131,0.23052,0.10939
63677213461216,5,0,0.35671,1.89893,1.3545,0.1993,0.03171,0.76118,0.23126,0.11042
63677213461266,5,0,0.36549,1.89651,1.3548,0.1993,0.0325,0.76317,0.23178,0.10822
63677213461283,5,0,0.35652,1.89731,1.35121,0.19958,0.03154,0.7627,0.23178,0.10762
63677213461299,5,0,0.35111,1.8949,1.35104,0.19971,0.03146,0.76297,0.23065,0.10237
63677213461333,5,0,0.35824,1.89743,1.35151,0.19972,0.03252,0.76113,0.22945,0.09802
63677213461365,5,0,0.36346,1.90205,1.35093,0.19935,0.03172,0.76154,0.22919,0.10003
63677213461382,5,0,0.37508,1.90556,1.35008,0.1994,0.03144,0.76262,0.22848,0.09753
63677213461416,5,0,0.37642,1.90716,1.35077,0.20009,0.03002,0.7612,0.22792,0.0968
63677213461465,5,0,0.38503,1.90219,1.35425,0.19912,0.02818,0.75953,0.22784,0.09961
63677213461499,5,0,0.3879,1.90328,1.35527,0.19936,0.02798,0.76035,0.22884,0.09968
63677213461532,5,0,0.3866,1.90743,1.35486,0.1996,0.02752,0.75916,0.22808,0.1014
63677213461564,5,0,0.37724,1.90477,1.35359,0.20028,0.02709,0.7585,0.22778,0.10123
63677213461581,5,0,0.37405,1.90967,1.35926,0.19921,0.02789,0.75833,0.22882,0.10005
63677213461613,5,0,0.35726,1.90625,1.3564,0.19935,0.02791,0.75764,0.22891,0.10149
63677213461647,5,0,0.36977,1.90021,1.35739,0.1997,0.02794,0.75782,0.228,0.10059
63677213461663,5,0,0.35974,1.90675,1.35675,0.20065,0.02802,0.75719,0.22788,0.10086
63677213461697,5,0,0.35861,1.90896,1.35371,0.20101,0.02815,0.75735,0.22609,0.10059
63677213461747,5,0,0.34414,1.90141,1.35647,0.20155,0.02783,0.75617,0.22701,0.09815
63677213461781,5,0,0.3569,1.89702,1.3564,0.20185,0.02811,0.75434,0.22596,0.09889
63677213461813,5,0,0.34851,1.89876,1.35817,0.20086,0.02878,0.75602,0.22682,0.09839
63677213461846,5,0,0.35577,1.90375,1.35827,0.20099,0.02927,0.75457,0.22811,0.09766
63677213461863,5,0,0.34414,1.90352,1.3597,0.19919,0.03069,0.75584,0.23057,0.0958
63677213461896,5,0,0.34246,1.89674,1.36174,0.19912,0.03012,0.75358,0.2324,0.09559
63677213461912,5,0,0.34545,1.89558,1.36213,0.19825,0.03113,0.75535,0.23425,0.09345
63677213461946,5,0,0.35463,1.8958,1.36297,0.19791,0.03189,0.75529,0.23386,0.09376
63677213461978,5,0,0.34578,1.90462,1.35706,0.19797,0.0304,0.75465,0.2338,0.09463
63677213461995,5,0,0.36824,1.89486,1.35861,0.19889,0.031,0.75286,0.23416,0.09463
63677213462045,5,0,0.37215,1.89713,1.35489,0.19956,0.0295,0.75285,0.23207,0.09463
63677213462062,5,0,0.37879,1.89621,1.3555,0.19963,0.02928,0.75277,0.23055,0.09604
63677213462079,5,0,0.38583,1.89584,1.35325,0.19931,0.02933,0.7544,0.23124,0.09563
63677213462112,5,0,0.37971,1.89464,1.35715,0.19957,0.03049,0.7548,0.23097,0.09596
63677213462144,5,0,0.38039,1.90349,1.35361,0.1998,0.02895,0.75321,0.23074,0.09733
63677213462161,5,0,0.38619,1.90423,1.35164,0.19977,0.02878,0.75342,0.23007,0.09693
63677213462194,5,0,0.36583,1.90423,1.35145,0.19889,0.0282,0.75399,0.22983,0.09745
63677213462244,5,0,0.34819,1.90314,1.35318,0.19877,0.02864,0.75412,0.23123,0.09661
63677213462278,5,0,0.34507,1.90716,1.35032,0.19953,0.02823,0.75364,0.22951,0.09731
63677213462326,5,0,0.34389,1.9068,1.34665,0.19902,0.02808,0.75201,0.22753,0.09674
63677213462359,5,0,0.34791,1.90899,1.34754,0.19883,0.02838,0.75119,0.22789,0.09709
63677213462392,5,0,0.34792,1.90923,1.34832,0.19907,0.02917,0.75275,0.22924,0.09682
63677213462426,5,0,0.34859,1.91075,1.34794,0.19897,0.02779,0.75079,0.22855,0.09573
63677213462443,5,0,0.35714,1.9129,1.34877,0.20005,0.02771,0.75073,0.22725,0.09729
63677213462475,5,0,0.36342,1.90689,1.34617,0.19956,0.02771,0.7511,0.22826,0.09854
63677213462492,5,0,0.36082,1.90478,1.34811,0.19956,0.02626,0.75172,0.22967,0.09843
63677213462525,5,0,0.3559,1.90577,1.34944,0.19992,0.02773,0.75199,0.2298,0.09967
63677213462559,5,0,0.3533,1.90238,1.35131,0.20123,0.02882,0.75198,0.23018,0.09973
63677213462575,5,0,0.35167,1.90117,1.34832,0.20081,0.02837,0.75148,0.22866,0.10041
63677213462624,5,0,0.35731,1.90036,1.34779,0.20099,0.0282,0.75232,0.22851,0.10121
63677213462641,5,0,0.3621,1.89965,1.34713,0.20066,0.02858,0.7529,0.22917,0.10223
63677213462658,5,0,0.35763,1.9083,1.35092,0.19972,0.02966,0.75344,0.22948,0.10008
63677213462691,5,0,0.36193,1.91491,1.35079,0.19934,0.02968,0.75324,0.22895,0.09974
63677213462724,5,0,0.3606,1.9111,1.35031,0.19861,0.0297,0.75285,0.2297,0.09976
63677213462741,5,0,0.35963,1.91087,1.35321,0.19686,0.02893,0.75388,0.22885,0.099
63677213462774,5,0,0.36496,1.91152,1.35281,0.19677,0.02933,0.75419,0.22984,0.09921
63677213462824,5,0,0.36933,1.90918,1.35331,0.19719,0.03047,0.75178,0.22973,0.0961
63677213462857,5,0,0.37154,1.91244,1.35199,0.19915,0.03089,0.75126,0.22913,0.09616
63677213462907,5,0,0.37189,1.90335,1.34789,0.19995,0.03075,0.74937,0.22686,0.09642
63677213462940,5,0,0.37087,1.90537,1.34766,0.19946,0.03091,0.74818,0.22661,0.09661
63677213462973,5,0,0.37017,1.89983,1.34671,0.19991,0.03195,0.74734,0.22644,0.09542
63677213463006,5,0,0.35268,1.90608,1.3451,0.19991,0.03129,0.74717,0.22579,0.09705
63677213463022,5,0,0.34987,1.90186,1.34477,0.19941,0.03144,0.7472,0.22562,0.09776
63677213463055,5,0,0.34503,1.89669,1.34718,0.19857,0.03068,0.7461,0.2265,0.09743
63677213463072,5,0,0.34801,1.89538,1.34717,0.19869,0.0301,0.74533,0.22778,0.09702
63677213463105,5,0,0.34518,1.89422,1.34822,0.19729,0.0312,0.74503,0.2287,0.09767
63677213463139,5,0,0.34026,1.89139,1.34754,0.19697,0.03055,0.74374,0.22885,0.09712
63677213463172,5,0,0.34682,1.89376,1.34728,0.19829,0.03058,0.74254,0.22845,0.09833
63677213463204,5,0,0.34764,1.88988,1.35028,0.19873,0.03147,0.7422,0.22865,0.09815
63677213463221,5,0,0.35634,1.89482,1.34832,0.19922,0.03088,0.74144,0.22839,0.09957
63677213463254,5,0,0.36158,1.89609,1.34789,0.19899,0.03154,0.74114,0.2274,0.09991
63677213463287,5,0,0.35801,1.89887,1.34812,0.19917,0.03145,0.74219,0.22724,0.09845
63677213463304,5,0,0.36448,1.90414,1.34984,0.19935,0.03107,0.74282,0.22663,0.09906
63677213463320,5,0,0.3643,1.9034,1.34639,0.20025,0.03135,0.74302,0.22659,0.09879
63677213463353,5,0,0.35819,1.90309,1.34656,0.19916,0.03104,0.7419,0.22686,0.09958
63677213463387,5,0,0.34785,1.90365,1.34343,0.19942,0.03083,0.74356,0.22701,0.09876
63677213463403,5,0,0.34902,1.90238,1.34345,0.19826,0.03002,0.74223,0.22899,0.09827
63677213463437,5,0,0.34377,1.90028,1.34114,0.19776,0.02915,0.74292,0.2278,0.09616
63677213463486,5,0,0.33575,1.89729,1.33811,0.19812,0.0307,0.73866,0.22854,0.09804
63677213463520,5,0,0.3478,1.90176,1.33273,0.19709,0.03087,0.74131,0.22805,0.09767
63677213463552,5,0,0.3554,1.90405,1.33441,0.19781,0.03057,0.74001,0.22865,0.09657
63677213463585,5,0,0.36027,1.90211,1.33299,0.19801,0.02988,0.73986,0.22853,0.09596
63677213463602,5,0,0.37046,1.90701,1.33385,0.19856,0.0289,0.73843,0.22682,0.09507
63677213463635,5,0,0.37484,1.9064,1.33318,0.19879,0.02942,0.73973,0.22796,0.09598
63677213463702,5,0,0.37038,1.91473,1.33506,0.19982,0.02654,0.7405,0.22713,0.09426
63677213463735,5,0,0.36322,1.91289,1.33913,0.20083,0.02581,0.74054,0.22616,0.09435
63677213463785,5,0,0.35982,1.92288,1.33784,0.20011,0.02544,0.74011,0.22559,0.09562
63677213463802,5,0,0.34425,1.92693,1.34264,0.19944,0.02574,0.7424,0.22563,0.09805
63677213463818,5,0,0.33692,1.92643,1.34438,0.19934,0.02683,0.74285,0.22608,0.09785
63677213463867,5,0,0.32567,1.92502,1.34929,0.19905,0.02758,0.7431,0.22557,0.09803
63677213463884,5,0,0.32376,1.9284,1.35295,0.1985,0.02851,0.74446,0.22508,0.09869
63677213463917,5,0,0.32856,1.93364,1.35678,0.1969,0.02799,0.74483,0.22575,0.09827
63677213463967,5,0,0.31972,1.92972,1.36333,0.19725,0.02844,0.74625,0.22523,0.09816
63677213463983,5,0,0.32167,1.93063,1.36482,0.19823,0.02895,0.74581,0.2253,0.09855
63677213464017,5,0,0.32808,1.93076,1.36573,0.19815,0.03002,0.74649,0.22496,0.09625
63677213464066,5,0,0.35324,1.93192,1.36506,0.19865,0.0278,0.74632,0.22613,0.09643
63677213464099,5,0,0.35111,1.92786,1.36766,0.19871,0.02878,0.74605,0.2269,0.0959
63677213464132,5,0,0.35813,1.92614,1.36502,0.19938,0.02848,0.74645,0.22658,0.09685
63677213464166,5,0,0.36236,1.92887,1.36336,0.19903,0.0288,0.74682,0.22666,0.0966
63677213464198,5,0,0.36675,1.92417,1.3628,0.19817,0.02815,0.74646,0.22847,0.09712
63677213464215,5,0,0.36497,1.91959,1.36369,0.19815,0.02779,0.74634,0.22851,0.09814
63677213464265,5,0,0.35176,1.91691,1.3639,0.19897,0.02787,0.74548,0.2289,0.0984
63677213464281,5,0,0.35501,1.91723,1.36125,0.1985,0.02715,0.74464,0.22847,0.09745
63677213464314,5,0,0.35382,1.91847,1.36027,0.19843,0.02732,0.74379,0.22891,0.09771
63677213464364,5,0,0.35641,1.91176,1.35728,0.19693,0.02727,0.74044,0.22788,0.10338
63677213464398,5,0,0.35539,1.90796,1.35552,0.19648,0.02816,0.73981,0.2267,0.10487
63677213464447,5,0,0.35914,1.91842,1.35296,0.19735,0.02799,0.73793,0.22441,0.10195
63677213464464,5,0,0.36317,1.91419,1.34847,0.1955,0.02837,0.73814,0.22503,0.10211
63677213464497,5,0,0.36446,1.91327,1.34576,0.19502,0.02897,0.73806,0.22515,0.10217
63677213464514,5,0,0.3601,1.90772,1.33975,0.19463,0.0287,0.73617,0.22364,0.10303
63677213464546,5,0,0.36412,1.90386,1.33958,0.19423,0.02828,0.73481,0.2237,0.1008
63677213464579,5,0,0.36353,1.90847,1.3344,0.19489,0.02786,0.73339,0.22535,0.09972
63677213464612,5,0,0.36331,1.90804,1.32981,0.19456,0.028,0.73148,0.22547,0.09782
63677213464646,5,0,0.36575,1.89899,1.32556,0.19349,0.02809,0.73074,0.22788,0.0986
63677213464679,5,0,0.36276,1.8926,1.32232,0.19289,0.02881,0.72936,0.22792,0.09754
63677213464696,5,0,0.36742,1.89022,1.32086,0.19272,0.02919,0.72849,0.22852,0.09492
63677213464746,5,0,0.36664,1.88636,1.31793,0.19286,0.02911,0.72795,0.22702,0.09585
63677213464762,5,0,0.36016,1.88699,1.31733,0.19187,0.0298,0.72885,0.22816,0.09508
63677213464795,5,0,0.35931,1.88776,1.3177,0.19077,0.02895,0.72967,0.22996,0.0926
63677213464845,5,0,0.35708,1.88029,1.31937,0.19008,0.02952,0.72902,0.23074,0.09101
63677213464862,5,0,0.35942,1.8815,1.31446,0.1903,0.0301,0.72792,0.23076,0.09345
63677213464878,5,0,0.35686,1.87843,1.31408,0.19012,0.02903,0.72662,0.23055,0.09528
63677213464911,5,0,0.35709,1.88189,1.31399,0.18924,0.02979,0.72632,0.23121,0.10084
63677213464944,5,0,0.37325,1.88123,1.30855,0.18833,0.02902,0.7245,0.23077,0.10576
63677213464977,5,0,0.36895,1.87793,1.30346,0.18948,0.02901,0.7216,0.23175,0.10854
63677213465027,5,0,0.36039,1.87116,1.29975,0.19047,0.02929,0.72099,0.23107,0.1099
63677213465044,5,0,0.35405,1.8628,1.29686,0.18952,0.02905,0.71866,0.23199,0.11394
63677213465076,5,0,0.36235,1.86477,1.28957,0.18913,0.02938,0.71649,0.23402,0.10956
63677213465126,5,0,0.34443,1.86257,1.28331,0.18937,0.02843,0.71496,0.23707,0.09927
63677213465160,5,0,0.33427,1.85783,1.28269,0.18881,0.02886,0.71526,0.2378,0.0988
63677213465193,5,0,0.34074,1.85961,1.28074,0.18647,0.03003,0.71537,0.23853,0.09316
63677213465226,5,0,0.33986,1.85992,1.2799,0.18648,0.03055,0.7141,0.23838,0.08936
63677213465259,5,0,0.33748,1.8549,1.28087,0.18756,0.02918,0.71425,0.23721,0.08998
63677213465276,5,0,0.32807,1.85324,1.2814,0.1857,0.02923,0.71413,0.23669,0.09
63677213465325,5,0,0.32563,1.85359,1.27982,0.18552,0.02977,0.71528,0.23799,0.08883
63677213465341,5,0,0.32994,1.85403,1.27586,0.18605,0.02788,0.7157,0.23532,0.0895
63677213465375,5,0,0.3261,1.84997,1.2767,0.18495,0.02751,0.71609,0.23595,0.09343
63677213465424,5,0,0.32516,1.84584,1.27908,0.18409,0.02653,0.71698,0.23565,0.09492
63677213465441,5,0,0.32358,1.8427,1.27939,0.18562,0.02598,0.71817,0.23599,0.09559
63677213465474,5,0,0.33207,1.84492,1.27992,0.18447,0.02569,0.7201,0.23631,0.09759
63677213465491,5,0,0.3322,1.8372,1.28478,0.18514,0.02608,0.72102,0.23516,0.10008
63677213465524,5,0,0.33596,1.8443,1.28881,0.18556,0.02529,0.72307,0.23617,0.09936
63677213465558,5,0,0.33487,1.83622,1.29326,0.18419,0.02566,0.72403,0.23536,0.09867
63677213465607,5,0,0.346,1.84418,1.29585,0.18462,0.02581,0.72488,0.23573,0.09379
63677213465623,5,0,0.34041,1.85597,1.29484,0.18411,0.02528,0.72524,0.23469,0.09206
63677213465657,5,0,0.34208,1.86597,1.2932,0.18489,0.02604,0.72485,0.23381,0.09266
63677213465706,5,0,0.33956,1.87132,1.29431,0.18307,0.02695,0.72686,0.235,0.08902
63677213465739,5,0,0.34397,1.87483,1.2917,0.18464,0.02845,0.72514,0.23577,0.09162
63677213465772,5,0,0.33804,1.87261,1.2877,0.18398,0.02808,0.72481,0.23381,0.09165
63677213465805,5,0,0.3392,1.87749,1.28789,0.1851,0.02872,0.72619,0.23473,0.09191
63677213465839,5,0,0.33944,1.87294,1.28818,0.18469,0.02898,0.72528,0.23299,0.09219
63677213465872,5,0,0.33303,1.8682,1.2896,0.18585,0.02828,0.72466,0.23303,0.09148
63677213465905,5,0,0.34248,1.87026,1.28878,0.18625,0.02836,0.72415,0.23166,0.09463
63677213465939,5,0,0.34275,1.87317,1.28928,0.18653,0.02718,0.72456,0.23188,0.09389
63677213465955,5,0,0.34255,1.86931,1.29284,0.18598,0.02671,0.72518,0.23191,0.09326
63677213466005,5,0,0.33228,1.86443,1.29655,0.18752,0.02642,0.72348,0.23096,0.09394
63677213466021,5,0,0.33452,1.86384,1.29529,0.18755,0.02684,0.72244,0.23162,0.0941
63677213466055,5,0,0.32997,1.86328,1.29622,0.18677,0.02677,0.72292,0.23104,0.09291
63677213466087,5,0,0.3308,1.85671,1.29562,0.18729,0.02733,0.72154,0.23015,0.09581
63677213466104,5,0,0.32888,1.85858,1.29232,0.18792,0.02656,0.72101,0.22903,0.09643
63677213466137,5,0,0.334,1.8535,1.29024,0.18693,0.02784,0.71981,0.23006,0.09542
63677213466187,5,0,0.33477,1.85549,1.28367,0.1868,0.02668,0.71771,0.22818,0.09563
63677213466203,5,0,0.33574,1.85454,1.28061,0.18532,0.0267,0.71931,0.22787,0.09591
63677213466237,5,0,0.34069,1.85283,1.28306,0.18481,0.02722,0.71869,0.22815,0.09591
63677213466252,5,0,0.34474,1.85996,1.2802,0.18592,0.02698,0.71867,0.22907,0.09653
63677213466286,5,0,0.3427,1.86412,1.28261,0.18484,0.0266,0.71728,0.2301,0.09479
63677213466319,5,0,0.35505,1.86373,1.2854,0.18414,0.02619,0.7188,0.23167,0.09209
63677213466336,5,0,0.34964,1.86325,1.28571,0.18454,0.02604,0.7166,0.22984,0.09303
63677213466385,5,0,0.35548,1.86764,1.28973,0.1857,0.02592,0.71584,0.23021,0.09238
63677213466402,5,0,0.34983,1.86662,1.29202,0.18712,0.02588,0.716,0.23028,0.09241
63677213466419,5,0,0.34642,1.86458,1.29044,0.18726,0.02558,0.71414,0.22952,0.09202
63677213466452,5,0,0.34687,1.86311,1.29058,0.18757,0.02584,0.71537,0.22906,0.09221
63677213466485,5,0,0.35636,1.85858,1.29106,0.18744,0.02613,0.71477,0.22858,0.09213
63677213466501,5,0,0.33962,1.85597,1.29014,0.18734,0.02613,0.71598,0.22748,0.09372
63677213466535,5,0,0.33637,1.85464,1.29372,0.18691,0.02686,0.71552,0.22838,0.09247
63677213466584,5,0,0.34882,1.8478,1.29271,0.18397,0.02698,0.71718,0.22795,0.09302
63677213466618,5,0,0.34704,1.84976,1.29513,0.18392,0.02708,0.71774,0.22913,0.09193
63677213466667,5,0,0.35159,1.85159,1.29537,0.18468,0.02767,0.71654,0.22779,0.09433
63677213466684,5,0,0.34487,1.84918,1.29756,0.18346,0.02779,0.71776,0.22802,0.09337
63677213466700,5,0,0.35559,1.85115,1.29704,0.184,0.02965,0.71706,0.23054,0.09447
63677213466733,5,0,0.34644,1.85156,1.29595,0.18402,0.02877,0.71833,0.22916,0.10022
63677213466766,5,0,0.34209,1.84688,1.29532,0.18474,0.02912,0.71772,0.22849,0.09873
63677213466782,5,0,0.34065,1.84957,1.29665,0.18343,0.02932,0.7188,0.22866,0.0982
63677213466816,5,0,0.33911,1.85779,1.29389,0.18431,0.02883,0.71791,0.22809,0.0992
63677213466833,5,0,0.34751,1.85947,1.29019,0.18423,0.02813,0.71849,0.22735,0.10091
63677213466866,5,0,0.33407,1.84764,1.28926,0.18327,0.0268,0.71979,0.22831,0.09709
63677213466899,5,0,0.32834,1.85054,1.29068,0.18366,0.02562,0.71977,0.22533,0.09515
63677213466915,5,0,0.33772,1.85805,1.28957,0.18413,0.02497,0.71848,0.22534,0.08918
63677213466966,5,0,0.33541,1.856,1.28879,0.184,0.02572,0.71793,0.22729,0.09093
63677213466982,5,0,0.33954,1.85565,1.28817,0.18429,0.02521,0.7173,0.22701,0.0914
63677213466998,5,0,0.33672,1.85556,1.29027,0.18438,0.02565,0.71844,0.22843,0.08932
63677213467032,5,0,0.33457,1.85606,1.29316,0.18485,0.02564,0.71753,0.22689,0.09051
63677213467065,5,0,0.34487,1.86233,1.29572,0.18378,0.02631,0.71738,0.22676,0.09093
63677213467081,5,0,0.334,1.86008,1.29504,0.18446,0.02639,0.71664,0.22549,0.09205
63677213467114,5,0,0.32556,1.85936,1.29192,0.18404,0.02716,0.71624,0.22653,0.09195
63677213467148,5,0,0.34279,1.8575,1.29401,0.18307,0.02749,0.71622,0.22716,0.09427
63677213467164,5,0,0.35867,1.86432,1.29158,0.18296,0.02645,0.71634,0.22645,0.09448
63677213467197,5,0,0.34834,1.85682,1.29162,0.1834,0.02669,0.71591,0.22622,0.09357
63677213467221,5,0,0.34724,1.85808,1.29282,0.18283,0.02658,0.71478,0.22677,0.09426
63677213467247,5,0,0.33422,1.85244,1.28951,0.18339,0.02741,0.71409,0.22775,0.09358
63677213467280,5,0,0.34832,1.85214,1.29153,0.18341,0.02635,0.71247,0.2282,0.09285
63677213467296,5,0,0.36281,1.85823,1.29,0.18389,0.02542,0.71328,0.22681,0.09515
63677213467346,5,0,0.34455,1.85466,1.29262,0.18245,0.02583,0.71265,0.22585,0.09429
63677213467362,5,0,0.33398,1.85457,1.29354,0.18253,0.02733,0.71368,0.2258,0.09243
63677213467379,5,0,0.32912,1.85368,1.29411,0.18258,0.02635,0.71112,0.22563,0.09222
63677213467413,5,0,0.34045,1.85617,1.29142,0.18341,0.02537,0.71051,0.22406,0.09413
63677213467463,5,0,0.34639,1.85501,1.29043,0.18238,0.02524,0.71015,0.22303,0.09059
63677213467495,5,0,0.34151,1.85642,1.2914,0.18257,0.02565,0.70908,0.22446,0.09115
63677213467512,5,0,0.33541,1.85736,1.28789,0.1821,0.0261,0.70978,0.22411,0.0896
63677213467546,5,0,0.3485,1.86219,1.28637,0.18343,0.02604,0.70779,0.22414,0.08859
63677213467562,5,0,0.34915,1.85291,1.28452,0.1835,0.02585,0.70857,0.2228,0.08927
63677213467595,5,0,0.35292,1.85623,1.28624,0.18351,0.02739,0.70796,0.22295,0.09017
63677213467645,5,0,0.33953,1.8579,1.28644,0.18205,0.02763,0.70885,0.22237,0.08967
63677213467678,5,0,0.34208,1.85925,1.28445,0.18327,0.02718,0.70829,0.22112,0.09146
63677213467694,5,0,0.34749,1.85785,1.28067,0.18291,0.02691,0.70632,0.2181,0.09226
63677213467744,5,0,0.33969,1.85826,1.2787,0.18163,0.02603,0.7066,0.21935,0.09736
63677213467777,5,0,0.3307,1.85963,1.28331,0.18129,0.02676,0.70868,0.21992,0.09487
63677213467827,5,0,0.33177,1.8614,1.28343,0.18249,0.02716,0.70755,0.21855,0.09629
63677213467860,5,0,0.34195,1.85984,1.28279,0.18138,0.02705,0.7079,0.21949,0.09477
63677213467893,5,0,0.33388,1.86198,1.28935,0.18147,0.02743,0.70805,0.22068,0.09323
63677213467926,5,0,0.33473,1.8596,1.29112,0.18202,0.02677,0.70766,0.21942,0.09347
63677213467943,5,0,0.34012,1.86761,1.29426,0.1829,0.02663,0.70622,0.22071,0.0889
63677213467976,5,0,0.34506,1.87166,1.29523,0.18323,0.0256,0.70626,0.21969,0.09003
63677213467993,5,0,0.3477,1.8671,1.29382,0.18353,0.02488,0.70547,0.2192,0.09089
63677213468026,5,0,0.33966,1.86457,1.29755,0.18292,0.02539,0.70682,0.22094,0.0902
63677213468058,5,0,0.32746,1.85954,1.295,0.18385,0.02565,0.70484,0.22025,0.08954
63677213468092,5,0,0.33001,1.86526,1.29445,0.18417,0.02538,0.70556,0.22182,0.08969
63677213468125,5,0,0.3229,1.85328,1.29354,0.18454,0.02483,0.70477,0.22238,0.08895
63677213468142,5,0,0.32365,1.85915,1.29442,0.18483,0.02437,0.70429,0.2217,0.09057
63677213468175,5,0,0.32407,1.85837,1.29406,0.18356,0.02472,0.70306,0.21989,0.0919
63677213468224,5,0,0.34096,1.86046,1.29301,0.18446,0.02522,0.70111,0.21898,0.09216
63677213468241,5,0,0.34064,1.86275,1.2942,0.18341,0.02511,0.70139,0.21858,0.09197
63677213468257,5,0,0.34171,1.86157,1.29306,0.18326,0.02498,0.70087,0.21922,0.09157
63677213468307,5,0,0.34476,1.85934,1.29617,0.18196,0.02564,0.70235,0.21867,0.09172
63677213468324,5,0,0.33974,1.85764,1.29613,0.1804,0.02685,0.70055,0.21807,0.09079
63677213468357,5,0,0.33515,1.85621,1.29644,0.18148,0.02746,0.70102,0.21935,0.08877
