63677213430086,5,0,0.74235,1.98536,1.65563,0.32541,0.05743,1.3966,0.35617,0.53552
63677213430118,5,0,0.74248,1.9745,1.64293,0.31987,0.05865,1.38395,0.35504,0.52261
63677213430185,5,0,0.74285,1.93756,1.60552,0.31167,0.05775,1.34951,0.33872,0.50125
63677213430218,5,0,0.76769,1.93182,1.59935,0.30518,0.05984,1.3409,0.33804,0.49032
63677213430235,5,0,0.78119,1.92896,1.58919,0.30325,0.05956,1.33657,0.3366,0.48589
63677213430285,5,0,0.75105,1.92799,1.5835,0.30225,0.05936,1.32491,0.33011,0.48043
63677213430301,5,0,0.77245,1.92128,1.57237,0.30263,0.05811,1.31844,0.32651,0.47976
63677213430317,5,0,0.77173,1.92503,1.56462,0.30203,0.05709,1.31401,0.3252,0.47974
63677213430367,5,0,0.73152,1.91576,1.55943,0.29859,0.05867,1.31064,0.32361,0.47672
63677213430384,5,0,0.70247,1.90916,1.5514,0.29545,0.06021,1.30828,0.32455,0.46882
63677213430417,5,0,0.64517,1.89976,1.54726,0.29389,0.06096,1.30105,0.32029,0.4618
63677213430433,5,0,0.68662,1.89924,1.54466,0.2916,0.06214,1.2964,0.31946,0.46079
63677213430467,5,0,0.70406,1.8919,1.54044,0.28984,0.06329,1.29413,0.32012,0.45439
63677213430500,5,0,0.66128,1.88484,1.53654,0.2896,0.06252,1.29105,0.31874,0.45237
63677213430533,5,0,0.70297,1.88429,1.5279,0.28571,0.06524,1.28688,0.31957,0.44261
63677213430566,5,0,0.70376,1.88629,1.52541,0.2859,0.06406,1.28196,0.31481,0.44482
63677213430599,5,0,0.72178,1.88663,1.52234,0.28702,0.06306,1.27908,0.31261,0.44479
63677213430616,5,0,0.72785,1.89118,1.5171,0.28531,0.06433,1.27559,0.31179,0.44375
63677213430665,5,0,0.71319,1.88903,1.51451,0.28361,0.06561,1.27699,0.31128,0.43943
63677213430681,5,0,0.68877,1.87644,1.50373,0.2824,0.06646,1.27238,0.3088,0.43565
63677213430715,5,0,0.74033,1.8806,1.50391,0.28044,0.06675,1.27024,0.31033,0.43229
63677213430764,5,0,0.67803,1.86566,1.49736,0.28124,0.06693,1.2647,0.30927,0.43085
63677213430815,5,0,0.71653,1.8621,1.49714,0.27684,0.06872,1.26491,0.31213,0.42407
63677213430831,5,0,0.7365,1.85053,1.48513,0.27712,0.06666,1.25626,0.30923,0.42493
63677213430864,5,0,0.75731,1.85369,1.48469,0.27705,0.0673,1.25224,0.30795,0.42334
63677213430898,5,0,0.74952,1.85883,1.48295,0.2754,0.06738,1.24997,0.30713,0.42078
63677213430948,5,0,0.7312,1.86157,1.47742,0.27497,0.06779,1.24644,0.30593,0.41891
63677213430964,5,0,0.7513,1.8751,1.4736,0.27446,0.06804,1.24476,0.30709,0.41398
63677213430980,5,0,0.75156,1.8741,1.46274,0.27201,0.06699,1.23774,0.30324,0.41317
63677213431013,5,0,0.75927,1.87544,1.46448,0.26811,0.0699,1.23559,0.3062,0.40447
63677213431047,5,0,0.76306,1.87319,1.46384,0.26737,0.07006,1.23588,0.30733,0.40392
63677213431079,5,0,0.75516,1.87729,1.46182,0.26753,0.06892,1.2313,0.30615,0.40265
63677213431113,5,0,0.74402,1.87842,1.45791,0.26606,0.0702,1.23016,0.30591,0.40031
63677213431146,5,0,0.76068,1.88134,1.45217,0.26365,0.06883,1.22625,0.30162,0.40043
63677213431179,5,0,0.74767,1.86426,1.45511,0.2641,0.07029,1.2258,0.30247,0.39195
63677213431212,5,0,0.69593,1.86722,1.45869,0.26544,0.06979,1.22058,0.30254,0.39182
63677213431245,5,0,0.65448,1.86678,1.45396,0.26665,0.06895,1.21944,0.2999,0.39277
63677213431262,5,0,0.65042,1.85718,1.45262,0.26415,0.06894,1.2195,0.29952,0.39013
63677213431295,5,0,0.67768,1.86488,1.45114,0.2644,0.06811,1.22041,0.30055,0.38924
63677213431345,5,0,0.68242,1.87159,1.44757,0.26492,0.06812,1.21691,0.30017,0.38579
63677213431362,5,0,0.67302,1.8603,1.44564,0.26419,0.0683,1.21241,0.30159,0.38936
63677213431395,5,0,0.68521,1.88636,1.43943,0.26427,0.06805,1.2122,0.30149,0.3926
63677213431427,5,0,0.69232,1.88535,1.43507,0.26316,0.06761,1.21107,0.30091,0.38908
63677213431460,5,0,0.72239,1.89002,1.43242,0.26385,0.06694,1.21045,0.30096,0.38945
63677213431494,5,0,0.71101,1.88449,1.43134,0.26247,0.06909,1.20728,0.30366,0.38748
63677213431527,5,0,0.69366,1.8816,1.43366,0.26184,0.06949,1.20573,0.3045,0.38535
63677213431560,5,0,0.65718,1.88298,1.43083,0.26399,0.06857,1.20187,0.30261,0.38574
63677213431577,5,0,0.64551,1.86781,1.42889,0.26345,0.0685,1.2005,0.30284,0.38266
63677213431626,5,0,0.60038,1.86087,1.42698,0.26148,0.06944,1.19879,0.30371,0.38071
63677213431643,5,0,0.59038,1.86066,1.42868,0.26022,0.07028,1.19503,0.30455,0.37678
63677213431675,5,0,0.57576,1.85771,1.42637,0.26136,0.07036,1.19241,0.30249,0.3775
63677213431725,5,0,0.57458,1.8658,1.42609,0.26079,0.06975,1.18914,0.30151,0.37655
63677213431742,5,0,0.58028,1.86395,1.42432,0.25829,0.06869,1.18893,0.30293,0.37595
63677213431775,5,0,0.60295,1.874,1.4245,0.25886,0.0689,1.18903,0.30208,0.37724
63677213431792,5,0,0.5976,1.8766,1.42071,0.26065,0.06803,1.18481,0.29951,0.37616
63677213431825,5,0,0.63476,1.87602,1.41951,0.26109,0.06804,1.18417,0.29868,0.37658
63677213431858,5,0,0.62519,1.88255,1.41621,0.26119,0.06849,1.18265,0.29774,0.3791
63677213431892,5,0,0.64574,1.89135,1.41676,0.26053,0.06871,1.18263,0.2967,0.38059
63677213431925,5,0,0.65959,1.88748,1.4124,0.2624,0.06805,1.17951,0.29599,0.37953
63677213431941,5,0,0.6821,1.88974,1.41314,0.26164,0.06922,1.17814,0.29513,0.37798
63677213431975,5,0,0.686,1.88348,1.41179,0.26035,0.06927,1.17823,0.29548,0.37534
63677213432007,5,0,0.6981,1.88231,1.41439,0.25818,0.07033,1.17882,0.29642,0.37561
63677213432040,5,0,0.67352,1.88125,1.41581,0.25872,0.06912,1.17793,0.29492,0.3773
63677213432057,5,0,0.62993,1.859,1.4147,0.25859,0.06752,1.17555,0.29247,0.37695
63677213432106,5,0,0.62452,1.85785,1.4163,0.25685,0.06908,1.17453,0.293,0.37372
63677213432123,5,0,0.61711,1.86016,1.41629,0.25618,0.06933,1.17537,0.29421,0.37299
63677213432157,5,0,0.6123,1.84931,1.41676,0.25556,0.06989,1.17472,0.29445,0.37185
63677213432206,5,0,0.5714,1.85244,1.41632,0.25612,0.06895,1.17223,0.29206,0.372
63677213432223,5,0,0.59355,1.8637,1.41524,0.25333,0.07073,1.17244,0.29401,0.36821
63677213432240,5,0,0.59205,1.8599,1.41471,0.25386,0.07014,1.17086,0.29171,0.3675
63677213432272,5,0,0.62255,1.87579,1.41459,0.25403,0.07037,1.16982,0.29282,0.36732
63677213432305,5,0,0.61739,1.87779,1.41187,0.25391,0.07049,1.1693,0.29103,0.3686
63677213432339,5,0,0.66306,1.87808,1.40675,0.25316,0.06964,1.16675,0.29023,0.36869
63677213432373,5,0,0.67409,1.87571,1.40674,0.25189,0.07084,1.165,0.28984,0.36862
63677213432405,5,0,0.66854,1.86038,1.4071,0.25123,0.07121,1.16596,0.29091,0.3662
63677213432438,5,0,0.66077,1.86724,1.40407,0.24994,0.07224,1.16349,0.29071,0.36278
63677213432471,5,0,0.61377,1.85575,1.40316,0.24986,0.07241,1.16227,0.28977,0.36033
63677213432504,5,0,0.61222,1.85043,1.40164,0.24939,0.07183,1.16079,0.29015,0.35813
63677213432521,5,0,0.57915,1.865,1.40116,0.24985,0.0718,1.15876,0.28748,0.35898
63677213432554,5,0,0.56567,1.85632,1.39939,0.24864,0.07125,1.15709,0.2869,0.35739
63677213432603,5,0,0.57886,1.85569,1.39421,0.24833,0.0714,1.15612,0.28671,0.35555
63677213432620,5,0,0.57027,1.85074,1.39394,0.24777,0.07167,1.15458,0.28643,0.35551
63677213432654,5,0,0.59591,1.84853,1.38805,0.24953,0.07091,1.15417,0.28439,0.35675
63677213432686,5,0,0.61271,1.82317,1.38847,0.24707,0.07118,1.15339,0.28486,0.356
63677213432720,5,0,0.62533,1.80463,1.38819,0.2454,0.07172,1.15256,0.28418,0.35213
63677213432753,5,0,0.66539,1.82087,1.38766,0.24701,0.07186,1.15237,0.28389,0.35348
63677213432785,5,0,0.65845,1.84049,1.38752,0.247,0.07087,1.1488,0.28186,0.35673
63677213432802,5,0,0.62452,1.83222,1.38253,0.24686,0.07039,1.14723,0.28182,0.35313
63677213432836,5,0,0.64772,1.82401,1.38708,0.24357,0.07113,1.14706,0.28489,0.34675
63677213432885,5,0,0.63346,1.8501,1.38915,0.24454,0.07056,1.14432,0.28256,0.35036
63677213432902,5,0,0.60991,1.84374,1.38895,0.24475,0.06976,1.14395,0.28197,0.35237
63677213432935,5,0,0.58863,1.85032,1.38548,0.24558,0.06869,1.13982,0.2811,0.35109
63677213432985,5,0,0.62427,1.83625,1.37784,0.24353,0.06841,1.13835,0.2807,0.35098
63677213433018,5,0,0.57074,1.84092,1.37664,0.24527,0.06874,1.13614,0.27918,0.35197
63677213433051,5,0,0.59497,1.83958,1.37182,0.24567,0.06767,1.13375,0.27899,0.35327
63677213433084,5,0,0.59109,1.83353,1.36716,0.24706,0.06786,1.13132,0.2803,0.35181
63677213433117,5,0,0.62257,1.83981,1.36339,0.24666,0.06857,1.12937,0.28272,0.35368
63677213433133,5,0,0.63408,1.83614,1.36375,0.2455,0.06862,1.12849,0.28394,0.35116
63677213433167,5,0,0.62909,1.83634,1.36384,0.24349,0.06852,1.1285,0.28579,0.34724
63677213433200,5,0,0.60124,1.8326,1.36325,0.24511,0.06967,1.12519,0.28678,0.34528
63677213433234,5,0,0.61467,1.82685,1.36071,0.24249,0.07007,1.12495,0.29036,0.3441
63677213433266,5,0,0.63747,1.81602,1.36077,0.24048,0.06946,1.12557,0.29136,0.34317
63677213433300,5,0,0.63879,1.81477,1.35965,0.2399,0.06952,1.12259,0.29112,0.34322
63677213433317,5,0,0.61732,1.81884,1.35982,0.23892,0.07056,1.12554,0.29231,0.3395
63677213433366,5,0,0.63903,1.81871,1.35995,0.23871,0.07023,1.12355,0.29038,0.33981
63677213433383,5,0,0.6227,1.80006,1.3585,0.23907,0.07049,1.12299,0.29062,0.33614
63677213433415,5,0,0.66217,1.80578,1.35925,0.23675,0.06934,1.12238,0.28904,0.3356
63677213433465,5,0,0.63435,1.8142,1.35414,0.2393,0.0686,1.11836,0.28433,0.33818
63677213433498,5,0,0.63269,1.80753,1.3532,0.23738,0.06927,1.1169,0.28428,0.33484
63677213433531,5,0,0.61071,1.80462,1.35186,0.23774,0.06788,1.11519,0.28596,0.33293
63677213433565,5,0,0.64884,1.80815,1.3505,0.23732,0.06812,1.11445,0.28526,0.33568
63677213433598,5,0,0.61943,1.80422,1.34969,0.2378,0.0673,1.11246,0.28476,0.33382
63677213433647,5,0,0.60534,1.79942,1.34117,0.23624,0.06728,1.11107,0.28434,0.32986
63677213433680,5,0,0.63998,1.81035,1.34165,0.23497,0.06796,1.1128,0.287,0.32636
63677213433714,5,0,0.66149,1.81066,1.3393,0.23708,0.06749,1.11124,0.28281,0.33111
63677213433747,5,0,0.66699,1.81844,1.3357,0.23592,0.068,1.10999,0.28287,0.33057
63677213433780,5,0,0.66081,1.82433,1.33432,0.23557,0.06819,1.10935,0.28479,0.32902
63677213433796,5,0,0.66829,1.8108,1.33466,0.23454,0.06886,1.10909,0.28427,0.32874
63677213433847,5,0,0.66875,1.81247,1.33371,0.23351,0.06939,1.11071,0.28643,0.32784
63677213433863,5,0,0.64326,1.81521,1.33868,0.2363,0.0683,1.10819,0.28552,0.32945
63677213433896,5,0,0.66647,1.81986,1.33866,0.23579,0.06803,1.10679,0.28508,0.32841
63677213433946,5,0,0.63173,1.805,1.342,0.23613,0.06787,1.10476,0.28513,0.32735
63677213433995,5,0,0.61644,1.80486,1.34162,0.23803,0.06706,1.10505,0.28281,0.33176
63677213434012,5,0,0.64068,1.81941,1.34217,0.23916,0.06751,1.10213,0.28324,0.3336
63677213434044,5,0,0.59293,1.80759,1.34026,0.24027,0.06535,1.09888,0.28022,0.33686
63677213434078,5,0,0.61058,1.80854,1.33944,0.23975,0.06668,1.10041,0.28102,0.33525
63677213434111,5,0,0.59669,1.80567,1.33947,0.24059,0.06608,1.10021,0.27958,0.33417
63677213434145,5,0,0.65514,1.81229,1.334,0.2381,0.06786,1.10233,0.28219,0.32847
63677213434178,5,0,0.67339,1.82611,1.3339,0.2377,0.068,1.10217,0.2847,0.32568
63677213434228,5,0,0.64419,1.81778,1.3319,0.23899,0.0667,1.10186,0.28204,0.32603
63677213434244,5,0,0.63566,1.81594,1.3325,0.23667,0.06693,1.10227,0.28414,0.32363
63677213434261,5,0,0.6485,1.82058,1.33207,0.2352,0.06868,1.10316,0.2848,0.32297
63677213434294,5,0,0.65334,1.81418,1.32916,0.23536,0.06845,1.10047,0.28451,0.32195
63677213434327,5,0,0.61172,1.80694,1.32996,0.23477,0.0697,1.10152,0.28594,0.3217
63677213434360,5,0,0.60084,1.80271,1.33152,0.23634,0.06712,1.09829,0.28255,0.32587
63677213434393,5,0,0.63075,1.79922,1.32763,0.23451,0.06825,1.09967,0.28358,0.32671
63677213434426,5,0,0.63146,1.8033,1.3296,0.23387,0.06953,1.09794,0.2833,0.32575
63677213434459,5,0,0.62564,1.80006,1.32991,0.23434,0.06784,1.09792,0.28397,0.32328
63677213434492,5,0,0.6258,1.80574,1.32705,0.23265,0.06864,1.09643,0.28732,0.32013
63677213434526,5,0,0.63872,1.81729,1.32748,0.23162,0.06755,1.095,0.2864,0.32291
63677213434559,5,0,0.5947,1.81896,1.32656,0.23054,0.06901,1.096,0.28732,0.32162
63677213434591,5,0,0.60297,1.81992,1.32718,0.22921,0.06867,1.09528,0.2875,0.32021
63677213434625,5,0,0.61704,1.824,1.3306,0.2299,0.06753,1.09466,0.28805,0.3202
63677213434642,5,0,0.61595,1.8243,1.33193,0.22911,0.06919,1.09416,0.28804,0.3201
63677213434674,5,0,0.63014,1.81587,1.3339,0.22951,0.06974,1.09528,0.28864,0.31895
63677213434724,5,0,0.63063,1.81651,1.33247,0.23079,0.06847,1.0934,0.28697,0.31964
63677213434740,5,0,0.62535,1.82557,1.33022,0.23114,0.06863,1.09175,0.28735,0.32187
63677213434773,5,0,0.61681,1.83206,1.32879,0.23105,0.06935,1.09117,0.28591,0.32166
63677213434807,5,0,0.60365,1.82577,1.32646,0.23031,0.069,1.08946,0.28654,0.31858
63677213434823,5,0,0.58025,1.82356,1.32441,0.23045,0.06968,1.08887,0.28493,0.32082
63677213434857,5,0,0.58937,1.82858,1.32176,0.22997,0.06689,1.08644,0.28408,0.32093
63677213434906,5,0,0.58365,1.82257,1.3255,0.2297,0.06738,1.08626,0.28464,0.31995
63677213434923,5,0,0.58228,1.81866,1.32223,0.23126,0.06691,1.08431,0.28309,0.3211
63677213434957,5,0,0.59456,1.81282,1.3269,0.23023,0.06688,1.08428,0.28154,0.31955
63677213435006,5,0,0.58646,1.80175,1.32373,0.22984,0.06673,1.08434,0.28517,0.31613
63677213435023,5,0,0.59461,1.80742,1.3226,0.23313,0.06392,1.08114,0.28331,0.32003
63677213435040,5,0,0.57907,1.80497,1.32262,0.23409,0.0638,1.07929,0.28335,0.32285
63677213435073,5,0,0.63858,1.81302,1.32068,0.23415,0.06502,1.08065,0.28409,0.32453
63677213435105,5,0,0.65732,1.81143,1.32026,0.23439,0.06443,1.07836,0.28547,0.32374
63677213435138,5,0,0.65845,1.81938,1.32008,0.23283,0.06422,1.0808,0.28671,0.32314
63677213435171,5,0,0.60267,1.81441,1.31858,0.23419,0.06301,1.07813,0.28493,0.32403
63677213435205,5,0,0.6097,1.81503,1.31905,0.23323,0.06417,1.0773,0.28518,0.32375
63677213435238,5,0,0.58954,1.81041,1.31858,0.23107,0.06608,1.07883,0.28987,0.31551
63677213435287,5,0,0.51871,1.79596,1.31684,0.23101,0.0657,1.07916,0.28964,0.31634
63677213435304,5,0,0.51815,1.80265,1.31742,0.23089,0.06602,1.07728,0.28732,0.31913
63677213435337,5,0,0.51265,1.7891,1.31661,0.23192,0.06615,1.0785,0.28745,0.31744
63677213435387,5,0,0.53832,1.78736,1.31454,0.23202,0.06563,1.07421,0.28683,0.32052
63677213435420,5,0,0.57249,1.79849,1.31416,0.23272,0.06532,1.07423,0.28586,0.32147
63677213435454,5,0,0.57804,1.79924,1.31626,0.23239,0.06458,1.07234,0.28344,0.3221
63677213435487,5,0,0.59822,1.80419,1.31648,0.23146,0.0657,1.07173,0.28486,0.32053
63677213435519,5,0,0.62706,1.81976,1.31782,0.23091,0.06533,1.07229,0.28581,0.32037
63677213435553,5,0,0.62804,1.82249,1.31891,0.22922,0.06702,1.07286,0.2888,0.31364
63677213435585,5,0,0.61638,1.81419,1.32405,0.22902,0.06808,1.07502,0.28845,0.31479
63677213435602,5,0,0.61777,1.81375,1.3232,0.22939,0.06729,1.0734,0.28832,0.31525
63677213435636,5,0,0.62005,1.80635,1.32535,0.22931,0.0666,1.07374,0.28788,0.31632
63677213435652,5,0,0.58941,1.79656,1.32322,0.22777,0.06799,1.0745,0.2905,0.31375
63677213435685,5,0,0.58232,1.7935,1.32336,0.2269,0.06856,1.07474,0.29344,0.30933
63677213435718,5,0,0.59394,1.787,1.32522,0.22658,0.06996,1.07451,0.29536,0.30756
63677213435735,5,0,0.57472,1.78382,1.324,0.2276,0.0695,1.07322,0.29301,0.30867
63677213435784,5,0,0.58607,1.79232,1.32456,0.22798,0.06913,1.07302,0.29411,0.30662
63677213435801,5,0,0.60373,1.7955,1.32348,0.22768,0.07015,1.07273,0.29414,0.30598
63677213435818,5,0,0.57471,1.79721,1.32417,0.22813,0.07057,1.07154,0.29479,0.30557
63677213435867,5,0,0.57196,1.80093,1.32214,0.23109,0.06831,1.06857,0.29303,0.30897
63677213435883,5,0,0.57754,1.80279,1.32367,0.23132,0.06802,1.06784,0.2905,0.31029
63677213435901,5,0,0.58369,1.80447,1.32099,0.23117,0.06741,1.06653,0.29004,0.31009
63677213435933,5,0,0.55389,1.80332,1.32,0.23121,0.06765,1.06733,0.28956,0.31029
63677213435967,5,0,0.54316,1.80328,1.31507,0.23073,0.06749,1.06446,0.28948,0.31181
63677213435984,5,0,0.55521,1.79056,1.31254,0.22934,0.0672,1.06457,0.29019,0.31205
63677213436017,5,0,0.58855,1.79905,1.3132,0.22878,0.06742,1.06479,0.29039,0.31384
63677213436067,5,0,0.57682,1.78894,1.31039,0.22862,0.06665,1.06256,0.28948,0.31455
63677213436099,5,0,0.58919,1.7879,1.30462,0.22725,0.06786,1.0631,0.28947,0.31358
63677213436132,5,0,0.61328,1.78859,1.30755,0.22708,0.06683,1.06099,0.2886,0.3145
63677213436165,5,0,0.61991,1.7831,1.30466,0.22677,0.0669,1.06071,0.28734,0.31316
63677213436182,5,0,0.63755,1.78676,1.30475,0.22592,0.06649,1.05984,0.28692,0.31494
63677213436216,5,0,0.62443,1.77629,1.30334,0.22605,0.06462,1.05925,0.2852,0.31403
63677213436232,5,0,0.63205,1.7824,1.30234,0.22435,0.06571,1.05975,0.287,0.31078
63677213436265,5,0,0.65403,1.78468,1.30473,0.22367,0.06644,1.06001,0.28856,0.31017
63677213436298,5,0,0.6721,1.79148,1.30397,0.22446,0.06604,1.05925,0.28891,0.31064
63677213436314,5,0,0.65854,1.79316,1.30285,0.22458,0.06667,1.05995,0.2887,0.31022
63677213436364,5,0,0.67817,1.79343,1.30236,0.22444,0.06634,1.06009,0.28969,0.31122
63677213436380,5,0,0.63931,1.78897,1.30319,0.22432,0.0665,1.06115,0.28962,0.30973
63677213436397,5,0,0.65031,1.79104,1.30181,0.22299,0.06641,1.05964,0.29073,0.30706
63677213436431,5,0,0.61333,1.79847,1.30267,0.22278,0.06805,1.05847,0.29297,0.30506
63677213436464,5,0,0.61362,1.79432,1.30339,0.22392,0.06772,1.05828,0.29198,0.30629
63677213436480,5,0,0.59088,1.8016,1.30002,0.22442,0.06621,1.05572,0.29035,0.30881
63677213436513,5,0,0.58151,1.79698,1.29787,0.22401,0.06626,1.0541,0.29052,0.30746
63677213436547,5,0,0.56356,1.79763,1.29989,0.22378,0.06617,1.05239,0.29014,0.30765
63677213436562,5,0,0.56739,1.79462,1.29834,0.22402,0.06505,1.05143,0.28969,0.31035
63677213436596,5,0,0.55401,1.79586,1.29733,0.22623,0.06415,1.05001,0.28683,0.31397
63677213436645,5,0,0.58168,1.80143,1.29114,0.22468,0.06303,1.04944,0.28617,0.31369
63677213436679,5,0,0.56802,1.78197,1.29257,0.22474,0.06241,1.04928,0.28484,0.31537
63677213436712,5,0,0.59436,1.78037,1.29262,0.22469,0.0628,1.04769,0.28523,0.31354
63677213436745,5,0,0.59307,1.77896,1.29103,0.22536,0.06238,1.04751,0.28537,0.31424
63677213436762,5,0,0.61366,1.77626,1.28612,0.2248,0.06409,1.04637,0.28528,0.31298
63677213436795,5,0,0.63789,1.7723,1.2888,0.22196,0.06501,1.04659,0.28741,0.30829
63677213436845,5,0,0.62355,1.78327,1.28651,0.22295,0.06608,1.04543,0.28767,0.30739
63677213436878,5,0,0.60673,1.78561,1.2858,0.22125,0.06748,1.04863,0.28966,0.30016
63677213436894,5,0,0.58736,1.786,1.28917,0.22069,0.06771,1.04872,0.2907,0.30115
63677213436944,5,0,0.57613,1.7858,1.28856,0.22088,0.06807,1.05077,0.29011,0.3031
63677213436961,5,0,0.58934,1.78816,1.28738,0.22026,0.06774,1.05032,0.2905,0.30136
63677213436977,5,0,0.57274,1.79142,1.28858,0.22092,0.06719,1.04933,0.28865,0.30272
63677213437011,5,0,0.55444,1.78991,1.28785,0.22024,0.06762,1.0491,0.28923,0.30248
63677213437044,5,0,0.5501,1.78884,1.28929,0.22063,0.06584,1.04816,0.28766,0.3054
63677213437060,5,0,0.55819,1.78679,1.28863,0.22028,0.06567,1.04847,0.28733,0.30691
63677213437094,5,0,0.56205,1.78469,1.28563,0.22119,0.06522,1.04378,0.28557,0.30705
63677213437127,5,0,0.57122,1.78301,1.28677,0.22116,0.06423,1.04388,0.28548,0.30721
63677213437143,5,0,0.58935,1.78239,1.28673,0.22175,0.06421,1.0419,0.28536,0.30635
63677213437177,5,0,0.59354,1.77888,1.28421,0.22192,0.06324,1.04245,0.2851,0.30723
63677213437225,5,0,0.59049,1.77266,1.28593,0.22125,0.06404,1.04112,0.28461,0.30752
63677213437259,5,0,0.575,1.76853,1.28186,0.22248,0.06351,1.03785,0.28248,0.31018
63677213437292,5,0,0.57947,1.76774,1.27788,0.22503,0.06175,1.03677,0.27944,0.31449
63677213437326,5,0,0.59837,1.77015,1.2775,0.22415,0.06233,1.03654,0.27919,0.31346
63677213437342,5,0,0.5684,1.76886,1.27747,0.22501,0.06238,1.03601,0.27879,0.31415
63677213437375,5,0,0.60192,1.769,1.27915,0.22396,0.06353,1.03722,0.2809,0.31247
63677213437392,5,0,0.63182,1.77099,1.27958,0.22499,0.06232,1.03599,0.27994,0.31308
63677213437424,5,0,0.60096,1.77003,1.27748,0.22455,0.06178,1.0355,0.27899,0.31472
63677213437457,5,0,0.62186,1.76714,1.2783,0.22165,0.06363,1.03904,0.28302,0.30679
63677213437474,5,0,0.6115,1.76577,1.28049,0.22198,0.06238,1.03614,0.28147,0.30913
63677213437507,5,0,0.61472,1.77987,1.27841,0.22224,0.06355,1.03707,0.28291,0.30862
63677213437541,5,0,0.65119,1.78205,1.28109,0.22186,0.06381,1.03671,0.28322,0.30781
63677213437556,5,0,0.6323,1.78013,1.27923,0.22012,0.06315,1.03439,0.28402,0.30644
63677213437607,5,0,0.62109,1.77989,1.27726,0.22075,0.06288,1.03462,0.28395,0.30613
63677213437624,5,0,0.64558,1.78038,1.27962,0.21963,0.06378,1.03388,0.28326,0.3062
63677213437657,5,0,0.63768,1.78919,1.27823,0.22008,0.06262,1.03246,0.28113,0.31009
63677213437673,5,0,0.64338,1.79543,1.27588,0.21786,0.06338,1.03297,0.28114,0.3091
63677213437707,5,0,0.62718,1.78941,1.27666,0.21597,0.06366,1.03369,0.28175,0.30579
63677213437723,5,0,0.59015,1.78839,1.2756,0.21643,0.06259,1.0319,0.27933,0.30865
63677213437757,5,0,0.57513,1.78523,1.27402,0.21641,0.06327,1.03324,0.27846,0.30837
63677213437805,5,0,0.5905,1.78076,1.27508,0.21577,0.06264,1.0317,0.2758,0.30995
63677213437822,5,0,0.56951,1.77846,1.27154,0.21745,0.06159,1.0283,0.2737,0.31141
63677213437856,5,0,0.56717,1.77957,1.26891,0.21821,0.0615,1.02798,0.2746,0.30934
63677213437872,5,0,0.56983,1.76852,1.26959,0.21775,0.06192,1.02692,0.27388,0.30733
63677213437905,5,0,0.57951,1.76831,1.27186,0.21849,0.06187,1.02664,0.27293,0.30921
63677213437938,5,0,0.58248,1.76574,1.27098,0.21803,0.06265,1.02515,0.27266,0.30779
63677213437955,5,0,0.56379,1.76782,1.26922,0.21794,0.06227,1.02511,0.27254,0.30543
63677213438005,5,0,0.55757,1.76807,1.26793,0.21733,0.06251,1.02538,0.27163,0.30792
63677213438021,5,0,0.60966,1.75678,1.26553,0.21443,0.0628,1.02671,0.27247,0.30497
63677213438054,5,0,0.6384,1.75253,1.26388,0.21318,0.06298,1.02722,0.27141,0.30547
63677213438088,5,0,0.66073,1.75388,1.26147,0.21275,0.06263,1.02782,0.27074,0.30579
63677213438104,5,0,0.65787,1.75485,1.25672,0.2117,0.06267,1.0292,0.27155,0.30499
63677213438138,5,0,0.67865,1.74442,1.25785,0.21214,0.06212,1.02675,0.27076,0.30266
63677213438154,5,0,0.75221,1.76233,1.2559,0.21282,0.06183,1.02768,0.27063,0.30588
63677213438187,5,0,0.76179,1.75502,1.25736,0.21359,0.06154,1.02655,0.26955,0.30946
63677213438220,5,0,0.79907,1.7631,1.26002,0.2122,0.06289,1.02794,0.27182,0.30498
63677213438236,5,0,0.70747,1.7646,1.26289,0.21503,0.06241,1.02638,0.27195,0.3098
63677213438286,5,0,0.70752,1.76323,1.26795,0.21522,0.06241,1.02496,0.27267,0.30999
63677213438303,5,0,0.75268,1.76893,1.26929,0.21596,0.06276,1.02352,0.27192,0.31083
63677213438319,5,0,0.722,1.7738,1.27057,0.21593,0.0629,1.0246,0.2717,0.31433
63677213438353,5,0,0.6779,1.76017,1.27251,0.21434,0.06324,1.02324,0.27176,0.30949
63677213438385,5,0,0.70803,1.76263,1.27314,0.21318,0.06387,1.02442,0.27217,0.30731
63677213438402,5,0,0.66556,1.75121,1.27091,0.21503,0.06226,1.02167,0.26962,0.31076
63677213438435,5,0,0.69365,1.75935,1.27125,0.2155,0.06204,1.02132,0.26755,0.31203
63677213438452,5,0,0.69182,1.7569,1.2698,0.21581,0.06212,1.0188,0.26415,0.31364
63677213438485,5,0,0.63465,1.7524,1.26934,0.21688,0.06213,1.01826,0.26267,0.3133
63677213438518,5,0,0.59483,1.74472,1.26754,0.21687,0.06107,1.01704,0.26119,0.31429
63677213438535,5,0,0.56994,1.74394,1.26247,0.21681,0.06094,1.01482,0.26011,0.31627
63677213438584,5,0,0.57848,1.75188,1.2645,0.21643,0.062,1.01547,0.26096,0.3138
63677213438601,5,0,0.59653,1.75432,1.26508,0.21676,0.06221,1.01416,0.26062,0.31455
63677213438617,5,0,0.6112,1.74578,1.26458,0.21558,0.06308,1.01544,0.26221,0.31158
63677213438667,5,0,0.59361,1.74643,1.26116,0.21478,0.06295,1.01456,0.26386,0.31071
63677213438684,5,0,0.62189,1.75102,1.26316,0.21463,0.06234,1.01578,0.26395,0.31255
63677213438700,5,0,0.61471,1.75022,1.26219,0.21467,0.06245,1.01647,0.26416,0.31204
63677213438734,5,0,0.60254,1.7534,1.26347,0.21447,0.06275,1.0164,0.2644,0.30903
63677213438766,5,0,0.55444,1.74795,1.26695,0.21668,0.06159,1.01547,0.26291,0.31239
63677213438800,5,0,0.55338,1.75262,1.26575,0.21665,0.06194,1.01574,0.26416,0.30954
63677213438817,5,0,0.51406,1.75577,1.26825,0.21837,0.0611,1.01476,0.2633,0.3102
63677213438866,5,0,0.53879,1.76575,1.27002,0.21892,0.06145,1.0156,0.26243,0.31076
63677213438883,5,0,0.53419,1.76897,1.27161,0.21808,0.06177,1.0158,0.26359,0.30915
63677213438900,5,0,0.52601,1.76724,1.27067,0.21844,0.06208,1.01579,0.26282,0.31058
63677213438932,5,0,0.55285,1.76361,1.27327,0.21869,0.0616,1.01637,0.26305,0.30938
63677213438964,5,0,0.56391,1.76341,1.27196,0.21828,0.06184,1.0173,0.26356,0.30712
63677213438981,5,0,0.58918,1.77362,1.27331,0.21743,0.06264,1.01733,0.26388,0.30591
63677213439015,5,0,0.58972,1.77884,1.27069,0.21674,0.06177,1.01729,0.2627,0.30788
63677213439064,5,0,0.61966,1.78192,1.27216,0.21613,0.06207,1.01617,0.26195,0.30413
63677213439098,5,0,0.6143,1.78742,1.27075,0.2156,0.06235,1.01575,0.26328,0.30206
63677213439131,5,0,0.59538,1.7892,1.27129,0.21594,0.06229,1.01387,0.26211,0.30449
63677213439164,5,0,0.5939,1.7882,1.27019,0.21535,0.0629,1.01413,0.26206,0.30589
63677213439181,5,0,0.56972,1.77449,1.27069,0.21517,0.06181,1.01189,0.26074,0.30673
63677213439214,5,0,0.56964,1.76791,1.27264,0.21427,0.06156,1.01316,0.2609,0.3056
63677213439247,5,0,0.57021,1.76828,1.27615,0.21376,0.06215,1.01152,0.26091,0.30498
63677213439264,5,0,0.53366,1.75515,1.27336,0.21422,0.06256,1.0115,0.2618,0.30599
63677213439297,5,0,0.58046,1.7487,1.2761,0.21372,0.06202,1.01195,0.26155,0.3067
63677213439313,5,0,0.59648,1.74983,1.27692,0.21188,0.06295,1.01237,0.2634,0.30408
63677213439346,5,0,0.58428,1.74823,1.27623,0.21363,0.06189,1.01167,0.26333,0.30578
63677213439379,5,0,0.596,1.75704,1.27634,0.2142,0.06206,1.01037,0.26315,0.30708
63677213439396,5,0,0.60613,1.7512,1.27147,0.21395,0.06363,1.01171,0.26369,0.30597
63677213439446,5,0,0.60551,1.74541,1.2723,0.21251,0.06469,1.01152,0.26443,0.30276
63677213439462,5,0,0.62635,1.74561,1.27068,0.21225,0.06457,1.0128,0.26299,0.3038
63677213439479,5,0,0.62118,1.73966,1.26864,0.21138,0.06573,1.01146,0.26331,0.30189
63677213439512,5,0,0.6198,1.74868,1.26509,0.21258,0.06466,1.01052,0.26312,0.30555
63677213439545,5,0,0.60121,1.7476,1.26355,0.2128,0.06421,1.00853,0.26219,0.30824
63677213439578,5,0,0.6162,1.74683,1.26373,0.20946,0.06502,1.00947,0.26324,0.30319
63677213439612,5,0,0.61441,1.74714,1.26911,0.20937,0.06446,1.00938,0.26315,0.30134
63677213439645,5,0,0.6104,1.74965,1.26874,0.21002,0.06333,1.00651,0.26324,0.30496
63677213439662,5,0,0.61982,1.74574,1.27067,0.211,0.06285,1.00561,0.26297,0.30554
63677213439694,5,0,0.60729,1.74528,1.27032,0.21126,0.06152,1.0037,0.26058,0.30811
63677213439711,5,0,0.57115,1.73491,1.27096,0.21096,0.06131,1.00423,0.25958,0.30649
63677213439743,5,0,0.57213,1.73031,1.26691,0.21055,0.06083,1.00074,0.25774,0.30726
63677213439760,5,0,0.58096,1.72964,1.26287,0.21032,0.06144,1.00037,0.25719,0.30531
63677213439793,5,0,0.56509,1.71873,1.26133,0.21006,0.06078,0.99822,0.25687,0.30542
63677213439826,5,0,0.55891,1.71654,1.25638,0.21003,0.06046,0.99734,0.2553,0.3074
63677213439843,5,0,0.54949,1.71308,1.24636,0.20775,0.06069,0.99629,0.25335,0.30647
63677213439876,5,0,0.5589,1.71536,1.24405,0.2075,0.06079,0.99539,0.25405,0.30654
63677213439893,5,0,0.58701,1.71537,1.24428,0.20631,0.0618,0.99469,0.25492,0.30393
63677213439926,5,0,0.58496,1.71893,1.24549,0.2059,0.06163,0.99532,0.25594,0.30216
63677213439959,5,0,0.56375,1.70775,1.24619,0.20622,0.06094,0.99438,0.25522,0.30332
63677213439976,5,0,0.55605,1.71959,1.24562,0.20637,0.06139,0.99382,0.25515,0.30422
63677213440026,5,0,0.56125,1.71824,1.24406,0.20707,0.06064,0.99216,0.25388,0.30558
