63675478737306,2,0,2.25861,1.21271,0.45996,0.65627,0.11534,0.22412,4.80325,3.13412
63675478737340,2,0,2.27993,1.27972,0.44291,0.69317,0.11161,0.20073,4.80312,3.16172
63675478737390,2,0,2.38842,1.25793,0.4465,0.69203,0.11587,0.21005,4.80221,3.11071
63675478737423,2,0,2.37495,1.24109,0.4425,0.68099,0.12176,0.20502,4.80859,3.14713
63675478737439,2,0,2.28981,1.24865,0.42591,0.65984,0.11328,0.19971,4.79733,3.14635
63675478737472,2,0,2.44467,1.20022,0.4358,0.64406,0.10595,0.20936,4.80291,3.13106
63675478737489,2,0,2.4265,1.23189,0.45187,0.63068,0.10744,0.21144,4.79549,3.15595
63675478737522,2,0,2.38811,1.27786,0.45527,0.63423,0.10783,0.20521,4.79233,3.15664
63675478737572,2,0,2.46641,1.19551,0.45518,0.6166,0.09531,0.21634,4.77883,3.15123
63675478737604,2,0,2.4547,1.19851,0.45856,0.61516,0.09197,0.21641,4.78137,3.10616
63675478737621,2,0,2.50833,1.22886,0.46022,0.63929,0.09707,0.20622,4.76788,3.14396
63675478737671,1,0,2.34058,1.18008,0.44819,0.66559,0.10093,0.20197,4.74636,3.08725
63675478737704,1,0,2.50229,1.14068,0.46405,0.64879,0.10173,0.22589,4.74875,3.05687
63675478737721,1,0,2.45316,1.10546,0.49014,0.60589,0.10026,0.23372,4.73928,3.03618
63675478737754,1,0,2.32037,1.15283,0.48673,0.60539,0.1042,0.22479,4.73595,3.07888
63675478737787,1,0,2.32758,1.17394,0.47811,0.63932,0.1088,0.21732,4.73168,3.09622
63675478737804,1,0,2.42122,1.17215,0.4773,0.6094,0.10768,0.23702,4.75468,3.04488
63675478737853,1,0,2.45231,1.22968,0.47512,0.58377,0.11238,0.23392,4.75015,3.10238
63675478737869,0,0,2.51656,1.27689,0.47992,0.57445,0.12465,0.24511,4.78977,3.06913
63675478737886,2,0,2.3515,1.26137,0.45835,0.57217,0.1348,0.23368,4.79124,3.06029
63675478737919,2,0,2.3168,1.26995,0.45118,0.61549,0.13299,0.22777,4.8136,3.0692
63675478737952,2,0,2.39098,1.24205,0.45515,0.6255,0.13775,0.23201,4.81725,3.03629
63675478737969,2,0,2.41752,1.26929,0.443,0.59648,0.14162,0.23501,4.83222,3.00558
63675478738003,2,0,2.48361,1.27143,0.45171,0.60241,0.1359,0.24154,4.8229,3.01665
63675478738052,2,0,2.21684,1.23623,0.41627,0.64664,0.13155,0.21296,4.80207,3.08969
63675478738086,2,0,2.38272,1.22918,0.41748,0.65192,0.12074,0.21033,4.79626,3.12126
63675478738119,2,0,2.48272,1.22967,0.41496,0.61209,0.11871,0.20901,4.79989,3.08156
63675478738152,2,0,2.42597,1.22379,0.41642,0.59412,0.1136,0.2075,4.78655,3.1173
63675478738169,2,0,2.47289,1.21887,0.41999,0.60634,0.11333,0.20294,4.79007,3.15033
63675478738200,2,0,2.42467,1.23775,0.42348,0.60646,0.11157,0.2001,4.79073,3.18449
63675478738251,2,0,2.51493,1.19756,0.42996,0.56377,0.10921,0.21691,4.79757,3.11376
63675478738267,2,0,2.53856,1.14465,0.44177,0.58857,0.10171,0.22116,4.78956,3.12592
63675478738284,1,0,2.47808,1.18113,0.43,0.57271,0.09821,0.20812,4.79522,3.10611
63675478738333,1,0,2.16227,1.19753,0.42012,0.58449,0.09251,0.19906,4.77524,3.10179
63675478738367,1,0,2.03444,1.16184,0.44378,0.57667,0.08581,0.20085,4.77964,3.08954
63675478738400,1,0,2.01752,1.15449,0.4283,0.60542,0.09395,0.20361,4.7601,3.07425
63675478738433,1,0,1.96119,1.15242,0.42557,0.61237,0.09435,0.19655,4.76571,3.11467
63675478738450,1,0,1.88797,1.17972,0.41349,0.61971,0.11417,0.18688,4.74932,3.14312
63675478738466,1,0,1.99974,1.1682,0.4174,0.60747,0.14048,0.19555,4.75152,3.16447
63675478738499,1,0,2.13722,1.17774,0.421,0.64242,0.15736,0.21032,4.7424,3.17378
63675478738533,1,0,2.22456,1.16629,0.41968,0.64737,0.18005,0.22441,4.74672,3.10482
63675478738549,1,0,2.22588,1.16695,0.40824,0.65261,0.18464,0.22601,4.74558,3.10775
63675478738582,0,0,2.2262,1.17762,0.40521,0.626,0.18233,0.21791,4.75065,3.08607
63675478738632,2,0,2.31382,1.20855,0.41651,0.62318,0.17112,0.21479,4.77449,3.11039
63675478738665,2,0,2.40872,1.15856,0.43398,0.62987,0.14403,0.22841,4.78157,3.02957
63675478738698,2,0,2.33519,1.18193,0.43541,0.60288,0.12359,0.22112,4.79034,3.02059
63675478738731,2,0,2.3856,1.16734,0.43037,0.61676,0.12183,0.21477,4.79304,3.06602
63675478738748,2,0,2.32523,1.18853,0.43925,0.63896,0.11016,0.2098,4.80583,3.12789
63675478738781,2,0,2.30644,1.15163,0.4467,0.63656,0.12304,0.20287,4.81543,3.10178
63675478738814,2,0,2.28662,1.15904,0.4408,0.64307,0.1205,0.19796,4.81255,3.12603
63675478738831,2,0,2.28066,1.13181,0.44598,0.62986,0.11148,0.20461,4.80923,3.07703
63675478738863,2,0,2.14365,1.19105,0.42956,0.65278,0.11656,0.18983,4.80376,3.13525
63675478738880,2,0,2.18553,1.20516,0.4146,0.66861,0.12641,0.18447,4.80419,3.13804
63675478738914,2,0,2.17477,1.16555,0.42755,0.66914,0.12032,0.1943,4.79873,3.11062
63675478738947,2,0,2.0375,1.17832,0.41784,0.67246,0.12077,0.19309,4.79805,3.07705
63675478738964,2,0,2.05382,1.22796,0.39916,0.67911,0.12937,0.19378,4.80107,3.11161
63675478739013,2,0,1.90321,1.24117,0.39459,0.67168,0.13087,0.19748,4.80519,3.10245
63675478739030,2,0,1.90964,1.2154,0.39434,0.66842,0.12829,0.20642,4.80351,3.07141
63675478739046,2,0,1.8611,1.21038,0.3931,0.64189,0.12718,0.19802,4.80301,3.06295
63675478739079,2,0,1.82707,1.13802,0.40593,0.64505,0.12627,0.20299,4.79976,3.06272
63675478739111,2,0,1.79391,1.17871,0.40428,0.61977,0.12839,0.19881,4.80156,3.0588
63675478739128,2,0,1.85059,1.17498,0.39647,0.62909,0.14096,0.19417,4.7869,3.05844
63675478739161,2,0,1.84201,1.12412,0.41471,0.60316,0.12649,0.20593,4.78118,3.024
63675478739212,2,0,1.87118,1.12977,0.42522,0.66091,0.13959,0.19955,4.76357,3.04648
63675478739245,2,0,1.81949,1.1269,0.4279,0.6786,0.13636,0.207,4.74785,3.04306
63675478739278,2,0,1.69092,1.16106,0.41597,0.65487,0.14256,0.19391,4.74623,3.07048
63675478739311,1,0,1.56243,1.11027,0.43212,0.63145,0.13168,0.19598,4.73182,3.05765
63675478739344,1,0,1.5162,1.13903,0.43077,0.60164,0.11859,0.19467,4.73641,3.09224
63675478739378,1,0,1.57768,1.14644,0.42668,0.6184,0.11558,0.18809,4.73417,3.08109
63675478739411,1,0,1.48663,1.1343,0.42839,0.60144,0.10963,0.1828,4.74627,3.06888
63675478739428,1,0,1.45827,1.12787,0.41928,0.60135,0.10954,0.18237,4.73804,3.07933
63675478739460,1,0,1.5008,1.12763,0.41523,0.61166,0.11898,0.17972,4.74899,3.06257
63675478739493,1,0,1.51045,1.13664,0.41098,0.60842,0.11496,0.17996,4.77255,3.0749
63675478739526,1,0,1.53706,1.12849,0.4106,0.6445,0.1201,0.17699,4.76796,3.07138
63675478739543,1,0,1.53941,1.11046,0.40449,0.65672,0.13235,0.1697,4.78951,3.03794
63675478739592,1,0,1.49541,1.10542,0.39609,0.64971,0.12415,0.17216,4.8004,3.03995
63675478739609,1,0,1.50627,1.12365,0.39884,0.65613,0.11809,0.17701,4.79866,3.03123
63675478739643,1,0,1.48865,1.12516,0.40046,0.64756,0.11909,0.17899,4.81262,3.04159
63675478739692,1,0,1.43734,1.11786,0.39958,0.65999,0.11163,0.18331,4.81229,3.0242
63675478739709,1,0,1.41975,1.12565,0.39913,0.66451,0.10862,0.18612,4.81829,3.03823
63675478739742,1,0,1.33732,1.13121,0.40876,0.59763,0.08712,0.20079,4.81671,3.01575
63675478739791,1,0,1.32258,1.14441,0.4088,0.62287,0.09033,0.19201,4.8182,3.04965
63675478739808,1,0,1.31051,1.1432,0.40524,0.61374,0.08933,0.18894,4.81789,3.03936
63675478739841,1,0,1.2973,1.13926,0.40472,0.58947,0.09306,0.18612,4.81524,3.05875
63675478739857,1,0,1.25564,1.14751,0.40751,0.5708,0.08677,0.1778,4.81133,3.07795
63675478739890,1,0,1.20246,1.12496,0.40902,0.58196,0.08628,0.17478,4.81093,3.064
63675478739924,1,0,1.30424,1.13612,0.41241,0.57785,0.08658,0.16851,4.79968,3.07149
63675478739974,1,0,1.31146,1.13309,0.41281,0.59832,0.08593,0.17088,4.80238,3.0439
63675478739990,1,0,1.34257,1.16135,0.41753,0.56943,0.09204,0.1737,4.78605,3.04159
63675478740006,1,0,1.50512,1.16226,0.41551,0.56549,0.08497,0.1722,4.77126,3.03944
63675478740040,1,0,1.49355,1.15338,0.41738,0.58153,0.08749,0.17194,4.77111,3.06064
63675478740073,1,0,1.47046,1.16956,0.40879,0.59348,0.08871,0.17002,4.75144,3.05459
63675478740107,1,0,1.50311,1.16862,0.40774,0.5708,0.08853,0.17018,4.75629,3.04848
63675478740140,1,0,1.61241,1.19125,0.39362,0.58576,0.10033,0.16891,4.74285,3.11654
63675478740172,1,0,1.47021,1.16336,0.39288,0.58007,0.09365,0.16768,4.73666,3.10924
63675478740189,1,0,1.6671,1.15596,0.38911,0.59517,0.09505,0.16789,4.73777,3.13061
63675478740222,1,0,1.6085,1.14449,0.40126,0.60968,0.09218,0.17359,4.74007,3.1274
63675478740272,1,0,1.82391,1.15374,0.39602,0.62138,0.09407,0.17497,4.73745,3.12086
63675478740289,1,0,1.90658,1.15988,0.4077,0.62273,0.0902,0.18087,4.73575,3.13463
63675478740321,1,0,1.85055,1.1529,0.40237,0.63067,0.09501,0.17202,4.74894,3.14612
63675478740371,1,0,1.88591,1.13261,0.41328,0.60742,0.09082,0.17983,4.74668,3.09503
63675478740387,1,0,2.0562,1.17262,0.40415,0.61402,0.09194,0.18192,4.75526,3.09355
63675478740421,1,0,2.21064,1.17124,0.40437,0.58854,0.09504,0.17744,4.7681,3.06752
63675478740438,1,0,2.28186,1.20156,0.40544,0.59326,0.09661,0.17787,4.76521,3.07682
63675478740470,1,0,2.24533,1.15447,0.41565,0.60187,0.0905,0.18384,4.79206,3.06585
63675478740504,1,0,2.22522,1.1988,0.40298,0.59986,0.09727,0.17288,4.78788,3.05434
63675478740554,1,0,2.50208,1.17715,0.41953,0.60694,0.09045,0.1854,4.7952,3.06248
63675478740571,1,0,2.46743,1.14772,0.42826,0.60784,0.0838,0.19021,4.80481,3.01954
63675478740604,1,0,2.36312,1.14014,0.43359,0.59021,0.08538,0.19562,4.80185,3.03923
63675478740620,1,0,2.29171,1.15141,0.41885,0.61372,0.09036,0.19452,4.80116,3.07283
63675478740654,1,0,2.20354,1.10685,0.42173,0.5891,0.08514,0.20087,4.7992,3.05399
63675478740686,1,0,2.25659,1.12257,0.4252,0.61209,0.0837,0.20534,4.79604,3.06252
63675478740719,1,0,2.1625,1.13871,0.43439,0.60383,0.08638,0.19519,4.7975,3.07401
63675478740752,1,0,1.89445,1.16491,0.41679,0.60244,0.08866,0.18898,4.79482,3.06312
63675478740769,1,0,1.72085,1.143,0.40983,0.58043,0.08826,0.18667,4.79737,3.07055
63675478740802,1,0,1.68283,1.12147,0.40281,0.59766,0.08367,0.18733,4.79602,3.04219
63675478740852,1,0,1.5596,1.13603,0.42341,0.63238,0.08177,0.18382,4.79332,3.04351
63675478740868,1,0,1.43176,1.11352,0.42186,0.60706,0.08081,0.18152,4.79593,3.05068
63675478740901,1,0,1.54722,1.08241,0.42565,0.59687,0.08053,0.18343,4.78359,3.03686
63675478740951,1,0,1.51973,1.06038,0.4093,0.62032,0.07609,0.1826,4.78576,3.03401
63675478740968,1,0,1.65421,1.09677,0.40306,0.67385,0.07969,0.1779,4.779,3.03255
63675478740985,1,0,1.72531,1.12191,0.40008,0.67502,0.08941,0.17588,4.7605,3.01142
63675478741018,1,0,1.71421,1.11602,0.39719,0.65031,0.08796,0.18411,4.76801,3.01619
63675478741067,1,0,1.74259,1.14099,0.41139,0.61321,0.08904,0.18156,4.75582,2.98881
63675478741084,1,0,1.62146,1.13602,0.40937,0.62839,0.08927,0.1796,4.74027,2.99926
63675478741133,1,0,1.72911,1.16353,0.40851,0.59702,0.08829,0.17797,4.74553,3.00923
63675478741150,1,0,1.76311,1.14778,0.40817,0.58526,0.08795,0.17856,4.73439,3.00713
63675478741183,1,0,1.64004,1.13426,0.41464,0.5446,0.08432,0.17791,4.73689,3.0228
63675478741232,1,0,1.52252,1.10948,0.40248,0.57813,0.08076,0.17033,4.73806,3.01428
63675478741266,1,0,1.45571,1.09992,0.39387,0.57977,0.07776,0.17536,4.74621,3.02318
63675478741299,1,0,1.50608,1.12019,0.38928,0.56798,0.07648,0.17466,4.75737,3.03097
63675478741332,1,0,1.39436,1.09453,0.39418,0.5699,0.07384,0.17624,4.75578,3.0096
63675478741365,1,0,1.47747,1.11456,0.38727,0.57451,0.07162,0.17657,4.77357,3.02219
63675478741382,1,0,1.44499,1.1026,0.3793,0.58232,0.07332,0.17322,4.78896,3.03347
63675478741432,1,0,1.53538,1.10409,0.37911,0.58179,0.07054,0.17349,4.78899,3.01883
63675478741448,1,0,1.58349,1.08735,0.37105,0.58017,0.07254,0.17031,4.79926,3.01527
63675478741482,1,0,1.70717,1.10856,0.37247,0.56723,0.07516,0.16491,4.79482,3.02411
63675478741532,1,0,1.63177,1.04547,0.37645,0.57115,0.08027,0.16811,4.81548,2.96365
63675478741565,1,0,1.43659,1.03415,0.37129,0.56418,0.07946,0.16996,4.81225,2.93655
63675478741597,1,0,1.41609,1.05114,0.39273,0.53628,0.07795,0.17335,4.81122,2.94055
63675478741630,1,0,1.27824,1.05659,0.38964,0.55694,0.08228,0.1675,4.81096,2.95505
63675478741663,1,0,1.23728,1.03124,0.39343,0.57673,0.08038,0.17095,4.81076,2.92823
63675478741713,1,0,1.32053,1.04789,0.37687,0.58879,0.08267,0.17277,4.81175,2.94478
63675478741746,1,0,1.18238,1.03999,0.38192,0.59028,0.07979,0.17376,4.81038,2.92512
63675478741779,1,0,1.2607,1.04759,0.38783,0.6126,0.08123,0.17314,4.81095,2.92382
63675478741812,1,0,1.46272,1.04313,0.37546,0.58986,0.07873,0.16923,4.81378,2.91882
63675478741846,1,0,1.25752,1.03159,0.37751,0.59439,0.07541,0.17294,4.81281,2.914
63675478741879,1,0,1.31477,1.04351,0.37571,0.55118,0.07415,0.17103,4.81504,2.91438
63675478741911,1,0,1.31412,1.00951,0.39516,0.53598,0.07101,0.16827,4.81769,2.90049
63675478741944,1,0,1.43115,1.03455,0.38899,0.54361,0.07511,0.16066,4.81962,2.92025
63675478741961,1,0,1.31545,1.04193,0.38737,0.52523,0.07437,0.16093,4.81836,2.91902
63675478742011,1,0,1.19109,1.02442,0.38938,0.54139,0.07486,0.16132,4.80985,2.9135
63675478742028,1,0,1.1657,1.02834,0.38467,0.55492,0.0746,0.16108,4.80765,2.90418
63675478742044,1,0,1.20282,1.03702,0.38603,0.54072,0.07712,0.15807,4.80143,2.90834
63675478742078,1,0,1.21447,1.03297,0.38324,0.55852,0.07695,0.15942,4.8026,2.90568
63675478742111,1,0,1.18609,1.05142,0.38027,0.55476,0.07381,0.15781,4.78357,2.89492
63675478742127,1,0,1.20252,1.05141,0.38741,0.54717,0.07117,0.15981,4.76956,2.89177
63675478742161,1,0,1.29176,1.03438,0.38381,0.54447,0.07177,0.15848,4.7753,2.89482
63675478742211,1,0,1.33528,1.04287,0.38696,0.54721,0.07283,0.16341,4.76405,2.89059
63675478742244,1,0,1.42807,1.04785,0.37654,0.55052,0.07156,0.16352,4.74628,2.8773
