63675472815038,5,0,0.21381,0.88124,0.40705,0.66721,1.08678,0.53489,4.20425,1.02665
63675472815088,5,0,0.1991,0.83523,0.38208,0.62776,1.04933,0.51123,4.20003,1.03536
63675472815121,5,0,0.18921,0.86496,0.36787,0.59475,0.95411,0.47563,4.19355,1.0315
63675472815137,5,0,0.19128,0.7245,0.37437,0.5476,0.91614,0.47773,4.18557,1.02178
63675472815170,5,0,0.19007,0.72128,0.36151,0.53666,0.96371,0.47615,4.1834,1.02081
63675472815187,5,0,0.18417,0.6849,0.34968,0.45634,0.81887,0.45571,4.20223,1.00492
63675472815221,5,0,0.18185,0.67414,0.35485,0.43373,0.75026,0.46594,4.20276,1.00772
63675472815237,5,0,0.18783,0.66541,0.34839,0.40187,0.70454,0.46641,4.20209,1.0099
63675472815271,5,0,0.17776,0.67707,0.33721,0.37912,0.70127,0.45944,4.20451,0.99662
63675472815304,5,0,0.17399,0.67761,0.33195,0.37658,0.67402,0.46753,4.20975,0.997
63675472815337,5,0,0.18048,0.70058,0.34545,0.37582,0.60113,0.45859,4.21006,0.98939
63675472815370,5,0,0.17346,0.70693,0.33196,0.36884,0.62161,0.45949,4.20984,0.98645
63675472815403,5,0,0.17288,0.68197,0.32012,0.36639,0.63982,0.45904,4.20973,0.98274
63675472815435,5,0,0.15817,0.6988,0.31908,0.36856,0.62458,0.46382,4.21052,0.98267
63675472815469,5,0,0.16531,0.7191,0.29665,0.36784,0.64578,0.46793,4.20613,0.97827
63675472815486,5,0,0.16845,0.71968,0.29958,0.3641,0.64352,0.45277,4.20755,0.98887
63675472815519,5,0,0.15235,0.68491,0.29215,0.36594,0.6586,0.45218,4.20766,0.99031
63675472815568,5,0,0.14574,0.69072,0.304,0.37141,0.6533,0.45728,4.20846,0.99336
63675472815586,5,0,0.13772,0.66501,0.29584,0.3668,0.64519,0.4551,4.20486,0.99798
63675472815619,5,0,0.13958,0.7139,0.29711,0.36182,0.65807,0.45129,4.20165,0.99627
63675472815668,5,0,0.13259,0.67955,0.29906,0.35975,0.61029,0.45225,4.20088,0.98741
63675472815701,5,0,0.13264,0.67705,0.30215,0.36123,0.63034,0.4532,4.201,0.98198
63675472815751,5,0,0.12803,0.63629,0.29467,0.3567,0.61311,0.44867,4.19854,0.9711
63675472815784,5,0,0.12859,0.6218,0.30335,0.35831,0.57636,0.45142,4.1962,0.95867
63675472815817,5,0,0.12707,0.57037,0.29507,0.35939,0.57529,0.44512,4.19891,0.94884
63675472815850,5,0,0.11948,0.5692,0.28669,0.36052,0.57616,0.44521,4.19631,0.94465
63675472815867,5,0,0.12029,0.53131,0.2892,0.35595,0.58017,0.44394,4.1987,0.93579
63675472815900,5,0,0.12645,0.58319,0.28309,0.35261,0.55846,0.43805,4.19553,0.92951
63675472815916,5,0,0.13097,0.55953,0.29438,0.35775,0.58331,0.44096,4.19653,0.92451
63675472815950,5,0,0.13262,0.61983,0.28936,0.3493,0.57162,0.44003,4.19706,0.92287
63675472815983,5,0,0.14019,0.61203,0.29142,0.35045,0.57152,0.44036,4.19836,0.91897
63675472816000,5,0,0.13742,0.63254,0.31342,0.35539,0.57792,0.43737,4.1993,0.91876
63675472816048,5,0,0.14058,0.62257,0.31282,0.35495,0.5732,0.43485,4.1983,0.92505
63675472816065,5,0,0.14245,0.64475,0.31452,0.35733,0.57223,0.43772,4.19803,0.93808
63675472816082,5,0,0.13978,0.58981,0.31262,0.35507,0.59293,0.43752,4.19932,0.94279
63675472816115,5,0,0.13382,0.58544,0.30568,0.35273,0.57253,0.4651,4.19936,0.94761
63675472816148,5,0,0.13523,0.57007,0.30821,0.35602,0.58543,0.45625,4.19825,0.95296
63675472816182,5,0,0.13545,0.55137,0.29327,0.3572,0.6223,0.45789,4.19773,0.96278
63675472816199,5,0,0.14382,0.56915,0.27722,0.35297,0.61227,0.4565,4.19587,0.96688
63675472816231,5,0,0.14986,0.59587,0.26979,0.35063,0.61756,0.45734,4.19686,0.96542
63675472816264,5,0,0.15414,0.58946,0.27427,0.34966,0.61153,0.45417,4.19665,0.96303
63675472816280,5,0,0.15035,0.58647,0.27092,0.34835,0.58859,0.44924,4.19757,0.96195
63675472816330,5,0,0.15386,0.5948,0.26536,0.34941,0.59271,0.42841,4.20011,0.95599
63675472816347,5,0,0.15431,0.60111,0.26413,0.35246,0.58729,0.43848,4.19913,0.95094
63675472816363,5,0,0.14899,0.58911,0.26525,0.35088,0.55548,0.43581,4.20077,0.94171
63675472816397,5,0,0.13973,0.57029,0.26629,0.35065,0.55967,0.43699,4.20182,0.93453
63675472816430,5,0,0.13608,0.57763,0.26696,0.35138,0.55118,0.4398,4.20217,0.92938
63675472816447,5,0,0.13272,0.56308,0.26251,0.35117,0.56958,0.44076,4.20245,0.92567
63675472816480,5,0,0.12806,0.5603,0.27522,0.35184,0.57458,0.44241,4.20443,0.92217
63675472816529,5,0,0.12893,0.60414,0.28956,0.35306,0.55639,0.4387,4.20385,0.91022
63675472816563,5,0,0.12895,0.57885,0.28916,0.35163,0.54755,0.43835,4.20436,0.90343
63675472816595,5,0,0.1281,0.6212,0.28191,0.34818,0.55161,0.4377,4.20658,0.89445
63675472816628,5,0,0.12705,0.60054,0.30365,0.35027,0.5554,0.43681,4.20775,0.88985
63675472816645,5,0,0.12983,0.62716,0.30813,0.3491,0.53996,0.43751,4.20658,0.88515
63675472816678,5,0,0.13666,0.61993,0.29544,0.3491,0.54466,0.4384,4.20664,0.87913
63675472816695,5,0,0.12462,0.57615,0.27877,0.34982,0.52358,0.43565,4.20626,0.87541
63675472816728,5,0,0.1254,0.59548,0.28881,0.3492,0.5481,0.43604,4.20694,0.87178
63675472816761,5,0,0.1246,0.60959,0.28472,0.3468,0.5466,0.43512,4.20582,0.86516
63675472816778,5,0,0.11939,0.57572,0.28472,0.34789,0.54195,0.43499,4.20608,0.86325
63675472816828,5,0,0.13432,0.58284,0.2923,0.34964,0.52386,0.43693,4.20236,0.85695
63675472816844,5,0,0.12499,0.56812,0.27037,0.34977,0.54157,0.43819,4.20268,0.84989
63675472816861,5,0,0.12301,0.58067,0.27321,0.34785,0.5385,0.43853,4.20166,0.84565
63675472816911,5,0,0.12439,0.58803,0.28629,0.34735,0.54763,0.43835,4.20065,0.84244
63675472816927,5,0,0.1275,0.57149,0.27977,0.34886,0.52368,0.43697,4.20027,0.8377
63675472816944,5,0,0.12445,0.54938,0.30195,0.35632,0.53832,0.43866,4.20097,0.83946
63675472816977,5,0,0.12339,0.55994,0.31001,0.35817,0.53957,0.4401,4.19839,0.83624
63675472817009,5,0,0.11462,0.5305,0.3039,0.35677,0.54456,0.44074,4.1994,0.83386
63675472817026,5,0,0.12596,0.53902,0.30118,0.35836,0.53876,0.43914,4.19962,0.82906
63675472817059,5,0,0.12124,0.51518,0.30506,0.36132,0.53568,0.44093,4.1982,0.8296
63675472817109,5,0,0.12386,0.53543,0.29948,0.36342,0.53071,0.44134,4.19738,0.82355
63675472817143,5,0,0.12579,0.54905,0.28475,0.3581,0.51538,0.44139,4.19527,0.82054
63675472817176,5,0,0.13057,0.53736,0.27547,0.35571,0.52365,0.44062,4.19485,0.81685
63675472817209,5,0,0.12965,0.54832,0.28261,0.35771,0.51672,0.43907,4.19397,0.81611
63675472817226,5,0,0.12896,0.60291,0.29235,0.35997,0.51035,0.43751,4.19233,0.8143
63675472817259,5,0,0.13772,0.62626,0.27983,0.35609,0.51147,0.43637,4.19157,0.80825
63675472817292,5,0,0.13797,0.63388,0.27646,0.35645,0.51639,0.43689,4.19089,0.80617
63675472817308,5,0,0.1387,0.61724,0.27215,0.35545,0.51299,0.4368,4.1908,0.80279
63675472817341,5,0,0.13734,0.60591,0.27946,0.35498,0.51463,0.43714,4.18964,0.80179
63675472817358,5,0,0.14069,0.62414,0.27718,0.35594,0.50503,0.43287,4.19134,0.79499
63675472817391,5,0,0.13609,0.62963,0.27907,0.35637,0.5063,0.43338,4.19129,0.79272
63675472817424,5,0,0.12876,0.56515,0.27326,0.35192,0.5118,0.43152,4.19151,0.79329
63675472817441,5,0,0.12971,0.55819,0.27808,0.35149,0.50978,0.43206,4.1926,0.79429
63675472817490,5,0,0.12905,0.58195,0.2855,0.35397,0.5112,0.43406,4.19117,0.79248
63675472817507,5,0,0.13369,0.58868,0.2879,0.3543,0.51073,0.43319,4.19019,0.79451
63675472817523,5,0,0.13595,0.58612,0.28507,0.3539,0.50968,0.43333,4.18947,0.79263
63675472817556,5,0,0.13613,0.61272,0.29242,0.35392,0.50996,0.43374,4.1893,0.79167
63675472817590,5,0,0.14129,0.61753,0.29011,0.35555,0.51575,0.43469,4.18865,0.79248
63675472817606,5,0,0.14732,0.59451,0.28622,0.35426,0.51785,0.43457,4.18869,0.78887
63675472817639,5,0,0.13494,0.65519,0.28307,0.35504,0.51167,0.43481,4.18799,0.77992
63675472817689,5,0,0.12938,0.63158,0.2769,0.35479,0.51871,0.43527,4.18875,0.77769
63675472817722,5,0,0.12855,0.633,0.27425,0.3539,0.51426,0.43254,4.18858,0.78047
63675472817755,5,0,0.13073,0.61711,0.26416,0.35372,0.51208,0.43368,4.18894,0.77655
63675472817789,5,0,0.12726,0.6318,0.26071,0.35279,0.50907,0.43481,4.18857,0.77662
63675472817805,5,0,0.11883,0.62857,0.25888,0.352,0.5147,0.43614,4.18941,0.77791
63675472817838,5,0,0.12328,0.58651,0.2595,0.35427,0.51282,0.43617,4.18989,0.7768
63675472817855,5,0,0.14124,0.54235,0.26064,0.34991,0.50552,0.4345,4.18984,0.77637
63675472817888,5,0,0.14417,0.51558,0.26515,0.35042,0.50989,0.43422,4.18954,0.77997
63675472817921,5,0,0.14924,0.53239,0.26832,0.35314,0.51261,0.43692,4.18843,0.77469
63675472817938,5,0,0.14993,0.51906,0.26845,0.35247,0.52122,0.43617,4.18719,0.77927
63675472817971,5,0,0.15079,0.48831,0.27124,0.35322,0.51742,0.4349,4.18589,0.77133
63675472818005,5,0,0.15717,0.51435,0.2705,0.35524,0.51287,0.43419,4.18487,0.77161
63675472818037,5,0,0.16088,0.49614,0.27917,0.35512,0.5215,0.43575,4.18569,0.76982
63675472818070,5,0,0.15367,0.50704,0.277,0.35622,0.51691,0.43668,4.18532,0.77064
63675472818086,5,0,0.14674,0.53247,0.2725,0.35706,0.51584,0.43652,4.18641,0.77355
63675472818103,5,0,0.1361,0.53631,0.27257,0.35729,0.51777,0.43659,4.18783,0.77086
63675472818136,5,0,0.12375,0.53165,0.26963,0.3575,0.50429,0.43703,4.18828,0.77074
63675472818170,5,0,0.1224,0.53572,0.27191,0.35602,0.50817,0.43582,4.18886,0.77504
63675472818203,5,0,0.1181,0.51011,0.26818,0.35623,0.51332,0.43479,4.18808,0.7727
63675472818219,5,0,0.11754,0.52452,0.2564,0.35485,0.50704,0.4339,4.1864,0.77305
63675472818269,5,0,0.12444,0.51554,0.25712,0.35508,0.50675,0.43238,4.18743,0.76896
63675472818286,5,0,0.12656,0.51028,0.26202,0.35539,0.5085,0.43284,4.18628,0.76612
63675472818302,5,0,0.13001,0.50124,0.26133,0.35519,0.50624,0.43278,4.18513,0.76436
63675472818336,5,0,0.12039,0.53497,0.25149,0.35317,0.50816,0.43264,4.18498,0.76688
63675472818369,5,0,0.12139,0.51685,0.25853,0.35459,0.50457,0.43138,4.1846,0.76786
63675472818385,5,0,0.1222,0.52889,0.2648,0.35151,0.50418,0.43251,4.18518,0.76729
63675472818417,5,0,0.11816,0.53604,0.26166,0.3513,0.50555,0.42965,4.18608,0.76606
63675472818451,5,0,0.11013,0.55425,0.26478,0.35397,0.50939,0.43165,4.18523,0.76634
63675472818468,5,0,0.11398,0.53489,0.26081,0.35484,0.50863,0.43194,4.18531,0.76292
63675472818501,5,0,0.10793,0.5474,0.25348,0.35353,0.5081,0.43158,4.1864,0.76127
63675472818518,5,0,0.10483,0.50497,0.25483,0.35404,0.50646,0.4307,4.18629,0.76131
63675472818551,5,0,0.10491,0.51258,0.26317,0.35388,0.50826,0.43099,4.18614,0.75956
63675472818584,5,0,0.10741,0.52899,0.26364,0.35348,0.51418,0.43051,4.18593,0.75728
63675472818600,5,0,0.10612,0.53957,0.25698,0.35519,0.50716,0.43033,4.18618,0.75696
63675472818650,5,0,0.10502,0.52491,0.25907,0.35586,0.50789,0.43115,4.18553,0.75869
63675472818667,5,0,0.09759,0.53136,0.25947,0.35276,0.50375,0.42987,4.18516,0.76144
63675472818683,5,0,0.10062,0.51923,0.26285,0.3536,0.50302,0.43205,4.18378,0.7626
63675472818716,5,0,0.10208,0.52197,0.26643,0.35265,0.50243,0.43108,4.18345,0.76153
63675472818750,5,0,0.10909,0.529,0.26399,0.35335,0.50292,0.4341,4.18425,0.76232
63675472818766,5,0,0.10868,0.51009,0.26325,0.35355,0.50472,0.43134,4.18498,0.75968
63675472818800,5,0,0.10749,0.4923,0.25952,0.35272,0.50727,0.43048,4.18634,0.75875
63675472818848,5,0,0.11114,0.46819,0.2613,0.35267,0.5091,0.42843,4.18687,0.75253
63675472818881,5,0,0.1108,0.46882,0.26607,0.3539,0.50554,0.42902,4.18541,0.75445
63675472818915,5,0,0.11106,0.46949,0.2766,0.35389,0.50403,0.42619,4.18691,0.753
63675472818948,5,0,0.10306,0.48962,0.27146,0.35403,0.50444,0.42345,4.18535,0.75231
63675472818965,5,0,0.10251,0.50591,0.27232,0.35292,0.50098,0.42443,4.18427,0.7537
63675472818998,5,0,0.10137,0.52379,0.27925,0.35229,0.50313,0.42677,4.18485,0.75411
63675472819047,5,0,0.10623,0.55696,0.28477,0.35399,0.49893,0.4313,4.18349,0.75743
63675472819081,5,0,0.10744,0.55531,0.2768,0.35264,0.49763,0.43,4.18346,0.75479
63675472819130,5,0,0.10731,0.55154,0.2768,0.35543,0.50591,0.43282,4.18532,0.75703
63675472819163,5,0,0.11356,0.54891,0.27677,0.35613,0.50081,0.43448,4.18574,0.75049
63675472819180,5,0,0.12112,0.55185,0.26757,0.35934,0.49855,0.4337,4.18453,0.75262
63675472819230,5,0,0.12267,0.54705,0.26897,0.35877,0.50108,0.43292,4.1845,0.74922
63675472819247,0,0,0.11809,0.55405,0.27533,0.35956,0.50772,0.43072,4.18641,0.74842
63675472819280,0,0,0.11958,0.55871,0.27609,0.36173,0.51251,0.43373,4.18669,0.74509
63675472819296,0,0,0.12304,0.55894,0.28405,0.36309,0.50744,0.43505,4.18901,0.74328
63675472819329,0,0,0.12817,0.55846,0.28014,0.36133,0.50644,0.43469,4.1887,0.74154
63675472819362,0,0,0.12316,0.56778,0.28255,0.35934,0.50693,0.43326,4.19184,0.7461
63675472819379,0,0,0.12477,0.57278,0.28501,0.35953,0.51182,0.43495,4.19194,0.74503
63675472819428,5,0,0.12219,0.54247,0.28675,0.35778,0.51074,0.43219,4.19364,0.74307
63675472819444,5,0,0.12901,0.53844,0.27053,0.35345,0.5028,0.43263,4.19359,0.73947
63675472819462,5,0,0.12591,0.54153,0.27066,0.35307,0.5024,0.42998,4.19209,0.74345
63675472819511,5,0,0.12533,0.52166,0.26479,0.35143,0.50421,0.42858,4.19263,0.7431
63675472819528,5,0,0.11841,0.50686,0.26838,0.35082,0.50462,0.42912,4.19253,0.74563
63675472819544,5,0,0.1236,0.51324,0.26938,0.35109,0.50195,0.43014,4.19398,0.74183
63675472819578,5,0,0.11851,0.52424,0.27125,0.35174,0.49942,0.4302,4.19344,0.74057
63675472819611,5,0,0.11796,0.56104,0.27856,0.35402,0.49795,0.43198,4.19578,0.74132
63675472819628,5,0,0.12106,0.56304,0.28718,0.35708,0.50103,0.43315,4.19495,0.74557
63675472819661,5,0,0.12078,0.5575,0.28748,0.35797,0.49938,0.43024,4.19775,0.74644
63675472819710,5,0,0.11818,0.58037,0.28278,0.35721,0.49814,0.43318,4.19628,0.74267
63675472819743,5,0,0.11881,0.56765,0.29071,0.36163,0.50437,0.43698,4.19783,0.74928
63675472819776,5,0,0.12333,0.54722,0.28501,0.35972,0.50454,0.43613,4.19652,0.74458
63675472819809,5,0,0.12831,0.54695,0.27979,0.36063,0.50203,0.43623,4.19632,0.74487
63675472819826,5,0,0.12525,0.55114,0.27363,0.35833,0.5012,0.43598,4.19343,0.74073
63675472819859,5,0,0.11983,0.5692,0.27252,0.35708,0.50487,0.4375,4.19498,0.74514
63675472819876,5,0,0.1161,0.57478,0.27793,0.35844,0.50235,0.4369,4.19472,0.75182
63675472819909,5,0,0.12085,0.61532,0.27693,0.36019,0.50436,0.43689,4.19561,0.74997
63675472819942,5,0,0.12421,0.60394,0.27384,0.36058,0.50436,0.43666,4.1963,0.74905
63675472819959,5,0,0.11741,0.61224,0.27701,0.35844,0.50234,0.43251,4.19785,0.74257
