63675472746120,0,0,0.15411,0.58007,0.29283,0.44622,0.54523,0.41679,4.14781,0.69934
63675472746169,0,0,0.15943,0.57666,0.29303,0.44849,0.55123,0.42106,4.14152,0.69753
63675472746202,0,0,0.14744,0.58479,0.29215,0.45296,0.55274,0.42152,4.14297,0.70043
63675472746235,0,0,0.15098,0.58258,0.29278,0.45314,0.55504,0.42308,4.14027,0.70241
63675472746268,0,0,0.1528,0.58826,0.2936,0.45322,0.55862,0.42419,4.13668,0.69451
63675472746285,4,0,0.14544,0.58466,0.29189,0.45449,0.55459,0.42513,4.13482,0.69388
63675472746301,4,0,0.14551,0.58518,0.29295,0.45266,0.55632,0.42361,4.1292,0.69044
63675472746351,4,0,0.15184,0.59524,0.29216,0.45089,0.55597,0.42202,4.15592,0.69898
63675472746384,4,0,0.15706,0.59679,0.29349,0.44909,0.55688,0.42353,4.15526,0.69983
63675472746418,4,0,0.15434,0.59889,0.29404,0.45052,0.55542,0.42552,4.16134,0.69988
63675472746451,4,0,0.16234,0.59341,0.29439,0.45099,0.5506,0.42208,4.16394,0.69882
63675472746468,4,0,0.15869,0.5905,0.29386,0.44998,0.55169,0.42032,4.16263,0.69519
63675472746483,4,0,0.15874,0.58896,0.29376,0.45047,0.55141,0.42194,4.16829,0.69819
63675472746517,4,0,0.16784,0.58116,0.29463,0.45066,0.54993,0.42311,4.17272,0.70111
63675472746550,4,0,0.17543,0.57861,0.29603,0.45117,0.55797,0.42518,4.17351,0.69727
63675472746567,4,0,0.16692,0.57728,0.29607,0.4511,0.55633,0.42631,4.1747,0.69271
63675472746600,4,0,0.16241,0.56719,0.29557,0.44968,0.55707,0.42508,4.1759,0.68582
63675472746616,4,0,0.18963,0.56542,0.29425,0.44924,0.55858,0.42576,4.17738,0.69028
63675472746649,0,0,0.23247,0.58636,0.30232,0.44938,0.55941,0.42728,4.17759,0.69195
63675472746666,0,0,0.25215,0.58735,0.30259,0.45219,0.56204,0.42734,4.17715,0.69085
63675472746699,0,0,0.27918,0.60551,0.30349,0.44855,0.56418,0.42815,4.17762,0.68623
63675472746715,1,0,0.29239,0.61286,0.30291,0.4475,0.55775,0.42968,4.17853,0.68807
63675472746749,1,0,0.31848,0.62526,0.30645,0.4406,0.55992,0.4347,4.18021,0.69058
63675472746765,1,0,0.35419,0.62784,0.30929,0.44532,0.56106,0.43593,4.18212,0.69218
63675472746799,1,0,0.39971,0.63708,0.31179,0.44583,0.5611,0.44064,4.18158,0.69132
63675472746848,1,0,0.45253,0.62716,0.31547,0.44562,0.56058,0.46103,4.18373,0.69537
63675472746882,1,0,0.49154,0.61182,0.33311,0.44887,0.56403,0.47026,4.18667,0.69605
63675472746898,1,0,0.51566,0.61,0.33598,0.4489,0.56078,0.47299,4.18663,0.71032
63675472746931,1,0,0.50733,0.63118,0.33697,0.45642,0.56086,0.47162,4.1872,0.72249
63675472746964,1,0,0.5115,0.62452,0.33443,0.45514,0.55944,0.46827,4.19208,0.73822
63675472746998,1,0,0.54729,0.62537,0.33024,0.45455,0.56193,0.46763,4.19397,0.74974
63675472747031,1,0,0.5318,0.6279,0.33033,0.45347,0.56198,0.44913,4.19327,0.76171
63675472747048,1,0,0.48745,0.62532,0.32145,0.45463,0.56148,0.44661,4.19552,0.76786
63675472747063,1,0,0.45826,0.6213,0.31012,0.45335,0.56515,0.44223,4.197,0.78075
63675472747096,1,0,0.42177,0.63099,0.30574,0.45525,0.55832,0.43659,4.19817,0.78941
63675472747130,1,0,0.3816,0.58813,0.29794,0.4545,0.56578,0.42748,4.19799,0.78864
63675472747146,1,0,0.34911,0.5994,0.2959,0.45198,0.56713,0.43143,4.19311,0.78712
63675472747180,1,0,0.28044,0.60133,0.29859,0.45055,0.5645,0.4281,4.1911,0.7855
63675472747229,1,0,0.28094,0.59894,0.30099,0.44957,0.56532,0.4285,4.1935,0.7821
63675472747246,1,0,0.30266,0.58085,0.30296,0.45305,0.56743,0.43138,4.19205,0.78314
63675472747263,1,0,0.28311,0.57984,0.30354,0.45481,0.56897,0.43013,4.19152,0.78483
63675472747296,4,0,0.28802,0.56968,0.3006,0.44926,0.5655,0.42877,4.19118,0.78157
63675472747329,4,0,0.27809,0.57789,0.30605,0.4536,0.56839,0.42978,4.18834,0.78079
63675472747346,4,0,0.31139,0.5878,0.30916,0.45077,0.56551,0.43131,4.18802,0.77684
63675472747379,4,0,0.33367,0.5903,0.30991,0.4558,0.56751,0.42738,4.1896,0.77021
63675472747395,4,0,0.35391,0.57841,0.29475,0.463,0.56908,0.43075,4.18755,0.76958
63675472747428,1,0,0.36775,0.58523,0.30395,0.46648,0.5693,0.42654,4.18529,0.76584
63675472747461,1,0,0.4008,0.58438,0.29708,0.4703,0.56816,0.44774,4.18485,0.7623
63675472747477,1,0,0.47298,0.58734,0.3076,0.47688,0.57054,0.44595,4.18368,0.75955
63675472747511,1,0,0.49118,0.59393,0.31268,0.48568,0.57037,0.44488,4.18548,0.75644
63675472747544,1,0,0.50588,0.60037,0.30212,0.482,0.57735,0.45088,4.18432,0.75792
63675472747561,1,0,0.51864,0.59731,0.30862,0.47959,0.57584,0.47222,4.18326,0.76156
63675472747610,1,0,0.49972,0.59395,0.31364,0.48407,0.57591,0.47139,4.18352,0.76476
63675472747627,1,0,0.5,0.61083,0.3217,0.47495,0.57626,0.46874,4.18541,0.76834
63675472747643,1,0,0.43486,0.6315,0.32236,0.4617,0.57769,0.45286,4.18544,0.77904
63675472747676,1,0,0.3793,0.64146,0.31322,0.46006,0.58092,0.45773,4.1851,0.78847
63675472747710,1,0,0.37487,0.62921,0.30513,0.44883,0.58016,0.46339,4.18385,0.79688
63675472747726,1,0,0.34055,0.61337,0.31067,0.45707,0.57171,0.45473,4.1837,0.80091
63675472747759,1,0,0.3193,0.61347,0.30975,0.45275,0.57223,0.44569,4.1827,0.80541
63675472747809,1,0,0.31234,0.6205,0.30642,0.4493,0.56977,0.45012,4.18111,0.81201
63675472747842,1,0,0.34558,0.61949,0.31492,0.45228,0.56931,0.45222,4.18129,0.81297
63675472747875,1,0,0.37906,0.59949,0.30883,0.45294,0.57106,0.4538,4.18055,0.81154
63675472747925,1,0,0.41182,0.59506,0.31194,0.44364,0.57427,0.4478,4.18373,0.80227
63675472747942,1,0,0.40596,0.60557,0.31275,0.4447,0.57231,0.45012,4.18432,0.80174
63675472747975,1,0,0.41975,0.60244,0.31098,0.44673,0.57251,0.44351,4.18528,0.79887
63675472748008,1,0,0.42495,0.60091,0.32466,0.44958,0.56954,0.44937,4.18392,0.79059
63675472748025,1,0,0.43192,0.60106,0.34251,0.45873,0.57775,0.44976,4.18439,0.79009
63675472748058,1,0,0.4139,0.58835,0.34289,0.46465,0.57734,0.44276,4.1871,0.789
63675472748075,1,0,0.39382,0.61493,0.34591,0.47088,0.57359,0.44414,4.18953,0.79217
63675472748107,1,0,0.38212,0.60727,0.34038,0.47593,0.56836,0.45006,4.18844,0.79347
63675472748124,1,0,0.36365,0.61308,0.34666,0.47663,0.56763,0.44883,4.18807,0.79795
63675472748157,1,0,0.34991,0.61443,0.34642,0.47163,0.56953,0.44921,4.18818,0.80046
63675472748190,1,0,0.33332,0.61032,0.336,0.47165,0.57064,0.43981,4.19016,0.81036
63675472748207,1,0,0.34305,0.60621,0.32194,0.45894,0.56375,0.43674,4.19083,0.81112
63675472748239,1,0,0.30601,0.6124,0.32034,0.46276,0.56213,0.43802,4.18886,0.80833
63675472748256,1,0,0.28712,0.59869,0.31552,0.45569,0.56367,0.43741,4.18507,0.80874
63675472748289,1,0,0.29847,0.59652,0.31418,0.45518,0.56367,0.43288,4.18618,0.81074
63675472748306,1,0,0.29898,0.59864,0.3099,0.45242,0.56367,0.43073,4.18279,0.81041
63675472748339,1,0,0.30852,0.58888,0.31093,0.45252,0.56479,0.43153,4.18331,0.80561
63675472748389,1,0,0.28555,0.58936,0.31579,0.45269,0.56437,0.43234,4.18223,0.81076
63675472748422,1,0,0.29302,0.59228,0.33653,0.50595,0.58086,0.43716,4.17888,0.81945
63675472748455,1,0,0.31368,0.57607,0.34678,0.50869,0.58569,0.43408,4.17963,0.82011
63675472748489,1,0,0.34449,0.57127,0.40112,0.52552,0.58258,0.43222,4.17912,0.81362
63675472748505,1,0,0.33105,0.57565,0.43662,0.55443,0.58868,0.43436,4.18319,0.82864
63675472748539,0,0,0.32236,0.57469,0.45381,0.57845,0.59606,0.434,4.18381,0.83773
63675472748572,5,0,0.35528,0.57405,0.45981,0.5776,0.59735,0.43472,4.18422,0.83994
63675472748588,5,0,0.35435,0.57926,0.51623,0.61483,0.61173,0.43453,4.18427,0.84769
63675472748621,5,0,0.34432,0.58715,0.52259,0.63036,0.61525,0.43498,4.18531,0.85767
63675472748670,5,0,0.29566,0.59146,0.46496,0.56947,0.59655,0.44014,4.18791,0.8863
63675472748704,5,0,0.27991,0.5931,0.43468,0.54797,0.59075,0.43482,4.18603,0.88153
63675472748737,5,0,0.29633,0.59746,0.43214,0.53714,0.5895,0.43577,4.18602,0.88759
63675472748770,5,0,0.27517,0.59486,0.42032,0.54172,0.58577,0.43162,4.18667,0.89222
63675472748786,5,0,0.24707,0.59189,0.35825,0.49527,0.56888,0.43079,4.18741,0.89381
63675472748820,5,0,0.24469,0.58945,0.34637,0.48619,0.56439,0.42976,4.18717,0.89723
63675472748836,5,0,0.237,0.60006,0.35696,0.51607,0.5631,0.42957,4.1867,0.89844
63675472748870,5,0,0.23662,0.60587,0.34057,0.51841,0.56329,0.43098,4.18863,0.89798
63675472748903,5,0,0.24613,0.6064,0.33947,0.48961,0.56371,0.4308,4.18922,0.89648
63675472748920,0,0,0.2787,0.59895,0.36146,0.50021,0.56382,0.43502,4.18986,0.90271
63675472748969,0,0,0.3046,0.60295,0.40759,0.53081,0.57591,0.43758,4.18896,0.90424
63675472748985,4,0,0.3585,0.59639,0.49163,0.55336,0.58378,0.43751,4.18964,0.90495
63675472749018,0,0,0.40337,0.59743,0.54522,0.56394,0.59698,0.43649,4.18984,0.89885
63675472749035,0,0,0.45957,0.59205,0.61502,0.56452,0.61172,0.43783,4.19016,0.9033
63675472749085,5,0,0.47963,0.58537,0.75083,0.60946,0.6556,0.44111,4.18718,0.89881
63675472749118,5,0,0.47158,0.59594,0.83802,0.63956,0.66114,0.44425,4.18669,0.89268
63675472749151,5,0,0.49164,0.60601,0.86326,0.65368,0.66125,0.44697,4.18546,0.89829
63675472749168,5,0,0.47025,0.59726,0.8242,0.61123,0.65944,0.44906,4.18688,0.89239
63675472749200,5,0,0.38497,0.60001,0.70505,0.56198,0.64083,0.45135,4.18466,0.91089
63675472749251,5,0,0.3256,0.59444,0.57125,0.53284,0.60538,0.44698,4.18442,0.91634
63675472749284,5,0,0.31552,0.60523,0.50681,0.51533,0.58412,0.44581,4.1853,0.92693
63675472749317,5,0,0.29984,0.59369,0.40525,0.47666,0.57904,0.44678,4.18472,0.93114
63675472749350,5,0,0.28345,0.58286,0.37293,0.46051,0.5754,0.44266,4.18666,0.92963
63675472749367,5,0,0.2792,0.59092,0.39092,0.46288,0.56662,0.44292,4.18539,0.93582
63675472749399,5,0,0.27564,0.59194,0.38786,0.46963,0.56893,0.44656,4.18611,0.93017
63675472749416,5,0,0.2774,0.59552,0.38411,0.48248,0.56185,0.44281,4.18626,0.91772
63675472749449,5,0,0.29834,0.58854,0.39625,0.48141,0.5626,0.43956,4.18847,0.89405
63675472749482,5,0,0.31229,0.59061,0.42192,0.50442,0.56408,0.44329,4.19075,0.88999
63675472749499,5,0,0.33433,0.59162,0.42807,0.4989,0.55378,0.44104,4.19092,0.88493
63675472749549,5,0,0.34677,0.58817,0.47097,0.52528,0.57588,0.44137,4.19125,0.88292
63675472749566,5,0,0.36792,0.58636,0.49205,0.54231,0.60393,0.44143,4.19123,0.87494
63675472749581,5,0,0.38224,0.58422,0.48412,0.53313,0.6128,0.4367,4.19284,0.8697
63675472749632,5,0,0.40522,0.58551,0.51234,0.52521,0.6501,0.44138,4.19453,0.86445
63675472749649,5,0,0.38643,0.58019,0.50768,0.52156,0.65728,0.4507,4.19546,0.86544
63675472749665,5,0,0.39363,0.58655,0.48657,0.5092,0.66099,0.44894,4.19301,0.86676
63675472749698,5,0,0.38119,0.5919,0.47317,0.50521,0.67933,0.44369,4.19134,0.86525
63675472749731,5,0,0.40182,0.5967,0.46513,0.50815,0.69936,0.44317,4.19182,0.85905
63675472749748,5,0,0.37254,0.59824,0.38124,0.46238,0.66345,0.44198,4.19227,0.85139
63675472749780,5,0,0.36528,0.59694,0.37739,0.46106,0.65315,0.44503,4.18872,0.84844
63675472749830,5,0,0.33863,0.59733,0.36578,0.45687,0.62437,0.44315,4.18779,0.84877
63675472749847,5,0,0.33403,0.59692,0.37747,0.4716,0.61797,0.43515,4.18625,0.84445
63675472749863,5,0,0.32118,0.59833,0.37691,0.46684,0.62035,0.43909,4.18576,0.84326
63675472749897,5,0,0.33704,0.60139,0.36535,0.47519,0.60888,0.44286,4.18566,0.83899
63675472749929,5,0,0.28333,0.59727,0.38532,0.482,0.59795,0.445,4.1813,0.83354
63675472749963,5,0,0.29873,0.5991,0.38732,0.48812,0.60103,0.44576,4.18207,0.82622
63675472749996,5,0,0.3032,0.59324,0.39976,0.49535,0.59274,0.44742,4.18243,0.82065
63675472750029,5,0,0.29686,0.59353,0.39089,0.49906,0.59467,0.44458,4.18386,0.81844
63675472750063,5,0,0.3264,0.60201,0.40084,0.51459,0.60041,0.44814,4.18488,0.81607
63675472750079,5,0,0.33635,0.59227,0.42527,0.50685,0.58349,0.44369,4.18547,0.8121
63675472750129,5,0,0.33237,0.59404,0.4362,0.51232,0.58877,0.44723,4.18743,0.80831
63675472750145,5,0,0.35258,0.58923,0.42342,0.52537,0.57889,0.44341,4.18826,0.80862
63675472750178,5,0,0.35456,0.5914,0.45507,0.56662,0.59468,0.44427,4.18839,0.80736
63675472750228,5,0,0.39924,0.598,0.4481,0.5699,0.60929,0.4443,4.18805,0.80571
63675472750244,5,0,0.40851,0.58341,0.4819,0.53992,0.62042,0.44139,4.18867,0.80002
63675472750261,5,0,0.40601,0.58968,0.52615,0.56657,0.61883,0.44511,4.18874,0.79616
63675472750310,5,0,0.38889,0.5834,0.52437,0.55451,0.62335,0.44642,4.1882,0.79385
63675472750327,5,0,0.41211,0.58479,0.5122,0.55285,0.61449,0.44349,4.18773,0.79303
63675472750360,5,0,0.44123,0.58043,0.55264,0.53487,0.60304,0.44179,4.18834,0.77795
63675472750410,5,0,0.36703,0.5862,0.53367,0.53337,0.58126,0.4415,4.18661,0.77577
63675472750444,5,0,0.34947,0.58906,0.50857,0.5398,0.56474,0.44552,4.18622,0.7752
63675472750510,5,0,0.327,0.58713,0.44075,0.52333,0.55223,0.44269,4.18798,0.76969
63675472750526,5,0,0.31135,0.58616,0.44469,0.52344,0.55376,0.44449,4.18922,0.7647
63675472750558,5,0,0.32818,0.58206,0.43151,0.51683,0.54065,0.44323,4.18576,0.76026
63675472750608,5,0,0.30883,0.59852,0.39401,0.49489,0.57344,0.44911,4.18849,0.76463
63675472750659,5,0,0.34807,0.60265,0.39685,0.51035,0.5848,0.44526,4.18797,0.76387
63675472750675,5,0,0.42535,0.59808,0.4092,0.51018,0.6264,0.44499,4.18692,0.76828
63675472750708,5,0,0.44426,0.59489,0.40796,0.50969,0.62552,0.44214,4.18658,0.76662
63675472750742,5,0,0.44649,0.59629,0.40781,0.50702,0.64577,0.44185,4.18808,0.76561
63675472750775,5,0,0.49982,0.59576,0.41564,0.50092,0.64071,0.44486,4.18819,0.76348
63675472750808,5,0,0.52292,0.59774,0.43287,0.50188,0.63043,0.44535,4.18746,0.75549
63675472750825,5,0,0.49236,0.58935,0.43139,0.47663,0.65488,0.44251,4.18695,0.75559
63675472750890,5,0,0.3906,0.58929,0.42733,0.44013,0.63552,0.44555,4.18856,0.73491
63675472750923,5,0,0.34758,0.59162,0.43398,0.43867,0.62808,0.44783,4.1903,0.73646
63675472750957,5,0,0.30547,0.59162,0.41708,0.42631,0.61027,0.4472,4.19021,0.73746
63675472750990,5,0,0.24585,0.58466,0.38285,0.4206,0.60011,0.44035,4.18965,0.7335
63675472751023,5,0,0.26188,0.59184,0.37702,0.4282,0.5682,0.44366,4.18919,0.73176
63675472751039,5,0,0.26039,0.59264,0.37723,0.42567,0.55908,0.44381,4.18676,0.73253
63675472751089,5,0,0.2445,0.59254,0.36034,0.42703,0.56078,0.44251,4.1847,0.73207
63675472751106,5,0,0.30468,0.59898,0.35767,0.42511,0.54984,0.44121,4.18572,0.73497
63675472751139,5,0,0.32525,0.59873,0.35075,0.43732,0.55031,0.44345,4.18603,0.73829
63675472751189,5,0,0.33729,0.59541,0.3321,0.43574,0.57952,0.44775,4.18656,0.74094
63675472751238,5,0,0.34989,0.59619,0.34382,0.45386,0.57506,0.44298,4.18987,0.73545
63675472751288,5,0,0.39652,0.59851,0.38949,0.51529,0.61696,0.44675,4.19394,0.73399
63675472751338,5,0,0.38512,0.59263,0.40058,0.51469,0.62768,0.44475,4.19441,0.7267
63675472751371,5,0,0.38285,0.59387,0.40645,0.51024,0.624,0.44422,4.19805,0.72431
63675472751387,5,0,0.36293,0.59756,0.40835,0.50245,0.59755,0.4423,4.1989,0.71678
63675472751420,5,0,0.3833,0.59891,0.39293,0.49495,0.60939,0.44263,4.19907,0.72161
63675472751470,5,0,0.37528,0.598,0.39217,0.50128,0.60762,0.44471,4.19835,0.72238
63675472751487,5,0,0.35408,0.59282,0.34737,0.4492,0.56421,0.44283,4.19759,0.71963
63675472751520,5,0,0.33299,0.59488,0.33865,0.44564,0.55678,0.44561,4.19772,0.72212
63675472751537,5,0,0.33161,0.59416,0.35125,0.44241,0.56403,0.44553,4.19759,0.71993
63675472751586,5,0,0.31405,0.59354,0.34244,0.44746,0.55855,0.44405,4.19571,0.71793
63675472751603,5,0,0.34703,0.59267,0.37161,0.4742,0.56781,0.44853,4.19521,0.71818
63675472751637,5,0,0.35244,0.59173,0.3766,0.47603,0.56644,0.44893,4.1954,0.7158
63675472751669,5,0,0.33246,0.59338,0.36907,0.47689,0.57172,0.44936,4.19489,0.71284
63675472751703,5,0,0.34061,0.59173,0.37035,0.46154,0.56854,0.44593,4.19567,0.71639
63675472751735,5,0,0.35936,0.59086,0.362,0.4699,0.57259,0.44358,4.1962,0.7138
63675472751768,5,0,0.38639,0.59296,0.35709,0.46059,0.57236,0.4452,4.19597,0.71253
63675472751785,5,0,0.39662,0.59402,0.35043,0.45656,0.58248,0.44486,4.19552,0.70909
63675472751818,5,0,0.39143,0.59009,0.34496,0.44449,0.57105,0.44733,4.19416,0.70717
63675472751868,5,0,0.40568,0.59224,0.34105,0.44558,0.57582,0.44671,4.19329,0.7055
63675472751885,5,0,0.39079,0.59109,0.35392,0.46474,0.57374,0.4493,4.19302,0.70918
63675472751918,5,0,0.40297,0.59162,0.37661,0.48142,0.57345,0.45319,4.18952,0.70562
63675472751951,5,0,0.40593,0.58774,0.40483,0.48416,0.5711,0.45037,4.18936,0.70849
63675472751984,5,0,0.37861,0.58732,0.39098,0.47866,0.57272,0.44952,4.18964,0.70305
63675472752018,5,0,0.32716,0.59152,0.3844,0.47951,0.5672,0.44321,4.18904,0.69943
63675472752050,5,0,0.31451,0.59092,0.38036,0.47524,0.56583,0.44498,4.18898,0.70385
63675472752083,5,0,0.33041,0.58857,0.38561,0.47251,0.56094,0.44022,4.19086,0.70036
63675472752117,5,0,0.32964,0.5856,0.38559,0.46769,0.56537,0.43945,4.19255,0.69329
63675472752150,5,0,0.30234,0.59416,0.35026,0.46368,0.5739,0.44124,4.19335,0.68202
63675472752166,5,0,0.32393,0.59343,0.36767,0.47689,0.57465,0.44389,4.19139,0.68243
63675472752200,5,0,0.33743,0.59239,0.35139,0.47596,0.58236,0.44357,4.19516,0.68811
63675472752216,5,0,0.34867,0.59229,0.36316,0.47807,0.5707,0.44412,4.19597,0.69235
63675472752266,5,0,0.40288,0.59613,0.37807,0.48166,0.59943,0.44446,4.19495,0.68493
63675472752282,5,0,0.41581,0.59666,0.36619,0.47335,0.58548,0.44266,4.19286,0.68903
63675472752315,5,0,0.41255,0.59457,0.36153,0.46851,0.57145,0.44439,4.19199,0.69297
63675472752348,5,0,0.43682,0.59406,0.38154,0.4751,0.58783,0.44676,4.19479,0.69305
63675472752381,5,0,0.47038,0.59984,0.41668,0.51079,0.59563,0.44621,4.19368,0.69096
63675472752431,5,0,0.41089,0.59053,0.40943,0.49574,0.59436,0.44617,4.19164,0.68757
63675472752465,5,0,0.37661,0.58955,0.41679,0.50459,0.58903,0.44515,4.19229,0.68653
63675472752497,5,0,0.39455,0.59205,0.41279,0.51066,0.59763,0.4468,4.19361,0.68637
63675472752531,5,0,0.3912,0.59123,0.41446,0.51708,0.60083,0.44392,4.19457,0.68468
63675472752548,5,0,0.39625,0.59095,0.42488,0.51963,0.59949,0.44212,4.19447,0.68386
63675472752581,5,0,0.40488,0.59297,0.39907,0.48021,0.61475,0.44608,4.19442,0.68322
63675472752598,5,0,0.39872,0.59165,0.39122,0.48266,0.6144,0.45057,4.19376,0.68549
63675472752631,5,0,0.38927,0.59339,0.38849,0.48659,0.6217,0.44729,4.19194,0.68313
63675472752664,5,0,0.41946,0.59604,0.3967,0.48136,0.6063,0.44986,4.1906,0.68514
63675472752680,5,0,0.39797,0.59821,0.41127,0.50048,0.61484,0.44944,4.19004,0.6846
63675472752730,5,0,0.41836,0.59961,0.41045,0.48717,0.6314,0.44983,4.18827,0.68307
63675472752745,5,0,0.37783,0.5963,0.39912,0.47777,0.62723,0.44817,4.18769,0.68518
63675472752779,5,0,0.3206,0.59394,0.40394,0.48549,0.61667,0.44434,4.1873,0.68543
63675472752796,5,0,0.38964,0.59655,0.43261,0.50576,0.62107,0.44116,4.18646,0.67764
63675472752828,5,0,0.40298,0.59575,0.42598,0.49411,0.62635,0.43947,4.18797,0.6721
63675472752846,5,0,0.37177,0.59491,0.38899,0.47789,0.64115,0.43784,4.19136,0.6725
63675472752879,5,0,0.41242,0.59201,0.37861,0.45732,0.63755,0.43958,4.19086,0.668
63675472752928,5,0,0.39113,0.59421,0.39727,0.47231,0.60176,0.43722,4.19075,0.66808
63675472752961,5,0,0.41745,0.59398,0.39245,0.4644,0.59205,0.44218,4.19106,0.67022
63675472752995,5,0,0.38169,0.59441,0.35698,0.45267,0.58056,0.44549,4.19148,0.67647
63675472753027,5,0,0.38593,0.59488,0.35528,0.45729,0.59663,0.44476,4.1891,0.68047
63675472753044,5,0,0.3889,0.59862,0.3669,0.47676,0.58807,0.44471,4.18842,0.68096
63675472753078,5,0,0.3758,0.59942,0.39029,0.49109,0.59884,0.44235,4.188,0.686
63675472753111,5,0,0.41936,0.59806,0.37997,0.4941,0.62007,0.44447,4.18687,0.6768
63675472753127,5,0,0.44269,0.59486,0.37548,0.48707,0.63021,0.44522,4.18766,0.67428
63675472753161,5,0,0.45119,0.59197,0.38092,0.50152,0.64247,0.44184,4.18786,0.66587
63675472753210,5,0,0.43377,0.58884,0.41127,0.48584,0.63104,0.43889,4.18849,0.66301
63675472753244,5,0,0.44,0.58476,0.41462,0.47373,0.63561,0.44057,4.18936,0.66324
63675472753276,5,0,0.43805,0.58379,0.41181,0.47762,0.62629,0.43932,4.18954,0.66019
63675472753309,5,0,0.42539,0.58044,0.40561,0.46708,0.6408,0.44104,4.18905,0.6536
63675472753325,5,0,0.39898,0.58938,0.41678,0.46731,0.64564,0.44513,4.19053,0.66214
63675472753358,5,0,0.35475,0.58973,0.38885,0.44293,0.63491,0.44723,4.1917,0.66476
63675472753408,5,0,0.32958,0.59136,0.3745,0.44896,0.62681,0.44889,4.19516,0.66003
63675472753442,5,0,0.32927,0.59144,0.36463,0.44398,0.6289,0.44706,4.1955,0.6565
63675472753475,5,0,0.31724,0.59196,0.36497,0.44395,0.61433,0.44599,4.1981,0.6554
63675472753508,5,0,0.30873,0.59626,0.36136,0.438,0.59482,0.44742,4.19927,0.65981
63675472753525,5,0,0.29921,0.58986,0.3531,0.43859,0.58737,0.44722,4.20058,0.6567
63675472753558,5,0,0.30116,0.58968,0.37575,0.46067,0.57661,0.44528,4.19951,0.6619
63675472753591,5,0,0.29727,0.59063,0.38736,0.46575,0.57338,0.44726,4.19943,0.66085
63675472753608,5,0,0.31789,0.58819,0.38217,0.4521,0.58723,0.445,4.19634,0.66114
63675472753641,5,0,0.32035,0.58578,0.37729,0.44517,0.59144,0.44748,4.19638,0.66137
63675472753657,5,0,0.3437,0.59022,0.38838,0.45053,0.60116,0.44817,4.19586,0.66435
63675472753691,5,0,0.34252,0.59065,0.39734,0.45508,0.59531,0.44381,4.19464,0.66468
63675472753724,5,0,0.36433,0.59022,0.37655,0.45683,0.58861,0.44441,4.19054,0.66454
63675472753757,5,0,0.37398,0.59019,0.38355,0.4461,0.6035,0.44786,4.19195,0.66276
63675472753790,5,0,0.38149,0.58981,0.39831,0.44766,0.60092,0.44796,4.19284,0.65786
63675472753807,5,0,0.44418,0.59647,0.40704,0.4884,0.6182,0.44627,4.19074,0.66662
63675472753839,5,0,0.44554,0.59912,0.42433,0.50962,0.59997,0.447,4.19118,0.66822
63675472753856,5,0,0.41764,0.59437,0.42456,0.51049,0.60057,0.44712,4.18977,0.6637
63675472753888,5,0,0.42686,0.59659,0.4212,0.51826,0.62169,0.44875,4.18967,0.66076
63675472753922,5,0,0.4035,0.60275,0.44013,0.53607,0.64874,0.44847,4.19253,0.66025
63675472753939,5,0,0.41851,0.60506,0.41816,0.54072,0.63841,0.44546,4.19037,0.663
63675472753989,5,0,0.41483,0.60423,0.39968,0.5253,0.64103,0.44398,4.18741,0.66114
63675472754005,5,0,0.368,0.59844,0.38068,0.49447,0.60668,0.44552,4.18737,0.65823
63675472754022,5,0,0.33509,0.59768,0.38245,0.47964,0.60782,0.44609,4.18927,0.65429
63675472754055,5,0,0.34265,0.59724,0.37771,0.46928,0.61656,0.44514,4.18859,0.66358
63675472754088,5,0,0.34802,0.59209,0.36472,0.45595,0.60271,0.44255,4.1882,0.66053
63675472754104,5,0,0.33935,0.58651,0.37601,0.43845,0.58236,0.44256,4.18783,0.66151
63675472754137,5,0,0.32469,0.58618,0.3809,0.42958,0.57262,0.44098,4.18899,0.66096
63675472754170,5,0,0.31234,0.58711,0.38717,0.44173,0.57,0.44202,4.18991,0.66107
63675472754204,5,0,0.3395,0.58407,0.38677,0.4432,0.57063,0.43821,4.18787,0.65642
63675472754221,5,0,0.34211,0.58861,0.39486,0.45032,0.57276,0.44109,4.18761,0.65381
63675472754270,5,0,0.3364,0.5896,0.38438,0.44204,0.58265,0.43999,4.18706,0.65105
63675472754303,5,0,0.32508,0.5933,0.38583,0.45235,0.57972,0.44231,4.18797,0.65812
63675472754337,5,0,0.34461,0.59539,0.39668,0.46525,0.60308,0.44292,4.18831,0.65238
63675472754369,5,0,0.35948,0.59125,0.39509,0.46601,0.59508,0.44302,4.18842,0.65192
63675472754386,5,0,0.34107,0.59268,0.40068,0.47479,0.60014,0.44626,4.19135,0.65692
63675472754419,5,0,0.34773,0.59029,0.40689,0.47262,0.61382,0.44302,4.19305,0.65416
63675472754436,5,0,0.3648,0.59125,0.41781,0.47617,0.59289,0.44376,4.19253,0.64987
63675472754468,5,0,0.34125,0.59184,0.4092,0.48007,0.5841,0.44275,4.19272,0.65097
63675472754502,5,0,0.34853,0.59154,0.40186,0.48347,0.61157,0.44316,4.19491,0.65981
63675472754519,5,0,0.39053,0.5892,0.41567,0.47087,0.60191,0.44149,4.19144,0.66446
63675472754568,5,0,0.36216,0.58538,0.425,0.46016,0.60668,0.4425,4.19133,0.66654
63675472754585,5,0,0.37334,0.59368,0.45247,0.48232,0.61554,0.44119,4.1914,0.67406
63675472754602,5,0,0.38856,0.59889,0.45256,0.49989,0.60813,0.44486,4.19045,0.66852
63675472754635,5,0,0.38247,0.59916,0.42748,0.49855,0.63088,0.44418,4.19119,0.67037
63675472754668,5,0,0.41304,0.59999,0.43329,0.50044,0.63929,0.44513,4.19184,0.67017
63675472754685,5,0,0.41247,0.60514,0.47208,0.53975,0.62167,0.44224,4.19137,0.65835
63675472754717,5,0,0.38392,0.6046,0.44112,0.53051,0.64276,0.44402,4.19332,0.64944
63675472754751,5,0,0.40021,0.60184,0.41904,0.51612,0.62874,0.44244,4.19453,0.64926
63675472754767,5,0,0.41908,0.60132,0.41264,0.50416,0.63513,0.44267,4.19426,0.64493
63675472754817,5,0,0.44217,0.60377,0.40236,0.50633,0.62752,0.44409,4.19551,0.64555
63675472754850,5,0,0.4379,0.59516,0.38731,0.49943,0.6384,0.44043,4.19664,0.65196
63675472754867,5,0,0.39685,0.5935,0.39538,0.4904,0.63264,0.4418,4.19907,0.64238
63675472754883,5,0,0.40648,0.59036,0.36061,0.44855,0.61249,0.44643,4.19728,0.65181
63675472754949,5,0,0.38439,0.59698,0.39991,0.49008,0.61686,0.4467,4.19656,0.65525
63675472754983,5,0,0.39484,0.59538,0.39874,0.47494,0.61367,0.44681,4.19728,0.66122
63675472754999,5,0,0.37921,0.58911,0.38263,0.46517,0.61372,0.44458,4.19762,0.65671
63675472755048,5,0,0.36001,0.5952,0.38415,0.4542,0.60319,0.4466,4.19497,0.66014
63675472755082,5,0,0.37685,0.59169,0.3893,0.45839,0.58892,0.44604,4.19361,0.6603
63675472755099,5,0,0.39517,0.59095,0.40055,0.46083,0.59502,0.44147,4.19425,0.64872
63675472755148,5,0,0.43759,0.59657,0.38671,0.45331,0.59796,0.44227,4.19427,0.65204
63675472755165,5,0,0.44517,0.59561,0.38981,0.46173,0.60239,0.44371,4.19324,0.64824
63675472755198,5,0,0.40365,0.5952,0.40807,0.45653,0.6112,0.44764,4.1945,0.64722
63675472755231,5,0,0.46057,0.59249,0.39674,0.46688,0.61711,0.44634,4.1947,0.64595
63675472755248,5,0,0.47073,0.59161,0.39506,0.46796,0.62282,0.44568,4.19485,0.64585
63675472755265,5,0,0.47923,0.59359,0.41587,0.47641,0.65756,0.45044,4.19545,0.64815
63675472755298,5,0,0.47552,0.59524,0.42035,0.4919,0.68141,0.45658,4.19519,0.65493
63675472755330,5,0,0.47926,0.59162,0.39297,0.47901,0.68461,0.45446,4.19243,0.6515
63675472755348,5,0,0.4543,0.59136,0.39651,0.47979,0.66672,0.45278,4.19222,0.64323
63675472755380,5,0,0.39718,0.59243,0.3785,0.48356,0.65755,0.44943,4.19047,0.6406
63675472755430,5,0,0.33311,0.59227,0.38479,0.4743,0.63316,0.45066,4.18956,0.63836
63675472755463,5,0,0.31123,0.59633,0.36252,0.46457,0.60772,0.44884,4.18684,0.64002
63675472755497,5,0,0.28426,0.59598,0.34321,0.46601,0.60125,0.4448,4.18783,0.63144
63675472755530,5,0,0.26201,0.59255,0.32757,0.4462,0.59582,0.4449,4.19041,0.62887
63675472755546,5,0,0.26991,0.58889,0.32923,0.45112,0.5963,0.44471,4.1914,0.62857
63675472755578,5,0,0.29834,0.58977,0.32717,0.45122,0.59128,0.44214,4.1928,0.62542
63675472755595,5,0,0.34427,0.58627,0.34377,0.45848,0.60112,0.44159,4.19325,0.62644
63675472755628,5,0,0.33787,0.58336,0.33962,0.45239,0.5981,0.44263,4.19094,0.6212
63675472755662,5,0,0.33385,0.5834,0.34979,0.46672,0.59257,0.44387,4.18959,0.62156
63675472755695,5,0,0.38029,0.58423,0.36089,0.47058,0.59366,0.4441,4.18868,0.62749
63675472755728,5,0,0.3768,0.58705,0.38298,0.48051,0.58573,0.44612,4.18688,0.63316
63675472755745,5,0,0.40335,0.59004,0.397,0.48429,0.58866,0.44505,4.18523,0.6326
63675472755778,5,0,0.3861,0.58936,0.40929,0.49747,0.60598,0.44761,4.18414,0.64111
63675472755811,5,0,0.40647,0.59095,0.39125,0.49628,0.60793,0.44591,4.18279,0.64114
63675472755827,5,0,0.40969,0.58995,0.39059,0.48115,0.63278,0.44905,4.17731,0.64068
63675472755861,5,0,0.47407,0.59211,0.37682,0.47968,0.67576,0.44485,4.18267,0.64169
63675472755877,5,0,0.43431,0.5914,0.37954,0.46282,0.66795,0.44497,4.18314,0.63581
63675472755911,5,0,0.43336,0.5929,0.37742,0.47355,0.6676,0.4457,4.18438,0.63554
63675472755943,5,0,0.39061,0.59223,0.36451,0.4764,0.68273,0.44802,4.1852,0.63862
63675472755959,5,0,0.40226,0.59304,0.34588,0.46297,0.66391,0.44722,4.185,0.6307
63675472756009,5,0,0.39496,0.59305,0.35329,0.45881,0.67292,0.44799,4.1866,0.63199
63675472756026,5,0,0.34293,0.5957,0.34653,0.45368,0.6412,0.44381,4.19008,0.63537
63675472756042,5,0,0.33751,0.59879,0.35726,0.45439,0.61153,0.43913,4.18921,0.63347
