63677131395545,2,0,0.1552,2.99781,1.63216,0.9831,2.97127,0.35324,0.75825,3.86156
63677131395578,2,0,0.15302,2.9926,1.63641,0.98223,2.96918,0.35271,0.75742,3.87172
63677131395628,2,0,0.1534,3.00317,1.6383,0.9819,2.9673,0.35519,0.76046,3.85174
63677131395661,2,0,0.14873,2.99916,1.63661,0.97983,2.96114,0.35372,0.7561,3.80143
63677131395678,2,0,0.14859,3.00142,1.63779,0.97878,2.95344,0.35332,0.75595,3.82655
63677131395727,2,0,0.14182,2.99684,1.63422,0.97536,2.93555,0.35736,0.75433,3.85108
63677131395760,2,0,0.14548,2.98944,1.63002,0.97012,2.91555,0.35362,0.75312,3.84381
63677131395777,2,0,0.14431,2.98662,1.63029,0.96797,2.90462,0.35646,0.75143,3.83758
63677131395826,2,0,0.14489,2.97465,1.62771,0.96174,2.89031,0.35686,0.74862,3.81473
63677131395859,2,0,0.14758,2.97615,1.62193,0.96083,2.88757,0.35687,0.74803,3.7459
63677131395892,2,0,0.14804,2.97007,1.62459,0.95704,2.87826,0.35562,0.74633,3.73311
63677131395925,2,0,0.14739,2.96787,1.61909,0.95502,2.87698,0.34965,0.74328,3.71641
63677131395942,2,0,0.15031,2.96291,1.6243,0.95568,2.8717,0.35071,0.74365,3.73482
63677131395958,2,0,0.1474,2.96685,1.62033,0.95327,2.87859,0.35103,0.74199,3.7333
63677131395992,2,0,0.14904,2.96489,1.61907,0.95811,2.88427,0.34647,0.74097,3.77195
63677131396025,2,0,0.15126,2.96969,1.62121,0.96108,2.88338,0.3474,0.74611,3.76409
63677131396042,2,0,0.14755,2.97031,1.622,0.96059,2.89793,0.34667,0.74619,3.79735
63677131396075,2,0,0.14966,2.97318,1.62651,0.96385,2.89802,0.34521,0.74624,3.82578
63677131396107,2,0,0.15365,2.97488,1.63102,0.96491,2.91654,0.34806,0.75143,3.81763
63677131396125,2,0,0.15563,2.988,1.62558,0.9678,2.92235,0.3497,0.75597,3.81971
63677131396158,2,0,0.15926,2.98236,1.63133,0.97265,2.93897,0.35176,0.75877,3.85932
63677131396207,2,0,0.15449,2.9985,1.64153,0.97582,2.98647,0.35211,0.76003,3.9033
63677131396240,2,0,0.15806,2.99716,1.64193,0.97948,3.00169,0.35372,0.75972,3.93532
63677131396274,2,0,0.15829,3.00503,1.63494,0.97568,3.01653,0.35576,0.76089,3.92892
63677131396306,2,0,0.15108,2.99667,1.63846,0.97632,3.03611,0.34923,0.75435,3.99388
63677131396340,2,0,0.1484,2.99979,1.64234,0.97739,3.04436,0.34692,0.75089,3.97234
63677131396373,2,0,0.15242,2.99468,1.64152,0.98277,3.04813,0.34498,0.75147,4.00047
63677131396406,2,0,0.15424,2.99224,1.64174,0.98941,3.04868,0.34446,0.74999,4.00906
63677131396423,2,0,0.15587,2.98886,1.63753,0.98304,3.04513,0.34194,0.74912,4.005
63677131396456,2,0,0.15145,2.9912,1.64453,0.98349,3.04407,0.34023,0.74882,3.93328
63677131396506,2,0,0.15727,2.99129,1.65101,0.98688,3.04094,0.34191,0.75418,3.90368
63677131396522,2,0,0.16204,2.9882,1.64857,0.98129,3.03889,0.34226,0.75281,3.90199
63677131396539,2,0,0.16399,2.99191,1.65142,0.9871,3.03951,0.34283,0.7575,3.92109
63677131396572,2,0,0.16152,2.98993,1.64558,0.98596,3.03806,0.34428,0.75647,3.93606
63677131396605,2,0,0.16069,2.99786,1.64925,0.9809,3.03645,0.34361,0.75964,3.91677
63677131396637,2,0,0.16028,2.99735,1.64472,0.98455,3.03703,0.34428,0.7651,3.97468
63677131396655,2,0,0.15704,2.99256,1.64341,0.98075,3.03657,0.3428,0.76504,4.0202
63677131396688,2,0,0.15655,2.99542,1.63611,0.98164,3.03363,0.34084,0.76182,4.06201
63677131396721,2,0,0.15771,2.99278,1.63823,0.99171,3.03719,0.34208,0.76235,4.06802
63677131396754,2,0,0.15941,2.99267,1.63333,0.98076,3.0285,0.33895,0.76132,3.99867
63677131396787,2,0,0.15754,2.99711,1.63058,0.97975,3.02459,0.3408,0.76172,4.0215
63677131396820,2,0,0.15857,2.99192,1.63098,0.98523,3.02297,0.34161,0.75863,4.03407
63677131396837,2,0,0.15861,2.99244,1.6322,0.97926,3.01947,0.34092,0.75924,4.03605
63677131396887,2,0,0.16008,2.98595,1.63481,0.98236,3.01633,0.34007,0.75899,4.03181
63677131396919,2,0,0.15896,2.9869,1.63245,0.97421,3.01217,0.33767,0.7594,4.03159
63677131396937,2,0,0.1595,2.98563,1.63124,0.98009,3.01649,0.33796,0.76111,4.07624
63677131396986,2,0,0.1573,2.98962,1.63538,0.97942,3.01469,0.33815,0.76037,4.07296
63677131397003,2,0,0.15761,2.98737,1.63281,0.98091,3.02265,0.33556,0.761,4.05689
63677131397036,2,0,0.16015,2.99481,1.63541,0.98758,3.02634,0.33591,0.76331,4.0337
63677131397086,2,0,0.15603,2.99955,1.63327,0.98618,3.02659,0.33823,0.76364,4.02055
63677131397118,2,0,0.1502,3.00055,1.63313,0.98848,3.02017,0.33826,0.76367,4.00958
63677131397152,2,0,0.15254,2.9978,1.63384,0.99051,3.0183,0.33628,0.76429,3.97277
63677131397185,2,0,0.15241,2.99326,1.6418,0.98977,3.01778,0.33799,0.76422,3.9529
63677131397218,2,0,0.15423,2.99683,1.63537,0.98682,3.01653,0.33844,0.76414,3.92827
63677131397268,2,0,0.14695,2.99651,1.6303,0.9853,3.0169,0.3382,0.76154,3.89459
63677131397318,2,0,0.15117,2.99414,1.62565,0.9871,3.01954,0.33815,0.76058,3.86946
63677131397334,2,0,0.15178,2.99359,1.62494,0.98697,3.02085,0.33926,0.76036,3.87081
63677131397366,2,0,0.1504,2.99517,1.61428,0.97957,3.01936,0.33965,0.75919,3.8701
63677131397400,2,0,0.15227,2.98685,1.61299,0.98013,3.01779,0.33876,0.76,3.87436
63677131397433,2,0,0.15508,2.98273,1.61687,0.98011,3.01305,0.33692,0.76249,3.87607
63677131397467,2,0,0.15678,2.98381,1.61518,0.97951,3.01177,0.33686,0.76454,3.88422
63677131397500,2,0,0.15648,2.98362,1.61671,0.97668,3.00758,0.33749,0.76537,3.88184
63677131397533,2,0,0.1573,2.98321,1.61888,0.97795,3.00758,0.33762,0.76625,3.88514
63677131397566,2,0,0.15311,2.98368,1.62708,0.9802,3.00415,0.33579,0.76571,3.88496
63677131397582,2,0,0.15099,2.98829,1.62772,0.97879,3.00036,0.33603,0.76769,3.87725
63677131397615,2,0,0.14931,2.98656,1.62547,0.98236,3.00076,0.33713,0.76492,3.88157
63677131397665,2,0,0.15061,2.98626,1.6257,0.98088,2.99684,0.33499,0.76561,3.87598
63677131397682,2,0,0.15145,2.98269,1.62549,0.97867,2.99845,0.33422,0.76226,3.87878
63677131397714,2,0,0.14395,2.9793,1.62387,0.98015,2.99751,0.33228,0.76015,3.86974
63677131397748,2,0,0.14621,2.97833,1.62002,0.97773,2.99533,0.33203,0.76283,3.86282
63677131397764,2,0,0.14676,2.97052,1.61962,0.97788,2.99324,0.331,0.76371,3.85747
63677131397798,2,0,0.14551,2.97521,1.6176,0.97715,2.98986,0.33054,0.7635,3.85307
63677131397815,2,0,0.14519,2.96614,1.6187,0.97613,2.99201,0.3302,0.76249,3.84873
63677131397865,2,0,0.14515,2.97694,1.61693,0.97625,2.98643,0.33072,0.76276,3.84511
63677131397881,2,0,0.14697,2.96444,1.61458,0.9748,2.98259,0.33078,0.76372,3.84193
63677131397946,2,0,0.1512,2.97028,1.61972,0.97459,2.97931,0.3309,0.76446,3.83883
63677131397980,2,0,0.14963,2.9722,1.61968,0.97506,2.98172,0.33289,0.7623,3.83183
63677131398012,2,0,0.14962,2.96316,1.62001,0.97572,2.98111,0.33029,0.76223,3.83624
63677131398046,2,0,0.14954,2.965,1.62094,0.97469,2.98427,0.33342,0.76409,3.82953
63677131398063,2,0,0.15021,2.96745,1.61848,0.97371,2.9829,0.33352,0.76176,3.82109
63677131398095,2,0,0.15218,2.96182,1.61998,0.9737,2.98595,0.33083,0.76095,3.82589
63677131398146,2,0,0.15028,2.9623,1.61653,0.97069,2.98192,0.3315,0.76072,3.82112
63677131398162,2,0,0.14969,2.95987,1.61367,0.97101,2.98331,0.3306,0.7598,3.81336
63677131398196,2,0,0.15205,2.95484,1.61496,0.97024,2.98638,0.33241,0.75992,3.81715
63677131398229,2,0,0.15236,2.96262,1.61106,0.96809,2.98125,0.33277,0.76042,3.81225
63677131398262,2,0,0.15118,2.94909,1.612,0.97033,2.98355,0.32883,0.75883,3.82019
63677131398295,2,0,0.15257,2.95299,1.6115,0.96971,2.97981,0.32939,0.76073,3.82438
63677131398329,2,0,0.15414,2.95764,1.6116,0.97018,2.97951,0.32976,0.76227,3.81921
63677131398361,2,0,0.15404,2.95326,1.61274,0.9721,2.98006,0.32987,0.76286,3.8282
63677131398377,2,0,0.15361,2.94842,1.60959,0.96753,2.97926,0.32799,0.76207,3.83338
63677131398427,2,0,0.15311,2.94857,1.60457,0.96943,2.98305,0.3269,0.7616,3.83152
63677131398444,2,0,0.15218,2.94756,1.60579,0.96615,2.98003,0.32786,0.76142,3.83987
63677131398477,2,0,0.15308,2.95538,1.60193,0.96802,2.98302,0.32977,0.76212,3.83441
63677131398494,2,0,0.15039,2.94937,1.60536,0.96842,2.98047,0.32924,0.76171,3.83987
63677131398543,2,0,0.15251,2.95505,1.59766,0.96556,2.97742,0.33157,0.76075,3.83858
63677131398560,2,0,0.15044,2.96038,1.59819,0.96987,2.98012,0.33138,0.75982,3.84039
63677131398594,2,0,0.14847,2.95923,1.59787,0.96876,2.97597,0.3319,0.76145,3.83835
63677131398626,2,0,0.14934,2.95727,1.5995,0.96709,2.97704,0.33248,0.76228,3.83898
63677131398659,2,0,0.15166,2.95098,1.59627,0.96551,2.97763,0.33184,0.76308,3.84311
63677131398692,2,0,0.1525,2.95663,1.59316,0.96345,2.9744,0.3329,0.76508,3.83806
63677131398725,2,0,0.14992,2.95128,1.59089,0.96393,2.97773,0.33232,0.76284,3.84996
63677131398742,2,0,0.15213,2.9484,1.59312,0.96477,2.97564,0.32938,0.76601,3.84225
63677131398809,2,0,0.15304,2.93876,1.59316,0.96415,2.98062,0.32862,0.76312,3.84991
63677131398859,2,0,0.15415,2.93419,1.58728,0.9642,2.98102,0.3288,0.76094,3.8535
63677131398908,2,0,0.15762,2.93386,1.58895,0.96728,2.98097,0.328,0.76039,3.84644
63677131398941,2,0,0.15402,2.93188,1.58919,0.96513,2.97685,0.3274,0.76118,3.84397
63677131398974,2,0,0.15402,2.93134,1.59228,0.96729,2.97602,0.32752,0.76005,3.8445
63677131399008,2,0,0.15455,2.93065,1.5931,0.96903,2.97564,0.32625,0.76067,3.84189
63677131399024,2,0,0.15413,2.93771,1.59118,0.9691,2.97205,0.32636,0.76159,3.84927
63677131399040,2,0,0.15501,2.93518,1.59669,0.97094,2.97131,0.32575,0.76355,3.8435
63677131399074,2,0,0.14989,2.93425,1.59571,0.97054,2.97214,0.32633,0.76363,3.84574
63677131399107,2,0,0.14816,2.93226,1.59752,0.96764,2.97044,0.32595,0.7629,3.8547
63677131399123,2,0,0.14296,2.94031,1.60073,0.96875,2.96772,0.32723,0.7655,3.85321
63677131399157,2,0,0.14182,2.93666,1.59865,0.96674,2.96947,0.32703,0.76478,3.85918
63677131399206,2,0,0.14535,2.92252,1.60478,0.96152,2.96894,0.32496,0.76516,3.85894
63677131399223,2,0,0.14247,2.93028,1.60467,0.95905,2.96584,0.3257,0.76214,3.8577
63677131399256,2,0,0.14715,2.92628,1.60747,0.95903,2.96551,0.3235,0.76199,3.86279
63677131399272,2,0,0.15086,2.92606,1.60386,0.95901,2.96145,0.32281,0.76342,3.86298
63677131399305,2,0,0.15326,2.9295,1.60473,0.95932,2.96427,0.32606,0.76377,3.86132
63677131399338,2,0,0.1526,2.93049,1.60754,0.95912,2.9667,0.32854,0.76381,3.8651
63677131399372,2,0,0.15117,2.93649,1.604,0.95924,2.9632,0.3286,0.76445,3.86532
63677131399405,2,0,0.15128,2.93978,1.60791,0.95991,2.96508,0.33048,0.76318,3.86783
63677131399438,2,0,0.14987,2.94391,1.60869,0.96203,2.96552,0.33023,0.76315,3.87402
63677131399455,2,0,0.14888,2.94433,1.60525,0.96396,2.97057,0.33063,0.76305,3.87529
63677131399487,2,0,0.14498,2.95026,1.6074,0.96396,2.96883,0.33102,0.76232,3.87645
63677131399521,2,0,0.14752,2.93852,1.60412,0.96284,2.97034,0.32939,0.7623,3.87584
63677131399554,2,0,0.14874,2.93256,1.6068,0.96156,2.96519,0.32577,0.75971,3.86638
63677131399588,2,0,0.14757,2.92935,1.60447,0.96473,2.96842,0.32516,0.76084,3.87247
63677131399621,2,0,0.14743,2.92439,1.60404,0.96589,2.9654,0.32407,0.76081,3.8815
63677131399637,2,0,0.14921,2.93036,1.60481,0.96224,2.96138,0.32638,0.7622,3.87249
63677131399686,2,0,0.14848,2.91648,1.60306,0.96106,2.95904,0.32334,0.76254,3.87137
63677131399703,2,0,0.15001,2.91512,1.60329,0.95873,2.95528,0.32301,0.76369,3.86662
63677131399735,2,0,0.15137,2.92006,1.60738,0.96068,2.95338,0.32308,0.76519,3.87055
63677131399785,2,0,0.15126,2.916,1.60789,0.96098,2.95333,0.32489,0.764,3.86503
63677131399802,2,0,0.14899,2.91733,1.60829,0.96228,2.95465,0.32547,0.76647,3.8508
63677131399835,2,0,0.1507,2.90898,1.60798,0.96159,2.95324,0.32367,0.7644,3.85089
63677131399886,2,0,0.1499,2.91597,1.60757,0.96436,2.95748,0.32587,0.76369,3.85536
63677131399902,2,0,0.15004,2.91686,1.60575,0.96874,2.96105,0.32648,0.76261,3.85236
63677131399919,2,0,0.15138,2.91173,1.60724,0.9678,2.95787,0.32565,0.76263,3.85667
63677131399968,2,0,0.14646,2.91791,1.60169,0.96747,2.96253,0.32533,0.76131,3.85074
63677131399985,2,0,0.14659,2.91331,1.59843,0.9645,2.96084,0.32366,0.75793,3.85604
63677131400018,2,0,0.15286,2.91177,1.60047,0.96311,2.95801,0.32573,0.75866,3.8558
63677131400067,2,0,0.15147,2.91025,1.5967,0.96392,2.95861,0.32466,0.75797,3.86375
63677131400084,2,0,0.15164,2.90283,1.59991,0.96182,2.95282,0.3245,0.75956,3.86013
63677131400117,2,0,0.15223,2.90395,1.59642,0.95866,2.95021,0.32349,0.76002,3.86051
63677131400133,2,0,0.15599,2.9036,1.59333,0.96018,2.95332,0.32326,0.75926,3.87445
63677131400167,2,0,0.1552,2.90939,1.59461,0.96044,2.95235,0.32183,0.76072,3.88723
63677131400200,2,0,0.15744,2.91033,1.59354,0.95986,2.956,0.32315,0.76079,3.92068
63677131400233,2,0,0.15129,2.91214,1.59631,0.96095,2.95468,0.32211,0.76213,3.94093
63677131400266,2,0,0.15594,2.92084,1.59678,0.96267,2.95981,0.32193,0.76022,3.90462
63677131400300,2,0,0.15292,2.9163,1.59764,0.96501,2.96457,0.32416,0.76002,3.90996
63677131400333,2,0,0.15174,2.91531,1.59346,0.96449,2.96454,0.32332,0.76009,3.91023
63677131400366,2,0,0.15114,2.91461,1.59939,0.96611,2.96724,0.32406,0.76145,3.89351
63677131400398,2,0,0.15329,2.90539,1.60463,0.96884,2.9734,0.32381,0.76286,3.86931
63677131400448,2,0,0.15218,2.91303,1.6012,0.96576,2.96916,0.32354,0.76327,3.84312
63677131400465,2,0,0.15059,2.91262,1.60383,0.96954,2.97332,0.32509,0.7635,3.88512
63677131400481,2,0,0.15734,2.91504,1.60696,0.96598,2.97057,0.32429,0.76607,3.88119
63677131400515,2,0,0.15531,2.91921,1.60312,0.96342,2.97149,0.32575,0.76656,3.87943
63677131400547,2,0,0.15399,2.9179,1.60338,0.96333,2.97053,0.32526,0.7648,3.88036
63677131400581,2,0,0.15314,2.91703,1.59864,0.96148,2.97193,0.32517,0.7643,3.87938
63677131400614,2,0,0.14921,2.9275,1.59743,0.96222,2.96868,0.32526,0.76196,3.88062
63677131400647,2,0,0.1502,2.92474,1.59762,0.96258,2.97107,0.32711,0.76194,3.87592
63677131400664,2,0,0.14531,2.92094,1.59198,0.96403,2.97449,0.32752,0.76288,3.87545
63677131400696,2,0,0.14634,2.917,1.59176,0.96036,2.96849,0.32622,0.76071,3.87707
63677131400747,2,0,0.14551,2.91001,1.59694,0.96247,2.96668,0.32418,0.7596,3.87352
63677131400780,2,0,0.14772,2.90271,1.59673,0.96331,2.96935,0.32375,0.76094,3.87641
63677131400796,2,0,0.14758,2.89823,1.59883,0.96058,2.96579,0.32345,0.76272,3.87173
63677131400846,2,0,0.14344,2.8884,1.59491,0.96178,2.96571,0.32169,0.7613,3.877
63677131400896,2,0,0.14506,2.89233,1.59674,0.96203,2.96554,0.31939,0.7615,3.88075
63677131400913,2,0,0.14549,2.891,1.59513,0.96402,2.96348,0.31895,0.76109,3.89001
63677131400945,2,0,0.14837,2.89213,1.59335,0.95962,2.96583,0.32,0.76278,3.88585
63677131400978,2,0,0.14657,2.89607,1.59536,0.95977,2.96364,0.3204,0.76159,3.89435
63677131401012,2,0,0.14721,2.89956,1.59006,0.95988,2.96693,0.32108,0.76091,3.88714
63677131401044,2,0,0.14984,2.9005,1.58614,0.95615,2.96445,0.32123,0.76081,3.8855
63677131401078,2,0,0.1511,2.89197,1.58684,0.9554,2.96165,0.32272,0.75998,3.88468
63677131401094,2,0,0.15174,2.89186,1.58346,0.95397,2.96269,0.32477,0.76014,3.88479
63677131401127,2,0,0.15299,2.88544,1.58735,0.95316,2.95876,0.32385,0.76063,3.87953
63677131401161,2,0,0.14747,2.88664,1.58493,0.95418,2.9551,0.32317,0.76002,3.87897
63677131401194,2,0,0.14847,2.88567,1.5837,0.95624,2.95482,0.32009,0.75912,3.88437
63677131401228,2,0,0.14616,2.88418,1.59095,0.95488,2.95078,0.32023,0.7612,3.88237
63677131401260,2,0,0.15004,2.88251,1.59137,0.95494,2.95068,0.3188,0.76254,3.88323
63677131401294,2,0,0.14403,2.8859,1.58804,0.95779,2.95379,0.31758,0.75942,3.89127
63677131401327,2,0,0.14109,2.88723,1.58946,0.95418,2.95191,0.31851,0.75961,3.88833
63677131401344,2,0,0.14169,2.87705,1.5881,0.95426,2.95252,0.31756,0.75835,3.89336
63677131401392,2,0,0.14894,2.8761,1.59047,0.95428,2.94939,0.31697,0.75889,3.88957
63677131401426,2,0,0.14921,2.8825,1.58719,0.95732,2.9537,0.32224,0.75902,3.88816
63677131401459,2,0,0.15394,2.87868,1.58701,0.95837,2.95562,0.32072,0.75744,3.88831
63677131401475,2,0,0.14966,2.88323,1.58835,0.9612,2.95292,0.31975,0.75677,3.8891
63677131401525,2,0,0.14925,2.88041,1.59097,0.96117,2.95048,0.31921,0.75945,3.88975
63677131401542,2,0,0.15489,2.88096,1.59483,0.96176,2.95232,0.32052,0.76004,3.89075
63677131401575,2,0,0.15399,2.8815,1.5919,0.96225,2.94968,0.32043,0.75896,3.89038
63677131401609,2,0,0.15166,2.87555,1.59553,0.95654,2.94752,0.31955,0.75866,3.89573
63677131401625,2,0,0.15009,2.87694,1.59306,0.95408,2.94547,0.31684,0.75771,3.90215
63677131401658,2,0,0.14554,2.87997,1.59449,0.94855,2.94438,0.31536,0.75782,3.91358
63677131401708,2,0,0.14923,2.88277,1.59648,0.94587,2.93979,0.31442,0.7576,3.92251
63677131401724,2,0,0.15428,2.88089,1.59255,0.94896,2.94393,0.31352,0.75698,3.94049
63677131401757,2,0,0.14872,2.88161,1.59423,0.94919,2.94351,0.31346,0.75793,3.9536
63677131401807,2,0,0.14468,2.88953,1.59162,0.95468,2.9409,0.3096,0.75509,3.97505
63677131401823,2,0,0.14631,2.88858,1.58993,0.95007,2.94253,0.30999,0.75194,3.97633
63677131401840,2,0,0.14743,2.88927,1.59157,0.9532,2.9378,0.30995,0.75304,3.98063
63677131401873,2,0,0.15201,2.88346,1.59039,0.95589,2.93829,0.31191,0.75083,3.99599
63677131401923,2,0,0.14847,2.8799,1.59339,0.95466,2.93545,0.31168,0.75065,3.98692
63677131401940,2,0,0.14859,2.88444,1.59246,0.95168,2.92869,0.30798,0.75031,3.97787
63677131401973,2,0,0.15419,2.87359,1.59335,0.94795,2.93127,0.30667,0.75083,3.98064
63677131402005,2,0,0.15587,2.87557,1.59516,0.94512,2.93153,0.30844,0.75208,3.98816
63677131402039,2,0,0.15662,2.87595,1.6004,0.94928,2.93017,0.3063,0.75132,4.00791
63677131402088,2,0,0.15525,2.88608,1.59733,0.94649,2.92816,0.30214,0.75079,4.03792
63677131402122,2,0,0.15507,2.88636,1.59948,0.9445,2.9301,0.30038,0.74852,4.05509
63677131402155,2,0,0.1569,2.89433,1.59662,0.94217,2.93622,0.29925,0.74868,4.07313
63677131402188,2,0,0.15521,2.89747,1.6011,0.94666,2.93274,0.30099,0.75001,4.05589
63677131402221,2,0,0.1535,2.89461,1.59821,0.9499,2.93543,0.2989,0.7483,4.06872
63677131402255,2,0,0.15307,2.89282,1.59773,0.94684,2.9366,0.30381,0.74843,4.09559
63677131402287,2,0,0.15093,2.89534,1.59797,0.94595,2.93762,0.30166,0.74687,4.09579
63677131402304,2,0,0.14925,2.89938,1.59701,0.95417,2.93927,0.30045,0.74805,4.10243
63677131402338,2,0,0.15404,2.8983,1.59476,0.95725,2.93407,0.30171,0.74859,4.12122
63677131402387,2,0,0.16328,2.89862,1.59329,0.95085,2.9336,0.29251,0.74941,4.18157
63677131402419,2,0,0.15933,2.909,1.59727,0.95122,2.93393,0.29513,0.75231,4.17522
63677131402453,2,0,0.16103,2.9086,1.59864,0.95396,2.93878,0.28874,0.75135,4.17799
63677131402486,2,0,0.16933,2.91753,1.60091,0.95358,2.93359,0.28765,0.75489,4.18598
63677131402503,2,0,0.16585,2.91557,1.60277,0.95231,2.94357,0.28688,0.75491,4.19599
63677131402536,2,0,0.16076,2.91877,1.6053,0.95399,2.94404,0.28502,0.75321,4.20779
63677131402552,2,0,0.15639,2.9184,1.6125,0.9543,2.94897,0.28418,0.75587,4.21914
63677131402585,2,0,0.15185,2.91346,1.61829,0.95079,2.95355,0.28676,0.75122,4.24438
63677131402619,2,0,0.15194,2.91074,1.6081,0.95734,2.95072,0.28565,0.74961,4.26297
63677131402636,2,0,0.15564,2.90586,1.61011,0.9566,2.95338,0.28647,0.75078,4.26798
63677131402669,2,0,0.15348,2.90877,1.60352,0.95587,2.95468,0.28587,0.75165,4.28486
63677131402685,2,0,0.15487,2.89808,1.61097,0.95915,2.95501,0.28692,0.75496,4.28641
63677131402718,2,0,0.15389,2.90527,1.60781,0.96002,2.95235,0.28582,0.75605,4.28932
63677131402769,2,0,0.15837,2.89851,1.61265,0.95744,2.94996,0.28435,0.75396,4.28117
63677131402785,2,0,0.15703,2.90291,1.60773,0.95688,2.94817,0.2847,0.75618,4.28401
63677131402801,2,0,0.15898,2.90441,1.61879,0.96549,2.94719,0.28556,0.75895,4.26934
63677131402834,2,0,0.15749,2.91011,1.61948,0.96386,2.95459,0.28348,0.75838,4.26326
63677131402867,2,0,0.14677,2.91167,1.62209,0.96486,2.95781,0.28473,0.75281,4.24938
63677131402884,2,0,0.14964,2.91558,1.62212,0.9577,2.95124,0.28158,0.74907,4.24422
63677131402917,2,0,0.1513,2.90839,1.61654,0.96558,2.95822,0.28267,0.74971,4.24103
63677131402967,2,0,0.15501,2.89482,1.61201,0.96411,2.95714,0.28262,0.75342,4.22903
63677131403000,2,0,0.15152,2.89863,1.6111,0.95961,2.95328,0.28212,0.7538,4.23218
63677131403033,2,0,0.15502,2.89314,1.60914,0.96049,2.94987,0.28252,0.75142,4.22776
63677131403067,2,0,0.16137,2.88995,1.60812,0.95107,2.94188,0.28196,0.75512,4.22844
63677131403083,2,0,0.16511,2.88427,1.61204,0.96002,2.94656,0.28102,0.75683,4.22228
63677131403116,2,0,0.16233,2.88904,1.61261,0.95587,2.94291,0.27775,0.75886,4.21693
63677131403165,2,0,0.1618,2.90089,1.61517,0.96085,2.94291,0.2749,0.75783,4.22193
63677131403199,2,0,0.16121,2.90117,1.61116,0.96194,2.94511,0.27769,0.76074,4.22247
63677131403215,2,0,0.15895,2.9054,1.61414,0.9623,2.94615,0.27914,0.76084,4.20974
63677131403249,2,0,0.15837,2.89312,1.6116,0.96988,2.95042,0.27961,0.75998,4.21406
63677131403282,2,0,0.15895,2.90792,1.60927,0.96207,2.94985,0.28096,0.76009,4.21422
63677131403298,2,0,0.15957,2.897,1.60694,0.96417,2.95241,0.28184,0.76018,4.21417
63677131403348,2,0,0.158,2.89284,1.60452,0.95854,2.94986,0.28256,0.75703,4.21445
63677131403364,2,0,0.15558,2.89078,1.60186,0.95816,2.94766,0.28499,0.75537,4.20739
63677131403398,2,0,0.15785,2.8846,1.60221,0.95785,2.94379,0.27984,0.75313,4.21221
63677131403414,2,0,0.15867,2.88161,1.60054,0.9565,2.9439,0.28082,0.75498,4.21893
63677131403447,2,0,0.15489,2.89199,1.60019,0.95675,2.94281,0.28016,0.75435,4.21839
63677131403464,2,0,0.15423,2.8813,1.5989,0.95511,2.93859,0.27894,0.75685,4.21534
63677131403497,2,0,0.15436,2.88692,1.6034,0.95898,2.93934,0.27935,0.75435,4.2175
63677131403546,2,0,0.15691,2.89751,1.60596,0.96533,2.94002,0.28153,0.75604,4.21172
63677131403563,2,0,0.15599,2.88581,1.61006,0.96717,2.94052,0.27823,0.75389,4.21285
63677131403579,2,0,0.14936,2.89467,1.60821,0.97123,2.94518,0.2798,0.75726,4.21247
63677131403613,2,0,0.14874,2.89628,1.60561,0.97143,2.94362,0.27997,0.75448,4.18938
63677131403645,2,0,0.15064,2.89224,1.60963,0.97077,2.94621,0.27857,0.75376,4.19364
63677131403662,2,0,0.14944,2.89667,1.60802,0.97356,2.9429,0.27598,0.75197,4.1893
63677131403695,2,0,0.14923,2.88774,1.61159,0.97138,2.94579,0.279,0.75446,4.19021
63677131403746,2,0,0.14643,2.88278,1.6081,0.96603,2.94262,0.27682,0.75046,4.19842
63677131403778,2,0,0.1499,2.87727,1.60233,0.96707,2.94077,0.27563,0.74895,4.20306
63677131403827,2,0,0.15518,2.87955,1.60903,0.95924,2.94039,0.27579,0.75126,4.22944
63677131403861,2,0,0.15922,2.89034,1.61313,0.95911,2.94275,0.28192,0.75351,4.22988
63677131403894,2,0,0.16044,2.84335,1.61001,0.95932,2.94108,0.28019,0.75357,4.22222
63677131403927,2,0,0.16613,2.85764,1.6062,0.95509,2.94095,0.27935,0.75197,4.22067
63677131403944,2,0,0.16332,2.86017,1.60982,0.95899,2.94217,0.28133,0.75233,4.21289
63677131403977,2,0,0.16227,2.86931,1.61171,0.95976,2.9465,0.28235,0.75473,4.21755
63677131404026,2,0,0.16426,2.87677,1.60778,0.96428,2.94905,0.28258,0.75445,4.21019
63677131404060,2,0,0.16504,2.87462,1.61458,0.96785,2.94713,0.28483,0.7557,4.20554
63677131404093,2,0,0.16332,2.86608,1.6045,0.96476,2.94939,0.28093,0.75236,4.20549
63677131404126,2,0,0.16487,2.91656,1.61066,0.96497,2.94459,0.28001,0.75463,4.20575
63677131404143,2,0,0.16621,2.89985,1.61167,0.96176,2.94479,0.28256,0.76126,4.21405
63677131404160,2,0,0.16633,2.89332,1.61012,0.9579,2.94875,0.27988,0.75792,4.21366
63677131404193,2,0,0.16582,2.90114,1.61338,0.96035,2.94373,0.28064,0.76154,4.22331
63677131404225,2,0,0.16176,2.89076,1.61493,0.95241,2.94358,0.27956,0.76104,4.22182
63677131404259,2,0,0.16041,2.88203,1.61616,0.95096,2.9394,0.27743,0.76026,4.22902
63677131404275,2,0,0.15344,2.89709,1.61835,0.95502,2.94377,0.27807,0.75917,4.22859
63677131404325,2,0,0.1511,2.89124,1.61784,0.95051,2.94031,0.27453,0.75612,4.23186
63677131404358,2,0,0.15419,2.90746,1.62142,0.94977,2.93955,0.27238,0.75428,4.22161
63677131404408,2,0,0.15673,2.91433,1.6191,0.95912,2.94405,0.27036,0.75498,4.22339
63677131404441,2,0,0.15667,2.91065,1.61764,0.95333,2.94359,0.27012,0.7563,4.22444
63677131404474,2,0,0.15815,2.89586,1.6159,0.95117,2.94398,0.27065,0.75537,4.22601
63677131404508,2,0,0.15895,2.88405,1.61482,0.94947,2.94325,0.27193,0.75472,4.22592
63677131404524,2,0,0.16013,2.88564,1.61668,0.95122,2.94412,0.27239,0.75456,4.22475
63677131404557,2,0,0.15814,2.87927,1.61469,0.95515,2.94421,0.27436,0.75744,4.23227
63677131404573,2,0,0.15953,2.88878,1.61133,0.9558,2.94421,0.27612,0.75883,4.23381
63677131404606,2,0,0.15774,2.86955,1.61187,0.94706,2.93753,0.27355,0.75669,4.23498
63677131404640,2,0,0.15663,2.86018,1.61514,0.95228,2.93535,0.2757,0.75724,4.23274
63677131404656,2,0,0.15838,2.86783,1.61941,0.94875,2.93125,0.27296,0.75777,4.22731
63677131404706,2,0,0.15237,2.87685,1.61944,0.95295,2.93128,0.27079,0.75703,4.22993
63677131404722,2,0,0.15439,2.87498,1.61509,0.94948,2.92859,0.26882,0.75653,4.22899
63677131404755,2,0,0.15793,2.86032,1.61656,0.9561,2.9293,0.27005,0.75602,4.22775
63677131404773,2,0,0.15346,2.85536,1.61687,0.95547,2.92999,0.26833,0.75474,4.22688
63677131404806,2,0,0.15469,2.85269,1.62006,0.96184,2.93382,0.27141,0.75319,4.22613
63677131404822,2,0,0.15336,2.86807,1.61717,0.95936,2.93224,0.27105,0.7542,4.22727
63677131404856,2,0,0.15707,2.86476,1.61634,0.9613,2.93315,0.26992,0.75184,4.22583
63677131404904,2,0,0.16038,2.86229,1.61611,0.96641,2.93531,0.2762,0.75212,4.23238
63677131404938,2,0,0.15677,2.86197,1.62047,0.96631,2.93681,0.27484,0.75214,4.22846
63677131404988,2,0,0.15874,2.87532,1.61774,0.96416,2.93422,0.27627,0.75497,4.23416
63677131405004,2,0,0.15657,2.86769,1.61446,0.96265,2.93185,0.27498,0.75473,4.23002
63677131405037,2,0,0.15683,2.87798,1.60882,0.96122,2.93297,0.27584,0.75376,4.23676
63677131405054,2,0,0.15502,2.87804,1.61577,0.95533,2.93005,0.27511,0.75504,4.22983
63677131405087,2,0,0.15354,2.87604,1.61837,0.95567,2.93214,0.2744,0.75404,4.2345
63677131405120,2,0,0.15524,2.88417,1.62039,0.95519,2.93173,0.27399,0.75698,4.22925
63677131405137,2,0,0.14973,2.87525,1.62063,0.9481,2.92512,0.27491,0.75509,4.22247
63677131405187,2,0,0.15147,2.89031,1.6206,0.95057,2.93048,0.27468,0.75519,4.22369
63677131405204,2,0,0.15304,2.88593,1.62393,0.94854,2.92635,0.27498,0.75591,4.22216
63677131405220,2,0,0.15705,2.88454,1.62316,0.94947,2.9326,0.27406,0.75642,4.22143
63677131405254,2,0,0.15516,2.87794,1.62371,0.95116,2.92834,0.27632,0.75577,4.22387
63677131405285,2,0,0.1553,2.87389,1.61973,0.95138,2.93152,0.2752,0.75589,4.22438
63677131405319,2,0,0.15898,2.85988,1.62056,0.94339,2.92283,0.27467,0.75331,4.22651
63677131405336,2,0,0.16019,2.86657,1.61782,0.94358,2.91795,0.27089,0.75386,4.23274
63677131405385,2,0,0.15839,2.83685,1.6159,0.94002,2.92023,0.27047,0.75071,4.23059
63677131405402,2,0,0.16076,2.8429,1.61528,0.94057,2.91319,0.26983,0.7513,4.23643
63677131405418,2,0,0.15843,2.84235,1.61829,0.94508,2.91654,0.26909,0.7527,4.23167
63677131405452,2,0,0.16048,2.83864,1.61423,0.94015,2.90907,0.2684,0.75137,4.23961
63677131405484,2,0,0.15996,2.84177,1.61735,0.94259,2.91143,0.26812,0.74997,4.23125
63677131405501,2,0,0.15515,2.8586,1.61506,0.95178,2.91411,0.26862,0.7497,4.23381
