63677131381032,2,0,0.24178,2.59288,0.9452,0.66088,1.77375,0.17358,0.60523,4.72091
63677131381066,2,0,0.24625,2.61473,0.9489,0.66347,1.78987,0.17722,0.6107,4.70733
63677131381115,2,0,0.24863,2.62413,0.95099,0.66417,1.78939,0.17591,0.61349,4.69325
63677131381132,2,0,0.24728,2.63498,0.95293,0.66498,1.79128,0.17515,0.61312,4.72211
63677131381164,2,0,0.24904,2.64588,0.95646,0.66703,1.79971,0.17617,0.61726,4.69517
63677131381198,2,0,0.24891,2.65802,0.95844,0.67021,1.80672,0.1776,0.61933,4.7118
63677131381215,2,0,0.24756,2.6694,0.96113,0.67061,1.80973,0.17612,0.62197,4.69502
63677131381248,2,0,0.2464,2.68102,0.96053,0.673,1.81678,0.17666,0.62213,4.71682
63677131381265,2,0,0.2472,2.70055,0.96308,0.67667,1.83119,0.17947,0.62641,4.72564
63677131381297,2,0,0.24585,2.71003,0.96594,0.67791,1.8334,0.17809,0.62764,4.70812
63677131381314,2,0,0.24799,2.71521,0.96627,0.68136,1.84253,0.17755,0.62859,4.71764
63677131381347,2,0,0.24727,2.72347,0.96923,0.68114,1.84229,0.17546,0.63057,4.71372
63677131381380,2,0,0.24725,2.72445,0.96939,0.68198,1.846,0.17664,0.63305,4.7288
63677131381397,2,0,0.24707,2.72619,0.97204,0.68344,1.84946,0.17705,0.63356,4.71673
63677131381446,2,0,0.24694,2.71832,0.97285,0.68243,1.84148,0.17246,0.63452,4.71687
63677131381479,2,0,0.24772,2.71439,0.9708,0.68091,1.83891,0.17253,0.63462,4.71896
63677131381496,2,0,0.24649,2.70581,0.97098,0.67923,1.84219,0.17428,0.63352,4.71081
63677131381545,2,0,0.24914,2.70086,0.97744,0.68012,1.84046,0.17458,0.63192,4.72177
63677131381562,2,0,0.24695,2.69708,0.97462,0.67786,1.83474,0.17472,0.63104,4.70756
63677131381579,2,0,0.24944,2.69248,0.9636,0.67923,1.83154,0.17481,0.62989,4.72391
63677131381613,2,0,0.2497,2.69361,0.96987,0.67946,1.83,0.17729,0.62821,4.70619
63677131381646,2,0,0.25219,2.6873,0.97112,0.68077,1.8327,0.17677,0.62784,4.72022
63677131381662,2,0,0.25321,2.69527,0.96924,0.68194,1.83237,0.17534,0.62874,4.71135
63677131381696,2,0,0.25508,2.69866,0.97867,0.68377,1.83261,0.17484,0.62918,4.71063
63677131381728,2,0,0.25313,2.71838,0.96981,0.69114,1.83646,0.17403,0.6325,4.71161
63677131381745,2,0,0.25656,2.73512,0.9734,0.69285,1.84405,0.17296,0.63605,4.6989
63677131381778,2,0,0.2565,2.74498,0.99193,0.69398,1.85231,0.17393,0.64064,4.70611
63677131381828,2,0,0.2574,2.76259,0.98867,0.6968,1.85837,0.17426,0.64328,4.69253
63677131381843,2,0,0.25521,2.79117,1.01358,0.70286,1.8791,0.17909,0.64714,4.68004
63677131381877,2,0,0.25295,2.79447,1.00547,0.70454,1.88841,0.18322,0.65047,4.69243
63677131381926,2,0,0.25407,2.80816,1.0002,0.70471,1.89734,0.18356,0.65477,4.67234
63677131381943,2,0,0.2529,2.80973,1.01557,0.70383,1.89698,0.18401,0.65596,4.68823
63677131381977,2,0,0.25155,2.81985,1.01869,0.70873,1.90537,0.18548,0.65597,4.68224
63677131381993,2,0,0.24918,2.83314,1.02262,0.71245,1.92072,0.18472,0.65915,4.69017
63677131382026,2,0,0.25169,2.8342,1.01555,0.71152,1.91571,0.1849,0.66136,4.68815
63677131382059,2,0,0.24976,2.84114,1.01151,0.715,1.9187,0.18381,0.66162,4.69739
63677131382093,2,0,0.25101,2.84477,1.01792,0.71535,1.91726,0.18023,0.66241,4.69808
63677131382125,2,0,0.25225,2.84956,1.02131,0.71477,1.92321,0.18268,0.66279,4.69976
63677131382159,2,0,0.25179,2.8505,1.02185,0.71554,1.92404,0.1823,0.6614,4.73671
63677131382176,2,0,0.25372,2.84895,1.02176,0.71512,1.91856,0.18263,0.66137,4.71755
63677131382209,2,0,0.25477,2.84614,1.01882,0.71525,1.91472,0.17985,0.65989,4.72019
63677131382242,2,0,0.25402,2.83913,1.01534,0.71334,1.91512,0.17926,0.65766,4.73605
63677131382274,2,0,0.25299,2.83534,1.01524,0.711,1.90825,0.17809,0.6579,4.72361
63677131382308,2,0,0.2525,2.83039,1.01597,0.7108,1.90657,0.17719,0.65569,4.73515
63677131382341,2,0,0.25442,2.82193,1.01258,0.71035,1.90497,0.17548,0.65597,4.71443
63677131382374,2,0,0.25273,2.82096,1.01654,0.70937,1.90657,0.17649,0.65533,4.70875
63677131382408,2,0,0.25347,2.81779,1.01743,0.70764,1.90328,0.17692,0.65481,4.72025
63677131382423,2,0,0.24991,2.81474,1.01976,0.70905,1.90708,0.17983,0.65298,4.70504
63677131382474,2,0,0.25154,2.81422,1.01733,0.7078,1.90301,0.18325,0.65405,4.70107
63677131382507,2,0,0.25205,2.81299,1.02067,0.70706,1.90065,0.18577,0.65335,4.70889
63677131382524,2,0,0.25261,2.81218,1.02265,0.70736,1.90011,0.18681,0.65292,4.69925
63677131382573,2,0,0.25395,2.81062,1.02235,0.70649,1.89611,0.18774,0.65312,4.70097
63677131382606,2,0,0.25529,2.80494,1.01707,0.70545,1.89329,0.18528,0.65124,4.69596
63677131382623,2,0,0.25667,2.80279,1.02097,0.70511,1.88936,0.18371,0.65106,4.70459
63677131382656,2,0,0.25584,2.8016,1.02123,0.70491,1.88896,0.18387,0.65204,4.69389
63677131382705,2,0,0.25644,2.80096,1.01966,0.70429,1.88942,0.18405,0.65036,4.71007
63677131382722,2,0,0.25698,2.79942,1.01894,0.70536,1.89041,0.18107,0.65238,4.69196
63677131382755,2,0,0.25801,2.79798,1.02083,0.70559,1.88854,0.17667,0.65146,4.69193
63677131382772,2,0,0.25817,2.79665,1.01832,0.70437,1.88488,0.1765,0.65262,4.71476
63677131382805,2,0,0.25769,2.80161,1.02531,0.70557,1.88892,0.17871,0.65557,4.69029
63677131382838,2,0,0.2557,2.80177,1.01882,0.70489,1.88884,0.17844,0.65555,4.71269
63677131382887,2,0,0.25718,2.80766,1.0222,0.70773,1.89434,0.17912,0.65723,4.7053
63677131382904,2,0,0.25633,2.81322,1.02939,0.70837,1.89444,0.17884,0.6557,4.6929
63677131382920,2,0,0.2575,2.81809,1.0254,0.70763,1.89777,0.18268,0.65671,4.70334
63677131382954,2,0,0.25388,2.81724,1.02406,0.70689,1.89892,0.18315,0.65566,4.70017
63677131382987,2,0,0.25599,2.81671,1.02116,0.71022,1.90191,0.17971,0.65314,4.71274
63677131383020,2,0,0.2557,2.82675,1.01508,0.70931,1.90441,0.17747,0.65319,4.69363
63677131383053,2,0,0.25388,2.82119,1.01467,0.70829,1.89854,0.17426,0.65364,4.70998
63677131383087,2,0,0.25392,2.82637,1.0093,0.70836,1.90017,0.17529,0.65203,4.69511
63677131383120,2,0,0.25619,2.81262,1.00333,0.70502,1.89827,0.17475,0.65466,4.70941
63677131383186,2,0,0.25645,2.81442,1.00308,0.70501,1.89456,0.17506,0.65498,4.69305
63677131383203,2,0,0.25328,2.81426,1.00676,0.70444,1.88994,0.17522,0.65417,4.70491
63677131383236,2,0,0.25304,2.81813,1.01429,0.70758,1.89266,0.17807,0.65426,4.70113
63677131383285,2,0,0.25376,2.81553,1.01839,0.7083,1.89389,0.17982,0.6547,4.71614
63677131383302,2,0,0.25419,2.8229,1.02534,0.71039,1.89531,0.17976,0.65365,4.7178
63677131383335,2,0,0.25372,2.8219,1.03278,0.70778,1.90268,0.17715,0.65419,4.7074
63677131383368,2,0,0.25344,2.82449,1.0354,0.71094,1.90487,0.17637,0.65649,4.7189
63677131383385,2,0,0.25086,2.8283,1.04004,0.71092,1.90973,0.17772,0.65534,4.70972
63677131383418,2,0,0.25318,2.82647,1.0449,0.71085,1.91056,0.1779,0.65634,4.71702
63677131383468,2,0,0.25362,2.82066,1.05204,0.70752,1.90753,0.17581,0.65571,4.71428
63677131383484,2,0,0.25024,2.81951,1.04667,0.70928,1.9102,0.1791,0.65406,4.73809
63677131383517,2,0,0.24986,2.82225,1.04024,0.71071,1.90943,0.17736,0.65618,4.73724
63677131383534,2,0,0.24809,2.8243,1.04233,0.71154,1.90699,0.17771,0.65355,4.74759
63677131383567,2,0,0.25015,2.83049,1.05428,0.71275,1.90648,0.18236,0.65411,4.73076
63677131383601,2,0,0.25174,2.83428,1.05402,0.71277,1.90365,0.18167,0.65521,4.71403
63677131383634,2,0,0.25041,2.84055,1.05753,0.71572,1.90606,0.18206,0.65329,4.73605
63677131383666,2,0,0.24987,2.85362,1.05063,0.72091,1.91088,0.18233,0.65248,4.71093
63677131383700,2,0,0.25427,2.8619,1.07414,0.72286,1.91487,0.18425,0.65715,4.6849
63677131383732,2,0,0.25617,2.87154,1.06902,0.72695,1.91614,0.18785,0.65954,4.70786
63677131383766,2,0,0.25914,2.87458,1.0695,0.72642,1.91978,0.18532,0.66258,4.71039
63677131383799,2,0,0.2568,2.88802,1.07289,0.7297,1.93146,0.18393,0.66653,4.71083
63677131383832,2,0,0.25856,2.89243,1.07671,0.72988,1.9301,0.1865,0.66896,4.72366
63677131383865,2,0,0.25536,2.88975,1.07991,0.72855,1.93334,0.18581,0.66963,4.72001
63677131383882,2,0,0.25648,2.89918,1.08724,0.73189,1.93701,0.18786,0.67253,4.71969
63677131383932,2,0,0.2564,2.90049,1.09043,0.73062,1.94289,0.18665,0.67462,4.7155
63677131383965,2,0,0.25697,2.90242,1.08782,0.73593,1.94582,0.18854,0.67551,4.73199
63677131383981,2,0,0.25513,2.90917,1.08968,0.73738,1.94691,0.19063,0.67392,4.71537
63677131383998,2,0,0.25416,2.90254,1.0834,0.73738,1.94322,0.19123,0.67253,4.73206
63677131384345,2,0,0.25993,2.91481,1.09792,0.73812,1.94584,0.18623,0.67621,4.71428
63677131384362,2,0,0.259,2.90679,1.09472,0.73713,1.93995,0.18677,0.67678,4.7333
63677131384378,2,0,0.26017,2.91658,1.08904,0.73968,1.94355,0.18605,0.67584,4.71697
63677131384412,2,0,0.25781,2.90746,1.08592,0.73545,1.93702,0.18524,0.67573,4.73491
63677131384445,2,0,0.25653,2.9109,1.073,0.73508,1.94039,0.18397,0.67603,4.72172
63677131384462,2,0,0.25667,2.91351,1.07359,0.73259,1.94151,0.18632,0.67734,4.7234
63677131384478,2,0,0.25607,2.90661,1.08406,0.72909,1.93726,0.18678,0.67573,4.73105
63677131384528,2,0,0.25448,2.90982,1.08839,0.73176,1.94109,0.18641,0.67499,4.71976
63677131384544,2,0,0.25397,2.91185,1.09458,0.73373,1.94152,0.18744,0.67353,4.7246
63677131384561,2,0,0.25213,2.91488,1.09746,0.73345,1.94015,0.18632,0.67457,4.71919
63677131384594,2,0,0.25404,2.91088,1.08886,0.73,1.94295,0.1875,0.6736,4.72351
63677131384627,2,0,0.25486,2.90749,1.11676,0.72845,1.9425,0.18673,0.67388,4.71844
63677131384644,2,0,0.25302,2.91086,1.13054,0.73401,1.94598,0.18497,0.67443,4.72536
63677131384660,2,0,0.25475,2.91283,1.07678,0.7361,1.94255,0.18487,0.67465,4.71804
63677131384694,2,0,0.25241,2.90643,1.08851,0.73257,1.94092,0.18513,0.67522,4.73591
63677131384726,2,0,0.25345,2.90704,1.09551,0.73443,1.93774,0.18068,0.674,4.71852
63677131384743,2,0,0.25812,2.90122,1.10716,0.73259,1.93858,0.18086,0.67372,4.7397
63677131384776,2,0,0.25619,2.90859,1.10965,0.7337,1.9351,0.17928,0.67395,4.72057
63677131384793,2,0,0.25586,2.9105,1.10128,0.73011,1.93863,0.18071,0.67456,4.71809
63677131384826,2,0,0.2581,2.91323,1.13529,0.73234,1.93512,0.1839,0.67626,4.74222
63677131384843,2,0,0.25952,2.91294,1.15765,0.73188,1.9404,0.18413,0.6768,4.71591
63677131384876,2,0,0.25816,2.91792,1.13913,0.73506,1.94125,0.18388,0.67811,4.7394
63677131384892,2,0,0.26001,2.92257,1.11928,0.73426,1.9469,0.18842,0.68013,4.73195
63677131384925,2,0,0.25872,2.93345,1.08017,0.73952,1.94799,0.18979,0.68312,4.74325
63677131384942,2,0,0.26028,2.92845,1.08018,0.73315,1.95059,0.18991,0.68167,4.73085
63677131384975,2,0,0.2599,2.92987,1.07298,0.73167,1.94768,0.18833,0.68136,4.73308
63677131385008,2,0,0.25828,2.93216,1.08598,0.73289,1.9495,0.18829,0.67911,4.73991
63677131385024,2,0,0.2538,2.92681,1.08062,0.72654,1.94766,0.18673,0.67802,4.74484
63677131385058,2,0,0.25681,2.93195,1.08125,0.73156,1.95179,0.18888,0.67779,4.74898
63677131385075,2,0,0.25806,2.92499,1.07616,0.72387,1.94767,0.18572,0.67711,4.75393
63677131385108,2,0,0.25808,2.92031,1.1351,0.7143,1.9465,0.18628,0.67834,4.73415
63677131385125,2,0,0.26245,2.93094,1.12661,0.72637,1.94726,0.18809,0.68108,4.75436
63677131385157,2,0,0.26611,2.93323,1.13307,0.72626,1.95056,0.19036,0.68514,4.73331
63677131385207,2,0,0.26137,2.94178,1.15446,0.73363,1.9463,0.19181,0.68456,4.72128
63677131385240,2,0,0.26503,2.93004,1.18379,0.71982,1.94605,0.19561,0.68166,4.72905
63677131385256,2,0,0.2564,2.93764,1.22183,0.72402,1.93917,0.19084,0.67877,4.72068
63677131385307,2,0,0.243,2.93169,1.25975,0.72355,1.93255,0.18511,0.66773,4.73046
63677131385339,2,0,0.24256,2.94183,1.26492,0.72842,1.93517,0.18284,0.66854,4.72767
63677131385373,2,0,0.24104,2.94804,1.26346,0.74071,1.93934,0.18274,0.66982,4.72714
63677131385406,2,0,0.24819,2.9439,1.26055,0.73545,1.94506,0.18311,0.67429,4.72462
63677131385423,2,0,0.24472,2.96577,1.23816,0.76166,1.94519,0.18372,0.67649,4.73175
63677131385439,2,0,0.24687,2.96529,1.25392,0.75442,1.95504,0.18861,0.6764,4.71844
63677131385473,2,0,0.24833,2.96669,1.26288,0.75067,1.95388,0.18678,0.67513,4.72019
63677131385506,2,0,0.24894,2.96826,1.29224,0.75006,1.95546,0.18964,0.67643,4.712
63677131385521,2,0,0.2436,2.97003,1.28841,0.76142,1.9593,0.18968,0.67731,4.72117
63677131385538,2,0,0.24632,2.97428,1.30368,0.76057,1.96101,0.18855,0.67524,4.72943
63677131385588,2,0,0.25112,2.95789,1.35348,0.7399,1.95568,0.18566,0.66905,4.72391
63677131385605,2,0,0.26014,2.98268,1.36992,0.75926,1.96193,0.18665,0.67718,4.71064
63677131385621,2,0,0.26466,2.97394,1.31591,0.7547,1.96098,0.18666,0.68203,4.74007
63677131385655,2,0,0.26065,2.97822,1.3111,0.74584,1.96207,0.1836,0.67761,4.72592
63677131385687,2,0,0.26474,2.97408,1.36651,0.74363,1.9613,0.17885,0.68327,4.74309
63677131385704,2,0,0.27716,2.99835,1.34969,0.7536,1.96781,0.19089,0.693,4.7315
63677131385721,2,0,0.27325,2.9959,1.32252,0.74893,1.96989,0.19363,0.69325,4.74022
63677131385754,2,0,0.27529,2.99969,1.27839,0.75117,1.97043,0.19331,0.69801,4.74106
63677131385787,2,0,0.27013,2.99241,1.29654,0.75438,1.97012,0.19136,0.69519,4.7432
63677131385804,2,0,0.27013,2.97135,1.38843,0.73665,1.96303,0.18316,0.68362,4.72447
63677131385837,2,0,0.28051,2.98831,1.39394,0.76919,1.9733,0.19184,0.69519,4.74234
63677131385853,2,0,0.28185,2.97799,1.44859,0.76158,1.96688,0.18989,0.6776,4.72724
63677131385886,2,0,0.28831,2.97608,1.52195,0.77235,1.96856,0.18238,0.67878,4.75002
63677131385903,2,0,0.29121,2.97554,1.53829,0.77824,1.96577,0.18245,0.68763,4.7238
63677131385937,2,0,0.28459,2.9978,1.55318,0.7852,1.9741,0.18599,0.67985,4.74513
63677131385953,2,0,0.29357,3.02281,1.56787,0.79579,1.97279,0.18985,0.68341,4.73542
63677131385986,2,0,0.29071,3.00432,1.54162,0.78446,1.97195,0.19219,0.68256,4.76575
63677131386019,2,0,0.28635,3.0203,1.44834,0.79252,1.97677,0.19974,0.6938,4.74519
63677131386036,2,0,0.28374,3.00869,1.46625,0.77343,1.97088,0.19341,0.67791,4.75897
63677131386069,2,0,0.26576,3.0147,1.34863,0.75881,1.97373,0.20315,0.68352,4.75328
63677131386085,2,0,0.25835,3.01065,1.43314,0.75631,1.96653,0.20727,0.67871,4.75879
63677131386118,2,0,0.27114,2.98744,1.44612,0.74027,1.96106,0.20905,0.68485,4.74756
63677131386134,2,0,0.27181,3.00406,1.43665,0.76989,1.96777,0.21918,0.69963,4.76197
63677131386168,2,0,0.26946,3.00468,1.42296,0.77564,1.96731,0.22237,0.69674,4.73828
63677131386201,2,0,0.26616,2.98713,1.4612,0.76769,1.96276,0.21722,0.68432,4.76477
63677131386218,2,0,0.27216,3.00671,1.45414,0.78303,1.96478,0.22662,0.69974,4.73778
63677131386268,2,0,0.27696,2.98198,1.39912,0.77799,1.96496,0.22945,0.69349,4.73844
63677131386301,2,0,0.283,2.97232,1.33975,0.7785,1.96475,0.22285,0.69222,4.76213
63677131386318,2,0,0.26117,2.95807,1.28758,0.74856,1.9572,0.21662,0.67827,4.75606
63677131386367,2,0,0.26851,2.98895,1.32715,0.76427,1.95664,0.22034,0.69274,4.75918
63677131386400,2,0,0.26724,2.97729,1.30791,0.76656,1.95714,0.218,0.68983,4.74924
63677131386433,2,0,0.26515,2.98289,1.30751,0.76407,1.95077,0.20932,0.68599,4.75328
63677131386466,2,0,0.27115,3.006,1.35859,0.79106,1.95503,0.21066,0.69896,4.74746
63677131386483,2,0,0.26853,3.01603,1.33923,0.81021,1.96224,0.21642,0.70564,4.75101
63677131386500,2,0,0.26899,3.01231,1.29389,0.80281,1.95709,0.21093,0.70366,4.74938
63677131386533,2,0,0.27968,2.99821,1.28422,0.79925,1.95551,0.21048,0.70407,4.75441
63677131386565,2,0,0.27373,3.00206,1.21419,0.78866,1.94829,0.20087,0.69053,4.74859
63677131386582,2,0,0.26449,2.99735,1.23523,0.76638,1.94059,0.19459,0.68773,4.75191
63677131386615,2,0,0.2733,2.98941,1.21027,0.76577,1.93705,0.1993,0.69324,4.74961
63677131386648,2,0,0.26097,2.97998,1.16316,0.74553,1.93703,0.20047,0.6899,4.75717
63677131386665,2,0,0.26136,2.96261,1.14202,0.72534,1.92541,0.19676,0.6794,4.7477
63677131386682,2,0,0.2724,2.96056,1.18878,0.73391,1.93548,0.20196,0.68182,4.75998
63677131386715,2,0,0.25755,2.96123,1.22751,0.7398,1.93106,0.20201,0.68087,4.74171
63677131386748,2,0,0.25836,2.97919,1.25275,0.76587,1.93871,0.20686,0.68735,4.75991
63677131386765,2,0,0.26411,2.94989,1.27637,0.74909,1.93328,0.21097,0.69241,4.73609
63677131386781,2,0,0.27459,2.96165,1.28091,0.76695,1.94252,0.21679,0.6951,4.76173
63677131386815,2,0,0.26852,2.9688,1.2687,0.76565,1.9387,0.21183,0.68037,4.76312
63677131386848,2,0,0.26501,2.95184,1.28878,0.76984,1.93613,0.21193,0.68339,4.73882
63677131386865,2,0,0.25622,2.96535,1.23801,0.76553,1.93821,0.21247,0.6842,4.76518
63677131386897,2,0,0.26692,2.95716,1.23282,0.76285,1.93437,0.20917,0.68349,4.7452
63677131386913,2,0,0.26883,2.95559,1.22339,0.74863,1.93529,0.21161,0.68112,4.76369
63677131386946,2,0,0.26013,2.9585,1.26504,0.76062,1.9357,0.20738,0.67735,4.75308
63677131386963,2,0,0.25819,2.95361,1.25002,0.75233,1.93623,0.20565,0.67538,4.75661
63677131386996,2,0,0.27306,2.95893,1.34369,0.75767,1.93037,0.2046,0.67912,4.76716
63677131387046,2,0,0.26598,2.96873,1.31475,0.76368,1.92732,0.20738,0.6807,4.75178
63677131387079,2,0,0.263,2.96783,1.29888,0.76898,1.92394,0.20654,0.67859,4.76736
63677131387096,2,0,0.2562,2.96787,1.25637,0.77347,1.92393,0.20557,0.68184,4.74382
63677131387145,2,0,0.26796,2.96886,1.1641,0.76313,1.91779,0.20807,0.68125,4.74383
63677131387179,2,0,0.25959,2.94191,1.07551,0.75048,1.9158,0.20796,0.68107,4.75711
63677131387196,2,0,0.26181,2.94362,1.1627,0.75349,1.91388,0.20474,0.68697,4.7303
63677131387228,2,0,0.27678,2.93371,1.18096,0.74126,1.91064,0.20288,0.69517,4.76036
63677131387261,2,0,0.28179,2.93518,1.14889,0.7519,1.9194,0.20982,0.70066,4.76179
63677131387278,2,0,0.28871,2.91624,1.17648,0.74271,1.91543,0.20504,0.69973,4.74474
63677131387327,2,0,0.29907,2.92403,1.30066,0.74722,1.91572,0.20737,0.70522,4.74619
63677131387361,2,0,0.2912,2.92341,1.313,0.75554,1.91987,0.2105,0.69646,4.75147
63677131387377,2,0,0.28447,2.91902,1.27074,0.74604,1.91865,0.21028,0.68399,4.7466
63677131387427,2,0,0.27232,2.9073,1.31222,0.74284,1.91795,0.20969,0.67408,4.74708
63677131387444,2,0,0.26297,2.92633,1.34443,0.74494,1.91496,0.20628,0.66951,4.74652
63677131387460,2,0,0.26243,2.92391,1.42098,0.74034,1.91048,0.20407,0.66739,4.74611
63677131387493,2,0,0.27023,2.93555,1.41397,0.74693,1.91839,0.21176,0.66447,4.74991
63677131387527,2,0,0.2616,2.93279,1.39115,0.74685,1.9144,0.21419,0.65684,4.74962
63677131387543,2,0,0.25648,2.91944,1.35061,0.7285,1.90469,0.21054,0.65757,4.75068
63677131387560,2,0,0.28454,2.92865,1.35413,0.73099,1.91254,0.21655,0.67362,4.75786
63677131387594,2,0,0.27909,2.93886,1.38114,0.75485,1.90739,0.21775,0.66406,4.74773
63677131387626,2,0,0.28005,2.9369,1.33509,0.73816,1.90491,0.21677,0.66832,4.75885
63677131387642,2,0,0.2911,2.94694,1.31194,0.75174,1.90524,0.21737,0.67119,4.73828
63677131387675,2,0,0.28113,2.94917,1.29204,0.75191,1.90507,0.21819,0.67016,4.75434
63677131387692,2,0,0.27512,2.95519,1.33127,0.76582,1.90412,0.21685,0.67755,4.72924
63677131387725,2,0,0.29217,2.92906,1.35349,0.75142,1.90857,0.21739,0.68584,4.75451
63677131387742,2,0,0.29142,2.94761,1.35931,0.76615,1.9024,0.21466,0.68796,4.72789
63677131387775,2,0,0.29507,2.95692,1.27775,0.74726,1.9048,0.2117,0.71156,4.73314
63677131387792,2,0,0.30049,2.95758,1.36808,0.76239,1.91255,0.21412,0.71523,4.76109
63677131387824,2,0,0.28086,2.94925,1.34734,0.75059,1.9046,0.21242,0.7073,4.74373
63677131387858,2,0,0.2723,2.95431,1.37251,0.73839,1.90605,0.2034,0.70253,4.75962
63677131387907,2,0,0.27426,2.98447,1.33715,0.76129,1.91281,0.19685,0.70142,4.75328
63677131387941,2,0,0.26944,2.99375,1.32635,0.76538,1.92158,0.20065,0.69855,4.75328
63677131387974,2,0,0.25402,2.97438,1.34124,0.75087,1.91767,0.19673,0.68774,4.74577
63677131388007,2,0,0.25618,2.97836,1.36952,0.7437,1.92461,0.19466,0.68461,4.73465
63677131388024,2,0,0.2655,2.98707,1.42302,0.75596,1.92771,0.19471,0.68399,4.75275
63677131388040,2,0,0.28463,2.96779,1.4692,0.75307,1.9256,0.19548,0.68795,4.73396
63677131388074,2,0,0.28816,2.97554,1.43417,0.74791,1.93004,0.19492,0.6875,4.76186
63677131388106,2,0,0.27624,2.96294,1.46549,0.7493,1.92799,0.1959,0.68345,4.74201
63677131388139,2,0,0.27406,2.95961,1.49721,0.74231,1.92744,0.19138,0.6833,4.76528
63677131388156,2,0,0.2701,2.96496,1.45262,0.74508,1.92777,0.19057,0.67862,4.7431
63677131388205,2,0,0.27028,2.96039,1.44414,0.75602,1.92977,0.1879,0.67462,4.76946
63677131388222,2,0,0.26133,2.95863,1.40173,0.74775,1.9221,0.18488,0.6636,4.74894
63677131388239,2,0,0.26787,2.93663,1.35884,0.73956,1.92704,0.18498,0.67228,4.77086
63677131388272,2,0,0.25442,2.95706,1.3103,0.74809,1.92776,0.1897,0.6754,4.76169
63677131388305,2,0,0.25855,2.95989,1.34993,0.73455,1.92893,0.19014,0.67857,4.7511
63677131388322,2,0,0.257,2.96727,1.33175,0.73592,1.92527,0.1894,0.67699,4.75789
63677131388354,2,0,0.27334,2.96622,1.38598,0.73947,1.92485,0.18935,0.68024,4.75086
63677131388388,2,0,0.2714,2.97897,1.38991,0.75473,1.92902,0.19118,0.6847,4.75164
63677131388405,2,0,0.27074,2.9698,1.40589,0.75351,1.92853,0.19151,0.68525,4.74906
63677131388438,2,0,0.27482,2.97386,1.38048,0.7495,1.92388,0.19151,0.68496,4.74739
63677131388454,2,0,0.27434,2.98973,1.40782,0.75225,1.92323,0.19074,0.68733,4.74893
63677131388488,2,0,0.27906,2.98644,1.46046,0.76865,1.92555,0.19413,0.69697,4.75177
63677131388520,2,0,0.28431,2.99493,1.41881,0.77567,1.92681,0.19312,0.69448,4.75747
63677131388537,2,0,0.2715,2.9989,1.45055,0.77921,1.92966,0.19005,0.68686,4.76629
63677131388587,2,0,0.27333,2.99347,1.41234,0.77201,1.926,0.19109,0.69075,4.75816
63677131388603,2,0,0.2832,3.01016,1.42731,0.78767,1.9309,0.19332,0.70249,4.77253
63677131388620,2,0,0.2697,3.00794,1.40238,0.79052,1.92605,0.19346,0.693,4.7538
63677131388653,2,0,0.26677,2.99821,1.41732,0.79241,1.92695,0.19286,0.68242,4.77084
63677131388686,2,0,0.26387,2.99571,1.32189,0.77303,1.92143,0.18751,0.67547,4.74307
63677131388703,2,0,0.26196,2.99546,1.32318,0.7795,1.92135,0.18965,0.68435,4.7633
63677131388736,2,0,0.26233,2.98884,1.24779,0.77944,1.92043,0.19042,0.68452,4.73413
63677131388786,2,0,0.27576,2.97804,1.22666,0.77052,1.91984,0.19355,0.68883,4.73349
63677131388819,2,0,0.27787,2.97734,1.26326,0.75735,1.92147,0.18926,0.68634,4.73868
63677131388853,2,0,0.28531,2.97771,1.23649,0.7537,1.92111,0.18644,0.68969,4.75891
63677131388885,2,0,0.2855,2.97895,1.29354,0.76206,1.92405,0.19283,0.70013,4.74651
63677131388918,2,0,0.27868,2.97394,1.27017,0.7566,1.9249,0.19057,0.69068,4.75726
63677131388935,2,0,0.28483,2.9845,1.28614,0.75725,1.92245,0.19226,0.69146,4.75336
63677131388967,2,0,0.27869,2.97997,1.33595,0.77193,1.92587,0.19274,0.69126,4.75296
63677131388984,2,0,0.2667,2.99265,1.3149,0.76592,1.92268,0.19471,0.68701,4.75635
63677131389017,2,0,0.25912,2.98026,1.31204,0.76509,1.92406,0.19592,0.68752,4.74312
63677131389067,2,0,0.25335,2.97511,1.25298,0.76331,1.92334,0.19492,0.681,4.75273
63677131389100,2,0,0.26233,2.96841,1.27294,0.7657,1.9194,0.19511,0.69179,4.72776
63677131389133,2,0,0.25739,2.97617,1.26495,0.76332,1.92177,0.19545,0.69095,4.7531
63677131389167,2,0,0.25505,2.96082,1.23564,0.75624,1.91445,0.19256,0.68922,4.72751
63677131389183,2,0,0.25705,2.96437,1.26243,0.77596,1.91965,0.19176,0.69196,4.75466
63677131389216,2,0,0.2642,2.97371,1.22213,0.77788,1.91418,0.1923,0.68558,4.73265
63677131389233,2,0,0.26125,2.96538,1.20304,0.77167,1.91487,0.19347,0.6812,4.75453
63677131389266,2,0,0.26552,2.96637,1.19855,0.7741,1.91399,0.19179,0.68783,4.74246
63677131389300,2,0,0.26285,2.96381,1.17642,0.77129,1.91109,0.1924,0.68356,4.76004
63677131389316,2,0,0.26292,2.97074,1.22339,0.78199,1.91211,0.19517,0.67845,4.75293
63677131389365,2,0,0.26277,2.97362,1.19738,0.77908,1.91101,0.19618,0.68281,4.74518
63677131389382,2,0,0.26375,2.97046,1.17742,0.7618,1.90958,0.19921,0.68311,4.74677
63677131389398,2,0,0.25971,2.962,1.18152,0.75878,1.90596,0.19904,0.68835,4.74429
63677131389432,2,0,0.25959,2.95956,1.19069,0.75928,1.90097,0.1961,0.68708,4.74676
63677131389465,2,0,0.26037,2.95782,1.23862,0.75779,1.89903,0.19594,0.68787,4.74243
63677131389498,2,0,0.26246,2.95639,1.24527,0.76331,1.90062,0.19789,0.68927,4.74083
63677131389515,2,0,0.25635,2.95566,1.21471,0.75175,1.8963,0.19704,0.67983,4.74648
63677131389548,2,0,0.25018,2.93659,1.18471,0.73318,1.89054,0.19265,0.67962,4.74383
63677131389580,2,0,0.24658,2.92488,1.18977,0.73671,1.88595,0.18605,0.67129,4.7442
63677131389614,2,0,0.24792,2.93216,1.19455,0.74117,1.88762,0.18418,0.6744,4.7562
63677131389647,2,0,0.24855,2.92071,1.20101,0.73862,1.88592,0.18388,0.67564,4.74234
63677131389664,2,0,0.24201,2.91151,1.15844,0.73406,1.88888,0.18518,0.66726,4.76275
63677131389697,2,0,0.24537,2.9081,1.19904,0.74609,1.88733,0.18344,0.67098,4.76044
63677131389747,2,0,0.24825,2.91599,1.21633,0.75732,1.88533,0.18606,0.67243,4.73418
63677131389764,2,0,0.25362,2.90777,1.23894,0.75537,1.88728,0.18447,0.66708,4.75796
63677131389780,2,0,0.25517,2.90791,1.2132,0.75399,1.88594,0.18476,0.6731,4.73367
63677131389812,2,0,0.26076,2.90188,1.23751,0.75427,1.88462,0.18577,0.66907,4.75817
63677131389862,2,0,0.26014,2.91678,1.24014,0.75716,1.88431,0.18756,0.66855,4.73554
63677131389879,2,0,0.25998,2.91453,1.20287,0.74926,1.87781,0.18713,0.67071,4.74583
63677131389912,2,0,0.25458,2.90423,1.20646,0.73935,1.87468,0.18604,0.66265,4.75347
63677131389945,2,0,0.25756,2.90791,1.17744,0.73769,1.87762,0.1858,0.65992,4.74902
63677131389979,2,0,0.25379,2.92399,1.26441,0.74558,1.8748,0.18748,0.66115,4.75315
63677131390028,2,0,0.23972,2.91409,1.21095,0.74064,1.87253,0.18696,0.65785,4.74141
63677131390045,2,0,0.2532,2.91476,1.18253,0.73792,1.87489,0.18643,0.66432,4.75273
63677131390061,2,0,0.25682,2.9063,1.20495,0.73002,1.86971,0.1847,0.66314,4.73122
63677131390095,2,0,0.25624,2.91173,1.17728,0.73485,1.87341,0.18444,0.65982,4.74892
63677131390128,2,0,0.24826,2.90137,1.13908,0.73596,1.87409,0.18275,0.66397,4.74853
63677131390161,2,0,0.2473,2.89719,1.07029,0.72982,1.86844,0.18405,0.66264,4.72448
63677131390193,2,0,0.25827,2.89081,1.08717,0.72263,1.87007,0.18205,0.66662,4.7516
63677131390226,2,0,0.26394,2.88705,1.12015,0.72439,1.86817,0.18324,0.66583,4.73026
63677131390260,2,0,0.2586,2.88826,1.1239,0.73751,1.87179,0.18704,0.6625,4.73891
63677131390293,2,0,0.25632,2.8761,1.10591,0.72955,1.87065,0.18725,0.66379,4.75764
63677131390326,2,0,0.26241,2.87614,1.13223,0.72531,1.866,0.18801,0.66801,4.7447
63677131390343,2,0,0.27178,2.8802,1.16832,0.72475,1.86828,0.19394,0.67709,4.7459
63677131390376,2,0,0.25794,2.88063,1.19237,0.73875,1.86886,0.1926,0.66891,4.74778
63677131390425,2,0,0.26089,2.88808,1.1939,0.72726,1.86392,0.19068,0.67486,4.7436
63677131390442,2,0,0.2649,2.87826,1.27741,0.71929,1.85964,0.18807,0.67451,4.74457
63677131390476,2,0,0.2722,2.8899,1.27122,0.71891,1.85782,0.18734,0.67435,4.74289
63677131390493,2,0,0.27238,2.90619,1.31649,0.73538,1.86147,0.18833,0.67511,4.74254
63677131390526,2,0,0.25788,2.90968,1.23707,0.7502,1.86242,0.18522,0.66407,4.74361
63677131390558,2,0,0.25779,2.90184,1.19884,0.742,1.86148,0.18438,0.66364,4.74904
63677131390608,2,0,0.25858,2.90742,1.2099,0.74664,1.86156,0.18688,0.66801,4.74509
63677131390625,2,0,0.25567,2.90612,1.20481,0.75604,1.86354,0.18986,0.66605,4.75828
63677131390658,2,0,0.24236,2.91005,1.13673,0.76381,1.86384,0.1878,0.66401,4.7437
63677131390674,2,0,0.23444,2.8932,1.12344,0.74609,1.86065,0.18795,0.66399,4.7377
63677131390707,2,0,0.23555,2.89116,1.16282,0.74673,1.86221,0.18887,0.6664,4.75751
63677131390740,2,0,0.23941,2.89626,1.17545,0.73859,1.86196,0.19315,0.66669,4.73083
63677131390773,2,0,0.23585,2.89512,1.17351,0.73868,1.86427,0.19302,0.66708,4.75659
63677131390806,2,0,0.24133,2.87819,1.19487,0.72499,1.85846,0.18713,0.66292,4.75153
63677131390840,2,0,0.24782,2.88678,1.2268,0.72592,1.85939,0.18816,0.66591,4.73011
63677131390856,2,0,0.24565,2.89996,1.22519,0.74637,1.86231,0.19049,0.6657,4.75193
63677131390906,2,0,0.25333,2.89455,1.20807,0.746,1.86305,0.18975,0.66618,4.73783
63677131390923,2,0,0.25157,2.89276,1.21078,0.74257,1.8596,0.18852,0.66354,4.75372
63677131390956,2,0,0.25411,2.88636,1.24385,0.74537,1.85709,0.18208,0.66371,4.75385
