63677131298795,2,0,0.44325,3.85818,1.33556,1.03169,3.23497,0.39381,0.99202,4.71117
63677131298829,2,0,0.42177,3.86266,1.32754,1.01795,3.22502,0.39758,0.98899,4.70837
63677131298878,2,0,0.4311,3.85587,1.33531,1.01218,3.22144,0.39393,0.99187,4.73735
63677131298895,2,0,0.42982,3.86025,1.33593,1.01416,3.22399,0.39879,0.99577,4.70831
63677131298928,2,0,0.42222,3.8593,1.3393,1.01554,3.22956,0.40074,0.99604,4.73202
63677131298961,2,0,0.4169,3.85881,1.33787,1.015,3.23058,0.39886,0.9947,4.71585
63677131298977,2,0,0.41943,3.85923,1.33472,1.0127,3.22682,0.39857,0.99489,4.72726
63677131299027,2,0,0.44068,3.85475,1.3357,1.01564,3.20754,0.38755,0.99635,4.73246
63677131299061,2,0,0.44846,3.8648,1.32731,1.01506,3.21092,0.39109,0.99115,4.71983
63677131299077,2,0,0.46461,3.85028,1.32456,1.01271,3.1952,0.38347,0.9859,4.73581
63677131299127,2,0,0.46331,3.86199,1.3156,1.01017,3.19001,0.38025,0.98508,4.71538
63677131299144,2,0,0.47669,3.84912,1.31681,1.00624,3.18286,0.37795,0.98391,4.73411
63677131299161,2,0,0.45946,3.86626,1.31648,1.00466,3.18517,0.37617,0.98347,4.71262
63677131299193,2,0,0.40751,3.8511,1.31688,1.00337,3.18216,0.37477,0.98387,4.73276
63677131299226,2,0,0.38328,3.8601,1.31442,1.00836,3.19801,0.37813,0.97913,4.71755
63677131299242,2,0,0.3627,3.85256,1.30941,1.00436,3.18305,0.37974,0.97974,4.73533
63677131299259,2,0,0.38147,3.85868,1.31043,1.00425,3.1883,0.38167,0.98479,4.73364
63677131299292,2,0,0.38187,3.86335,1.31521,1.00416,3.18757,0.38243,0.98526,4.71896
63677131299325,2,0,0.38756,3.86261,1.30986,1.00479,3.18507,0.38675,0.98718,4.73244
63677131299342,2,0,0.39829,3.8598,1.30774,1.01094,3.18561,0.38342,0.98354,4.7202
63677131299375,2,0,0.39067,3.85776,1.30667,1.00029,3.17199,0.38065,0.98446,4.72547
63677131299392,2,0,0.40084,3.856,1.30747,1.00074,3.16787,0.37886,0.98383,4.71705
63677131299425,2,0,0.41895,3.85123,1.31077,1.00149,3.16985,0.37754,0.9866,4.72034
63677131299459,2,0,0.39156,3.84346,1.30777,0.99715,3.17442,0.37969,0.98664,4.72247
63677131299475,2,0,0.39069,3.84637,1.31171,0.99792,3.16827,0.37908,0.98659,4.71828
63677131299508,2,0,0.37368,3.83923,1.30731,1.00098,3.17435,0.3776,0.9799,4.72722
63677131299541,2,0,0.35642,3.83407,1.30865,1.00163,3.17615,0.38296,0.98156,4.7326
63677131299558,2,0,0.34636,3.83716,1.30732,1.00969,3.18129,0.38361,0.97783,4.71045
63677131299607,2,0,0.33991,3.83515,1.30697,1.00913,3.1798,0.38341,0.97929,4.73274
63677131299623,2,0,0.32845,3.83923,1.30881,1.00869,3.18829,0.38703,0.98224,4.70229
63677131299640,2,0,0.33434,3.83987,1.30779,1.00946,3.17906,0.38505,0.98081,4.73039
63677131299673,2,0,0.32064,3.84077,1.31224,1.01666,3.18541,0.3856,0.98014,4.70033
63677131299706,2,0,0.33915,3.84097,1.31285,1.02019,3.18103,0.38878,0.98492,4.72747
63677131299723,2,0,0.32786,3.843,1.31585,1.02297,3.18975,0.39075,0.9859,4.71229
63677131299756,2,0,0.35594,3.83822,1.30921,1.01425,3.18212,0.38322,0.983,4.72419
63677131299806,2,0,0.37378,3.82854,1.31119,1.00595,3.17297,0.38144,0.98144,4.72973
63677131299840,2,0,0.36611,3.8374,1.31028,1.01189,3.17826,0.38279,0.98018,4.71656
63677131299872,2,0,0.38776,3.82253,1.30816,1.00314,3.171,0.38036,0.97921,4.73425
63677131299906,2,0,0.37917,3.8338,1.30777,1.00068,3.1756,0.38129,0.97933,4.7088
63677131299923,2,0,0.39478,3.81651,1.30452,0.99118,3.16189,0.3822,0.97679,4.72747
63677131299955,2,0,0.36682,3.82519,1.30871,0.9998,3.16904,0.38125,0.97754,4.70412
63677131299987,2,0,0.36892,3.81356,1.30863,0.99805,3.16563,0.38434,0.97689,4.72629
63677131300004,2,0,0.36892,3.82086,1.30974,0.99766,3.1696,0.38214,0.97753,4.70675
63677131300038,2,0,0.37154,3.82195,1.31254,0.99846,3.16807,0.38137,0.98114,4.70932
63677131300054,2,0,0.35914,3.81718,1.30938,0.99706,3.16781,0.38596,0.98323,4.72677
63677131300087,2,0,0.38175,3.81833,1.30826,0.99424,3.16922,0.38087,0.98282,4.71547
63677131300121,2,0,0.37759,3.82133,1.30947,1.00211,3.16993,0.38081,0.98384,4.7281
63677131300154,2,0,0.3873,3.82716,1.30885,0.99465,3.17483,0.38478,0.98659,4.7197
63677131300187,2,0,0.37057,3.83041,1.30858,0.99555,3.16559,0.3835,0.98463,4.72518
63677131300204,2,0,0.36945,3.82426,1.3035,0.99454,3.16621,0.38324,0.98467,4.7198
63677131300220,2,0,0.35669,3.82805,1.30434,0.99192,3.16503,0.38013,0.98162,4.71845
63677131300253,2,0,0.34954,3.82158,1.30296,0.9952,3.16441,0.38144,0.98058,4.72192
63677131300287,2,0,0.35247,3.82635,1.30226,0.99235,3.15923,0.37844,0.97792,4.71284
63677131300304,2,0,0.3194,3.82579,1.30021,0.98739,3.15206,0.37901,0.97422,4.70193
63677131300336,2,0,0.30764,3.82154,1.2997,0.99056,3.14661,0.37642,0.97269,4.72356
63677131300385,2,0,0.32874,3.81833,1.29964,0.9922,3.15187,0.37813,0.96941,4.71669
63677131300419,2,0,0.36223,3.8189,1.29507,0.99355,3.15409,0.37904,0.9686,4.68733
63677131300451,2,0,0.35986,3.81368,1.29288,0.98888,3.15296,0.38074,0.96929,4.71565
63677131300485,2,0,0.33977,3.80524,1.28916,0.99265,3.15669,0.37987,0.96583,4.69031
63677131300502,2,0,0.3557,3.79998,1.29077,0.99344,3.15316,0.37547,0.96593,4.71393
63677131300535,2,0,0.35057,3.79887,1.28822,0.99145,3.15243,0.37778,0.96842,4.69987
63677131300568,2,0,0.34332,3.7932,1.28553,0.99351,3.1449,0.37738,0.96459,4.70228
63677131300584,2,0,0.35534,3.79814,1.28667,0.99313,3.15354,0.3792,0.96692,4.70856
63677131300617,2,0,0.32377,3.78578,1.28308,0.99383,3.14484,0.38103,0.9663,4.72038
63677131300634,2,0,0.31683,3.794,1.28799,0.99436,3.14603,0.38028,0.96625,4.70263
63677131300667,2,0,0.32151,3.78948,1.28812,0.99289,3.1382,0.38222,0.96678,4.72149
63677131300701,2,0,0.30807,3.79759,1.28772,0.99078,3.14478,0.38394,0.96575,4.6976
63677131300733,2,0,0.31519,3.78806,1.28553,0.9921,3.13843,0.3826,0.96302,4.71965
63677131300767,2,0,0.3194,3.7889,1.28766,0.99282,3.14582,0.37906,0.96422,4.69519
63677131300783,2,0,0.3192,3.7876,1.28509,0.98896,3.13769,0.37905,0.96448,4.72146
63677131300800,2,0,0.30886,3.78818,1.28624,0.98747,3.13402,0.37576,0.96377,4.70702
63677131300833,2,0,0.33686,3.78622,1.28263,0.98638,3.13139,0.37325,0.96248,4.71171
63677131300867,2,0,0.36065,3.78693,1.28166,0.98707,3.13323,0.37274,0.96337,4.72698
63677131300900,2,0,0.40057,3.78601,1.28443,0.99118,3.13462,0.37461,0.96569,4.71183
63677131300916,2,0,0.38439,3.79078,1.28227,0.98768,3.13616,0.37454,0.96529,4.72066
63677131300966,2,0,0.37177,3.78926,1.28044,0.98743,3.13924,0.37799,0.96616,4.71373
63677131300999,2,0,0.37579,3.78017,1.27807,0.98611,3.12856,0.37875,0.96659,4.70818
63677131301032,2,0,0.34644,3.78337,1.2771,0.98483,3.14321,0.37724,0.96322,4.70285
63677131301065,2,0,0.34428,3.77752,1.28087,0.98895,3.13354,0.37885,0.9656,4.70886
63677131301082,2,0,0.33003,3.7842,1.2776,0.99079,3.13028,0.37608,0.96318,4.69928
63677131301115,2,0,0.32901,3.77697,1.27381,0.98785,3.13208,0.37537,0.95958,4.70251
63677131301148,2,0,0.33292,3.77484,1.28095,0.98883,3.12854,0.37368,0.96378,4.71759
63677131301164,2,0,0.33157,3.77944,1.27997,0.99182,3.1277,0.37204,0.96394,4.70359
63677131301197,2,0,0.33518,3.77517,1.2842,0.99194,3.13544,0.37065,0.96479,4.71685
63677131301214,2,0,0.36253,3.78055,1.28403,0.99654,3.12885,0.3702,0.96799,4.69883
63677131301247,2,0,0.36408,3.77756,1.28526,0.99282,3.13432,0.37044,0.96883,4.71248
63677131301280,2,0,0.36241,3.77956,1.28289,0.99067,3.13719,0.37254,0.96838,4.70265
63677131301313,2,0,0.33063,3.78015,1.28924,0.99402,3.13944,0.37303,0.97026,4.70893
63677131301346,2,0,0.33101,3.77946,1.28791,0.99636,3.1372,0.37467,0.97215,4.71146
63677131301363,2,0,0.32508,3.77755,1.28412,0.99053,3.13365,0.37328,0.96768,4.7322
63677131301397,2,0,0.33628,3.784,1.28691,0.99021,3.12686,0.37371,0.96763,4.71373
63677131301413,2,0,0.32575,3.77507,1.28386,0.98999,3.1331,0.37687,0.96809,4.73999
63677131301447,2,0,0.31631,3.78545,1.28536,0.9855,3.13431,0.375,0.96737,4.71213
63677131301479,2,0,0.32837,3.76842,1.28178,0.98478,3.13158,0.37642,0.96573,4.74167
63677131301496,2,0,0.35232,3.77296,1.28306,0.98298,3.12831,0.37268,0.96448,4.71315
63677131301545,2,0,0.34684,3.7623,1.28006,0.97872,3.12002,0.37309,0.96299,4.73446
63677131301562,2,0,0.35951,3.76912,1.28225,0.98508,3.12583,0.3734,0.9635,4.71316
63677131301578,2,0,0.34974,3.76763,1.27911,0.98095,3.12487,0.37704,0.96407,4.71948
63677131301612,2,0,0.33304,3.76752,1.28115,0.98046,3.13144,0.37707,0.96483,4.71543
63677131301645,2,0,0.34754,3.76631,1.27919,0.97844,3.11601,0.37329,0.96152,4.72304
63677131301662,2,0,0.32591,3.7795,1.27997,0.98112,3.1142,0.37259,0.96233,4.70916
63677131301695,2,0,0.31606,3.77283,1.27937,0.98022,3.11297,0.37196,0.96046,4.72706
63677131301727,2,0,0.33185,3.78439,1.27838,0.98321,3.12269,0.37185,0.96164,4.70681
63677131301744,2,0,0.31782,3.76727,1.27791,0.97668,3.10966,0.36773,0.96056,4.72733
63677131301778,2,0,0.32243,3.7746,1.27733,0.97802,3.11867,0.36878,0.96041,4.70553
63677131301827,2,0,0.31836,3.77784,1.27455,0.97945,3.12038,0.3677,0.95828,4.70653
63677131301860,2,0,0.3065,3.76568,1.27471,0.98093,3.11467,0.36962,0.95857,4.72233
63677131301893,2,0,0.31139,3.76037,1.27625,0.97669,3.1145,0.37119,0.95969,4.7267
63677131301926,2,0,0.29226,3.76463,1.27419,0.97772,3.12392,0.36861,0.95773,4.71535
63677131301943,2,0,0.31075,3.76055,1.27284,0.97278,3.12261,0.37213,0.95895,4.72622
63677131301976,2,0,0.31337,3.757,1.27231,0.98043,3.12377,0.37273,0.958,4.71426
63677131302025,2,0,0.29784,3.74668,1.27431,0.97906,3.11841,0.37335,0.95824,4.71812
63677131302043,2,0,0.30557,3.74484,1.27138,0.9791,3.12099,0.37353,0.9587,4.71478
63677131302059,2,0,0.33246,3.73984,1.27216,0.97932,3.10947,0.37058,0.95894,4.71599
63677131302093,2,0,0.33832,3.74761,1.27222,0.97909,3.11501,0.3726,0.95846,4.70447
63677131302126,2,0,0.34846,3.74261,1.27121,0.97902,3.11127,0.3732,0.96037,4.7188
63677131302159,2,0,0.34503,3.74298,1.27319,0.97918,3.1058,0.37029,0.95863,4.69753
63677131302209,2,0,0.34919,3.74122,1.27155,0.97717,3.11419,0.37247,0.96144,4.72333
63677131302224,2,0,0.38238,3.74549,1.27277,0.97527,3.10788,0.36958,0.96054,4.72572
63677131302240,2,0,0.34957,3.74918,1.27045,0.96889,3.10249,0.36726,0.95877,4.69684
63677131302274,2,0,0.33655,3.74177,1.26887,0.97093,3.10812,0.36752,0.95833,4.72287
63677131302308,2,0,0.34504,3.7386,1.26995,0.97142,3.10019,0.36585,0.95716,4.69498
63677131302341,2,0,0.3359,3.73906,1.26906,0.97053,3.10511,0.36911,0.95648,4.70714
63677131302374,2,0,0.33177,3.73857,1.26722,0.9722,3.09303,0.36479,0.95115,4.70585
63677131302407,2,0,0.32038,3.73315,1.26769,0.97356,3.09606,0.36625,0.95179,4.71529
63677131302424,2,0,0.33034,3.73724,1.26638,0.97211,3.09962,0.36604,0.95035,4.70231
63677131302457,2,0,0.33348,3.72802,1.26451,0.9715,3.09539,0.36442,0.94692,4.71532
63677131302506,2,0,0.33275,3.722,1.2633,0.96939,3.08895,0.36378,0.94753,4.7225
63677131302523,2,0,0.3463,3.72739,1.26483,0.97254,3.09001,0.36158,0.94699,4.70464
63677131302557,2,0,0.35637,3.71922,1.26459,0.96753,3.08187,0.36259,0.95102,4.72369
63677131302606,2,0,0.3395,3.72229,1.26449,0.96849,3.08111,0.36424,0.9506,4.70282
63677131302622,2,0,0.33618,3.72446,1.26584,0.97163,3.0889,0.36595,0.94951,4.69105
63677131302655,2,0,0.35592,3.71757,1.26454,0.96958,3.07656,0.36579,0.9504,4.71407
63677131302672,2,0,0.35881,3.72921,1.26807,0.97287,3.09249,0.36989,0.95172,4.72235
63677131302706,2,0,0.3411,3.72843,1.26737,0.97349,3.08287,0.37059,0.95003,4.74126
63677131302738,2,0,0.34664,3.73517,1.27148,0.97549,3.09483,0.37269,0.95205,4.7413
63677131302788,2,0,0.36856,3.73601,1.2709,0.97615,3.10148,0.37248,0.95544,4.73343
63677131302804,2,0,0.36223,3.73713,1.27031,0.975,3.09226,0.3693,0.95423,4.75724
63677131302837,2,0,0.33604,3.74282,1.27182,0.97598,3.09572,0.36856,0.95841,4.77304
63677131302887,2,0,0.32001,3.74557,1.27041,0.9779,3.10549,0.36786,0.9572,4.74622
63677131302904,2,0,0.32241,3.747,1.26971,0.98024,3.10884,0.36537,0.95333,4.72528
63677131302921,2,0,0.30804,3.74427,1.26827,0.97975,3.10812,0.36529,0.95426,4.74376
63677131302954,2,0,0.30414,3.75018,1.26977,0.97973,3.09918,0.36471,0.95129,4.7186
63677131302986,2,0,0.28564,3.74234,1.26886,0.97577,3.09662,0.36555,0.95104,4.74922
63677131303020,2,0,0.28853,3.74519,1.26996,0.9768,3.09814,0.36531,0.95016,4.72917
63677131303053,2,0,0.28559,3.74995,1.26901,0.97768,3.09692,0.36573,0.94893,4.70567
63677131303086,2,0,0.29798,3.74157,1.27104,0.97469,3.09963,0.36831,0.95101,4.72769
63677131303119,2,0,0.30966,3.74776,1.27209,0.97137,3.09698,0.36896,0.95416,4.72177
63677131303152,2,0,0.30065,3.75013,1.26773,0.97288,3.0951,0.36745,0.95021,4.72073
63677131303185,2,0,0.28272,3.74893,1.26821,0.97354,3.09724,0.36571,0.95056,4.71568
63677131303202,2,0,0.28116,3.74377,1.26748,0.97033,3.09169,0.36509,0.94913,4.72592
63677131303235,2,0,0.28401,3.75045,1.27112,0.96956,3.08813,0.36497,0.95066,4.71131
63677131303285,2,0,0.26918,3.75059,1.26985,0.97029,3.07689,0.35977,0.95035,4.71297
63677131303301,2,0,0.26535,3.73866,1.26645,0.96773,3.0741,0.35987,0.94845,4.72809
63677131303335,2,0,0.28919,3.74335,1.26652,0.96703,3.07426,0.35835,0.94767,4.7097
63677131303368,2,0,0.29705,3.73657,1.26172,0.96232,3.07085,0.35912,0.94962,4.7318
63677131303402,2,0,0.29673,3.74123,1.26024,0.96399,3.07535,0.36248,0.95,4.72352
63677131303418,2,0,0.31542,3.74382,1.26149,0.96706,3.08451,0.36204,0.9497,4.70658
63677131303467,2,0,0.31805,3.74051,1.26025,0.96454,3.08096,0.36401,0.95103,4.72354
63677131303484,2,0,0.32616,3.74809,1.26202,0.9664,3.0873,0.36425,0.94945,4.70228
63677131303516,2,0,0.3258,3.7506,1.26128,0.96524,3.08071,0.36352,0.9494,4.71511
63677131303566,2,0,0.28933,3.74741,1.26323,0.96887,3.08126,0.36511,0.94976,4.70994
63677131303583,2,0,0.29658,3.7445,1.26272,0.96336,3.07924,0.36175,0.95062,4.70444
63677131303600,2,0,0.30792,3.74191,1.26062,0.96394,3.07628,0.36222,0.94912,4.70744
63677131303634,2,0,0.31339,3.74019,1.26246,0.96158,3.07584,0.36212,0.95033,4.71148
63677131303666,2,0,0.3279,3.73716,1.26146,0.96284,3.08368,0.36098,0.95244,4.72132
63677131303699,2,0,0.34001,3.74299,1.25904,0.9633,3.08673,0.36167,0.95093,4.70691
63677131303732,2,0,0.34491,3.73616,1.261,0.96365,3.08707,0.36216,0.9525,4.7233
