63677131269588,2,0,0.4001,4.34101,1.99366,1.46109,4.16389,0.65306,1.43152,4.63908
63677131269638,2,0,0.40136,4.3352,1.98306,1.46477,4.1662,0.65003,1.43083,4.64744
63677131269654,2,0,0.4111,4.33658,1.99047,1.456,4.1591,0.65159,1.42427,4.61394
63677131269688,2,0,0.40911,4.33064,1.98797,1.45482,4.16264,0.65128,1.42628,4.61108
63677131269704,2,0,0.41056,4.32111,1.98621,1.4473,4.16008,0.65103,1.42304,4.62542
63677131269737,2,0,0.40436,4.32853,1.98713,1.45815,4.15912,0.65248,1.41981,4.62333
63677131269754,2,0,0.39252,4.31285,1.98456,1.4587,4.15766,0.65374,1.42134,4.62406
63677131269788,2,0,0.39484,4.31781,1.98285,1.46067,4.15494,0.65356,1.41417,4.63276
63677131269820,2,0,0.40224,4.31218,1.98136,1.4544,4.15333,0.65211,1.41505,4.64046
63677131269837,2,0,0.40143,4.31333,1.97962,1.46291,4.15178,0.64784,1.41266,4.68248
63677131269886,2,0,0.40768,4.31675,1.97734,1.46011,4.15483,0.65049,1.41315,4.69663
63677131269903,2,0,0.40418,4.31775,1.97724,1.46034,4.14908,0.64762,1.41013,4.67276
63677131269920,2,0,0.39714,4.31371,1.97594,1.45751,4.15257,0.64604,1.40905,4.69443
63677131269985,2,0,0.3509,4.32244,1.96994,1.45146,4.14139,0.64308,1.4057,4.66531
63677131270018,2,0,0.35686,4.31784,1.96862,1.45649,4.14268,0.63975,1.40893,4.62459
63677131270052,2,0,0.33887,4.3208,1.96902,1.45001,4.13905,0.64193,1.40667,4.62691
63677131270085,2,0,0.36684,4.32189,1.9659,1.45325,4.13668,0.63984,1.40165,4.60725
63677131270118,2,0,0.37007,4.32041,1.9605,1.4524,4.13998,0.6389,1.403,4.60172
63677131270168,2,0,0.37326,4.32213,1.96017,1.45092,4.14107,0.63831,1.40461,4.61489
63677131270202,2,0,0.38967,4.3234,1.96831,1.4543,4.1433,0.63979,1.4064,4.62362
63677131270235,2,0,0.4002,4.32746,1.97483,1.45999,4.14429,0.6386,1.40315,4.66421
63677131270268,2,0,0.40903,4.3279,1.97321,1.46012,4.14091,0.63735,1.4061,4.67838
63677131270301,2,0,0.39154,4.32888,1.97757,1.46254,4.14462,0.63817,1.4058,4.69354
63677131270334,2,0,0.39328,4.32901,1.97567,1.4633,4.14188,0.64086,1.40306,4.68456
63677131270367,2,0,0.39305,4.32655,1.979,1.46448,4.13751,0.63957,1.39742,4.70071
63677131270400,2,0,0.39327,4.32302,1.9744,1.46178,4.13842,0.63396,1.39618,4.70385
63677131270416,2,0,0.38761,4.32526,1.96811,1.4602,4.13875,0.63644,1.39463,4.70438
63677131270467,2,0,0.38658,4.31808,1.9659,1.45372,4.13594,0.63508,1.38783,4.72272
63677131270483,2,0,0.36398,4.31098,1.96246,1.45103,4.13296,0.63325,1.38517,4.70548
63677131270517,2,0,0.38015,4.32,1.9667,1.4482,4.13118,0.63398,1.3856,4.68611
63677131270566,2,0,0.39371,4.31096,1.96484,1.44938,4.13034,0.63519,1.38612,4.68126
63677131270582,2,0,0.38848,4.32369,1.9658,1.45137,4.1307,0.63529,1.38534,4.67801
63677131270616,2,0,0.41572,4.31982,1.95953,1.44627,4.12795,0.63591,1.38451,4.69425
63677131270665,2,0,0.41953,4.32246,1.95819,1.44913,4.129,0.63201,1.38891,4.66441
63677131270699,2,0,0.40946,4.32018,1.95611,1.44272,4.12352,0.6312,1.38883,4.67494
63677131270732,2,0,0.37333,4.32357,1.95888,1.44888,4.131,0.62753,1.38965,4.71716
63677131270764,2,0,0.37202,4.32185,1.95549,1.4433,4.13062,0.62661,1.3902,4.73317
63677131270798,2,0,0.34951,4.32694,1.95276,1.4438,4.12849,0.62676,1.38762,4.72488
63677131270847,2,0,0.33686,4.33124,1.95075,1.43693,4.13045,0.62869,1.38464,4.73632
63677131270881,2,0,0.31939,4.3258,1.94582,1.43229,4.13528,0.62439,1.37953,4.74227
63677131270914,2,0,0.36978,4.3212,1.94312,1.43452,4.13502,0.62278,1.37635,4.75648
63677131270947,2,0,0.36673,4.32588,1.9404,1.43627,4.13157,0.62526,1.37306,4.76977
63677131270980,2,0,0.37288,4.31855,1.94066,1.43433,4.13187,0.62309,1.37401,4.75592
63677131270997,2,0,0.39192,4.32268,1.9413,1.42815,4.11964,0.62425,1.36991,4.75065
63677131271046,2,0,0.39577,4.32229,1.9406,1.43171,4.1179,0.62102,1.37201,4.75897
63677131271063,2,0,0.39229,4.32098,1.94316,1.43547,4.11784,0.6221,1.37809,4.76002
63677131271097,2,0,0.41152,4.32454,1.94325,1.43675,4.11902,0.62549,1.37348,4.73714
63677131271145,2,0,0.38456,4.32269,1.94107,1.43468,4.11398,0.62579,1.37451,4.73605
63677131271162,2,0,0.38258,4.32137,1.93678,1.42939,4.09991,0.62642,1.3752,4.72994
63677131271195,2,0,0.3789,4.31695,1.93305,1.42694,4.10323,0.62677,1.37406,4.73645
63677131271212,2,0,0.39344,4.31268,1.93524,1.4289,4.10023,0.62929,1.37514,4.73042
63677131271245,2,0,0.39443,4.30961,1.92989,1.42794,4.10048,0.62648,1.36816,4.73173
63677131271278,2,0,0.39263,4.30862,1.93237,1.42651,4.09939,0.62779,1.3677,4.73083
63677131271312,2,0,0.40641,4.31053,1.92928,1.41942,4.09533,0.62336,1.36614,4.73496
63677131271345,2,0,0.41639,4.30639,1.92295,1.41169,4.09437,0.62099,1.36405,4.72405
63677131271377,2,0,0.40397,4.3137,1.92861,1.42011,4.10663,0.61917,1.3604,4.73301
63677131271427,2,0,0.40019,4.30791,1.92388,1.42231,4.10273,0.61685,1.35807,4.71555
63677131271444,2,0,0.38893,4.31288,1.92261,1.42217,4.09741,0.61575,1.35537,4.71961
63677131271461,2,0,0.37745,4.31783,1.92551,1.42336,4.09761,0.61475,1.35482,4.72838
63677131271494,2,0,0.36381,4.31074,1.91801,1.42097,4.09533,0.61472,1.35156,4.72347
63677131271527,2,0,0.34645,4.30858,1.92249,1.42616,4.09964,0.61497,1.35209,4.7276
63677131271559,2,0,0.32937,4.30328,1.91964,1.42385,4.09171,0.61335,1.34901,4.73017
63677131271593,2,0,0.33972,4.30464,1.91723,1.42082,4.09055,0.61226,1.35501,4.73539
63677131271626,2,0,0.32974,4.29817,1.91765,1.42198,4.09579,0.61441,1.35611,4.72479
63677131271643,2,0,0.32993,4.29818,1.91347,1.41856,4.09146,0.61393,1.35065,4.73333
63677131271693,2,0,0.36306,4.29572,1.91578,1.41737,4.09291,0.61334,1.35268,4.72389
63677131271726,2,0,0.38142,4.29695,1.91189,1.41356,4.08793,0.61319,1.35366,4.72753
63677131271742,2,0,0.39834,4.29991,1.90683,1.41226,4.08682,0.61553,1.35209,4.73233
63677131271775,2,0,0.3975,4.29135,1.90598,1.40935,4.08886,0.61222,1.35054,4.73478
63677131271808,2,0,0.39224,4.29699,1.90622,1.4128,4.08872,0.615,1.34891,4.73811
63677131271842,2,0,0.41596,4.29083,1.90688,1.41071,4.09026,0.61231,1.34795,4.74213
63677131271858,2,0,0.43106,4.28807,1.90545,1.41033,4.08823,0.61282,1.34915,4.74725
63677131271907,2,0,0.4241,4.29037,1.90694,1.40987,4.09293,0.61202,1.34515,4.7472
63677131271924,2,0,0.40636,4.28877,1.90494,1.40945,4.08866,0.61008,1.34696,4.74467
63677131271957,2,0,0.41467,4.29305,1.90544,1.41112,4.09315,0.61084,1.34823,4.74433
63677131272007,2,0,0.42997,4.28965,1.90503,1.41417,4.08983,0.61057,1.34507,4.72839
63677131272024,2,0,0.4164,4.29183,1.90471,1.41405,4.08157,0.61042,1.34748,4.72377
63677131272040,2,0,0.4136,4.29301,1.90491,1.41439,4.08936,0.60862,1.34604,4.72599
63677131272107,2,0,0.40046,4.29334,1.90455,1.41803,4.08257,0.60565,1.34147,4.72529
63677131272140,2,0,0.40673,4.29177,1.90042,1.4193,4.08578,0.60558,1.33756,4.72072
63677131272173,2,0,0.42036,4.29756,1.90623,1.41841,4.085,0.60579,1.33786,4.7369
63677131272206,2,0,0.40694,4.29412,1.89905,1.41482,4.08602,0.60399,1.33874,4.72808
63677131272223,2,0,0.41403,4.29964,1.90527,1.41401,4.08622,0.60461,1.34066,4.73738
63677131272256,2,0,0.42667,4.29269,1.89985,1.41435,4.08549,0.60629,1.34232,4.72624
63677131272305,2,0,0.44259,4.2981,1.90792,1.41566,4.08542,0.60795,1.34633,4.73247
63677131272338,2,0,0.44458,4.29454,1.90596,1.41634,4.08261,0.60887,1.34911,4.73349
63677131272388,2,0,0.44535,4.29615,1.90571,1.41411,4.0807,0.6102,1.34889,4.73722
63677131272421,2,0,0.43972,4.29527,1.90469,1.41441,4.08252,0.60915,1.34821,4.72901
63677131272454,2,0,0.4323,4.30074,1.90429,1.41194,4.07905,0.60786,1.34546,4.73656
63677131272488,2,0,0.41598,4.30015,1.90396,1.41215,4.08231,0.60659,1.3472,4.72597
63677131272504,2,0,0.42873,4.30063,1.90025,1.41221,4.07797,0.60933,1.34345,4.73194
63677131272538,2,0,0.39589,4.29893,1.89756,1.40828,4.07698,0.60471,1.34064,4.73382
63677131272553,2,0,0.42017,4.29077,1.89478,1.40625,4.07681,0.60263,1.33966,4.7368
63677131272587,2,0,0.39074,4.29643,1.89251,1.40794,4.07719,0.60437,1.33342,4.73903
63677131272620,2,0,0.3813,4.28556,1.89381,1.40711,4.07454,0.60373,1.33376,4.74348
63677131272637,2,0,0.37683,4.29071,1.89246,1.40686,4.07506,0.60535,1.33412,4.74469
63677131272686,2,0,0.37851,4.2819,1.89106,1.40174,4.07001,0.60549,1.3304,4.75018
63677131272703,2,0,0.3449,4.29118,1.89252,1.40217,4.07508,0.60517,1.33029,4.74889
63677131272735,2,0,0.34022,4.28343,1.88802,1.39698,4.06772,0.60497,1.32923,4.74776
63677131272752,2,0,0.36099,4.2902,1.89115,1.40005,4.07436,0.60493,1.32758,4.74774
63677131272786,2,0,0.34725,4.28854,1.8926,1.4018,4.07371,0.60284,1.33246,4.74115
63677131272819,2,0,0.33544,4.28481,1.88956,1.39933,4.0656,0.60214,1.33247,4.73445
63677131272836,2,0,0.33853,4.28867,1.8872,1.40218,4.07314,0.60179,1.32968,4.73833
63677131272885,2,0,0.34012,4.28412,1.88366,1.40239,4.06299,0.60136,1.33093,4.73645
63677131272902,2,0,0.35354,4.28564,1.88326,1.40498,4.0699,0.60103,1.33032,4.73632
63677131272919,2,0,0.3935,4.28101,1.88638,1.40328,4.06147,0.6018,1.33409,4.73594
63677131272969,2,0,0.37108,4.28443,1.88353,1.40599,4.06752,0.60071,1.33547,4.73115
63677131272985,2,0,0.38782,4.28294,1.88386,1.40473,4.06335,0.60192,1.3341,4.73928
63677131273002,2,0,0.40316,4.28702,1.88053,1.40298,4.06583,0.60165,1.33414,4.72756
63677131273034,2,0,0.41859,4.28546,1.8801,1.40235,4.06481,0.59894,1.33355,4.72378
63677131273067,2,0,0.43309,4.28589,1.88389,1.40307,4.06171,0.59688,1.33066,4.73157
63677131273083,2,0,0.43036,4.28422,1.87649,1.39983,4.06192,0.59451,1.33149,4.72668
63677131273117,2,0,0.38887,4.28454,1.87531,1.39901,4.05802,0.59179,1.3267,4.73169
63677131273166,2,0,0.40123,4.28011,1.87294,1.39912,4.06659,0.59006,1.32661,4.72575
63677131273200,2,0,0.39691,4.27754,1.8707,1.39731,4.06324,0.58839,1.32649,4.73424
63677131273233,2,0,0.37845,4.2765,1.86992,1.39708,4.06274,0.58732,1.32504,4.7244
63677131273266,2,0,0.38362,4.27818,1.86682,1.39412,4.05922,0.58568,1.32342,4.73909
63677131273282,2,0,0.38574,4.27424,1.86364,1.39239,4.06319,0.58521,1.3234,4.73187
63677131273316,2,0,0.40087,4.27283,1.86297,1.39241,4.06551,0.58611,1.32371,4.73573
63677131273333,2,0,0.39721,4.2749,1.86097,1.39106,4.05489,0.58381,1.3211,4.74306
63677131273366,2,0,0.38265,4.27334,1.86129,1.38793,4.0503,0.58469,1.32054,4.74818
63677131273399,2,0,0.40144,4.27491,1.85998,1.38747,4.05057,0.58618,1.32195,4.74839
63677131273416,2,0,0.40836,4.27225,1.85769,1.38561,4.0459,0.58582,1.32317,4.75365
63677131273465,2,0,0.40628,4.26885,1.86217,1.38608,4.04783,0.58573,1.32448,4.75007
63677131273481,2,0,0.37387,4.27212,1.85986,1.38593,4.04116,0.58831,1.32497,4.74552
63677131273498,2,0,0.36003,4.26737,1.86129,1.38684,4.04172,0.5858,1.32238,4.74637
63677131273547,2,0,0.38621,4.28007,1.85723,1.38533,4.03966,0.58939,1.32226,4.74117
63677131273564,2,0,0.40069,4.27334,1.86016,1.38548,4.04011,0.58772,1.32136,4.74629
63677131273581,2,0,0.3522,4.27083,1.85467,1.38623,4.03943,0.58722,1.31835,4.74274
63677131273614,2,0,0.3623,4.27861,1.85031,1.38639,4.04203,0.58833,1.31781,4.73574
63677131273647,2,0,0.37355,4.27091,1.8486,1.38517,4.03695,0.5865,1.31556,4.74117
63677131273664,2,0,0.3588,4.28021,1.84562,1.38506,4.04306,0.58702,1.31339,4.74426
63677131273697,2,0,0.40296,4.26864,1.84442,1.38287,4.03795,0.58533,1.31007,4.73988
63677131273747,2,0,0.38064,4.26543,1.84094,1.3814,4.03349,0.585,1.3142,4.73058
63677131273780,2,0,0.38092,4.27443,1.8406,1.38093,4.04045,0.58277,1.31016,4.74635
63677131273813,2,0,0.37759,4.26617,1.83738,1.37661,4.0301,0.581,1.31058,4.73241
63677131273845,2,0,0.386,4.27618,1.8395,1.37829,4.03832,0.58265,1.30756,4.74486
63677131273862,2,0,0.38423,4.27225,1.83546,1.37704,4.03616,0.57903,1.30825,4.74154
63677131273896,2,0,0.3449,4.26958,1.83058,1.37501,4.02514,0.58122,1.31237,4.7416
63677131273912,2,0,0.34842,4.26959,1.83203,1.37502,4.03215,0.57957,1.30522,4.73992
63677131273945,2,0,0.36068,4.27101,1.82901,1.37292,4.02279,0.57804,1.30449,4.75387
63677131273979,2,0,0.33918,4.26585,1.82888,1.37352,4.02747,0.57614,1.30204,4.75625
63677131273995,2,0,0.35049,4.26561,1.82626,1.36889,4.01902,0.5766,1.30339,4.7782
63677131274028,2,0,0.33702,4.26381,1.82356,1.37146,4.02113,0.57452,1.30117,4.7797
63677131274062,2,0,0.35001,4.26763,1.82261,1.36658,4.0168,0.57376,1.301,4.78715
63677131274078,2,0,0.34654,4.26636,1.82069,1.36751,4.01871,0.57598,1.29972,4.78962
63677131274128,2,0,0.36278,4.27033,1.8213,1.36488,4.01522,0.57264,1.29868,4.79105
63677131274144,2,0,0.36413,4.26655,1.81966,1.36469,4.01613,0.57208,1.30013,4.78766
63677131274161,2,0,0.38449,4.26561,1.81905,1.36557,4.01413,0.57398,1.30207,4.77583
63677131274193,2,0,0.39348,4.26731,1.81959,1.36982,4.0175,0.574,1.29993,4.76117
63677131274226,2,0,0.39877,4.2609,1.81723,1.36506,4.01071,0.57142,1.29917,4.75042
63677131274243,2,0,0.40418,4.26451,1.82047,1.36785,4.01353,0.57168,1.29818,4.75488
63677131274277,2,0,0.4115,4.26022,1.81782,1.36481,4.00739,0.57016,1.29688,4.73891
63677131274327,2,0,0.43395,4.25969,1.81737,1.36672,4.01073,0.57292,1.29726,4.74336
63677131274360,2,0,0.44477,4.26193,1.81089,1.36057,4.00688,0.56729,1.29212,4.74459
63677131274393,2,0,0.4402,4.2603,1.81365,1.35865,4.00825,0.56307,1.29534,4.74834
63677131274426,2,0,0.43614,4.26707,1.81158,1.36119,4.01297,0.56865,1.295,4.74588
63677131274443,2,0,0.42292,4.25918,1.81056,1.3607,4.01173,0.5683,1.2924,4.73875
63677131274476,2,0,0.41891,4.26702,1.80689,1.36111,4.01531,0.57055,1.29124,4.74901
63677131274492,2,0,0.39152,4.25967,1.80704,1.3665,4.01577,0.57042,1.29062,4.73215
