63677131088282,6,0,1.80768,4.62126,1.97965,3.32211,4.69902,1.38282,2.19629,4.69035
63677131088332,6,0,1.82551,4.61344,1.96764,3.31022,4.71084,1.38276,2.19453,4.67437
63677131088382,6,0,1.83805,4.61335,1.96541,3.30282,4.70047,1.37697,2.18918,4.6934
63677131088416,6,0,1.8129,4.60308,1.96561,3.32399,4.70246,1.38012,2.19454,4.67343
63677131088433,6,0,1.77377,4.60819,1.96464,3.3263,4.70315,1.37705,2.18436,4.69775
63677131088466,6,0,1.74681,4.6036,1.94879,3.31048,4.7027,1.36707,2.17522,4.69466
63677131088481,6,0,1.71249,4.58154,1.94283,3.30583,4.69095,1.36149,2.16921,4.6671
63677131088514,6,0,1.77692,4.59798,1.95776,3.30827,4.70191,1.367,2.17487,4.68905
63677131088548,6,0,1.77675,4.58673,1.96591,3.30003,4.68661,1.36439,2.17613,4.67372
63677131088565,6,0,1.71294,4.60452,1.95759,3.29982,4.70371,1.36048,2.16746,4.67986
63677131088581,6,0,1.72948,4.58472,1.95412,3.28729,4.6859,1.3502,2.16113,4.67226
63677131088615,6,0,1.74625,4.60045,1.94704,3.26893,4.70712,1.34762,2.16003,4.67655
63677131088647,6,0,1.81151,4.59086,1.95181,3.27459,4.68587,1.3455,2.16225,4.68059
63677131088664,6,0,1.82869,4.60275,1.95033,3.291,4.70932,1.35224,2.16947,4.67678
63677131088697,6,0,1.86201,4.59303,1.94226,3.30578,4.68735,1.35523,2.17498,4.68891
63677131088714,6,0,1.66511,4.59263,1.91525,3.30801,4.68951,1.34561,2.16306,4.69043
63677131088746,6,0,1.77039,4.59433,1.91937,3.30319,4.70518,1.34115,2.16069,4.68318
63677131088763,6,0,1.73979,4.59606,1.91682,3.30646,4.68925,1.34257,2.15892,4.69427
63677131088796,6,0,1.80539,4.58505,1.92265,3.3191,4.69572,1.33835,2.16035,4.68122
63677131088813,6,0,1.74089,4.58887,1.91172,3.32021,4.68665,1.34301,2.15873,4.69504
63677131088846,6,0,1.68664,4.58271,1.91517,3.28841,4.68996,1.33011,2.14864,4.68017
63677131088879,6,0,1.72182,4.593,1.9155,3.29285,4.68755,1.32637,2.13951,4.68344
63677131088896,6,0,1.74596,4.58197,1.91879,3.27061,4.68748,1.32381,2.13711,4.67849
63677131088946,6,0,1.74037,4.58906,1.90683,3.23374,4.6955,1.32821,2.13256,4.69004
63677131088979,6,0,1.69527,4.58096,1.90203,3.22074,4.68694,1.32302,2.12909,4.67742
63677131088996,6,0,1.6653,4.58998,1.90303,3.22325,4.70158,1.32136,2.127,4.69039
63677131089044,6,0,1.71814,4.57528,1.88881,3.22592,4.68342,1.31824,2.12373,4.69657
63677131089061,6,0,1.65622,4.5907,1.87254,3.2126,4.70159,1.31724,2.12345,4.707
63677131089078,6,0,1.6455,4.58125,1.86984,3.22004,4.67532,1.30871,2.11858,4.68886
63677131089128,6,0,1.61381,4.57521,1.86065,3.22833,4.67082,1.29839,2.10736,4.70402
63677131089161,6,0,1.62736,4.58692,1.86126,3.23668,4.69218,1.29163,2.11184,4.69994
63677131089194,6,0,1.61152,4.58032,1.85312,3.21179,4.66892,1.28619,2.10212,4.70654
63677131089227,6,0,1.66164,4.58259,1.85176,3.21967,4.67193,1.27942,2.10227,4.6813
63677131089244,6,0,1.68939,4.58435,1.86355,3.2228,4.68725,1.27857,2.10764,4.67477
63677131089276,6,0,1.69386,4.5815,1.85467,3.23006,4.67906,1.27622,2.10695,4.6923
63677131089327,6,0,1.70773,4.58617,1.84346,3.22859,4.68415,1.2734,2.10913,4.68926
63677131089360,6,0,1.69165,4.57753,1.84395,3.21937,4.68491,1.276,2.11566,4.66475
63677131089393,6,0,1.67693,4.58595,1.84904,3.22866,4.68731,1.27522,2.11879,4.6878
63677131089425,6,0,1.64804,4.57256,1.84565,3.22704,4.68158,1.26962,2.11902,4.67389
63677131089442,6,0,1.67045,4.5857,1.836,3.20779,4.68825,1.27205,2.1137,4.68891
63677131089459,6,0,1.59953,4.58623,1.82771,3.18768,4.68498,1.25704,2.10408,4.68167
63677131089492,6,0,1.60208,4.57071,1.83049,3.17789,4.66649,1.26059,2.10832,4.66797
63677131089525,6,0,1.57159,4.58665,1.81923,3.16381,4.68633,1.25171,2.09536,4.66656
63677131089542,6,0,1.56502,4.56441,1.81572,3.17959,4.66805,1.24568,2.0908,4.66414
63677131089575,6,0,1.53108,4.5763,1.80376,3.16008,4.68839,1.2439,2.07959,4.65927
63677131089624,6,0,1.50964,4.55805,1.80348,3.16509,4.66483,1.23919,2.0773,4.66257
63677131089641,6,0,1.42606,4.56571,1.79329,3.14186,4.68439,1.23059,2.0632,4.66241
63677131089658,6,0,1.47613,4.54909,1.78403,3.13695,4.66587,1.23433,2.05941,4.65371
63677131089708,6,0,1.4583,4.54372,1.76326,3.13859,4.66403,1.21903,2.04353,4.67789
63677131089741,6,0,1.52065,4.55106,1.7393,3.10212,4.65907,1.20823,2.03768,4.69096
63677131089774,6,0,1.53454,4.54639,1.73171,3.09953,4.66202,1.19574,2.02763,4.67249
63677131089806,6,0,1.52748,4.55494,1.72022,3.10243,4.65747,1.19635,2.02363,4.6812
63677131089823,6,0,1.54983,4.54354,1.71224,3.09439,4.66074,1.18777,2.01593,4.66673
63677131089856,6,0,1.50408,4.55326,1.70788,3.11128,4.66223,1.18213,2.00919,4.68376
63677131089873,6,0,1.4502,4.53634,1.6991,3.09937,4.6596,1.17137,1.99908,4.6699
63677131089906,6,0,1.5048,4.54735,1.69617,3.09321,4.66478,1.16899,1.9969,4.68634
63677131089939,6,0,1.52326,4.52521,1.69335,3.08444,4.65685,1.16597,1.9932,4.67252
63677131089956,6,0,1.39156,4.52913,1.68886,3.0648,4.6649,1.16374,1.97917,4.68049
63677131090006,6,0,1.42007,4.51282,1.67865,3.06256,4.65318,1.15655,1.97333,4.66635
63677131090021,6,0,1.35104,4.50706,1.66445,3.03823,4.64687,1.14732,1.96009,4.69176
63677131090038,6,0,1.32261,4.51236,1.65028,3.00642,4.6602,1.148,1.95486,4.69011
63677131090088,6,0,1.34329,4.51011,1.64865,3.01579,4.64117,1.14133,1.94701,4.68597
63677131090105,6,0,1.30036,4.51543,1.63998,3.00651,4.65858,1.14105,1.93904,4.68357
63677131090121,6,0,1.29972,4.51972,1.63102,2.99769,4.639,1.13422,1.92808,4.67957
63677131090155,6,0,1.27191,4.52209,1.62646,2.9877,4.65606,1.13086,1.92215,4.66694
63677131090188,6,0,1.28889,4.51807,1.62995,2.99203,4.64147,1.13003,1.91503,4.69515
63677131090221,6,0,1.31083,4.52052,1.63174,2.9707,4.65284,1.13164,1.91498,4.66997
63677131090238,2,0,1.30842,4.51705,1.61932,2.96386,4.64605,1.13594,1.91182,4.67799
63677131090286,2,0,1.32723,4.50954,1.61064,2.93061,4.64751,1.13509,1.90794,4.67919
63677131090303,2,0,1.30814,4.50174,1.61773,2.93055,4.64871,1.12965,1.90838,4.67268
63677131090320,2,0,1.30818,4.49841,1.61562,2.92286,4.64611,1.13242,1.9054,4.675
63677131090354,6,0,1.40254,4.49423,1.61497,2.93324,4.64414,1.12919,1.90993,4.66814
63677131090387,6,0,1.3529,4.49559,1.59387,2.89023,4.64399,1.12857,1.90542,4.66781
63677131090420,6,0,1.33362,4.48313,1.59677,2.90416,4.63656,1.12044,1.90025,4.6446
63677131090436,6,0,1.33056,4.48633,1.59447,2.88113,4.63879,1.11467,1.89341,4.65166
63677131090486,6,0,1.29603,4.48216,1.58289,2.89269,4.63668,1.10954,1.88183,4.67195
63677131090519,6,0,1.2852,4.47886,1.56229,2.87545,4.63738,1.09795,1.86918,4.67973
63677131090553,2,0,1.19448,4.46399,1.56923,2.86171,4.6197,1.09665,1.86618,4.68406
63677131090585,2,0,1.19676,4.47676,1.56486,2.8643,4.63772,1.09521,1.86131,4.67914
63677131090619,2,0,1.20129,4.46493,1.56206,2.87308,4.61886,1.09251,1.8604,4.72813
63677131090668,2,0,1.28931,4.46849,1.56924,2.87632,4.63675,1.0882,1.85283,4.69454
63677131090701,2,0,1.27922,4.46898,1.56981,2.87003,4.62556,1.09034,1.84949,4.70831
63677131090735,2,0,1.28615,4.47115,1.57806,2.86096,4.63517,1.09062,1.84969,4.69001
63677131090768,2,0,1.28876,4.47528,1.57464,2.86638,4.62988,1.09188,1.84209,4.69955
63677131090801,2,0,1.31196,4.47968,1.58348,2.84984,4.63496,1.09083,1.83619,4.67807
63677131090818,2,0,1.2924,4.47338,1.58621,2.86515,4.63004,1.09256,1.84167,4.66094
63677131090867,2,0,1.25922,4.49155,1.56945,2.83701,4.63996,1.09202,1.83512,4.67898
63677131090884,2,0,1.25043,4.48205,1.57486,2.82976,4.63281,1.08977,1.83015,4.66933
63677131090917,2,0,1.22194,4.48736,1.58039,2.84074,4.64149,1.09363,1.83261,4.68228
63677131090967,2,0,1.17407,4.47698,1.56291,2.86497,4.62302,1.08341,1.82662,4.66122
63677131091000,2,0,1.19209,4.48126,1.56282,2.84967,4.6351,1.08848,1.83185,4.66375
63677131091034,2,0,1.22832,4.4766,1.55113,2.85558,4.6189,1.08969,1.82702,4.67051
63677131091065,2,0,1.19524,4.47205,1.5594,2.86043,4.63108,1.08915,1.82811,4.68115
63677131091099,2,0,1.21068,4.4716,1.55602,2.87113,4.61699,1.08628,1.83565,4.70185
63677131091132,2,0,1.20257,4.47351,1.53875,2.85348,4.62048,1.08266,1.83062,4.73459
63677131091165,2,0,1.23286,4.47395,1.54554,2.84088,4.63041,1.08132,1.83263,4.72148
63677131091182,2,0,1.21807,4.46604,1.53908,2.84656,4.62319,1.08468,1.83465,4.7441
63677131091215,2,0,1.22289,4.46695,1.53442,2.84026,4.63226,1.07854,1.83389,4.73642
63677131091264,2,0,1.17233,4.4626,1.53231,2.81279,4.63124,1.07681,1.83291,4.75975
63677131091282,2,0,1.14314,4.45795,1.5243,2.81685,4.62613,1.08031,1.8252,4.74246
63677131091314,2,0,1.13832,4.45124,1.53493,2.83666,4.62668,1.08051,1.82163,4.73086
63677131091348,2,0,1.12913,4.45018,1.53054,2.83047,4.62571,1.08252,1.82158,4.70602
63677131091365,2,0,1.12547,4.44882,1.52924,2.82869,4.6194,1.08142,1.82175,4.71074
63677131091398,2,0,1.13693,4.44846,1.52937,2.8168,4.61462,1.08297,1.82295,4.69438
63677131091446,2,0,1.11673,4.45742,1.53469,2.81709,4.62675,1.08675,1.82571,4.68988
63677131091463,2,0,1.15556,4.44807,1.52934,2.81614,4.61116,1.07919,1.82206,4.65368
63677131091497,2,0,1.16686,4.45986,1.53213,2.81764,4.6285,1.07701,1.8164,4.67468
63677131091546,2,0,1.19483,4.46458,1.53697,2.80356,4.62793,1.0777,1.82035,4.68463
63677131091562,2,0,1.18173,4.4499,1.53254,2.80294,4.61056,1.07409,1.81709,4.68927
63677131091596,2,0,1.17591,4.45643,1.52898,2.78976,4.62551,1.07404,1.81989,4.68988
63677131091613,2,0,1.23441,4.44964,1.52257,2.79795,4.6177,1.07051,1.81558,4.68235
63677131091646,2,0,1.2298,4.44515,1.53518,2.80944,4.60181,1.07106,1.8185,4.69125
63677131091679,2,0,1.25508,4.44285,1.52647,2.79446,4.60684,1.07299,1.82597,4.67597
63677131091712,2,0,1.24962,4.4375,1.51805,2.78667,4.59806,1.07329,1.82505,4.68816
63677131091746,2,0,1.2131,4.42946,1.51935,2.79219,4.59926,1.07132,1.82457,4.66804
63677131091779,2,0,1.2183,4.42354,1.50387,2.7764,4.59307,1.06625,1.82117,4.66493
63677131091827,2,0,1.25559,4.41833,1.49513,2.76839,4.59412,1.06476,1.82193,4.6712
63677131091862,2,0,1.23372,4.42272,1.4858,2.76149,4.60425,1.06659,1.81185,4.68579
63677131091895,2,0,1.24827,4.42327,1.49117,2.75604,4.60624,1.06212,1.81374,4.68901
63677131091927,2,0,1.23733,4.41945,1.48372,2.75735,4.59477,1.06346,1.8184,4.68007
63677131091961,2,0,1.23773,4.42658,1.49141,2.76709,4.60546,1.06157,1.81294,4.68857
63677131091993,2,0,1.19971,4.41839,1.48948,2.77491,4.59187,1.06484,1.81663,4.67499
63677131092027,2,0,1.18233,4.41772,1.48055,2.77925,4.58482,1.06319,1.81967,4.674
63677131092044,2,0,1.17451,4.41894,1.47706,2.77401,4.59392,1.06024,1.83345,4.67605
63677131092077,2,0,1.18283,4.41984,1.47437,2.78708,4.58236,1.05811,1.83598,4.67684
63677131092125,2,0,1.17571,4.4155,1.46489,2.77664,4.58939,1.05632,1.83474,4.65865
63677131092142,2,0,1.20127,4.41382,1.46295,2.77682,4.57845,1.05521,1.83624,4.68074
63677131092175,2,0,1.20244,4.41508,1.46622,2.77536,4.58638,1.05639,1.84436,4.6463
63677131092226,2,0,1.23638,4.4153,1.4654,2.7841,4.58727,1.05434,1.84918,4.63898
63677131092242,2,0,1.23897,4.41197,1.47125,2.78223,4.58508,1.05425,1.85387,4.66753
63677131092259,2,0,1.24682,4.41309,1.48295,2.77824,4.5898,1.0568,1.8527,4.63906
63677131092292,2,0,1.24827,4.41069,1.48149,2.78767,4.58485,1.06407,1.85589,4.66256
63677131092325,2,0,1.22025,4.41515,1.48442,2.80978,4.58781,1.06687,1.8668,4.67512
63677131092359,2,0,1.20826,4.41396,1.492,2.80915,4.5839,1.06716,1.87003,4.68204
63677131092409,2,0,1.21083,4.41639,1.49207,2.82685,4.58035,1.07106,1.87612,4.69304
63677131092457,2,0,1.23621,4.41663,1.48452,2.83662,4.57734,1.07004,1.87455,4.69987
63677131092473,2,0,1.21218,4.42443,1.48544,2.8284,4.59585,1.06926,1.87103,4.69924
63677131092507,2,0,1.24137,4.41192,1.49492,2.83348,4.57973,1.06951,1.86416,4.69991
63677131092540,2,0,1.2742,4.42097,1.48998,2.82166,4.59943,1.06701,1.86315,4.68096
63677131092557,2,0,1.28173,4.40818,1.48085,2.8158,4.58208,1.06551,1.85826,4.68744
63677131092606,2,0,1.30314,4.40585,1.48613,2.79033,4.58126,1.0651,1.84317,4.68758
63677131092640,2,0,1.31031,4.41345,1.4977,2.79649,4.58811,1.06473,1.84186,4.67009
63677131092657,2,0,1.26999,4.39962,1.49591,2.78901,4.57833,1.0616,1.83537,4.68501
63677131092706,2,0,1.26247,4.40361,1.49138,2.7833,4.58261,1.06352,1.83402,4.66718
63677131092723,2,0,1.2318,4.40213,1.48553,2.76835,4.57754,1.05819,1.8233,4.67144
63677131092756,2,0,1.24949,4.40231,1.48,2.76719,4.57736,1.05645,1.81722,4.68941
63677131092806,2,0,1.22675,4.40378,1.47573,2.76413,4.57302,1.05378,1.8169,4.67346
63677131092823,2,0,1.19236,4.4048,1.47539,2.75084,4.57704,1.0522,1.81713,4.68665
63677131092855,2,0,1.20697,4.40812,1.46164,2.7307,4.58112,1.05488,1.81959,4.68251
63677131092889,2,0,1.21401,4.40919,1.46583,2.73812,4.57549,1.05102,1.82274,4.67068
63677131092905,2,0,1.21187,4.40685,1.46524,2.74302,4.57652,1.05203,1.82149,4.67618
63677131092939,2,0,1.17647,4.40983,1.46401,2.74711,4.57129,1.05471,1.82128,4.67093
63677131092988,2,0,1.17066,4.41033,1.46771,2.74692,4.57093,1.05357,1.82903,4.67464
63677131093005,2,0,1.17462,4.39864,1.46038,2.75011,4.57345,1.04904,1.82551,4.66788
63677131093037,2,0,1.16634,4.40706,1.46567,2.74302,4.57278,1.05104,1.82109,4.67774
63677131093054,2,0,1.16478,4.39662,1.46553,2.75222,4.57209,1.05061,1.82139,4.66664
63677131093104,2,0,1.20577,4.40571,1.46961,2.74515,4.57478,1.04902,1.82096,4.67442
63677131093137,2,0,1.21547,4.40526,1.45789,2.7201,4.57841,1.04709,1.80962,4.66958
63677131093153,2,0,1.18085,4.40491,1.45672,2.71873,4.57595,1.04614,1.80515,4.65106
63677131093186,2,0,1.1707,4.39807,1.45526,2.71116,4.58068,1.04708,1.80141,4.66957
63677131093219,2,0,1.17543,4.39893,1.4601,2.7187,4.57379,1.05132,1.80147,4.64745
63677131093252,2,0,1.15951,4.40429,1.45384,2.70539,4.57158,1.04555,1.78855,4.64763
63677131093286,2,0,1.10846,4.39589,1.44238,2.69847,4.57651,1.0438,1.78478,4.67413
63677131093319,2,0,1.11231,4.40309,1.44186,2.6991,4.57254,1.04233,1.78512,4.66467
63677131093335,2,0,1.11088,4.39572,1.44486,2.70116,4.57648,1.04096,1.7848,4.67865
63677131093386,2,0,1.13594,4.40388,1.44157,2.69489,4.57698,1.04142,1.78217,4.67772
63677131093402,2,0,1.13702,4.4115,1.43974,2.69629,4.57721,1.04017,1.7786,4.6811
63677131093435,2,0,1.13125,4.40454,1.44372,2.69886,4.57717,1.03597,1.77707,4.67727
63677131093468,2,0,1.12004,4.41101,1.43979,2.70582,4.57765,1.0374,1.77832,4.68495
63677131093501,2,0,1.14022,4.41159,1.45045,2.70744,4.57689,1.03513,1.78247,4.68391
63677131093534,2,0,1.12312,4.40338,1.46265,2.71452,4.56864,1.03543,1.78641,4.66691
63677131093567,2,0,1.10955,4.40747,1.46716,2.70631,4.57681,1.03722,1.78784,4.68943
63677131093584,2,0,1.14137,4.40004,1.47376,2.72251,4.56425,1.03668,1.78789,4.6709
63677131093634,2,0,1.1318,4.41243,1.47123,2.72105,4.57801,1.03763,1.79173,4.67212
63677131093667,2,0,1.20123,4.41565,1.46902,2.72692,4.58066,1.04027,1.79733,4.6905
63677131093684,2,0,1.19031,4.40419,1.46547,2.72771,4.56188,1.03602,1.79532,4.67595
63677131093716,2,0,1.17242,4.41723,1.46796,2.73079,4.58306,1.03911,1.79687,4.69166
63677131093766,2,0,1.19235,4.40629,1.45868,2.71895,4.56407,1.03649,1.79356,4.68088
63677131093783,2,0,1.1684,4.40276,1.45402,2.7104,4.56644,1.03018,1.79501,4.67555
63677131093816,2,0,1.16875,4.40763,1.4526,2.70277,4.58156,1.031,1.79182,4.68044
63677131093832,2,0,1.16101,4.39858,1.4497,2.68897,4.5663,1.02677,1.78544,4.67284
63677131093865,2,0,1.12519,4.40092,1.44877,2.69822,4.5768,1.02446,1.78453,4.67459
63677131093899,2,0,1.15573,4.39846,1.43819,2.6782,4.57311,1.02535,1.78103,4.67607
63677131093932,2,0,1.16866,4.40195,1.44207,2.66746,4.57525,1.02366,1.78009,4.68501
63677131093965,2,0,1.16922,4.40467,1.43644,2.66808,4.57151,1.02323,1.77709,4.67918
63677131093998,2,0,1.15033,4.40862,1.4369,2.66376,4.58034,1.02628,1.76915,4.68656
63677131094015,2,0,1.14411,4.41428,1.43684,2.66824,4.5838,1.02446,1.77114,4.69125
63677131094048,2,0,1.15805,4.41445,1.43718,2.66237,4.57231,1.02596,1.77758,4.67305
63677131094081,2,0,1.16356,4.41523,1.43861,2.66552,4.58382,1.02305,1.77219,4.68058
63677131094148,2,0,1.15132,4.4149,1.44258,2.69889,4.56597,1.02118,1.77101,4.6591
63677131094180,2,0,1.15092,4.41024,1.44051,2.68216,4.57644,1.01775,1.76666,4.67696
63677131094213,2,0,1.17263,4.41115,1.44004,2.68556,4.56627,1.02062,1.76621,4.6612
63677131094247,2,0,1.16839,4.40397,1.43334,2.66774,4.57632,1.01535,1.76006,4.67385
63677131094263,2,0,1.15928,4.40702,1.43286,2.67301,4.56872,1.01274,1.75543,4.66635
63677131094297,2,0,1.17478,4.4042,1.43162,2.6681,4.5772,1.01279,1.76073,4.67343
63677131094347,2,0,1.13378,4.40504,1.43238,2.66929,4.57666,1.01051,1.75666,4.6745
63677131094363,2,0,1.1622,4.406,1.43142,2.66937,4.57302,1.01011,1.75821,4.67838
63677131094379,2,0,1.15136,4.39961,1.43362,2.67352,4.57438,1.00644,1.75865,4.67067
63677131094412,2,0,1.15023,4.39907,1.43532,2.67016,4.57075,1.00705,1.76012,4.67106
63677131094446,2,0,1.17596,4.39719,1.43839,2.68255,4.56839,1.01121,1.76201,4.65719
63677131094479,2,0,1.13247,4.39307,1.43153,2.67923,4.5631,1.00984,1.7515,4.65179
63677131094528,2,0,1.16518,4.39534,1.4354,2.68017,4.57107,1.0095,1.75182,4.66736
63677131094545,2,0,1.20484,4.39579,1.43246,2.66272,4.57329,1.01401,1.75175,4.68048
63677131094578,2,0,1.18259,4.39204,1.42922,2.66484,4.55903,1.01173,1.74655,4.66605
63677131094628,2,0,1.17769,4.40085,1.43244,2.66359,4.57633,1.00825,1.74964,4.68853
63677131094643,2,0,1.14942,4.39303,1.43234,2.65639,4.56101,1.00303,1.74653,4.67953
63677131094661,2,0,1.16843,4.40309,1.43605,2.66524,4.57716,1.00448,1.74612,4.69188
63677131094693,2,0,1.16393,4.40082,1.43617,2.66919,4.57492,1.00164,1.74427,4.69145
63677131094727,2,0,1.16115,4.39709,1.43482,2.66008,4.56434,1.00628,1.74283,4.67829
63677131094761,2,0,1.15193,4.3971,1.43636,2.66032,4.57223,0.99922,1.74124,4.67224
63677131094793,2,0,1.18645,4.39748,1.43747,2.66476,4.56817,1.00353,1.74481,4.66545
63677131094826,2,0,1.18057,4.39818,1.43742,2.67776,4.57034,1.00631,1.74366,4.67178
63677131094860,2,0,1.14159,4.39487,1.43922,2.66699,4.56779,1.0057,1.74093,4.655
63677131094876,2,0,1.14682,4.40076,1.43168,2.6465,4.57603,1.00509,1.73552,4.66044
63677131094926,2,0,1.15133,4.39754,1.44507,2.65927,4.56721,1.0065,1.74347,4.6465
63677131094942,2,0,1.1213,4.40334,1.44286,2.65122,4.57861,1.00534,1.74421,4.66698
63677131094976,2,0,1.11058,4.40366,1.43921,2.64885,4.57758,1.00216,1.73576,4.661
63677131095026,2,0,1.0999,4.39711,1.43908,2.64255,4.56617,0.99843,1.73398,4.63685
63677131095043,2,0,1.10545,4.40009,1.43269,2.64575,4.57727,0.99292,1.7279,4.65414
63677131095059,2,0,1.12639,4.39813,1.43493,2.63979,4.56436,0.9953,1.7338,4.64013
63677131095109,2,0,1.09629,4.39566,1.42986,2.6438,4.57553,0.99463,1.72993,4.66069
63677131095125,2,0,1.0818,4.39207,1.41838,2.6156,4.5726,0.99131,1.71974,4.65952
63677131095157,2,0,1.10318,4.39354,1.42498,2.61546,4.56414,0.99602,1.7258,4.6479
63677131095208,2,0,1.09394,4.39518,1.42378,2.61616,4.5732,0.99311,1.72348,4.66618
63677131095224,2,0,1.09382,4.39514,1.42162,2.60539,4.56663,0.99227,1.723,4.65901
63677131095257,2,0,1.0713,4.39755,1.42066,2.59123,4.57212,0.99771,1.72974,4.66944
63677131095274,2,0,1.09206,4.39998,1.41936,2.59973,4.57107,0.99724,1.72117,4.67189
63677131095307,2,0,1.12905,4.39847,1.42427,2.62242,4.57042,0.99994,1.72141,4.67079
63677131095340,2,0,1.14733,4.39947,1.42286,2.62528,4.56858,0.99771,1.71993,4.6676
63677131095373,2,0,1.13688,4.39757,1.41792,2.61175,4.57082,0.99161,1.71497,4.66796
63677131095407,2,0,1.10559,4.39354,1.42085,2.61832,4.57004,0.99846,1.71773,4.65729
63677131095440,2,0,1.10611,4.38777,1.42001,2.62548,4.55991,0.99223,1.70943,4.63937
63677131095457,2,0,1.13392,4.39351,1.42193,2.61249,4.57159,0.98901,1.70932,4.64968
63677131095505,2,0,1.10665,4.38611,1.42254,2.60253,4.5579,0.98928,1.70901,4.64057
63677131095539,2,0,1.05501,4.38834,1.41864,2.60501,4.55774,0.98404,1.70503,4.63532
63677131095555,2,0,1.05581,4.39367,1.41896,2.60984,4.57234,0.98706,1.70695,4.64338
63677131095604,2,0,1.07216,4.39163,1.41658,2.59901,4.57023,0.98371,1.70161,4.64737
63677131095638,2,0,1.05522,4.38707,1.41111,2.60606,4.55825,0.98466,1.69936,4.65277
63677131095689,2,0,1.02284,4.38736,1.41166,2.59474,4.56619,0.9849,1.69751,4.64932
63677131095704,2,0,1.02307,4.38289,1.40891,2.58026,4.56323,0.98766,1.70586,4.64883
63677131095737,2,0,1.03367,4.38157,1.4034,2.58424,4.56266,0.99012,1.70151,4.66103
63677131095788,2,0,0.9917,4.38068,1.40454,2.58363,4.55912,0.98482,1.6977,4.65927
63677131095803,2,0,1.01931,4.38332,1.40439,2.57632,4.5577,0.98408,1.69846,4.66444
63677131095837,2,0,1.01814,4.38912,1.40127,2.56778,4.56719,0.98482,1.69849,4.67689
63677131095887,2,0,1.0474,4.3906,1.39767,2.56531,4.56705,0.97746,1.69998,4.68338
63677131095920,2,0,1.07622,4.38619,1.40252,2.56458,4.55475,0.9758,1.68741,4.67562
63677131095954,2,0,1.05967,4.38351,1.40515,2.55419,4.55561,0.97758,1.69009,4.65829
63677131095987,2,0,1.02846,4.38161,1.39292,2.55136,4.56629,0.9769,1.68351,4.66418
63677131096020,2,0,1.04776,4.38162,1.39598,2.54382,4.55701,0.97791,1.68281,4.65702
63677131096052,2,0,1.06657,4.38024,1.39689,2.55042,4.56646,0.97755,1.68775,4.64681
63677131096085,2,0,1.03696,4.38089,1.39215,2.54444,4.56544,0.98143,1.68256,4.64269
63677131096102,2,0,1.03433,4.38272,1.3943,2.53969,4.55971,0.97646,1.68037,4.65055
63677131096135,2,0,1.04443,4.38397,1.39146,2.53829,4.56573,0.97515,1.67802,4.64824
63677131096168,2,0,1.06778,4.38137,1.3929,2.54609,4.562,0.97138,1.66874,4.64676
63677131096202,2,0,1.04124,4.3766,1.38874,2.54244,4.55964,0.96761,1.66304,4.66588
63677131096235,2,0,1.05128,4.3758,1.38337,2.53128,4.55774,0.96639,1.65579,4.6535
63677131096268,2,0,1.04528,4.37014,1.38163,2.524,4.55934,0.95922,1.64908,4.67174
63677131096301,2,0,1.0953,4.36694,1.38499,2.52341,4.55422,0.96182,1.65148,4.64999
63677131096334,2,0,1.09919,4.36173,1.37698,2.50832,4.54899,0.96264,1.64921,4.65313
63677131096367,2,0,1.11056,4.36657,1.38254,2.51446,4.56033,0.96212,1.64905,4.66628
63677131096384,2,0,1.09745,4.3633,1.38349,2.51721,4.54857,0.96218,1.6534,4.6568
63677131096417,2,0,1.10344,4.37065,1.38754,2.51968,4.56239,0.96715,1.65953,4.66581
63677131096467,2,0,1.09144,4.36535,1.38572,2.51916,4.54762,0.9654,1.65572,4.66557
63677131096484,2,0,1.04725,4.36869,1.38298,2.52267,4.54591,0.96342,1.65032,4.67357
63677131096517,2,0,1.02943,4.37105,1.3852,2.52002,4.55843,0.96493,1.64976,4.66668
63677131096565,2,0,1.01194,4.36697,1.3859,2.53776,4.54744,0.96086,1.64461,4.67647
63677131096582,2,0,1.02644,4.36667,1.38227,2.52649,4.55024,0.96263,1.63874,4.66484
63677131096616,2,0,1.01186,4.36261,1.37766,2.50625,4.55225,0.95558,1.62907,4.64899
63677131096632,2,0,1.02589,4.36757,1.37812,2.50376,4.55358,0.9592,1.62811,4.66529
63677131096666,2,0,1.0521,4.36193,1.37657,2.50399,4.55009,0.95799,1.62993,4.64596
63677131096699,2,0,1.04467,4.3674,1.37297,2.50429,4.55974,0.95967,1.62511,4.66129
63677131096715,2,0,1.04866,4.36322,1.36916,2.49567,4.55051,0.95041,1.6195,4.64423
63677131096748,2,0,1.00001,4.36264,1.36049,2.47985,4.54935,0.95001,1.61384,4.65483
63677131096782,2,0,1.02917,4.36617,1.36082,2.47406,4.55624,0.94862,1.60974,4.66866
63677131096798,2,0,0.98047,4.36216,1.35639,2.48182,4.54431,0.94697,1.60769,4.65562
63677131096848,2,0,0.98321,4.36004,1.35034,2.48045,4.55289,0.94379,1.60997,4.66055
63677131096865,2,0,0.96571,4.35948,1.35376,2.46906,4.54146,0.94352,1.60355,4.65037
63677131096881,2,0,0.97546,4.35857,1.35597,2.47076,4.54873,0.94086,1.60748,4.65549
63677131096914,2,0,0.98018,4.35962,1.35711,2.47001,4.54113,0.94494,1.60967,4.6438
63677131096947,2,0,1.03597,4.36244,1.3585,2.47284,4.55025,0.94917,1.61919,4.64521
63677131096963,2,0,1.03425,4.36288,1.36176,2.48198,4.54445,0.94723,1.61963,4.64473
63677131096996,2,0,1.0876,4.36637,1.36534,2.49642,4.55014,0.94558,1.63124,4.6476
63677131097046,2,0,1.06191,4.36685,1.36479,2.50221,4.55356,0.94802,1.63347,4.65551
63677131097080,2,0,1.08659,4.36948,1.36664,2.48794,4.55612,0.95047,1.64684,4.64325
63677131097113,2,0,1.10875,4.36604,1.37023,2.49047,4.55263,0.95334,1.64361,4.66501
63677131097146,2,0,1.06313,4.36487,1.37116,2.49335,4.55131,0.95408,1.64132,4.64697
63677131097163,2,0,1.06452,4.36231,1.36477,2.48059,4.55135,0.95115,1.63665,4.66431
63677131097196,2,0,1.0559,4.35971,1.36652,2.4713,4.54739,0.95032,1.62803,4.64421
63677131097212,2,0,1.01939,4.35895,1.35998,2.47141,4.55178,0.95209,1.62349,4.65029
63677131097246,2,0,1.05486,4.35764,1.36109,2.46152,4.54421,0.94554,1.62179,4.63247
63677131097278,2,0,1.05149,4.35734,1.35547,2.48543,4.54415,0.94678,1.61576,4.64251
63677131097295,2,0,1.03876,4.3634,1.35035,2.47053,4.55882,0.94475,1.60869,4.65807
63677131097345,2,0,1.02723,4.36099,1.34611,2.46798,4.54635,0.93975,1.61056,4.65143
63677131097362,2,0,1.01714,4.36877,1.34953,2.48274,4.56068,0.9405,1.60627,4.65044
63677131097378,2,0,1.02308,4.36477,1.34664,2.48249,4.54653,0.94475,1.61184,4.65394
63677131097428,2,0,1.0299,4.36924,1.34803,2.4678,4.55879,0.93974,1.60655,4.66244
63677131097445,2,0,1.00406,4.36562,1.35373,2.48645,4.54482,0.94436,1.60706,4.66735
63677131097461,2,0,0.97198,4.36629,1.35339,2.46464,4.55348,0.94069,1.60236,4.6524
63677131097494,2,0,0.96766,4.36336,1.35547,2.48679,4.54511,0.94372,1.60479,4.64874
63677131097527,2,0,0.94112,4.36192,1.35682,2.48211,4.54843,0.93829,1.60169,4.63011
63677131097543,2,0,1.0017,4.36022,1.36076,2.47474,4.54505,0.93978,1.61704,4.63324
63677131097576,2,0,0.99175,4.36604,1.36352,2.48994,4.55052,0.93775,1.62119,4.64865
63677131097626,2,0,1.02205,4.36976,1.35853,2.48111,4.55579,0.94231,1.62087,4.65462
63677131097659,2,0,1.05245,4.36646,1.36429,2.48941,4.54696,0.93818,1.62648,4.65332
63677131097693,2,0,1.03636,4.37289,1.36339,2.47706,4.5572,0.94077,1.62716,4.6682
63677131097725,2,0,1.02546,4.36936,1.3616,2.48028,4.54604,0.93822,1.62953,4.65919
63677131097742,2,0,1.03793,4.37079,1.36417,2.4684,4.55422,0.93925,1.62849,4.66859
63677131097775,2,0,1.03482,4.36741,1.36373,2.48135,4.54385,0.94291,1.62507,4.65761
63677131097809,2,0,1.01004,4.36417,1.36284,2.48,4.54411,0.94588,1.61685,4.65157
63677131097824,2,0,1.05194,4.36463,1.35776,2.48784,4.55274,0.944,1.61527,4.65409
63677131097858,2,0,1.03023,4.36613,1.35338,2.48958,4.54458,0.94382,1.61385,4.64153
63677131097908,2,0,1.09076,4.36522,1.35486,2.4743,4.54493,0.93938,1.60407,4.64008
63677131097942,2,0,1.06789,4.3644,1.34988,2.47182,4.55023,0.93659,1.59578,4.63647
63677131097974,2,0,1.06233,4.36369,1.34877,2.45628,4.54702,0.93273,1.58617,4.64266
63677131098007,2,0,1.04445,4.36424,1.35201,2.45617,4.54872,0.93251,1.594,4.6363
63677131098024,2,0,1.01864,4.3618,1.34417,2.45898,4.54578,0.92903,1.58989,4.64885
63677131098041,2,0,1.03196,4.35552,1.34622,2.44586,4.54446,0.92602,1.58495,4.65252
63677131098073,2,0,1.00861,4.3555,1.34544,2.44938,4.54221,0.92502,1.59086,4.63428
63677131098107,2,0,0.98905,4.35232,1.34028,2.45157,4.54664,0.92675,1.58939,4.65634
63677131098139,2,0,1.00693,4.35066,1.34417,2.45698,4.54128,0.92548,1.59327,4.63542
63677131098156,2,0,1.0276,4.35136,1.33766,2.46768,4.54876,0.92531,1.59802,4.66003
63677131098206,2,0,1.0611,4.34943,1.33415,2.46733,4.53964,0.92371,1.5964,4.63941
63677131098222,2,0,1.07419,4.35501,1.33635,2.45899,4.55229,0.92541,1.60185,4.66049
63677131098239,2,0,1.04515,4.35315,1.34362,2.46964,4.5419,0.92685,1.61064,4.64648
