63677131335408,2,0,0.28946,3.83864,2.06349,1.22371,3.1038,0.33507,1.02217,4.65593
63677131335457,2,0,0.31161,3.8569,2.08891,1.23465,3.14465,0.35013,1.02965,4.66689
63677131335507,2,0,0.30732,3.83983,2.07424,1.2257,3.12572,0.34354,0.99792,4.66625
63677131335524,2,0,0.31827,3.84527,2.07128,1.21194,3.10594,0.34422,1.05427,4.66606
63677131335541,2,0,0.32396,3.83651,2.09921,1.21507,3.13764,0.38361,1.12044,4.60625
63677131335574,2,0,0.34925,3.829,2.0919,1.22501,3.15057,0.38896,1.1343,4.53858
63677131335607,2,0,0.33459,3.834,2.08213,1.21966,3.15639,0.39854,1.12507,4.51076
63677131335623,2,0,0.34302,3.81291,2.12326,1.21492,3.13787,0.39449,1.05932,4.46718
63677131335656,2,0,0.3412,3.81798,2.11431,1.23763,3.15856,0.39895,1.07713,4.44524
63677131335706,2,0,0.32397,3.7933,2.10929,1.19684,3.15398,0.38944,1.01784,4.44089
63677131335739,2,0,0.30354,3.7793,2.09515,1.19308,3.1484,0.37358,1.07913,4.45175
63677131335772,2,0,0.27616,3.77515,2.08314,1.19383,3.16397,0.38116,1.01487,4.52311
63677131335805,2,0,0.2708,3.77441,2.05868,1.19814,3.12249,0.36667,1.04781,4.53432
63677131335838,2,0,0.24939,3.78959,2.01096,1.1818,3.10466,0.36316,1.07194,4.52597
63677131335888,2,0,0.26659,3.77549,2.01115,1.20014,3.11448,0.33672,1.02354,4.53546
63677131335905,2,0,0.29582,3.83511,2.00972,1.20507,3.11121,0.34918,1.02864,4.5386
63677131335937,2,0,0.29412,3.84578,2.00986,1.21131,3.12671,0.34469,1.01006,4.55264
63677131335987,2,0,0.3052,3.84089,2.04124,1.21162,3.11414,0.34131,1.07267,4.58371
63677131336020,2,0,0.31818,3.84305,2.07349,1.236,3.17436,0.3665,1.12228,4.59773
63677131336054,2,0,0.30271,3.84832,2.11151,1.21864,3.13785,0.37462,1.13489,4.59001
63677131336086,2,0,0.29152,3.84863,2.09534,1.20521,3.12715,0.37961,1.16454,4.6044
63677131336120,2,0,0.30888,3.81128,2.09173,1.20692,3.10637,0.37342,1.07375,4.60613
63677131336153,2,0,0.30209,3.82125,2.09167,1.19931,3.08023,0.36676,1.09309,4.60558
63677131336187,2,0,0.30122,3.81559,2.09831,1.22524,3.10409,0.36296,1.05443,4.60009
63677131336203,2,0,0.30688,3.77791,2.10379,1.2081,3.09472,0.35084,0.95972,4.60395
63677131336236,2,0,0.30856,3.75852,2.07311,1.20027,3.05313,0.34122,0.97697,4.60021
63677131336286,2,0,0.35093,3.74767,2.02772,1.1931,3.07358,0.3357,0.91277,4.60608
63677131336319,2,0,0.34766,3.7508,2.06365,1.18657,3.06525,0.32455,0.95487,4.61175
63677131336336,2,0,0.33921,3.74844,2.01547,1.18031,3.0881,0.3229,0.92444,4.62316
63677131336369,2,0,0.33823,3.75474,1.98682,1.13859,3.06312,0.32929,0.96419,4.63756
63677131336401,2,0,0.32446,3.75752,1.97972,1.14625,3.07218,0.33604,0.93793,4.63775
63677131336434,2,0,0.31161,3.77329,1.99489,1.14906,3.0855,0.33264,0.94563,4.64517
63677131336468,2,0,0.27462,3.76456,1.98013,1.18953,3.10128,0.34475,0.97021,4.64316
63677131336484,2,0,0.26872,3.77409,2.0019,1.19677,3.12233,0.35631,0.99981,4.64951
63677131336501,2,0,0.27871,3.76388,1.95454,1.19396,3.10106,0.354,0.97017,4.64127
63677131336534,2,0,0.28061,3.76428,1.97198,1.1949,3.14652,0.3672,0.99715,4.63384
63677131336567,2,0,0.28316,3.76766,1.96705,1.2307,3.13398,0.37094,0.95864,4.62917
63677131336601,2,0,0.29704,3.77518,1.95849,1.23997,3.15557,0.3684,0.90451,4.61828
63677131336618,2,0,0.33051,3.79847,2.02639,1.23628,3.16209,0.36453,0.9025,4.60889
63677131336667,2,0,0.35239,3.79944,2.07032,1.22643,3.1795,0.36041,0.90898,4.60096
63677131336684,2,0,0.35838,3.80157,2.06956,1.20062,3.1357,0.34673,0.90342,4.60509
63677131336700,2,0,0.344,3.78151,2.08827,1.19362,3.14703,0.34655,0.92788,4.59071
63677131336733,2,0,0.33482,3.7836,2.07478,1.18072,3.1011,0.33668,0.92463,4.58685
63677131336766,2,0,0.35391,3.75504,2.09458,1.18307,3.12866,0.33627,0.96377,4.57343
63677131336783,2,0,0.33963,3.76778,2.12953,1.20327,3.14446,0.33609,0.99313,4.53065
63677131336815,2,0,0.33288,3.76413,2.1054,1.20518,3.1286,0.3404,0.98136,4.53063
63677131336866,2,0,0.34253,3.75695,2.03081,1.16932,3.11337,0.33388,0.98211,4.54039
63677131336899,2,0,0.35079,3.77287,2.04344,1.21293,3.15688,0.34648,0.99902,4.52112
63677131336932,2,0,0.35185,3.75861,2.0286,1.21854,3.15799,0.34991,0.99432,4.53302
63677131336965,2,0,0.33505,3.77541,2.02603,1.20988,3.13329,0.3499,0.96305,4.52538
63677131336982,2,0,0.3516,3.76785,2.05337,1.19789,3.11014,0.35209,0.95221,4.57618
63677131336999,2,0,0.32295,3.75685,2.02862,1.20361,3.12768,0.35109,0.9757,4.57241
63677131337048,2,0,0.32879,3.76137,2.06234,1.23114,3.11549,0.36045,0.95862,4.5678
63677131337065,2,0,0.30917,3.75515,2.03369,1.21424,3.09814,0.35866,0.9537,4.56886
63677131337098,2,0,0.30671,3.75305,2.0187,1.22158,3.0722,0.34941,0.9289,4.56441
63677131337114,2,0,0.30698,3.73015,2.00688,1.21793,3.0609,0.34866,0.9152,4.59522
63677131337147,2,0,0.30313,3.74159,2.05815,1.20324,3.0518,0.33993,0.95491,4.60808
63677131337164,2,0,0.28383,3.74783,2.01698,1.20981,3.06847,0.33753,0.95277,4.59615
63677131337197,2,0,0.31198,3.74417,2.02949,1.2027,3.04794,0.33435,0.96038,4.60325
63677131337247,2,0,0.32553,3.75984,2.02263,1.21702,3.04944,0.32661,0.98762,4.59535
63677131337280,2,0,0.33182,3.76557,2.01182,1.19194,3.0408,0.33251,0.97622,4.59594
63677131337313,2,0,0.33255,3.76081,2.03116,1.20055,3.04508,0.32773,0.97241,4.59621
63677131337346,2,0,0.33636,3.77527,1.99579,1.18581,3.02147,0.3263,0.96744,4.60138
63677131337363,2,0,0.33963,3.77411,1.9468,1.18426,3.04706,0.34041,0.95221,4.60381
63677131337396,2,0,0.35515,3.76365,1.97943,1.17108,3.03578,0.33723,0.94491,4.61373
63677131337445,2,0,0.34757,3.76508,2.00289,1.17561,3.05149,0.34568,0.9214,4.60629
63677131337478,2,0,0.35003,3.77007,2.04679,1.18368,3.07995,0.3491,0.9422,4.60042
63677131337512,2,0,0.3338,3.79807,2.03744,1.17099,3.07805,0.36003,0.93468,4.59599
63677131337544,2,0,0.33725,3.80181,2.02015,1.174,3.11653,0.36778,0.9198,4.55023
63677131337561,2,0,0.33163,3.79013,2.05929,1.16935,3.09309,0.34701,0.97702,4.53111
63677131337595,2,0,0.31361,3.79599,2.0591,1.19582,3.12078,0.35043,0.9953,4.48222
63677131337627,2,0,0.30827,3.77314,2.03947,1.18005,3.09127,0.36483,1.08585,4.47497
63677131337644,2,0,0.31922,3.74472,2.05697,1.1487,3.04513,0.35299,1.05753,4.44715
63677131337677,2,0,0.33276,3.75246,2.06075,1.17344,3.08768,0.37331,1.27075,4.40894
63677131337694,2,0,0.3312,3.74439,2.04684,1.19654,3.08991,0.37387,1.38549,4.4179
63677131337727,2,0,0.37553,3.71038,2.05166,1.19102,3.089,0.39341,1.40645,4.46141
63677131337761,2,0,0.37145,3.71555,2.05116,1.18697,3.08151,0.41333,1.32839,4.46631
63677131337778,2,0,0.38745,3.68522,1.99985,1.17932,3.05209,0.42341,1.44004,4.49107
63677131337826,2,0,0.38287,3.7179,1.99902,1.18108,3.0846,0.40627,1.40566,4.48579
63677131337843,2,0,0.36262,3.70736,1.97308,1.2065,3.12291,0.4205,1.48723,4.5369
63677131337860,2,0,0.3545,3.69685,1.98259,1.20779,3.11576,0.43419,1.34607,4.53111
63677131337925,2,0,0.38483,3.72016,1.98633,1.17457,3.08895,0.41734,1.36824,4.536
63677131337959,2,0,0.37857,3.75488,2.03212,1.18407,3.04003,0.39039,1.41107,4.51767
63677131337992,2,0,0.40998,3.76323,2.11372,1.17742,3.03687,0.37446,1.36525,4.53257
63677131338025,2,0,0.4428,3.76147,2.13022,1.20749,3.03193,0.39405,1.29305,4.51477
63677131338042,2,0,0.45023,3.79931,2.16366,1.17747,3.01449,0.38791,1.32723,4.49257
63677131338059,2,0,0.44315,3.79499,2.14121,1.16658,3.01759,0.36987,1.29574,4.4903
63677131338108,2,0,0.41034,3.78627,2.11393,1.18047,3.00953,0.36477,1.24129,4.48901
63677131338125,2,0,0.40784,3.77914,2.07378,1.16706,3.00508,0.36537,1.11228,4.50087
63677131338142,2,0,0.41227,3.75777,2.06018,1.17022,3.02071,0.36428,1.13066,4.49997
63677131338174,2,0,0.37625,3.77911,2.06015,1.15765,3.04626,0.36951,1.06867,4.51439
63677131338207,2,0,0.38072,3.77923,2.02735,1.15431,3.0622,0.36151,1.11835,4.53471
63677131338223,2,0,0.40972,3.75392,1.99432,1.1745,3.08309,0.3688,1.10529,4.53597
63677131338257,2,0,0.40333,3.74881,1.98389,1.17473,3.06048,0.36317,1.08357,4.553
63677131338274,2,0,0.42841,3.74969,2.06351,1.15593,3.05702,0.37346,1.08562,4.55385
63677131338306,2,0,0.44429,3.74831,2.17903,1.18238,3.07373,0.37224,1.1367,4.56064
63677131338340,2,0,0.44716,3.76297,2.15403,1.21336,3.07867,0.35925,1.09925,4.55992
63677131338357,2,0,0.44218,3.73993,2.1291,1.20846,3.08186,0.36546,1.09106,4.56213
63677131338407,2,0,0.46572,3.72475,2.11532,1.20933,3.0735,0.3671,1.10951,4.55828
63677131338423,2,0,0.46881,3.68334,2.08543,1.18206,3.03534,0.37101,1.07643,4.55543
63677131338440,2,0,0.47953,3.65784,2.1202,1.1742,2.99555,0.35591,1.01675,4.55079
63677131338473,2,0,0.49412,3.65922,2.14024,1.15916,2.99046,0.35221,1.06012,4.53868
63677131338506,2,0,0.5201,3.67028,2.15823,1.15851,2.98553,0.35532,0.98459,4.53006
63677131338523,2,0,0.51846,3.67518,2.19748,1.13514,2.99074,0.35059,1.01749,4.53919
63677131338555,2,0,0.51478,3.68546,2.23146,1.12433,3.00767,0.35347,1.10877,4.5361
63677131338589,2,0,0.51677,3.67461,2.22686,1.15181,2.98985,0.35856,1.10515,4.54175
63677131338622,2,0,0.50276,3.7076,2.28431,1.15603,3.00755,0.34294,1.15009,4.53984
63677131338638,2,0,0.45372,3.73001,2.27444,1.16824,3.03088,0.35288,1.13721,4.55467
63677131338688,2,0,0.46231,3.74427,2.26025,1.19598,3.07173,0.35572,1.19818,4.54613
63677131338705,2,0,0.48234,3.7417,2.20772,1.21203,3.06042,0.3586,1.13055,4.55244
63677131338721,2,0,0.45248,3.72554,2.11575,1.20607,3.05449,0.34789,1.04764,4.55596
63677131338754,2,0,0.438,3.741,2.11058,1.22108,3.05268,0.36819,1.02317,4.56085
63677131338787,2,0,0.42959,3.74627,2.16278,1.20884,3.05906,0.3528,1.05239,4.56508
63677131338803,2,0,0.44371,3.77073,2.15577,1.21602,3.04803,0.35432,1.07063,4.56197
63677131339135,2,0,0.46771,3.7552,2.05255,1.19561,3.01739,0.35633,1.06386,4.56392
63677131339168,2,0,0.43452,3.76044,2.0364,1.18312,3.01999,0.35481,1.08635,4.56099
63677131339185,2,0,0.44313,3.75329,2.03763,1.18403,3.01153,0.37001,1.14859,4.56725
63677131339218,2,0,0.42477,3.76225,2.04655,1.17447,2.97364,0.37375,1.14689,4.56309
63677131339235,2,0,0.42735,3.72765,2.04635,1.1573,2.96322,0.34821,1.13987,4.56939
63677131339268,2,0,0.39428,3.67614,2.03033,1.13639,2.97562,0.36953,1.07327,4.57483
63677131339285,2,0,0.39882,3.68383,2.07009,1.17079,3.01492,0.37232,1.0592,4.57514
63677131339317,2,0,0.40495,3.68673,2.09553,1.15081,2.99551,0.3673,1.08157,4.57914
63677131339366,2,0,0.40184,3.68159,2.24629,1.15126,2.97967,0.35307,1.05915,4.57679
63677131339400,2,0,0.42649,3.6857,2.25194,1.13999,2.97612,0.35642,1.04793,4.56996
63677131339417,2,0,0.42797,3.71835,2.18851,1.15199,2.96925,0.35351,1.0028,4.56705
63677131339466,2,0,0.46382,3.7756,2.25588,1.16063,2.95335,0.36098,0.97441,4.57717
63677131339500,2,0,0.44643,3.76065,2.24675,1.14464,2.94634,0.35419,0.96552,4.58308
63677131339533,2,0,0.43834,3.72199,2.2075,1.15199,2.9375,0.36177,0.93295,4.58814
63677131339567,2,0,0.45155,3.72396,2.12164,1.14867,2.93603,0.3502,0.93554,4.57903
63677131339583,2,0,0.47288,3.71443,2.10647,1.17534,2.98973,0.34992,0.99328,4.59333
63677131339599,2,0,0.49341,3.73423,2.19134,1.19507,3.00534,0.35454,0.95651,4.61223
63677131339633,2,0,0.4955,3.73204,2.22214,1.20715,2.98383,0.33708,0.92982,4.60496
63677131339665,2,0,0.50368,3.71334,2.17638,1.20079,2.9839,0.32963,0.96386,4.54556
63677131339682,2,0,0.48853,3.75904,2.23258,1.19012,2.95744,0.33032,0.95247,4.51483
63677131339698,2,0,0.51019,3.78912,2.23804,1.20243,2.96879,0.32653,1.00574,4.50317
63677131339732,2,0,0.50692,3.80181,2.33594,1.2427,2.99742,0.36507,1.02941,4.5049
63677131339765,2,0,0.46463,3.79086,2.31048,1.22032,2.97493,0.37077,0.96347,4.50155
63677131339781,2,0,0.44908,3.76858,2.20678,1.19923,2.96125,0.37859,1.03744,4.47883
63677131339814,2,0,0.44294,3.73871,2.14147,1.15531,2.94084,0.38763,1.04536,4.4904
63677131339848,2,0,0.43551,3.73542,2.14547,1.16705,2.94187,0.39623,0.98243,4.53663
63677131339864,2,0,0.44424,3.70801,2.05969,1.15486,2.93463,0.39197,0.95901,4.5594
63677131339881,2,0,0.42522,3.67476,2.15604,1.17509,2.93899,0.39911,0.94611,4.56508
63677131339914,2,0,0.39124,3.68963,2.06019,1.1634,2.94415,0.39565,0.97678,4.55465
63677131339947,2,0,0.37536,3.65749,1.94937,1.11829,2.91645,0.37397,0.99114,4.56613
63677131339963,2,0,0.39082,3.6802,2.00572,1.13233,2.93021,0.35508,1.0117,4.5692
63677131339997,2,0,0.40087,3.68106,2.11953,1.16079,2.95404,0.34175,1.03672,4.55764
63677131340014,2,0,0.39812,3.68143,2.11987,1.17297,2.95108,0.33202,1.07438,4.56071
63677131340047,2,0,0.40268,3.6345,2.2622,1.17628,2.95954,0.3319,1.11381,4.56018
63677131340063,2,0,0.39956,3.6554,2.23207,1.17257,2.97285,0.32417,1.12109,4.56822
63677131340096,2,0,0.42792,3.65531,2.26409,1.17555,2.9545,0.31311,1.10416,4.57577
63677131340146,2,0,0.44988,3.62257,2.31766,1.13054,2.912,0.32161,1.06534,4.58038
63677131340179,2,0,0.48054,3.60544,2.31461,1.11632,2.89349,0.31382,1.04092,4.58497
63677131340195,2,0,0.46746,3.64434,2.27522,1.13146,2.9185,0.3259,1.05427,4.59446
63677131340245,2,0,0.45906,3.66882,2.02693,1.10333,2.86433,0.32876,1.04384,4.59281
63677131340278,2,0,0.43167,3.66802,2.09248,1.08898,2.86902,0.32561,1.00373,4.58924
63677131340295,2,0,0.42045,3.67073,2.15015,1.11738,2.88178,0.33209,1.00245,4.58005
63677131340328,2,0,0.45779,3.67817,2.20754,1.14483,2.89594,0.33094,1.05593,4.5893
63677131340361,2,0,0.40549,3.72259,2.18221,1.14152,2.889,0.33202,1.02479,4.57525
63677131340378,2,0,0.37018,3.74069,2.25916,1.13133,2.88184,0.34904,1.00402,4.58629
63677131340427,2,0,0.39501,3.70498,2.31227,1.13248,2.89592,0.3466,0.95556,4.5909
63677131340461,2,0,0.39831,3.74195,2.3844,1.1969,2.93935,0.34192,1.00374,4.59166
63677131340477,2,0,0.4143,3.72041,2.34683,1.17898,2.93214,0.34387,0.98554,4.58107
63677131340527,2,0,0.37555,3.74817,2.26388,1.2079,2.94173,0.34935,0.97051,4.57802
63677131340560,2,0,0.40216,3.69953,2.17647,1.20819,2.95652,0.3387,1.02318,4.57353
63677131340593,2,0,0.40345,3.70737,2.13703,1.20247,2.9503,0.33994,1.03941,4.58483
63677131340627,2,0,0.38896,3.72166,2.08449,1.19025,2.93243,0.34566,0.98694,4.57543
63677131340642,2,0,0.3951,3.68984,2.10826,1.15523,2.91988,0.3366,1.03174,4.59428
63677131340659,2,0,0.40123,3.698,2.11003,1.14093,2.90934,0.34814,1.0312,4.58194
63677131340692,2,0,0.36794,3.71441,2.1317,1.15451,2.90796,0.33189,1.0143,4.60137
63677131340726,2,0,0.3736,3.68622,2.18184,1.13591,2.90145,0.33885,0.95312,4.60583
63677131340742,2,0,0.39415,3.70529,2.1278,1.14406,2.87952,0.32087,0.9652,4.60389
63677131340775,2,0,0.40279,3.67501,2.1178,1.14646,2.87255,0.32023,0.94738,4.60923
63677131340792,2,0,0.40257,3.72645,2.11403,1.19001,2.88606,0.32113,0.98862,4.60955
63677131340825,2,0,0.39745,3.69311,2.0083,1.16506,2.87287,0.3273,0.95488,4.61475
63677131340842,2,0,0.39369,3.67151,2.0476,1.17875,2.91708,0.33741,0.9169,4.61501
63677131340875,2,0,0.37984,3.6816,2.04022,1.17634,2.91232,0.34904,0.93379,4.61723
63677131340908,2,0,0.37448,3.68774,1.95996,1.15663,2.91464,0.36225,0.9345,4.62359
63677131340925,2,0,0.3765,3.69463,1.95766,1.14185,2.90791,0.35819,0.94533,4.62442
63677131340941,2,0,0.3442,3.69081,1.96136,1.1269,2.92433,0.37113,0.89968,4.61395
63677131340975,2,0,0.35757,3.67171,1.95624,1.08298,2.92609,0.36353,0.97092,4.54972
63677131341007,2,0,0.36715,3.70305,2.00207,1.12129,2.92502,0.37228,0.97961,4.55476
63677131341023,2,0,0.36912,3.70831,1.91385,1.12024,2.91997,0.35669,0.976,4.57383
63677131341057,2,0,0.38498,3.68634,1.92867,1.12118,2.92507,0.34768,0.97588,4.58517
63677131341073,2,0,0.39791,3.68654,1.99182,1.11887,2.9232,0.33732,1.0068,4.60307
63677131341106,2,0,0.3871,3.67946,2.03141,1.1613,2.93478,0.34144,0.99344,4.59876
63677131341123,2,0,0.39351,3.68898,2.13424,1.17319,2.93863,0.35352,1.00068,4.62185
63677131341156,2,0,0.3772,3.71164,2.15901,1.16686,2.92105,0.35166,0.9799,4.63387
63677131341206,2,0,0.39083,3.6921,2.24156,1.16373,2.94704,0.35944,0.95985,4.65894
63677131341239,2,0,0.39389,3.71112,2.25086,1.14532,2.93543,0.35617,0.95903,4.64534
63677131341256,2,0,0.39697,3.72146,2.24007,1.15592,2.93619,0.35814,0.95161,4.63555
63677131341306,2,0,0.425,3.71831,2.11626,1.13681,2.93563,0.33743,0.99504,4.62586
63677131341339,2,0,0.43888,3.69972,2.07504,1.17115,2.94603,0.34153,0.94121,4.63404
63677131341356,2,0,0.45007,3.70614,2.10792,1.15921,2.91684,0.32905,0.92574,4.63717
63677131341405,2,0,0.41904,3.69363,2.08874,1.14319,2.91068,0.32764,0.88796,4.62595
63677131341421,2,0,0.42364,3.6616,2.06068,1.15013,2.90906,0.34826,0.86443,4.62464
63677131341437,2,0,0.41379,3.62868,2.09431,1.15071,2.91121,0.33896,0.85249,4.61547
63677131341488,2,0,0.41125,3.64965,2.11451,1.16138,2.90887,0.35002,0.80848,4.62019
63677131341520,2,0,0.41361,3.67346,2.01987,1.17093,2.91308,0.35123,0.84697,4.61864
63677131341537,2,0,0.45736,3.65572,2.03153,1.16162,2.91047,0.34907,0.82332,4.62383
63677131341588,2,0,0.56941,3.65489,2.03903,1.1898,2.927,0.32993,0.83927,4.62628
63677131341603,2,0,0.58234,3.68075,2.04702,1.17178,2.91211,0.3266,0.83778,4.62871
63677131341620,2,0,0.57637,3.67547,2.09145,1.17771,2.92362,0.32327,0.82447,4.63603
63677131341654,2,0,0.62914,3.67318,2.11442,1.15621,2.92463,0.32193,0.85079,4.63927
63677131341686,2,0,0.67503,3.65595,2.17872,1.14107,2.90886,0.30877,0.89334,4.63774
63677131341704,2,0,0.64548,3.63076,2.20127,1.14042,2.90426,0.31226,0.86413,4.60558
63677131341720,2,0,0.60154,3.61944,2.18346,1.09293,2.89239,0.32425,0.86178,4.59789
63677131341753,2,0,0.56674,3.65896,2.20674,1.12142,2.88065,0.31249,0.89772,4.59509
63677131341785,2,0,0.57446,3.68132,2.17221,1.13718,2.89106,0.32046,0.8927,4.60253
63677131341802,2,0,0.47618,3.69952,2.04566,1.16658,2.90154,0.34979,0.94881,4.60154
63677131341835,2,0,0.43315,3.68371,1.94711,1.15593,2.88803,0.34919,0.89768,4.59056
63677131341852,2,0,0.38768,3.67014,1.90627,1.16129,2.8901,0.33359,0.93649,4.59925
63677131341885,2,0,0.39097,3.69395,1.88488,1.12736,2.86777,0.3394,0.97787,4.62421
63677131341902,2,0,0.38452,3.69636,1.91161,1.16327,2.88902,0.34831,0.95417,4.62926
63677131341935,2,0,0.36913,3.70352,1.81652,1.17861,2.88904,0.34841,0.92702,4.59847
63677131341969,2,0,0.39685,3.68395,1.78295,1.14887,2.88029,0.34889,0.90979,4.59528
63677131342002,2,0,0.39131,3.67309,1.85619,1.15576,2.88648,0.31646,0.87778,4.59349
63677131342035,2,0,0.42674,3.68633,1.86648,1.16531,2.909,0.324,0.90099,4.60099
63677131342067,2,0,0.44563,3.67731,1.91877,1.20113,2.92181,0.31654,0.85296,4.60489
63677131342083,2,0,0.42688,3.71206,1.94324,1.22234,2.93443,0.31264,0.89895,4.61223
63677131342117,2,0,0.43628,3.66683,1.95801,1.20586,2.93915,0.30953,0.9192,4.63145
63677131342167,2,0,0.43426,3.6411,2.00932,1.22235,2.95909,0.3125,0.95063,4.63913
63677131342184,2,0,0.43759,3.67654,2.01077,1.19896,2.91836,0.32445,1.03818,4.64617
63677131342216,2,0,0.40555,3.64936,1.98982,1.21272,2.92128,0.33197,1.06281,4.65615
63677131342266,2,0,0.39967,3.65062,1.93156,1.16579,2.89473,0.33577,1.11431,4.63713
63677131342283,2,0,0.40596,3.66024,1.91253,1.16055,2.89876,0.35264,1.08677,4.63245
63677131342300,2,0,0.40199,3.64193,1.88542,1.11298,2.85329,0.34572,1.06716,4.64667
63677131342332,2,0,0.36858,3.66598,1.84806,1.09713,2.80682,0.34254,1.08043,4.64274
63677131342365,2,0,0.38797,3.66896,1.87264,1.10151,2.8058,0.33641,1.02598,4.65205
63677131342399,2,0,0.38164,3.65456,1.86643,1.12975,2.82864,0.33282,0.99841,4.64591
63677131342448,2,0,0.37547,3.68197,1.91126,1.1462,2.83597,0.32842,0.93545,4.67141
63677131342466,2,0,0.35357,3.68589,1.92579,1.17003,2.84947,0.32278,0.89035,4.67436
63677131342499,2,0,0.3523,3.66967,1.93589,1.14729,2.82839,0.32647,0.8093,4.68263
63677131342549,2,0,0.34122,3.68974,1.96295,1.16456,2.82047,0.33302,0.81991,4.66308
63677131342564,2,0,0.34925,3.66915,1.93512,1.13893,2.81371,0.3211,0.8111,4.66718
63677131342581,2,0,0.34147,3.6525,1.91802,1.14174,2.81215,0.32851,0.78436,4.69018
63677131342614,2,0,0.35408,3.62818,1.886,1.11077,2.79232,0.33619,0.76463,4.6824
63677131342647,2,0,0.35497,3.60615,1.97371,1.12016,2.76313,0.33455,0.74231,4.6814
63677131342681,2,0,0.37892,3.63002,1.97135,1.14767,2.78418,0.3225,0.86184,4.67258
63677131342714,2,0,0.38416,3.62998,1.91012,1.12723,2.7936,0.31437,0.85097,4.67326
63677131342746,2,0,0.35745,3.62022,1.95314,1.1146,2.79192,0.32063,0.84328,4.66055
63677131342780,2,0,0.35062,3.62927,1.97775,1.14511,2.8105,0.32752,0.87858,4.67461
63677131342813,2,0,0.34656,3.68053,1.98354,1.16416,2.80438,0.32574,0.91677,4.67215
63677131342846,2,0,0.34646,3.71107,1.89854,1.14797,2.82264,0.31944,0.97271,4.65529
63677131342863,2,0,0.32224,3.69697,1.89432,1.13782,2.83597,0.33401,0.99487,4.66915
63677131342896,2,0,0.33065,3.66812,1.87109,1.1301,2.78773,0.31871,0.96302,4.6666
63677131342945,2,0,0.3195,3.69141,1.90464,1.16294,2.82362,0.32935,0.96534,4.67103
63677131342962,2,0,0.34197,3.69118,1.84617,1.15459,2.79572,0.32366,0.94207,4.66581
63677131342995,2,0,0.35114,3.68417,1.86887,1.15595,2.79897,0.32818,0.9059,4.65328
63677131343044,2,0,0.34554,3.63762,1.86337,1.15194,2.81205,0.32339,0.93987,4.65486
63677131343061,2,0,0.36657,3.64115,1.91612,1.17393,2.83027,0.31892,0.89103,4.65328
63677131343094,2,0,0.34991,3.65498,1.95467,1.16618,2.8302,0.31992,0.88796,4.66859
63677131343127,2,0,0.36293,3.63484,1.92856,1.16127,2.85169,0.31554,0.93289,4.67141
63677131343144,2,0,0.36831,3.62234,1.93028,1.15693,2.84857,0.32015,0.93388,4.67667
63677131343177,2,0,0.33733,3.63843,1.97654,1.17571,2.85358,0.3141,0.9158,4.70834
63677131343227,2,0,0.35516,3.67699,1.97051,1.15131,2.83537,0.31685,0.93181,4.70965
63677131343244,2,0,0.32339,3.663,1.9266,1.14135,2.82293,0.31435,0.9146,4.71454
63677131343278,2,0,0.30449,3.6686,1.89218,1.1404,2.8128,0.31758,0.89723,4.71973
63677131343294,2,0,0.32515,3.66173,1.87731,1.15809,2.84066,0.33534,0.91196,4.7171
63677131343326,2,0,0.32242,3.69815,1.8821,1.13658,2.78507,0.32317,0.90147,4.71781
63677131343359,2,0,0.32635,3.69755,1.88844,1.11443,2.78383,0.3108,0.89577,4.72077
63677131343392,2,0,0.32267,3.72377,1.87651,1.12978,2.78445,0.31792,0.90789,4.70273
63677131343426,2,0,0.32791,3.71376,1.84332,1.12569,2.80505,0.32128,0.88125,4.69601
63677131343459,2,0,0.32535,3.70063,1.86778,1.13704,2.79993,0.32276,0.88563,4.68949
63677131343493,2,0,0.32404,3.69785,1.84063,1.12816,2.81409,0.307,0.85557,4.68032
63677131343526,2,0,0.32764,3.69997,1.88231,1.16025,2.83562,0.32083,0.88662,4.6886
63677131343543,2,0,0.32694,3.6824,1.96691,1.16192,2.84728,0.32565,0.88893,4.67857
63677131343575,2,0,0.31607,3.69531,1.96381,1.17452,2.84524,0.33295,0.91476,4.6802
63677131343625,2,0,0.29066,3.67929,1.97325,1.19319,2.83066,0.32962,0.91835,4.68449
63677131343641,2,0,0.30185,3.66875,1.94681,1.16305,2.81554,0.32765,0.92254,4.67458
63677131343674,2,0,0.29407,3.68291,2.00142,1.16892,2.78945,0.3185,0.95395,4.68169
63677131343708,2,0,0.31657,3.68754,1.99064,1.17406,2.80202,0.33498,0.96573,4.67532
63677131343725,2,0,0.30201,3.68921,1.81123,1.15777,2.78913,0.32444,0.94737,4.67278
63677131343758,2,0,0.28906,3.69776,1.81149,1.16698,2.8078,0.32953,0.90577,4.67688
63677131343807,2,0,0.28122,3.69832,1.81194,1.166,2.82675,0.32511,0.9044,4.68807
63677131343823,2,0,0.29207,3.69146,1.87676,1.14513,2.81251,0.3246,0.92115,4.68358
63677131343856,2,0,0.29567,3.68817,1.92463,1.1575,2.80875,0.32351,0.93309,4.68821
63677131343873,2,0,0.279,3.68459,1.99546,1.1777,2.80331,0.32808,0.90394,4.68981
63677131343906,2,0,0.28184,3.69036,2.05685,1.14883,2.79663,0.3184,0.8504,4.68275
63677131343940,2,0,0.27028,3.68476,2.09232,1.15034,2.79798,0.31326,0.85506,4.69586
63677131344006,2,0,0.28482,3.65341,2.03474,1.12079,2.81508,0.31846,0.86364,4.68014
63677131344039,2,0,0.27002,3.67151,1.96359,1.11984,2.817,0.3179,0.83906,4.69028
63677131344073,2,0,0.25639,3.67662,1.94862,1.11837,2.81448,0.3122,0.81837,4.68962
63677131344106,2,0,0.26236,3.67974,1.93223,1.09865,2.81943,0.31325,0.81173,4.6949
63677131344122,2,0,0.25247,3.67075,1.86205,1.12461,2.8182,0.32239,0.84687,4.68713
63677131344138,2,0,0.261,3.67394,1.85884,1.1216,2.82375,0.32515,0.84339,4.68823
63677131344188,2,0,0.25575,3.67316,1.88267,1.11828,2.82626,0.32319,0.87239,4.68439
63677131344204,2,0,0.27684,3.69613,1.88472,1.13215,2.80772,0.32335,0.89019,4.68798
63677131344238,2,0,0.28833,3.67866,1.87487,1.13783,2.81715,0.31827,0.88268,4.68826
63677131344254,2,0,0.28475,3.66048,1.83237,1.12916,2.80496,0.3164,0.90326,4.68825
63677131344288,2,0,0.28342,3.66543,1.83127,1.11443,2.80284,0.30505,0.90973,4.6875
63677131344320,2,0,0.28294,3.68401,1.8529,1.12179,2.82956,0.31001,0.92155,4.68842
63677131344337,2,0,0.27581,3.68412,1.80392,1.11266,2.80416,0.31089,0.90115,4.68514
63677131344387,2,0,0.28012,3.70192,1.82538,1.12704,2.80483,0.31625,0.89791,4.68355
63677131344404,2,0,0.25204,3.70717,1.85039,1.12563,2.79981,0.29717,0.87507,4.68472
63677131344421,2,0,0.25601,3.70966,1.83077,1.11866,2.80082,0.30123,0.87456,4.68845
63677131344453,2,0,0.24509,3.7312,1.86603,1.12819,2.82548,0.32218,0.8488,4.68785
63677131344487,2,0,0.26432,3.69088,1.84005,1.12679,2.80675,0.32374,0.85754,4.68076
63677131344504,2,0,0.26903,3.64585,1.83643,1.1037,2.7708,0.31397,0.85271,4.69416
63677131344536,2,0,0.28,3.65738,1.86844,1.11462,2.77827,0.31312,0.88059,4.69134
63677131344586,2,0,0.29068,3.65697,1.81249,1.13462,2.80584,0.32751,0.91092,4.68869
63677131344619,2,0,0.28607,3.65594,1.79948,1.14973,2.82708,0.33853,0.87388,4.69088
63677131344652,2,0,0.31052,3.62999,1.78185,1.13979,2.818,0.33618,0.94689,4.68122
63677131344685,2,0,0.31125,3.64369,1.82614,1.14414,2.81424,0.32821,0.93702,4.67838
63677131344702,2,0,0.30319,3.67857,1.87794,1.16508,2.82672,0.33172,0.96981,4.66837
63677131344735,2,0,0.30705,3.67327,1.82052,1.16822,2.83713,0.32609,0.99287,4.67717
63677131344768,2,0,0.30487,3.65283,1.80067,1.14766,2.81492,0.31093,0.95438,4.66677
63677131344784,2,0,0.29308,3.62688,1.82975,1.13316,2.81616,0.31434,0.96373,4.6853
63677131344817,2,0,0.29835,3.62037,1.8662,1.13858,2.79938,0.29534,1.00742,4.69062
63677131344834,2,0,0.29075,3.66945,1.87284,1.14308,2.8075,0.30144,0.99366,4.7048
63677131344867,2,0,0.27892,3.64121,1.88932,1.14043,2.80213,0.30571,0.96745,4.69809
63677131344901,2,0,0.27939,3.66109,1.87796,1.13227,2.80851,0.30352,0.9653,4.70842
63677131344917,2,0,0.28832,3.64695,1.87167,1.1264,2.79188,0.30757,0.90424,4.70182
63677131344967,2,0,0.28482,3.6368,1.91862,1.11707,2.7752,0.30943,0.91929,4.703
63677131344983,2,0,0.28688,3.63697,1.98687,1.12659,2.7771,0.30623,0.92393,4.70449
63677131345000,2,0,0.27232,3.63553,1.97892,1.1182,2.76265,0.30858,0.87895,4.69471
63677131345033,2,0,0.24974,3.61087,1.9669,1.11551,2.75897,0.29602,0.84783,4.69992
63677131345066,2,0,0.25658,3.61907,2.00313,1.11053,2.75928,0.28745,0.88706,4.70644
63677131345083,2,0,0.2668,3.61211,2.03549,1.11563,2.77733,0.29035,0.89336,4.70787
63677131345165,2,0,0.26401,3.58289,1.94235,1.10551,2.76301,0.28874,0.94418,4.70417
63677131345198,2,0,0.26858,3.60764,1.88934,1.09749,2.76594,0.29259,0.96601,4.7017
63677131345249,2,0,0.30334,3.60435,1.80673,1.1095,2.75781,0.31486,1.00791,4.69365
63677131345282,2,0,0.29153,3.60854,1.79798,1.09719,2.75022,0.31031,1.03571,4.68372
63677131345315,2,0,0.28832,3.61914,1.83744,1.11712,2.78105,0.32071,1.01954,4.69252
63677131345348,2,0,0.2891,3.60814,1.90722,1.10579,2.77586,0.31004,0.99042,4.68384
