63677214503145,6,0,4.70651,3.88967,4.87867,4.29941,4.37603,4.73191,4.90285,4.8724
63677214503162,6,0,4.67925,3.90309,4.86918,4.29481,4.36451,4.71922,4.8942,4.87141
63677214503212,6,0,4.70559,3.8909,4.85229,4.29239,4.3576,4.73535,4.88005,4.89785
63677214503245,6,0,4.67009,3.9134,4.87195,4.29268,4.35766,4.70047,4.83797,4.87694
63677214503262,6,0,4.68621,3.90375,4.8616,4.28565,4.34324,4.70489,4.82486,4.87553
63677214503295,6,0,4.664,3.9235,4.87718,4.29633,4.35729,4.69486,4.81991,4.86348
63677214503329,6,0,4.66996,3.89278,4.88596,4.28394,4.33441,4.68201,4.82572,4.84275
63677214503345,6,0,4.68092,3.91545,4.89259,4.30773,4.36504,4.71038,4.85267,4.86176
63677214503361,6,0,4.72481,3.90552,4.88937,4.3175,4.371,4.72808,4.88544,4.8654
63677214503394,6,0,4.69105,3.8862,4.87051,4.28286,4.3357,4.69108,4.88191,4.84641
63677214503428,6,0,4.72931,3.8946,4.85939,4.30655,4.36977,4.72974,4.9048,4.86276
63677214503445,6,0,4.68438,3.88167,4.86866,4.26892,4.33568,4.69234,4.8744,4.85635
63677214503477,6,0,4.7102,3.89116,4.85227,4.29173,4.35857,4.70863,4.86597,4.86862
63677214503493,6,0,4.65946,3.89591,4.87113,4.26977,4.34058,4.68919,4.83156,4.8673
63677214503526,6,0,4.66467,3.88024,4.85353,4.28756,4.35361,4.68557,4.81989,4.85535
63677214503543,6,0,4.65011,3.89792,4.88187,4.28322,4.35601,4.69678,4.82674,4.85327
63677214503577,6,0,4.62139,3.87941,4.865,4.28933,4.35414,4.67662,4.83566,4.83251
63677214503593,6,0,4.61504,3.87184,4.87921,4.29961,4.36066,4.68977,4.86809,4.83639
63677214503626,6,0,4.66985,3.8852,4.89349,4.32613,4.38938,4.73293,4.90128,4.86523
63677214503660,6,0,4.65365,3.87271,4.86663,4.30729,4.36679,4.70872,4.89612,4.85016
63677214503676,6,0,4.69789,3.88551,4.86929,4.32969,4.38959,4.72949,4.91205,4.86712
63677214503726,6,0,4.66532,3.8779,4.86407,4.29992,4.3624,4.71778,4.89962,4.86081
63677214503743,6,0,4.67405,3.88211,4.86407,4.31979,4.38207,4.70532,4.86402,4.87173
63677214503759,6,0,4.67436,3.87443,4.86912,4.29745,4.36155,4.71418,4.84743,4.87819
63677214503793,6,0,4.66234,3.8883,4.86912,4.31985,4.38258,4.69164,4.82393,4.85105
63677214503826,6,0,4.67348,3.88425,4.88258,4.30416,4.36636,4.71023,4.83275,4.87292
63677214503842,6,0,4.67274,3.87567,4.90331,4.31428,4.37706,4.71479,4.86855,4.85654
63677214503875,6,0,4.66841,3.88425,4.88119,4.331,4.39682,4.72014,4.88665,4.85204
63677214503908,6,0,4.68477,3.88097,4.89562,4.32229,4.38548,4.71694,4.89439,4.85836
63677214503924,6,0,4.69428,3.89141,4.86487,4.3322,4.39928,4.74438,4.92205,4.8732
63677214503957,6,0,4.67293,3.89801,4.8766,4.31694,4.38314,4.71435,4.90711,4.85803
63677214504007,6,0,4.67618,3.89795,4.87165,4.30329,4.38061,4.70195,4.86814,4.86171
63677214504040,6,0,4.68549,3.88662,4.85417,4.29623,4.3715,4.71539,4.85082,4.88324
63677214504074,6,0,4.65239,3.90373,4.87293,4.30063,4.37838,4.69356,4.82507,4.86559
63677214504106,6,0,4.65884,3.90835,4.88214,4.3069,4.38431,4.70291,4.83721,4.85703
63677214504123,6,0,4.63673,3.8775,4.88907,4.2859,4.35513,4.6819,4.84336,4.8348
63677214504157,6,0,4.66378,3.89481,4.89035,4.31689,4.39332,4.71965,4.86961,4.8637
63677214504174,6,0,4.63227,3.86855,4.87919,4.28927,4.35521,4.68349,4.86956,4.841
63677214504206,6,0,4.67258,3.87911,4.87251,4.32056,4.38991,4.72757,4.90149,4.86625
63677214504239,6,0,4.63366,3.86366,4.87115,4.28424,4.35407,4.69121,4.88443,4.85507
63677214504255,6,0,4.67401,3.87001,4.8549,4.30602,4.37967,4.71712,4.88536,4.86924
63677214504305,6,0,4.63787,3.87275,4.87623,4.27643,4.35513,4.68964,4.84595,4.87061
63677214504323,6,0,4.64854,3.86046,4.85751,4.29688,4.37074,4.69324,4.83088,4.86878
63677214504355,6,0,4.63544,3.85215,4.86348,4.29514,4.36781,4.67743,4.82229,4.84516
63677214504372,6,0,4.67086,3.87487,4.89804,4.30136,4.38239,4.70767,4.84385,4.86252
63677214504406,6,0,4.63758,3.86271,4.87826,4.29883,4.36973,4.68247,4.84785,4.839
63677214504421,6,0,4.68804,3.87116,4.90211,4.32281,4.39424,4.7228,4.87528,4.8672
63677214504454,6,0,4.65635,3.85171,4.87223,4.30754,4.37336,4.69669,4.874,4.84939
63677214504487,6,0,4.6982,3.86339,4.87547,4.32956,4.39778,4.72669,4.90318,4.86792
63677214504521,6,0,4.67574,3.85333,4.86569,4.30099,4.37138,4.71191,4.89511,4.86025
63677214504538,6,0,4.69759,3.86701,4.86569,4.32037,4.39013,4.71038,4.87332,4.87386
63677214504588,6,0,4.66614,3.85689,4.87109,4.31954,4.38903,4.69527,4.82493,4.86182
63677214504621,6,0,4.63942,3.86334,4.87927,4.31977,4.39426,4.69772,4.83204,4.84094
63677214504653,6,0,4.65844,3.8645,4.90349,4.30907,4.38385,4.72105,4.85815,4.86424
63677214504687,6,0,4.66013,3.86912,4.88693,4.32672,4.40276,4.72171,4.87356,4.85387
63677214504704,6,0,4.65653,3.85943,4.90183,4.31812,4.39044,4.72386,4.88113,4.86085
63677214504736,6,0,4.66117,3.86777,4.87008,4.33056,4.40578,4.74489,4.90884,4.87295
63677214504786,6,0,4.67045,3.86511,4.85686,4.31412,4.39169,4.74668,4.91433,4.88366
63677214504819,6,0,4.65799,3.8631,4.87174,4.30157,4.38213,4.70593,4.87757,4.85914
63677214504852,6,0,4.68759,3.85754,4.85291,4.29646,4.37339,4.72015,4.86194,4.88684
63677214504885,6,0,4.65402,3.84751,4.86421,4.28665,4.36285,4.69283,4.82314,4.85605
63677214504902,6,0,4.66799,3.87274,4.87742,4.30188,4.38413,4.69844,4.83638,4.85462
63677214504919,6,0,4.65411,3.84455,4.88919,4.28276,4.35637,4.68259,4.84521,4.83226
63677214504968,6,0,4.68012,3.8691,4.87806,4.30923,4.39019,4.71497,4.86965,4.85537
63677214504985,6,0,4.65853,3.84172,4.88337,4.28315,4.35492,4.68181,4.87123,4.83064
63677214505002,6,0,4.69131,3.85693,4.86262,4.31493,4.39055,4.72816,4.90124,4.85807
63677214505035,6,0,4.61845,3.8349,4.8727,4.27836,4.35311,4.69167,4.89012,4.84309
63677214505085,6,0,4.65592,3.8409,4.85441,4.29983,4.37599,4.72214,4.89941,4.85993
63677214505101,6,0,4.62352,3.83608,4.87423,4.26614,4.35069,4.69067,4.86468,4.85927
63677214505134,6,0,4.6402,3.83158,4.85767,4.28285,4.35838,4.69913,4.84914,4.86385
63677214505166,6,0,4.61904,3.82422,4.87631,4.27354,4.35172,4.68084,4.82025,4.84415
63677214505183,6,0,4.63327,3.85171,4.89078,4.28325,4.37332,4.70185,4.8375,4.85408
63677214505200,6,0,4.6117,3.82859,4.89394,4.27141,4.3466,4.67628,4.84502,4.83075
63677214505233,6,0,4.68482,3.86098,4.89701,4.30183,4.38754,4.71615,4.87284,4.85746
63677214505266,6,0,4.64312,3.83523,4.8845,4.2754,4.35057,4.68051,4.8733,4.83527
63677214505283,6,0,4.68297,3.85253,4.87907,4.31346,4.39234,4.72543,4.90381,4.8598
63677214505316,6,0,4.67426,3.83761,4.87297,4.27258,4.3525,4.68929,4.88838,4.84957
63677214505366,6,0,4.68974,3.84848,4.87294,4.26946,4.3565,4.68918,4.84942,4.8674
63677214505399,6,0,4.69209,3.84565,4.85326,4.29679,4.37598,4.69293,4.83407,4.86837
63677214505432,6,0,4.67745,3.84247,4.8618,4.29591,4.37472,4.6823,4.81599,4.84669
63677214505465,6,0,4.73065,3.86832,4.89504,4.29917,4.3848,4.71576,4.83763,4.86297
63677214505482,6,0,4.71277,3.85214,4.87378,4.30125,4.37693,4.69188,4.84155,4.83891
63677214505515,6,0,4.71626,3.85922,4.89999,4.32007,4.39932,4.73366,4.87484,4.86642
63677214505548,6,0,4.67792,3.8412,4.87233,4.30905,4.38159,4.7084,4.86466,4.8523
63677214505581,6,0,4.68432,3.85486,4.88089,4.32828,4.40333,4.73926,4.91301,4.86786
63677214505597,6,0,4.67811,3.8363,4.87032,4.30354,4.38183,4.73033,4.9047,4.87858
63677214505648,6,0,4.66321,3.83471,4.87431,4.29478,4.37558,4.72855,4.88159,4.89343
63677214505680,6,0,4.6167,3.84689,4.87431,4.31368,4.39391,4.70575,4.84288,4.88461
63677214505714,6,0,4.60192,3.85313,4.88102,4.31113,4.39611,4.70036,4.83551,4.85829
63677214505747,6,0,4.60018,3.82842,4.90292,4.29374,4.37673,4.70877,4.86768,4.8581
63677214505764,6,0,4.62006,3.84977,4.88232,4.31522,4.39682,4.71198,4.86608,4.85674
63677214505780,6,0,4.60319,3.82265,4.89682,4.2959,4.37557,4.69655,4.87474,4.83846
63677214505813,6,0,4.63125,3.83837,4.86806,4.31674,4.39596,4.72275,4.89067,4.85794
63677214505846,6,0,4.61305,3.81799,4.87648,4.28988,4.37208,4.69429,4.88233,4.84138
63677214505863,6,0,4.63992,3.81972,4.85773,4.29899,4.38189,4.71969,4.89959,4.85629
63677214505896,6,0,4.61729,3.82441,4.87661,4.27826,4.36809,4.68936,4.86598,4.85498
63677214505912,6,0,4.6335,3.80782,4.85773,4.28363,4.36588,4.69829,4.85399,4.8641
63677214505946,6,0,4.61621,3.78834,4.87469,4.27645,4.35991,4.68156,4.82612,4.847
63677214505978,6,0,4.6551,3.81795,4.89077,4.29339,4.38464,4.70346,4.84192,4.85552
63677214505995,6,0,4.62301,3.77864,4.89249,4.27244,4.35671,4.6789,4.84954,4.83276
63677214506045,6,0,4.66828,3.8191,4.89742,4.31136,4.39896,4.72011,4.87597,4.86103
63677214506062,6,0,4.62795,3.78869,4.88198,4.27938,4.36149,4.68315,4.87634,4.83852
63677214506095,6,0,4.68422,3.81175,4.8766,4.32047,4.40306,4.7279,4.90625,4.86401
63677214506128,6,0,4.6623,3.80221,4.87168,4.27781,4.36025,4.69075,4.8898,4.85321
63677214506144,6,0,4.70469,3.82337,4.85629,4.30815,4.39139,4.71575,4.88992,4.86969
63677214506161,6,0,4.68649,3.82709,4.87501,4.27287,4.36111,4.68934,4.84949,4.86924
63677214506194,6,0,4.67018,3.83271,4.85824,4.29963,4.37891,4.69254,4.83333,4.86743
63677214506227,6,0,4.65929,3.83941,4.86647,4.29556,4.37039,4.68001,4.81397,4.84357
63677214506260,6,0,4.69084,3.85855,4.90067,4.29861,4.37687,4.712,4.83505,4.85751
63677214506277,6,0,4.65744,3.84584,4.88192,4.30137,4.36802,4.6898,4.84251,4.83363
63677214506327,6,0,4.65938,3.83773,4.88306,4.30978,4.36918,4.70936,4.87325,4.84522
63677214506360,6,0,4.68917,3.84215,4.88902,4.33021,4.38916,4.74277,4.92121,4.86306
63677214506394,6,0,4.67709,3.83041,4.87116,4.30509,4.36576,4.73071,4.91063,4.87193
63677214506426,6,0,4.68292,3.8358,4.87116,4.31992,4.38257,4.73255,4.91207,4.88197
63677214506442,6,0,4.67971,3.82243,4.87501,4.29464,4.35873,4.73148,4.89553,4.89423
63677214506475,6,0,4.6635,3.81549,4.88412,4.2882,4.35252,4.71523,4.83892,4.89315
63677214506492,6,0,4.64331,3.8335,4.88412,4.30608,4.37108,4.69482,4.81698,4.86758
63677214506525,6,0,4.6363,3.81595,4.89951,4.28603,4.3545,4.706,4.83806,4.87118
63677214506559,6,0,4.63143,3.84188,4.8924,4.30457,4.37249,4.70148,4.83806,4.85932
63677214506592,6,0,4.63046,3.81847,4.90733,4.29018,4.35498,4.69705,4.85664,4.84548
63677214506625,6,0,4.64055,3.83807,4.87963,4.3108,4.37604,4.71608,4.87064,4.86185
63677214506642,6,0,4.61114,3.82078,4.88521,4.28911,4.35592,4.69189,4.87031,4.84218
63677214506658,6,0,4.63976,3.82896,4.85997,4.30305,4.37002,4.72387,4.903,4.8637
63677214506692,6,0,4.61896,3.82497,4.87055,4.2788,4.35104,4.6945,4.8858,4.85608
63677214506725,6,0,4.61579,3.82545,4.85561,4.28543,4.35517,4.71195,4.88284,4.87115
63677214506741,6,0,4.60679,3.81498,4.8626,4.27307,4.3419,4.68656,4.82522,4.86699
63677214506775,6,0,4.61086,3.84215,4.88313,4.27604,4.35396,4.68682,4.81326,4.86502
63677214506808,6,0,4.5983,3.81342,4.88709,4.26466,4.33349,4.67108,4.81446,4.84167
63677214506840,6,0,4.632,3.84412,4.89945,4.28997,4.36445,4.7009,4.83816,4.8561
63677214506873,6,0,4.60071,3.81231,4.89671,4.2674,4.33365,4.67149,4.84224,4.83136
63677214506906,6,0,4.63834,3.84297,4.89859,4.30482,4.37672,4.71404,4.86812,4.85821
63677214506923,6,0,4.61748,3.81426,4.87617,4.26862,4.33766,4.67651,4.86845,4.84102
63677214506939,6,0,4.66164,3.83231,4.86967,4.30642,4.3789,4.71926,4.90145,4.86175
63677214506972,6,0,4.63721,3.82096,4.86812,4.26377,4.34309,4.68582,4.882,4.85559
63677214507006,6,0,4.65965,3.82363,4.85172,4.29307,4.37121,4.70649,4.87771,4.87061
63677214507022,6,0,4.6473,3.82088,4.85417,4.28787,4.36599,4.68723,4.82524,4.86438
63677214507056,6,0,4.64727,3.83663,4.88214,4.27877,4.36374,4.69996,4.82487,4.86279
63677214507106,6,0,4.68095,3.84025,4.90492,4.29716,4.38146,4.71947,4.85455,4.85961
63677214507139,6,0,4.66943,3.82227,4.88092,4.2972,4.36961,4.6952,4.85655,4.83629
63677214507188,6,0,4.68494,3.8189,4.87768,4.30194,4.37241,4.71702,4.88655,4.85757
63677214507221,6,0,4.70158,3.83185,4.88032,4.32049,4.39219,4.73963,4.9254,4.86877
63677214507255,6,0,4.69703,3.81395,4.87321,4.29331,4.37097,4.73415,4.91608,4.88122
63677214507272,6,0,4.70768,3.83038,4.87321,4.30543,4.38648,4.72199,4.8934,4.88596
63677214507305,6,0,4.68195,3.83291,4.87819,4.29816,4.37869,4.70319,4.83803,4.87922
63677214507337,6,0,4.66723,3.81018,4.89044,4.27589,4.35771,4.713,4.84048,4.87892
63677214507354,6,0,4.6365,3.83476,4.8883,4.29121,4.37544,4.69821,4.83462,4.85234
63677214507387,6,0,4.64287,3.81364,4.90694,4.27718,4.35814,4.70322,4.86187,4.84446
63677214507404,6,0,4.64418,3.83563,4.88782,4.29455,4.3761,4.71046,4.86331,4.84918
63677214507436,6,0,4.63819,3.81202,4.89969,4.27885,4.3549,4.69283,4.86885,4.82939
63677214507487,6,0,4.61878,3.81639,4.87671,4.27217,4.35163,4.69414,4.88354,4.83861
63677214507520,6,0,4.64596,3.8182,4.85773,4.27713,4.35714,4.71832,4.89874,4.85522
63677214507553,6,0,4.63515,3.82439,4.87447,4.2607,4.34686,4.68944,4.86852,4.85383
63677214507585,6,0,4.62535,3.82801,4.88028,4.26249,4.34873,4.68916,4.83077,4.864
63677214507602,6,0,4.62471,3.80803,4.87686,4.2534,4.33526,4.68097,4.82506,4.84728
63677214507635,6,0,4.62639,3.83444,4.89337,4.27015,4.35847,4.70107,4.84037,4.85616
63677214507652,6,0,4.60457,3.79788,4.89587,4.25024,4.33143,4.67676,4.84717,4.83193
63677214507685,6,0,4.65239,3.82272,4.90372,4.28533,4.37038,4.71616,4.87252,4.8554
63677214507718,6,0,4.60939,3.79717,4.88819,4.25567,4.33696,4.68171,4.87425,4.8317
63677214507735,6,0,4.64751,3.80829,4.88485,4.29564,4.37716,4.72683,4.90301,4.85769
63677214507784,6,0,4.60323,3.79746,4.87315,4.25512,4.34094,4.69094,4.89323,4.84597
63677214507801,6,0,4.63471,3.79973,4.86184,4.28593,4.37156,4.71776,4.89742,4.86357
63677214507834,6,0,4.60708,3.79821,4.87375,4.24843,4.34411,4.6901,4.86343,4.86232
63677214507868,6,0,4.606,3.81574,4.87975,4.25869,4.35526,4.69352,4.8262,4.86523
63677214507884,6,0,4.59185,3.79927,4.85939,4.27469,4.36198,4.68252,4.82138,4.8452
63677214507917,6,0,4.59973,3.82242,4.89391,4.27466,4.37153,4.70908,4.83926,4.85542
63677214507967,6,0,4.57957,3.80722,4.87845,4.27916,4.36435,4.68694,4.84696,4.82998
63677214507983,6,0,4.61411,3.80395,4.88074,4.28803,4.3713,4.70526,4.87288,4.83448
63677214508000,6,0,4.65004,3.81497,4.89139,4.31123,4.39576,4.74153,4.9154,4.85454
63677214508032,6,0,4.65615,3.79988,4.8743,4.28892,4.37408,4.72903,4.90723,4.85969
63677214508066,6,0,4.67506,3.80753,4.87513,4.30574,4.39145,4.73411,4.91516,4.86767
