63675479827430,5,0,0.15101,0.19386,0.29072,0.07123,0.10407,0.02673,4.20008,0.14949
63675479827481,5,0,0.13209,0.19049,0.31829,0.07252,0.10479,0.02375,4.19922,0.14694
63675479827531,4,0,0.13375,0.19635,0.3268,0.07914,0.10448,0.02406,4.20068,0.15393
63675479827564,4,0,0.12715,0.19361,0.32206,0.07377,0.10395,0.02503,4.20264,0.14473
63675479827597,4,0,0.10616,0.19379,0.32184,0.07287,0.10201,0.0246,4.18026,0.13272
63675479827614,4,0,0.11312,0.19242,0.30557,0.08347,0.10675,0.02498,4.18711,0.13234
63675479827630,4,0,0.1059,0.18503,0.30263,0.11828,0.10885,0.02716,4.16805,0.12838
63675479827663,5,0,0.10734,0.19203,0.27323,0.13842,0.107,0.02935,4.16943,0.11914
63675479827697,5,0,0.10942,0.19472,0.27292,0.13961,0.10821,0.02802,4.17036,0.12867
63675479827713,5,0,0.10333,0.1996,0.28382,0.16388,0.10498,0.0293,4.16521,0.1289
63675479827746,5,0,0.10364,0.20978,0.29546,0.18131,0.10894,0.02878,4.16375,0.13575
63675479827762,5,0,0.09904,0.21572,0.29736,0.17453,0.10608,0.0303,4.16108,0.13827
63675479827795,5,0,0.10176,0.2161,0.30273,0.17579,0.10385,0.03073,4.16079,0.14012
63675479827812,5,0,0.09928,0.21046,0.30835,0.16741,0.10686,0.02949,4.15734,0.14016
63675479827846,5,0,0.09929,0.20726,0.32927,0.18146,0.1054,0.02888,4.15641,0.1414
63675479827862,5,0,0.10179,0.21312,0.33884,0.1836,0.11416,0.02895,4.15931,0.14121
63675479827895,5,0,0.10232,0.20569,0.32931,0.19042,0.11137,0.03098,4.15973,0.13537
63675479827929,5,0,0.10648,0.21519,0.3494,0.18459,0.11711,0.02887,4.16555,0.14001
63675479827945,5,0,0.11283,0.20487,0.33463,0.21532,0.11642,0.02994,4.17094,0.13942
63675479827995,5,0,0.11742,0.21405,0.34036,0.22433,0.11552,0.03143,4.17183,0.1431
63675479828028,5,0,0.11776,0.22613,0.32898,0.23987,0.12509,0.03298,4.1759,0.15195
63675479828043,5,0,0.12,0.2184,0.33717,0.24921,0.12896,0.03142,4.17625,0.14947
63675479828093,5,0,0.11719,0.22139,0.34309,0.25785,0.13473,0.03154,4.17992,0.15672
63675479828110,5,0,0.11297,0.21591,0.3165,0.26082,0.13826,0.03202,4.18356,0.1475
63675479828127,5,0,0.10759,0.21018,0.31198,0.25295,0.14411,0.03084,4.18626,0.1482
63675479828177,5,0,0.11381,0.21486,0.30914,0.23888,0.14081,0.03207,4.18762,0.14818
63675479828193,5,0,0.11066,0.23092,0.3297,0.25351,0.14278,0.03308,4.19388,0.14266
63675479828226,5,0,0.11087,0.2283,0.32486,0.25129,0.13352,0.03201,4.19198,0.13236
63675479828243,5,0,0.11519,0.21846,0.33286,0.24874,0.12674,0.03506,4.1932,0.13538
63675479828276,5,0,0.12585,0.22486,0.34444,0.27575,0.12787,0.03499,4.18851,0.12618
63675479828310,5,0,0.13447,0.21287,0.36522,0.27529,0.12619,0.03513,4.18643,0.13864
63675479828326,5,0,0.14568,0.21753,0.38687,0.28788,0.12876,0.03566,4.1833,0.13995
63675479828376,5,0,0.14748,0.22567,0.41585,0.28853,0.12369,0.03797,4.17781,0.14447
63675479828392,5,0,0.15201,0.21341,0.43841,0.30627,0.12692,0.03615,4.17963,0.14953
63675479828408,5,0,0.15408,0.20371,0.43277,0.31941,0.13026,0.03881,4.17446,0.14391
63675479828442,5,0,0.14888,0.21078,0.42595,0.32835,0.12919,0.03769,4.17525,0.14819
63675479828475,5,0,0.14094,0.20893,0.43961,0.31793,0.12818,0.03876,4.17964,0.14543
63675479828508,5,0,0.14422,0.21816,0.42453,0.31814,0.12649,0.04058,4.17632,0.14258
63675479828524,5,0,0.14908,0.21727,0.41411,0.31924,0.12479,0.04002,4.17851,0.15028
63675479828574,5,0,0.1563,0.22481,0.39326,0.30502,0.12418,0.03698,4.1806,0.14635
63675479828608,5,0,0.15861,0.22594,0.39054,0.32006,0.13288,0.03651,4.18319,0.16052
63675479828640,5,0,0.1703,0.22513,0.38593,0.30752,0.13567,0.03639,4.18391,0.17213
63675479828673,5,0,0.16972,0.23914,0.39695,0.31544,0.13585,0.03873,4.18282,0.17201
63675479828690,5,0,0.17356,0.23466,0.39737,0.31341,0.13764,0.03671,4.18417,0.17463
63675479828723,5,0,0.1686,0.23251,0.40184,0.30541,0.13899,0.03725,4.18352,0.16319
63675479828756,5,0,0.16103,0.23832,0.40708,0.29868,0.14711,0.03929,4.1861,0.16378
63675479828773,5,0,0.15952,0.24439,0.38068,0.31862,0.15389,0.03804,4.18402,0.16413
63675479828806,5,0,0.17181,0.25454,0.38141,0.31732,0.14616,0.0372,4.18003,0.16751
63675479828823,5,0,0.16361,0.2643,0.39007,0.31156,0.14803,0.03749,4.1827,0.1754
63675479828856,5,0,0.17286,0.25885,0.41435,0.30581,0.15558,0.03597,4.17495,0.17881
63675479828889,5,0,0.16994,0.26545,0.43105,0.32547,0.15258,0.03757,4.17172,0.17897
63675479828906,5,0,0.17455,0.30046,0.44814,0.31453,0.14461,0.03881,4.1637,0.19091
63675479828955,5,0,0.1849,0.32018,0.47846,0.34409,0.13606,0.03992,4.15802,0.21274
63675479828971,5,0,0.19442,0.34437,0.48952,0.32576,0.12781,0.04335,4.16505,0.22524
63675479828988,5,0,0.19082,0.36676,0.56043,0.3182,0.1326,0.04671,4.16031,0.22422
63675479829021,5,0,0.22345,0.40082,0.64652,0.3368,0.13095,0.04789,4.16444,0.22406
63675479829054,5,0,0.22067,0.45866,0.69952,0.36408,0.13019,0.05241,4.17143,0.2256
63675479829071,5,0,0.23178,0.50299,0.74299,0.40608,0.1519,0.05484,4.17918,0.23035
63675479829105,5,0,0.24944,0.51019,0.77577,0.45224,0.16854,0.05426,4.17893,0.24511
63675479829154,5,0,0.27476,0.58302,0.88746,0.50072,0.20146,0.05455,4.1766,0.25764
63675479829187,5,0,0.27556,0.56178,0.89948,0.54927,0.21807,0.05331,4.17661,0.25497
63675479829220,5,0,0.23084,0.53474,0.75784,0.51385,0.21927,0.04874,4.17426,0.24106
63675479829253,5,0,0.23273,0.4961,0.68008,0.49211,0.21631,0.04441,4.16719,0.24236
63675479829269,4,0,0.22359,0.47053,0.6206,0.44415,0.19612,0.04344,4.16995,0.24473
63675479829303,4,0,0.20993,0.43717,0.58101,0.41816,0.19896,0.04414,4.1709,0.21773
63675479829336,4,0,0.19578,0.41012,0.52208,0.38238,0.18184,0.04525,4.17428,0.2122
63675479829353,4,0,0.18338,0.37056,0.46202,0.36668,0.17102,0.04517,4.17445,0.1895
63675479829386,4,0,0.16965,0.35667,0.44092,0.33143,0.16265,0.04451,4.17712,0.1811
63675479829402,4,0,0.17976,0.35352,0.43995,0.37934,0.16401,0.0454,4.1823,0.18503
63675479829436,4,0,0.18365,0.35686,0.45491,0.42598,0.17293,0.04608,4.18358,0.18553
63675479829469,4,0,0.19815,0.3706,0.53798,0.47603,0.17338,0.04623,4.18309,0.19163
63675479829485,4,0,0.19222,0.393,0.52639,0.47964,0.16438,0.04636,4.17968,0.20872
63675479829535,4,0,0.19163,0.39973,0.56999,0.47879,0.16666,0.04506,4.18781,0.22175
63675479829551,5,0,0.18525,0.42229,0.65001,0.51598,0.19339,0.04843,4.18175,0.22286
63675479829568,5,0,0.22675,0.49987,0.70521,0.56177,0.19829,0.05005,4.18975,0.22907
63675479829601,5,0,0.22119,0.5189,0.70925,0.53039,0.20184,0.05073,4.18947,0.2302
63675479829634,5,0,0.23418,0.58025,0.81169,0.53655,0.19961,0.05415,4.18973,0.23653
63675479829651,5,0,0.23714,0.61276,0.80853,0.55379,0.19916,0.05198,4.18677,0.24397
63675479829685,5,0,0.2291,0.58614,0.81103,0.5355,0.2169,0.0509,4.19019,0.2333
63675479829734,5,0,0.24797,0.62316,0.79676,0.5691,0.22739,0.05686,4.18149,0.22596
63675479829766,5,0,0.22067,0.59664,0.80854,0.54382,0.22653,0.0602,4.17669,0.22697
63675479829800,5,0,0.2212,0.56806,0.8115,0.56413,0.23081,0.06241,4.16651,0.22148
63675479829833,5,0,0.23521,0.54583,0.77904,0.56885,0.2327,0.06146,4.17057,0.22185
63675479829850,5,0,0.23168,0.51273,0.75513,0.56427,0.2356,0.06541,4.1591,0.22046
63675479829883,5,0,0.2545,0.50342,0.8282,0.56894,0.22847,0.0662,4.15683,0.22999
63675479829916,5,0,0.24703,0.47423,0.81634,0.58951,0.21052,0.05857,4.15144,0.22409
63675479829933,5,0,0.25876,0.5023,0.82708,0.60157,0.21435,0.05671,4.15538,0.22293
63675479829966,5,0,0.28142,0.54057,0.84054,0.55998,0.21528,0.05933,4.15542,0.24371
63675479829983,5,0,0.28961,0.52227,0.82368,0.6095,0.21892,0.0618,4.15252,0.25697
63675479830016,5,0,0.27275,0.53061,0.7921,0.60208,0.231,0.06688,4.15348,0.25554
63675479830049,4,0,0.28169,0.58993,0.86152,0.60869,0.24707,0.06966,4.16018,0.2473
63675479830066,4,0,0.29527,0.65,0.83701,0.66189,0.2684,0.07048,4.16305,0.25136
63675479830114,4,0,0.29605,0.70902,0.90731,0.64376,0.26766,0.07479,4.16346,0.28902
63675479830131,4,0,0.31017,0.68906,0.98591,0.63921,0.26943,0.07516,4.15763,0.29687
63675479830180,4,0,0.29345,0.73325,1.04487,0.66021,0.27001,0.07467,4.15804,0.28994
63675479830214,4,0,0.3065,0.73542,1.10175,0.66877,0.25825,0.07284,4.15939,0.29189
63675479830231,4,0,0.31234,0.71668,1.16175,0.69407,0.24966,0.06503,4.15733,0.33112
63675479830264,4,0,0.29013,0.71596,1.17552,0.66625,0.23431,0.07058,4.14124,0.3514
63675479830314,4,0,0.30572,0.75274,1.15591,0.68733,0.25344,0.07104,4.14248,0.33442
63675479830331,4,0,0.29081,0.73265,1.05667,0.74746,0.26059,0.07563,4.1349,0.33222
63675479830347,4,0,0.29705,0.65617,1.03065,0.77622,0.27636,0.07272,4.13339,0.31305
63675479830397,4,0,0.29943,0.66005,1.0424,0.79499,0.26963,0.07254,4.12016,0.32283
63675479830414,4,0,0.28991,0.72805,1.0229,0.76063,0.26177,0.07297,4.12503,0.33636
63675479830430,4,0,0.29527,0.78054,1.13285,0.75295,0.29129,0.08348,4.13121,0.32723
63675479830463,4,0,0.29625,0.81305,1.13611,0.72329,0.2611,0.08377,4.1415,0.31289
63675479830496,4,0,0.32342,0.80335,1.15215,0.77939,0.2548,0.08821,4.14782,0.28697
63675479830513,4,0,0.32616,0.83589,1.17533,0.75532,0.24877,0.08677,4.1438,0.29558
63675479830546,4,0,0.32442,0.8639,1.29632,0.71491,0.24126,0.08673,4.1504,0.32958
63675479830563,4,0,0.35458,0.88441,1.2755,0.69871,0.25453,0.08906,4.16204,0.32631
63675479830596,4,0,0.37357,0.8561,1.3196,0.69478,0.2566,0.08931,4.1709,0.30165
63675479830629,4,0,0.35189,0.80376,1.15374,0.70605,0.23311,0.08138,4.15969,0.29412
63675479830663,4,0,0.37164,0.77421,1.16227,0.66965,0.24009,0.0801,4.16163,0.3117
63675479830695,4,0,0.35134,0.73106,1.09082,0.63164,0.21567,0.0708,4.16125,0.30949
63675479830712,4,0,0.33009,0.7095,1.05551,0.61979,0.21972,0.07222,4.1653,0.29705
63675479830745,4,0,0.33429,0.67004,0.93751,0.66447,0.21689,0.07708,4.17909,0.26206
63675479830762,4,0,0.3166,0.67933,0.91996,0.63533,0.20773,0.07364,4.17425,0.28845
63675479830795,5,0,0.30793,0.68757,0.88877,0.65026,0.21399,0.0767,4.17424,0.30285
63675479830828,5,0,0.31506,0.6823,0.94501,0.66433,0.21704,0.07588,4.17672,0.29634
63675479830844,5,0,0.31652,0.71017,0.88326,0.72322,0.22133,0.08161,4.18619,0.2933
63675479830893,5,0,0.31819,0.72274,0.89592,0.72543,0.23533,0.08352,4.19388,0.28511
63675479830910,5,0,0.33384,0.71514,0.9237,0.71587,0.23493,0.08054,4.20051,0.29606
63675479830926,5,0,0.3203,0.70058,0.97313,0.67198,0.23339,0.07526,4.19743,0.28132
63675479830960,5,0,0.32446,0.72394,1.0695,0.64047,0.22903,0.0735,4.19191,0.30321
63675479830994,5,0,0.31165,0.72453,1.1075,0.72337,0.2379,0.07039,4.18215,0.27883
63675479831010,5,0,0.32566,0.7451,1.12904,0.71884,0.24643,0.06928,4.17464,0.29662
63675479831043,4,0,0.33588,0.76023,1.2028,0.71621,0.25445,0.06823,4.16825,0.27347
63675479831076,4,0,0.32518,0.75839,1.22541,0.65258,0.23327,0.06957,4.16197,0.27422
63675479831092,4,0,0.32581,0.77908,1.23265,0.68047,0.23866,0.07338,4.15723,0.27929
63675479831126,4,0,0.3609,0.86759,1.35573,0.7268,0.2428,0.08007,4.1532,0.30543
63675479831142,5,0,0.36595,0.88282,1.26959,0.69621,0.24075,0.08616,4.14733,0.29187
63675479831175,5,0,0.397,0.92306,1.27759,0.69928,0.25267,0.09131,4.13803,0.30803
63675479831208,5,0,0.39892,0.95606,1.36463,0.69272,0.23518,0.09819,4.14634,0.31782
63675479831241,5,0,0.38952,0.96013,1.29472,0.7735,0.23472,0.10358,4.14281,0.31092
63675479831275,5,0,0.37748,0.97288,1.21922,0.76839,0.23843,0.10504,4.14911,0.34913
63675479831291,5,0,0.40838,0.98035,1.22702,0.81032,0.25224,0.10576,4.13876,0.36492
63675479831324,5,0,0.39122,0.9288,1.0794,0.82155,0.25927,0.10701,4.1449,0.36169
63675479831341,5,0,0.38814,0.96226,1.18104,0.89029,0.27505,0.10648,4.15827,0.36382
63675479831374,5,0,0.36849,0.94493,1.15167,0.88649,0.27081,0.10206,4.1676,0.35323
63675479831408,5,0,0.3562,0.94017,1.04136,0.8187,0.28157,0.09322,4.18206,0.34746
63675479831423,5,0,0.37447,0.95131,1.04154,0.74178,0.27011,0.08724,4.18202,0.34372
63675479831456,4,0,0.37591,0.90588,1.09253,0.71464,0.25733,0.08566,4.18768,0.34736
63675479831473,4,0,0.36105,0.88135,1.08713,0.70774,0.2463,0.07998,4.19281,0.34361
63675479831506,4,0,0.36727,0.86425,1.08556,0.7018,0.26563,0.08188,4.20371,0.33711
63675479831540,4,0,0.35695,0.77642,0.93376,0.62665,0.24597,0.07879,4.18728,0.33455
63675479831572,4,0,0.35298,0.7123,0.92751,0.61344,0.23807,0.07832,4.18335,0.3396
63675479831590,4,0,0.36927,0.68182,0.93557,0.65491,0.23323,0.08423,4.17501,0.33451
63675479831623,4,0,0.34896,0.65406,0.93141,0.62966,0.2265,0.08579,4.17807,0.33428
63675479831656,4,0,0.34567,0.65624,0.87128,0.63886,0.23879,0.08205,4.16764,0.30102
63675479831672,4,0,0.34054,0.65816,0.86323,0.66378,0.24352,0.08356,4.17243,0.30851
63675479831706,4,0,0.33943,0.67249,0.87159,0.68641,0.23939,0.08507,4.16273,0.32966
63675479831755,4,0,0.3158,0.64961,0.91268,0.66503,0.24359,0.07849,4.16688,0.31893
63675479831772,5,0,0.33445,0.65539,0.88708,0.66057,0.24261,0.07543,4.16836,0.34803
63675479831804,5,0,0.33335,0.66331,0.89287,0.64747,0.24093,0.07243,4.16795,0.35719
63675479831854,5,0,0.3598,0.67315,1.00149,0.63531,0.25157,0.06845,4.16889,0.39442
63675479831871,5,0,0.37563,0.67236,0.99122,0.6068,0.23865,0.07429,4.17339,0.41023
63675479831887,5,0,0.38408,0.65115,1.03819,0.55943,0.23249,0.07407,4.18751,0.38825
63675479831921,5,0,0.39381,0.68027,0.9747,0.54682,0.21172,0.07702,4.20154,0.39385
63675479831954,5,0,0.3871,0.70987,0.95721,0.5351,0.22287,0.07891,4.20074,0.37452
63675479831987,5,0,0.41063,0.74041,1.02046,0.59249,0.24788,0.08706,4.21197,0.38686
63675479832037,5,0,0.43402,0.79362,1.07857,0.75041,0.28479,0.10749,4.21831,0.3642
63675479832054,5,0,0.43342,0.82027,1.12958,0.81484,0.29524,0.10313,4.22309,0.35871
63675479832070,5,0,0.43437,0.80707,1.13531,0.80471,0.27369,0.09967,4.22617,0.36936
63675479832103,4,0,0.44522,0.84647,1.15444,0.84706,0.30073,0.10499,4.22286,0.39114
63675479832136,4,0,0.44616,0.87542,1.2521,0.85185,0.30171,0.10617,4.21298,0.41508
63675479832170,4,0,0.43727,0.90038,1.28005,0.82703,0.29536,0.09779,4.19117,0.40927
63675479832202,4,0,0.42876,0.87482,1.30797,0.81664,0.29782,0.09978,4.19349,0.41279
63675479832235,4,0,0.40423,0.85461,1.24163,0.6957,0.25828,0.08763,4.18298,0.39172
63675479832269,4,0,0.38987,0.78679,1.22374,0.64379,0.24788,0.08998,4.17909,0.38324
63675479832302,4,0,0.35692,0.80919,1.21223,0.62388,0.25628,0.08581,4.17743,0.368
63675479832335,4,0,0.36725,0.77812,1.15314,0.59671,0.25435,0.08528,4.17319,0.36859
63675479832352,4,0,0.34148,0.7619,1.11465,0.63875,0.26585,0.09042,4.17733,0.33424
63675479832384,4,0,0.35966,0.72261,1.05783,0.60259,0.24566,0.08718,4.18272,0.35263
63675479832434,4,0,0.35789,0.72859,1.03952,0.5905,0.24155,0.08157,4.18044,0.33366
63675479832450,4,0,0.35243,0.75673,1.06741,0.656,0.24894,0.08421,4.18534,0.33676
63675479832484,4,0,0.35956,0.75848,0.96012,0.60372,0.24289,0.08066,4.18043,0.30781
63675479832501,4,0,0.37179,0.72888,0.98168,0.63102,0.25641,0.0818,4.1708,0.29492
63675479832534,4,0,0.3501,0.74367,0.96248,0.7061,0.2935,0.08388,4.17662,0.26519
63675479832567,4,0,0.34762,0.78158,0.95191,0.75097,0.30277,0.08399,4.18369,0.23531
63675479832601,4,0,0.3393,0.78744,0.90357,0.78039,0.32236,0.08644,4.18302,0.23343
63675479832633,4,0,0.34542,0.73356,0.88435,0.77241,0.31532,0.08784,4.17571,0.22333
63675479832667,4,0,0.34244,0.71229,0.8485,0.72006,0.31257,0.07741,4.17098,0.22387
63675479832715,4,0,0.33973,0.75307,0.82309,0.75301,0.29826,0.08149,4.16826,0.2671
63675479832732,4,0,0.34984,0.68692,0.83505,0.6827,0.27211,0.07687,4.1711,0.26798
63675479832766,4,0,0.33788,0.68268,0.8197,0.6444,0.2916,0.07214,4.16202,0.27124
63675479832815,4,0,0.33507,0.58648,0.78315,0.52453,0.26392,0.06386,4.16208,0.30629
63675479832832,4,0,0.30685,0.60053,0.75756,0.51603,0.27538,0.0632,4.17107,0.30642
63675479832849,4,0,0.29058,0.58111,0.73088,0.48942,0.27986,0.06811,4.16522,0.29542
63675479832881,4,0,0.28787,0.53117,0.69588,0.43509,0.26099,0.06153,4.17442,0.3251
63675479832915,5,0,0.27625,0.49709,0.66003,0.37585,0.25209,0.05847,4.15276,0.29572
63675479832948,5,0,0.27397,0.47302,0.66507,0.3999,0.22165,0.05713,4.15562,0.30596
63675479832981,5,0,0.27031,0.44468,0.64807,0.37459,0.20552,0.05853,4.16,0.28623
63675479833015,5,0,0.26006,0.45253,0.65701,0.38081,0.21607,0.06159,4.16184,0.27422
63675479833047,5,0,0.24345,0.45834,0.67933,0.37069,0.21366,0.05788,4.16098,0.26015
63675479833080,5,0,0.24664,0.46626,0.65418,0.36967,0.21009,0.05517,4.17275,0.23371
63675479833113,5,0,0.2347,0.43459,0.66286,0.40268,0.21809,0.0601,4.18691,0.22951
63675479833130,5,0,0.23917,0.42839,0.65979,0.37796,0.21345,0.05976,4.18743,0.23279
63675479833163,5,0,0.24853,0.47586,0.65051,0.4039,0.22854,0.06236,4.19392,0.23865
63675479833197,5,0,0.24505,0.47895,0.60794,0.39937,0.21636,0.06128,4.19746,0.23418
63675479833230,5,0,0.24865,0.48544,0.57702,0.40675,0.21047,0.06241,4.20494,0.22892
63675479833246,5,0,0.25251,0.50688,0.59735,0.4183,0.2382,0.06493,4.20439,0.24338
63675479833296,5,0,0.25328,0.48001,0.57625,0.40954,0.24211,0.06852,4.20528,0.24465
63675479833313,5,0,0.24751,0.50589,0.6217,0.36592,0.23283,0.06001,4.20317,0.24051
63675479833345,5,0,0.24083,0.47929,0.64667,0.34254,0.22356,0.06498,4.19343,0.23124
63675479833395,5,0,0.24423,0.51892,0.69188,0.3407,0.25713,0.06846,4.19508,0.22964
63675479833411,5,0,0.23172,0.50881,0.67534,0.36109,0.26156,0.0712,4.1883,0.23087
63675479833428,5,0,0.25934,0.4821,0.66694,0.3571,0.26576,0.07054,4.19168,0.23848
63675479833462,5,0,0.25572,0.45095,0.67036,0.35651,0.24189,0.06635,4.18449,0.21691
63675479833495,5,0,0.27271,0.43477,0.67367,0.42446,0.26937,0.06996,4.1884,0.22212
63675479833528,5,0,0.26667,0.43202,0.61003,0.40903,0.27771,0.07182,4.19478,0.21227
63675479833561,5,0,0.26958,0.45501,0.61208,0.41338,0.32019,0.0695,4.18672,0.20831
63675479833595,4,0,0.27564,0.42651,0.57187,0.40205,0.31276,0.06442,4.19427,0.20966
63675479833611,4,0,0.28557,0.41832,0.57483,0.38581,0.29822,0.06591,4.18668,0.21089
63675479833643,4,0,0.26111,0.46829,0.54899,0.38703,0.30129,0.07129,4.1959,0.20166
63675479833693,4,0,0.24963,0.47059,0.52243,0.35653,0.29486,0.07497,4.19443,0.20555
63675479833709,4,0,0.25719,0.49764,0.55956,0.36531,0.28208,0.07493,4.18652,0.208
63675479833743,4,0,0.27955,0.48335,0.55992,0.37864,0.2452,0.07228,4.18406,0.22904
63675479833776,4,0,0.26087,0.47486,0.59402,0.38854,0.22815,0.07254,4.18681,0.21033
63675479833809,4,0,0.25621,0.45284,0.59465,0.40547,0.24231,0.0736,4.18657,0.2226
63675479833826,4,0,0.28939,0.43328,0.64314,0.41449,0.25663,0.07107,4.18221,0.22677
63675479833876,4,0,0.29358,0.40097,0.65086,0.40539,0.25919,0.0654,4.17878,0.21438
63675479833908,4,0,0.29429,0.36588,0.64553,0.41165,0.3188,0.06975,4.17461,0.20372
63675479833925,4,0,0.30122,0.38445,0.64592,0.42699,0.39093,0.07303,4.18104,0.18699
63675479833975,4,0,0.29554,0.41523,0.60197,0.39916,0.4039,0.07288,4.17666,0.19391
63675479833991,4,0,0.29381,0.4133,0.57936,0.40287,0.42559,0.0695,4.17303,0.19183
63675479834025,4,0,0.27621,0.43116,0.53239,0.39953,0.43072,0.06851,4.17759,0.19521
63675479834074,4,0,0.25588,0.44747,0.52189,0.41814,0.43246,0.07005,4.1791,0.17515
63675479834091,4,0,0.26271,0.43967,0.57004,0.44476,0.42385,0.07439,4.17383,0.18062
63675479834124,5,0,0.25304,0.44217,0.55126,0.44059,0.36447,0.0657,4.18656,0.18667
63675479834141,5,0,0.23998,0.43579,0.55113,0.4158,0.27655,0.05904,4.18439,0.18068
63675479834174,5,0,0.26313,0.46082,0.58538,0.41995,0.29238,0.06372,4.17888,0.17992
63675479834207,5,0,0.25574,0.44174,0.56487,0.38571,0.30276,0.06237,4.1811,0.18604
63675479834241,5,0,0.23863,0.42736,0.56755,0.41036,0.30784,0.0635,4.17177,0.19072
63675479834273,5,0,0.25706,0.48736,0.55569,0.34435,0.32516,0.05927,4.17234,0.219
63675479834307,5,0,0.23939,0.48006,0.54161,0.34736,0.34374,0.06276,4.17209,0.22278
63675479834323,5,0,0.22612,0.47839,0.56573,0.3524,0.3464,0.06509,4.17421,0.22833
63675479834357,4,0,0.22879,0.44418,0.59216,0.35534,0.36511,0.06659,4.17791,0.2252
63675479834388,4,0,0.22605,0.46591,0.57201,0.37273,0.3338,0.06715,4.18501,0.21247
63675479834422,4,0,0.21861,0.48231,0.57844,0.37022,0.34803,0.07324,4.18521,0.21341
63675479834455,4,0,0.21381,0.47201,0.54246,0.40405,0.36484,0.07463,4.1901,0.22173
63675479834488,4,0,0.20161,0.4188,0.5386,0.41097,0.35732,0.0736,4.19135,0.21824
63675479834522,5,0,0.21062,0.45206,0.54498,0.38702,0.34793,0.07272,4.19012,0.2112
63675479834555,5,0,0.21286,0.45416,0.49922,0.3788,0.33135,0.07563,4.18651,0.21745
63675479834572,5,0,0.21037,0.45733,0.49077,0.37088,0.32699,0.07274,4.18214,0.21942
63675479834605,5,0,0.20493,0.43381,0.46467,0.3761,0.35619,0.07093,4.18592,0.24518
63675479834655,5,0,0.22034,0.4426,0.46057,0.31738,0.33703,0.06263,4.19196,0.23718
63675479834688,5,0,0.23885,0.46953,0.44025,0.31187,0.38744,0.06794,4.185,0.21928
63675479834704,5,0,0.24328,0.4536,0.43935,0.31429,0.38051,0.06762,4.18381,0.21814
63675479834753,5,0,0.24685,0.46547,0.4554,0.37375,0.37935,0.07052,4.18115,0.22342
63675479834770,5,0,0.23371,0.45234,0.51934,0.39319,0.41323,0.07108,4.18453,0.2168
63675479834787,5,0,0.23786,0.4604,0.5316,0.38297,0.40147,0.06816,4.17755,0.19273
63675479834836,5,0,0.23707,0.46885,0.52864,0.39498,0.39407,0.0657,4.17975,0.19718
63675479834853,5,0,0.22814,0.46028,0.54753,0.41866,0.38244,0.0656,4.18015,0.17886
63675479834870,5,0,0.23165,0.42367,0.54183,0.4424,0.3945,0.06773,4.18462,0.1994
63675479834903,5,0,0.23657,0.41842,0.58429,0.49945,0.47317,0.07406,4.19452,0.20638
63675479834937,5,0,0.25676,0.43606,0.60148,0.49999,0.50081,0.07285,4.19781,0.21689
63675479834969,5,0,0.26772,0.41096,0.6386,0.47319,0.48675,0.07314,4.19918,0.21632
63675479834986,5,0,0.28017,0.4132,0.55024,0.44717,0.47252,0.07748,4.19954,0.21741
63675479835036,5,0,0.28536,0.4418,0.60559,0.45756,0.50528,0.0837,4.20556,0.24164
63675479835069,5,0,0.27327,0.44145,0.62712,0.49262,0.47153,0.08102,4.20606,0.23748
63675479835102,0,0,0.27434,0.45323,0.57283,0.44257,0.40716,0.07587,4.19846,0.23271
63675479835135,0,0,0.25629,0.42481,0.52348,0.40019,0.3749,0.07159,4.20063,0.2319
63675479835151,0,0,0.24292,0.42342,0.49917,0.40568,0.36271,0.07117,4.19147,0.22984
63675479835184,5,0,0.23658,0.45189,0.56489,0.44095,0.41321,0.07061,4.18851,0.23005
63675479835201,5,0,0.24716,0.46177,0.55774,0.42442,0.39154,0.06763,4.18812,0.2453
63675479835234,5,0,0.24547,0.40521,0.50997,0.42113,0.34703,0.0601,4.18258,0.22842
63675479835267,5,0,0.24606,0.40837,0.51509,0.35662,0.33669,0.06053,4.18555,0.23663
63675479835283,5,0,0.23544,0.38889,0.53684,0.3991,0.35314,0.0586,4.17948,0.23949
63675479835333,5,0,0.23438,0.39219,0.55515,0.41929,0.36858,0.06132,4.18349,0.23141
63675479835350,5,0,0.23595,0.44426,0.54038,0.4391,0.37353,0.05491,4.18194,0.22368
63675479835367,5,0,0.24729,0.42771,0.49856,0.45144,0.34096,0.05564,4.19191,0.22916
63675479835416,5,0,0.24144,0.39602,0.51371,0.42082,0.35104,0.05486,4.18325,0.20575
63675479835433,4,0,0.24457,0.39782,0.49399,0.39287,0.35342,0.05761,4.18377,0.21758
63675479835466,4,0,0.25294,0.39266,0.52876,0.42715,0.37288,0.06256,4.17823,0.22253
63675479835482,4,0,0.25358,0.41424,0.52415,0.4224,0.37539,0.05782,4.18572,0.21388
63675479835516,4,0,0.25347,0.44056,0.48647,0.34729,0.35326,0.05958,4.18646,0.18512
63675479835549,4,0,0.25071,0.39238,0.48904,0.34098,0.35929,0.06368,4.18452,0.18452
63675479835566,4,0,0.23594,0.41712,0.4697,0.29731,0.32228,0.06226,4.18923,0.18336
63675479835616,5,0,0.22806,0.44923,0.46587,0.32594,0.33648,0.06382,4.19409,0.17696
63675479835632,5,0,0.22282,0.44891,0.46644,0.32157,0.31698,0.06109,4.19454,0.15872
63675479835648,5,0,0.22491,0.44749,0.44234,0.27422,0.2846,0.05555,4.19129,0.16165
63675479835682,5,0,0.2302,0.45546,0.46031,0.30768,0.328,0.05574,4.19147,0.14763
63675479835714,5,0,0.23168,0.45918,0.46406,0.37178,0.34219,0.05291,4.19124,0.16147
63675479835731,5,0,0.24655,0.47097,0.46138,0.35899,0.3132,0.0497,4.19642,0.17723
63675479835764,5,0,0.25827,0.46873,0.48704,0.43789,0.36772,0.0496,4.19959,0.18322
63675479835813,5,0,0.27187,0.47804,0.45854,0.47505,0.35722,0.05753,4.20555,0.2243
63675479835847,5,0,0.25525,0.48487,0.47352,0.49889,0.36381,0.06212,4.20659,0.20808
63675479835897,5,0,0.25457,0.45369,0.492,0.39697,0.30986,0.06251,4.20157,0.21155
63675479835930,5,0,0.2348,0.41978,0.51294,0.40971,0.31643,0.06415,4.20168,0.21924
63675479835964,5,0,0.22606,0.3837,0.50705,0.41661,0.3277,0.06139,4.20321,0.21526
63675479835997,5,0,0.23811,0.38413,0.50434,0.37779,0.34475,0.064,4.19732,0.22079
63675479836013,5,0,0.22302,0.36029,0.50607,0.40115,0.37035,0.06659,4.1944,0.20134
63675479836029,5,0,0.24377,0.41868,0.49358,0.38348,0.42254,0.06767,4.19698,0.19537
63675479836063,5,0,0.24771,0.43401,0.45859,0.42843,0.43853,0.0693,4.18932,0.19193
63675479836095,5,0,0.25153,0.42718,0.47273,0.43798,0.44493,0.07114,4.18394,0.20535
63675479836112,5,0,0.25137,0.43296,0.46133,0.43071,0.44268,0.06958,4.1838,0.19188
63675479836145,5,0,0.26283,0.45033,0.4894,0.45041,0.41966,0.07349,4.1813,0.18768
63675479836195,5,0,0.2574,0.4575,0.47214,0.42866,0.38332,0.07048,4.1806,0.18578
63675479836212,5,0,0.26533,0.4521,0.46648,0.41216,0.37199,0.06535,4.17993,0.18981
63675479836228,5,0,0.25893,0.44234,0.48277,0.40387,0.35628,0.06413,4.17466,0.20174
63675479836261,5,0,0.25172,0.38781,0.45941,0.41781,0.40286,0.07704,4.16971,0.19955
63675479836294,5,0,0.26419,0.41444,0.43196,0.3824,0.36708,0.0771,4.16897,0.20493
63675479836310,5,0,0.26894,0.43087,0.43102,0.39206,0.38466,0.07983,4.16675,0.20481
63675479836344,5,0,0.26526,0.41132,0.42862,0.3665,0.38749,0.08064,4.164,0.21779
63675479836394,5,0,0.25886,0.44364,0.47076,0.38636,0.40695,0.08448,4.16167,0.21832
63675479836427,5,0,0.25517,0.42853,0.45999,0.40796,0.39091,0.08519,4.17163,0.19948
63675479836477,5,0,0.24646,0.37065,0.4862,0.42325,0.39137,0.06748,4.17126,0.20679
63675479836510,5,0,0.2366,0.37589,0.48647,0.4115,0.39549,0.06856,4.17275,0.19403
63675479836543,5,0,0.23955,0.40161,0.51127,0.36017,0.36195,0.06577,4.17086,0.20031
63675479836576,5,0,0.26754,0.40221,0.4888,0.35471,0.39616,0.06908,4.17782,0.2153
63675479836593,5,0,0.26254,0.37766,0.49546,0.34109,0.37312,0.06972,4.16463,0.22457
63675479836626,5,0,0.26906,0.40778,0.49006,0.33803,0.34089,0.07,4.16981,0.23427
63675479836643,5,0,0.2603,0.44629,0.47975,0.33397,0.33689,0.07454,4.17357,0.22733
63675479836675,5,0,0.25997,0.45941,0.45042,0.30592,0.32779,0.07527,4.1755,0.22607
63675479836709,5,0,0.25931,0.45274,0.44122,0.31916,0.34967,0.07783,4.17343,0.23151
63675479836725,5,0,0.26886,0.42315,0.43007,0.35287,0.37615,0.07677,4.17434,0.23872
63675479836775,5,0,0.26261,0.44525,0.39052,0.34708,0.38929,0.07515,4.17303,0.22934
63675479836792,5,0,0.24259,0.44476,0.37878,0.37757,0.40554,0.07048,4.17509,0.22447
63675479836808,5,0,0.23983,0.39147,0.36082,0.35918,0.4181,0.06589,4.17824,0.2241
63675479836840,5,0,0.24139,0.37781,0.37332,0.33937,0.42874,0.06697,4.17313,0.221
63675479836874,5,0,0.24143,0.41863,0.38675,0.34456,0.42123,0.06669,4.17838,0.2224
63675479836907,5,0,0.24014,0.41273,0.43628,0.35396,0.41473,0.06322,4.17797,0.22043
63675479836924,5,0,0.23291,0.40474,0.42756,0.33387,0.38795,0.06524,4.18695,0.19341
63675479836974,5,0,0.21986,0.40067,0.43104,0.32138,0.3219,0.06628,4.18681,0.18696
63675479837007,5,0,0.2184,0.39748,0.42361,0.32483,0.32918,0.06697,4.18773,0.17145
63675479837041,5,0,0.21248,0.39515,0.45368,0.32032,0.32372,0.06993,4.19173,0.18903
63675479837073,5,0,0.23775,0.34436,0.47248,0.312,0.29776,0.06317,4.19251,0.19586
63675479837090,5,0,0.2319,0.37307,0.42363,0.29617,0.26876,0.06561,4.18282,0.18546
63675479837122,5,0,0.22835,0.3673,0.42087,0.29827,0.28192,0.06172,4.18563,0.19182
63675479837155,5,0,0.22569,0.36259,0.4078,0.28953,0.27259,0.05971,4.17175,0.19742
63675479837172,5,0,0.22868,0.35799,0.41956,0.27167,0.28526,0.05525,4.17282,0.21801
63675479837205,5,0,0.24072,0.35499,0.41964,0.2522,0.29526,0.05509,4.17193,0.22168
63675479837255,5,0,0.25434,0.35585,0.41497,0.2581,0.32866,0.05205,4.1753,0.21271
63675479837288,5,0,0.22889,0.36431,0.38111,0.28734,0.3813,0.05768,4.17436,0.2066
63675479837322,5,0,0.23751,0.3935,0.40562,0.28393,0.41206,0.05897,4.17099,0.23372
63675479837355,5,0,0.25841,0.399,0.40444,0.29626,0.42743,0.06154,4.17545,0.24338
63675479837372,5,0,0.26551,0.39376,0.41838,0.3197,0.41533,0.0642,4.1773,0.23286
63675479837405,5,0,0.25917,0.40571,0.41508,0.33411,0.3963,0.06083,4.16909,0.23233
