63675479387221,4,0,0.25426,0.40553,0.50043,0.62389,1.55098,0.07594,4.53983,0.16892
63675479387254,4,0,0.27871,0.42174,0.51281,0.61743,1.55251,0.07278,4.55087,0.16889
63675479387303,4,0,0.27188,0.42036,0.49173,0.61068,1.55769,0.07247,4.56233,0.15076
63675479387353,4,0,0.28041,0.39309,0.50751,0.61327,1.55972,0.07304,4.55787,0.16392
63675479387387,4,0,0.28702,0.40889,0.50354,0.61421,1.5596,0.07335,4.5484,0.15624
63675479387402,4,0,0.29506,0.41396,0.5001,0.61129,1.56379,0.07094,4.54477,0.16199
63675479387436,4,0,0.28824,0.39401,0.48262,0.60715,1.56081,0.07006,4.53907,0.15657
63675479387469,4,0,0.29155,0.3984,0.48334,0.61865,1.55912,0.07098,4.53025,0.14659
63675479387503,4,0,0.29109,0.39783,0.4916,0.61897,1.558,0.06773,4.51512,0.15938
63675479387536,4,0,0.28334,0.41091,0.46143,0.61525,1.55759,0.07069,4.5158,0.15918
63675479387569,4,0,0.27277,0.39849,0.46099,0.61313,1.55728,0.07192,4.50998,0.1603
63675479387585,4,0,0.26351,0.39333,0.463,0.61013,1.554,0.07083,4.5061,0.16229
63675479387634,4,0,0.26582,0.40544,0.47408,0.60649,1.55218,0.06866,4.49974,0.17929
63675479387651,4,0,0.26536,0.41611,0.46423,0.60128,1.5516,0.06878,4.49879,0.20127
63675479387685,4,0,0.27621,0.41178,0.46345,0.60163,1.55131,0.07116,4.49343,0.19544
63675479387735,4,0,0.2988,0.39465,0.47832,0.59913,1.54932,0.0702,4.5056,0.19521
63675479387768,4,0,0.29116,0.40236,0.47432,0.58791,1.55085,0.07345,4.50175,0.19116
63675479387801,4,0,0.30915,0.40687,0.4715,0.58188,1.55583,0.0721,4.51453,0.20146
63675479387834,4,0,0.32991,0.39403,0.4635,0.58515,1.5486,0.07336,4.5111,0.19931
63675479387867,4,0,0.31505,0.3779,0.4701,0.5842,1.55268,0.0749,4.52504,0.18106
63675479387916,4,0,0.28237,0.37482,0.46569,0.57891,1.54582,0.0756,4.52367,0.17809
63675479387933,4,0,0.27755,0.37618,0.46577,0.57427,1.54649,0.07454,4.49921,0.18459
63675479387966,4,0,0.27545,0.37927,0.462,0.58335,1.55191,0.07469,4.50241,0.18858
63675479387983,4,0,0.28955,0.36721,0.46679,0.58275,1.54845,0.07097,4.50705,0.1866
63675479388033,4,0,0.23902,0.35372,0.46606,0.58031,1.54747,0.07389,4.50959,0.1687
63675479388050,4,0,0.27013,0.3603,0.46304,0.58147,1.54936,0.07276,4.50554,0.17546
63675479388083,4,0,0.26974,0.35358,0.46432,0.58355,1.544,0.07885,4.50713,0.16633
63675479388116,4,0,0.28199,0.36226,0.46161,0.58496,1.54915,0.07614,4.5055,0.16251
63675479388149,4,0,0.26672,0.34832,0.45908,0.58828,1.54155,0.07897,4.50863,0.15577
63675479388182,4,0,0.26309,0.35305,0.45297,0.58856,1.54222,0.0851,4.51852,0.14848
63675479388214,4,0,0.26472,0.3604,0.44475,0.58473,1.53786,0.08381,4.49937,0.14803
63675479388231,4,0,0.28003,0.37081,0.45228,0.59423,1.53937,0.08435,4.50798,0.14375
63675479388264,4,0,0.26331,0.37192,0.45406,0.61951,1.52912,0.08754,4.49324,0.13728
63675479388314,4,0,0.24703,0.36432,0.45267,0.62014,1.53191,0.08723,4.48834,0.15094
63675479388347,4,0,0.26114,0.36518,0.44843,0.62856,1.52513,0.08709,4.49252,0.15545
63675479388364,4,0,0.29329,0.38103,0.45316,0.62838,1.53099,0.08186,4.49361,0.15229
63675479388414,4,0,0.28052,0.37805,0.45089,0.62739,1.53051,0.07761,4.49276,0.15173
63675479388430,4,0,0.27086,0.36766,0.45922,0.63063,1.5326,0.08362,4.50634,0.15561
63675479388447,4,0,0.24657,0.33797,0.4525,0.59537,1.52826,0.08396,4.52192,0.15057
63675479388497,4,0,0.25479,0.33729,0.45943,0.59613,1.54399,0.08365,4.52269,0.165
63675479388514,4,0,0.25014,0.34021,0.45024,0.59052,1.54167,0.08155,4.52806,0.15226
63675479388547,4,0,0.24908,0.33811,0.45128,0.5668,1.55064,0.08484,4.5299,0.13999
63675479388596,4,0,0.23419,0.32419,0.46549,0.56777,1.53448,0.08751,4.52083,0.14839
63675479388612,4,0,0.25257,0.32664,0.45773,0.56375,1.54346,0.08955,4.51974,0.15858
63675479388629,4,0,0.25679,0.33457,0.45758,0.56492,1.52968,0.08706,4.50959,0.17019
63675479388662,4,0,0.26064,0.34278,0.46201,0.57111,1.54609,0.08219,4.52044,0.17103
63675479388695,4,0,0.25968,0.33702,0.45994,0.56848,1.52868,0.0837,4.52115,0.16252
63675479388728,4,0,0.25045,0.34007,0.46369,0.5788,1.52129,0.07872,4.51639,0.15909
63675479388762,4,0,0.23222,0.34458,0.45673,0.57797,1.518,0.07863,4.52773,0.16133
63675479388795,4,0,0.23365,0.34571,0.45333,0.58083,1.52254,0.0778,4.53049,0.17
63675479388828,4,0,0.24245,0.34421,0.46567,0.58601,1.51689,0.06635,4.52763,0.14663
63675479388861,4,0,0.24327,0.33716,0.46468,0.57705,1.51001,0.06931,4.52637,0.15705
63675479388895,4,0,0.23931,0.34061,0.46262,0.58039,1.51068,0.0677,4.52202,0.14839
63675479388911,4,0,0.24524,0.33726,0.46265,0.58889,1.50816,0.06747,4.52211,0.15618
63675479388943,4,0,0.25661,0.34188,0.45935,0.58325,1.50943,0.06713,4.50796,0.16163
63675479388994,4,0,0.27928,0.32573,0.45379,0.57256,1.51268,0.06737,4.50802,0.15023
63675479389011,4,0,0.2919,0.31908,0.44902,0.5748,1.51445,0.06819,4.51315,0.15971
63675479389044,4,0,0.28062,0.32208,0.44428,0.5652,1.51347,0.07333,4.49516,0.1514
63675479389076,4,0,0.28297,0.33038,0.43446,0.56754,1.51411,0.07211,4.48864,0.1431
63675479389109,4,0,0.28351,0.32639,0.42881,0.55111,1.5118,0.06846,4.49108,0.14349
63675479389126,4,0,0.27275,0.31998,0.42874,0.55327,1.51866,0.06926,4.49599,0.1473
63675479389175,4,0,0.27554,0.32503,0.4333,0.55328,1.52043,0.07348,4.49847,0.14842
63675479389192,4,0,0.26727,0.33079,0.44702,0.5556,1.5201,0.06814,4.49443,0.14157
63675479389209,4,0,0.25016,0.33169,0.44744,0.55534,1.51657,0.06651,4.49106,0.14212
63675479389242,4,0,0.23897,0.32856,0.44549,0.55132,1.51627,0.07084,4.51797,0.13583
63675479389275,3,0,0.22852,0.33908,0.45687,0.55716,1.51157,0.06924,4.52873,0.14224
63675479389309,3,0,0.23188,0.33559,0.45905,0.55886,1.51939,0.07074,4.53017,0.13431
63675479389341,3,0,0.2274,0.3356,0.45862,0.55643,1.5125,0.07047,4.54534,0.14054
63675479389374,3,0,0.22145,0.33583,0.45862,0.55532,1.50798,0.06876,4.54154,0.1478
63675479389407,4,0,0.23319,0.34561,0.44813,0.54974,1.51284,0.07057,4.53921,0.15698
63675479389441,4,0,0.22656,0.34607,0.45039,0.55108,1.51332,0.06765,4.54489,0.16894
63675479389474,4,0,0.22225,0.33624,0.45069,0.55065,1.51102,0.07038,4.53787,0.16852
63675479389490,4,0,0.24398,0.33542,0.44826,0.55425,1.50667,0.06896,4.53403,0.17419
63675479389524,4,0,0.25493,0.33213,0.44839,0.55189,1.5039,0.06946,4.52254,0.16597
63675479389573,4,0,0.26822,0.3304,0.45185,0.54838,1.50109,0.0712,4.51442,0.15934
63675479389590,4,0,0.26511,0.3241,0.44718,0.54788,1.49907,0.06908,4.51631,0.16772
63675479389623,4,0,0.25498,0.31813,0.44429,0.54743,1.49678,0.07037,4.51173,0.1509
63675479389656,4,0,0.26088,0.32011,0.44229,0.54676,1.49653,0.06514,4.50527,0.14405
63675479389690,4,0,0.251,0.33186,0.43995,0.54245,1.49626,0.06565,4.50267,0.13797
63675479389722,4,0,0.24863,0.3366,0.43284,0.54093,1.49272,0.06379,4.49559,0.1522
63675479389755,4,0,0.23707,0.34146,0.43419,0.55314,1.49721,0.06406,4.4942,0.14826
63675479389788,4,0,0.21398,0.34431,0.43436,0.55124,1.50128,0.06464,4.49175,0.14143
63675479389805,4,0,0.24012,0.35705,0.43622,0.54913,1.50375,0.06334,4.49569,0.16936
63675479389855,4,0,0.24541,0.3486,0.44151,0.55198,1.50204,0.06264,4.49129,0.15819
63675479389872,4,0,0.24975,0.35622,0.44936,0.55475,1.50223,0.06506,4.49662,0.15421
63675479389905,4,0,0.27268,0.36146,0.46051,0.5605,1.51009,0.07217,4.51121,0.14896
63675479389921,4,0,0.28431,0.35994,0.45756,0.55243,1.51514,0.07287,4.50748,0.15032
63675479389955,4,0,0.2878,0.36562,0.45317,0.55239,1.50371,0.06777,4.52083,0.15065
63675479389988,4,0,0.29797,0.36664,0.45359,0.56156,1.49957,0.0726,4.51889,0.14275
63675479390021,4,0,0.28998,0.35728,0.4539,0.56173,1.50029,0.0729,4.52398,0.12427
63675479390054,4,0,0.28975,0.35806,0.45474,0.55838,1.50092,0.07347,4.53452,0.14258
63675479390087,4,0,0.26135,0.34632,0.45033,0.55937,1.50231,0.07123,4.52909,0.12964
63675479390137,4,0,0.24608,0.34042,0.45315,0.55393,1.5012,0.07016,4.53581,0.13081
63675479390153,4,0,0.2599,0.34357,0.45095,0.55907,1.49556,0.07177,4.53576,0.13137
63675479390186,4,0,0.25229,0.33136,0.45107,0.54505,1.50625,0.06743,4.5411,0.13479
63675479390203,4,0,0.26132,0.3389,0.44669,0.55301,1.50309,0.07001,4.53811,0.14667
63675479390236,4,0,0.29551,0.34324,0.44996,0.55304,1.49985,0.06682,4.53963,0.16173
63675479390269,4,0,0.30401,0.3468,0.44097,0.55121,1.5023,0.06423,4.5297,0.16051
63675479390302,4,0,0.31611,0.35365,0.43555,0.54332,1.5068,0.06468,4.52591,0.1605
63675479390336,4,0,0.3124,0.34732,0.44203,0.55215,1.50417,0.0648,4.52957,0.16899
63675479390352,4,0,0.31712,0.35372,0.44553,0.55378,1.50326,0.06698,4.51292,0.16447
63675479390386,4,0,0.31209,0.34997,0.44368,0.55049,1.50327,0.06733,4.51212,0.15753
63675479390435,4,0,0.27161,0.34243,0.44179,0.5378,1.50646,0.06856,4.50793,0.12915
63675479390451,4,0,0.25883,0.34276,0.44598,0.54008,1.5048,0.069,4.50393,0.12542
63675479390485,4,0,0.25819,0.34714,0.44474,0.54131,1.50098,0.06697,4.50025,0.14028
63675479390534,4,0,0.2668,0.35494,0.43898,0.53195,1.49728,0.06961,4.49406,0.15428
63675479390567,4,0,0.2917,0.36021,0.43667,0.53342,1.49628,0.06712,4.4995,0.18261
63675479390601,4,0,0.29381,0.35865,0.44005,0.52708,1.50003,0.0695,4.5046,0.1903
63675479390634,4,0,0.30518,0.37166,0.43524,0.53248,1.4986,0.06761,4.50318,0.19547
63675479390667,4,0,0.30657,0.36725,0.43979,0.53131,1.50027,0.06931,4.50817,0.20613
63675479390717,4,0,0.31693,0.3521,0.43237,0.52714,1.50422,0.06947,4.51525,0.19607
63675479390733,4,0,0.29929,0.3526,0.44247,0.53643,1.50708,0.07073,4.52661,0.16834
63675479390766,4,0,0.2791,0.35857,0.44534,0.53576,1.50782,0.07009,4.53532,0.15238
63675479390783,4,0,0.26896,0.36178,0.44315,0.53417,1.50532,0.06786,4.53527,0.14568
63675479390815,4,0,0.26924,0.3528,0.44684,0.53294,1.50426,0.07164,4.55003,0.15413
63675479390849,4,0,0.26907,0.36092,0.43962,0.53256,1.50354,0.0714,4.55637,0.13781
63675479390882,4,0,0.28313,0.35381,0.44385,0.54333,1.50138,0.07375,4.55029,0.14435
63675479390915,4,0,0.29371,0.35285,0.44847,0.54336,1.49883,0.06763,4.55669,0.14371
63675479390948,4,0,0.29189,0.35732,0.44103,0.53681,1.5008,0.06842,4.54832,0.15368
63675479390982,4,0,0.31746,0.3484,0.43604,0.53334,1.50529,0.06948,4.53881,0.16377
63675479391015,4,0,0.30506,0.35256,0.43531,0.56297,1.49324,0.06761,4.53887,0.15542
63675479391031,4,0,0.3248,0.35676,0.43926,0.55303,1.50253,0.07138,4.52626,0.1565
63675479391065,4,0,0.31857,0.37011,0.43222,0.56547,1.49656,0.06994,4.52727,0.15272
63675479391114,4,0,0.28964,0.37735,0.44036,0.55254,1.50122,0.06569,4.52184,0.14519
63675479391130,4,0,0.28931,0.38541,0.44147,0.56463,1.51648,0.06916,4.50994,0.13922
63675479391163,4,0,0.28782,0.39062,0.45155,0.56456,1.51646,0.06972,4.50971,0.12528
63675479391180,4,0,0.27817,0.38858,0.46456,0.59804,1.5115,0.07124,4.50133,0.1281
63675479391213,4,0,0.27128,0.39161,0.46962,0.56682,1.53008,0.07028,4.50084,0.13073
63675479391247,4,0,0.25892,0.40313,0.46743,0.59182,1.52128,0.0675,4.50028,0.1385
63675479391296,4,0,0.29338,0.40587,0.4763,0.60678,1.52311,0.07136,4.50263,0.16518
63675479391313,4,0,0.27888,0.38791,0.47956,0.6004,1.5221,0.06993,4.50399,0.16333
63675479391330,4,0,0.26879,0.38611,0.49314,0.60493,1.51125,0.07073,4.50943,0.16676
63675479391363,4,0,0.2673,0.39028,0.48758,0.62372,1.50844,0.07185,4.51011,0.17561
63675479391396,4,0,0.28773,0.40246,0.47737,0.60265,1.48785,0.07308,4.51499,0.17175
63675479391429,4,0,0.3022,0.38773,0.47848,0.60742,1.51485,0.07909,4.52295,0.17314
63675479391462,4,0,0.3094,0.38434,0.46629,0.58301,1.53025,0.07886,4.52149,0.15976
63675479391495,4,0,0.27631,0.39053,0.4695,0.58576,1.53187,0.07987,4.52305,0.1524
63675479391528,4,0,0.31123,0.42738,0.48516,0.61362,1.54071,0.08692,4.53176,0.16947
63675479391561,4,0,0.29603,0.43067,0.48339,0.59084,1.54103,0.08612,4.52462,0.17035
63675479391594,4,0,0.28156,0.42649,0.47822,0.60573,1.54482,0.08228,4.53845,0.16474
63675479391628,4,0,0.29569,0.41511,0.47926,0.56569,1.55249,0.08017,4.53863,0.16318
63675479391661,4,0,0.28987,0.41188,0.49466,0.58194,1.54108,0.07873,4.53035,0.16343
63675479391694,4,0,0.2922,0.40202,0.49031,0.57887,1.54872,0.0776,4.5374,0.16481
63675479391710,4,0,0.30594,0.40541,0.4792,0.58041,1.53081,0.07482,4.53048,0.15716
63675479391743,4,0,0.29949,0.37991,0.46329,0.55609,1.53655,0.06924,4.52492,0.14992
63675479391793,4,0,0.31088,0.38633,0.46932,0.56544,1.55098,0.07245,4.51538,0.1697
63675479391809,4,0,0.29736,0.37908,0.47197,0.58899,1.54009,0.06711,4.50842,0.15834
63675479391843,4,0,0.30259,0.38558,0.47378,0.58913,1.53894,0.06614,4.5131,0.16946
63675479391876,4,0,0.29777,0.38519,0.48326,0.58948,1.54102,0.06513,4.50966,0.18179
63675479391893,4,0,0.28382,0.37805,0.49336,0.59822,1.54522,0.06421,4.49862,0.18336
63675479391925,4,0,0.28563,0.37348,0.48938,0.58858,1.55596,0.06526,4.49446,0.18459
63675479391975,4,0,0.29046,0.37737,0.49718,0.57859,1.54854,0.06201,4.49013,0.17249
63675479391992,4,0,0.29613,0.36025,0.49367,0.57037,1.55071,0.06191,4.48483,0.16937
63675479392009,4,0,0.30733,0.37381,0.49419,0.57368,1.55029,0.06267,4.48247,0.18326
63675479392042,4,0,0.29169,0.36895,0.46926,0.56882,1.55033,0.06493,4.4839,0.16289
63675479392075,4,0,0.27541,0.36308,0.47283,0.57025,1.54601,0.06355,4.47894,0.15801
63675479392108,4,0,0.28711,0.36826,0.4724,0.54591,1.54531,0.06334,4.48638,0.14925
63675479392141,4,0,0.27838,0.37801,0.47417,0.55737,1.53624,0.06352,4.48955,0.16468
63675479392175,4,0,0.24911,0.36874,0.45992,0.55854,1.54027,0.067,4.51731,0.14729
63675479392208,4,0,0.24271,0.34647,0.46476,0.54462,1.54418,0.07029,4.53676,0.1484
63675479392241,4,0,0.25353,0.33961,0.4618,0.5356,1.54479,0.06977,4.53042,0.14972
63675479392273,4,0,0.2434,0.33919,0.45806,0.53289,1.5337,0.06728,4.54592,0.14679
63675479392290,4,0,0.27149,0.35269,0.44701,0.52296,1.54721,0.06714,4.53769,0.15998
63675479392323,4,0,0.26703,0.32787,0.44143,0.54786,1.5176,0.0759,4.55269,0.15121
63675479392372,4,0,0.27922,0.33684,0.4453,0.56969,1.48846,0.0754,4.53677,0.18097
63675479392406,4,0,0.27446,0.35277,0.43494,0.57495,1.4733,0.07746,4.5282,0.16662
63675479392456,4,0,0.24929,0.35965,0.44316,0.57091,1.49443,0.07563,4.52792,0.16345
63675479392473,4,0,0.25614,0.35916,0.44267,0.57047,1.49002,0.0755,4.50869,0.16549
63675479392489,4,0,0.23281,0.34712,0.44513,0.58524,1.474,0.07984,4.52286,0.15094
63675479392522,4,0,0.2247,0.36546,0.44539,0.5719,1.49057,0.08115,4.50476,0.14727
63675479392556,4,0,0.22439,0.38079,0.43572,0.53773,1.51614,0.0771,4.49273,0.16723
63675479392588,4,0,0.2219,0.37387,0.43579,0.52378,1.5329,0.07502,4.49938,0.15418
63675479392605,4,0,0.22509,0.36312,0.43616,0.51027,1.54023,0.0719,4.49083,0.16377
63675479392655,4,0,0.23736,0.35057,0.43098,0.51395,1.53176,0.07963,4.49956,0.17232
63675479392687,4,0,0.23988,0.35115,0.42913,0.50849,1.53613,0.07826,4.49857,0.18023
63675479392721,4,0,0.25708,0.34401,0.42787,0.50418,1.53662,0.07383,4.50525,0.18175
63675479392754,4,0,0.26375,0.34725,0.42912,0.50744,1.52181,0.0743,4.5147,0.18242
63675479392770,4,0,0.26245,0.34903,0.42408,0.51474,1.517,0.07564,4.52327,0.14853
63675479392803,4,0,0.2487,0.35213,0.42285,0.51527,1.51595,0.07477,4.53054,0.13934
63675479392836,4,0,0.24215,0.35321,0.41756,0.51484,1.51403,0.07238,4.53433,0.13193
63675479392853,4,0,0.24885,0.35447,0.42698,0.51258,1.51081,0.06929,4.5442,0.13752
63675479392887,4,0,0.24124,0.34236,0.42493,0.51378,1.51119,0.06718,4.54626,0.13459
63675479392904,4,0,0.23029,0.34405,0.42292,0.51867,1.50612,0.0684,4.55416,0.1408
63675479392936,4,0,0.22284,0.33212,0.4187,0.51619,1.51965,0.06909,4.54642,0.13777
63675479392969,4,0,0.21638,0.33511,0.41866,0.51962,1.52021,0.06597,4.55166,0.14382
63675479392986,4,0,0.20618,0.32958,0.42139,0.51629,1.51915,0.06405,4.54388,0.14865
63675479393035,4,0,0.23141,0.31577,0.42075,0.52154,1.51699,0.06708,4.5402,0.15784
63675479393053,4,0,0.23235,0.32112,0.41568,0.52601,1.51341,0.06589,4.54221,0.15743
63675479393069,4,0,0.23686,0.32326,0.41705,0.52607,1.5086,0.06919,4.52587,0.15502
63675479393102,4,0,0.24309,0.31467,0.42051,0.53315,1.49784,0.06721,4.52639,0.14436
63675479393135,4,0,0.25613,0.31451,0.42504,0.53849,1.49921,0.06543,4.52662,0.14551
63675479393151,4,0,0.25153,0.31321,0.42793,0.53851,1.51147,0.07071,4.52553,0.14497
63675479393185,4,0,0.25996,0.31019,0.42594,0.537,1.51513,0.07167,4.515,0.13909
63675479393235,4,0,0.26822,0.33369,0.4245,0.54038,1.51719,0.06982,4.50201,0.14372
63675479393268,4,0,0.26567,0.33036,0.4268,0.53635,1.51877,0.06998,4.49854,0.14053
63675479393300,4,0,0.26536,0.33209,0.4257,0.53595,1.52954,0.06784,4.49684,0.13629
63675479393334,4,0,0.24618,0.33063,0.41992,0.53287,1.52781,0.06731,4.48763,0.13033
63675479393351,4,0,0.25739,0.33456,0.42045,0.53224,1.51414,0.06595,4.48808,0.13187
63675479393384,4,0,0.26092,0.34066,0.41938,0.53273,1.51139,0.06393,4.48678,0.13938
63675479393417,4,0,0.25012,0.33716,0.42021,0.53481,1.51247,0.06313,4.4871,0.1376
63675479393434,4,0,0.23014,0.33168,0.42411,0.53675,1.51345,0.06208,4.49102,0.12883
63675479393467,4,0,0.23623,0.33651,0.42124,0.53536,1.51658,0.06374,4.49047,0.13061
63675479393516,4,0,0.24626,0.33579,0.42242,0.52984,1.5163,0.06322,4.50643,0.12907
63675479393550,4,0,0.24225,0.32908,0.42601,0.53281,1.51561,0.06055,4.50667,0.123
63675479393582,4,0,0.24248,0.32861,0.42441,0.53191,1.5223,0.0614,4.51974,0.12732
63675479393615,4,0,0.25865,0.33041,0.41686,0.52866,1.52356,0.06306,4.51782,0.13182
63675479393632,4,0,0.27435,0.33704,0.41127,0.52466,1.52319,0.06419,4.52564,0.13487
63675479393665,4,0,0.27921,0.3362,0.41248,0.52629,1.52063,0.06424,4.52282,0.13502
63675479393682,4,0,0.28153,0.34701,0.40722,0.52516,1.52538,0.06408,4.52716,0.15168
63675479393715,4,0,0.27713,0.34426,0.41353,0.52907,1.52433,0.06498,4.51571,0.14296
63675479393748,4,0,0.3,0.34073,0.41424,0.52841,1.52446,0.06677,4.53796,0.14626
63675479393765,4,0,0.30792,0.34436,0.40699,0.52545,1.51675,0.06665,4.53282,0.14048
63675479393815,4,0,0.30364,0.34156,0.41412,0.51954,1.51405,0.06674,4.52323,0.13985
63675479393831,4,0,0.31049,0.34268,0.41663,0.52275,1.51297,0.06589,4.52861,0.14519
63675479393847,4,0,0.29863,0.33988,0.41784,0.52405,1.51313,0.06407,4.52722,0.13613
63675479393881,4,0,0.29942,0.33233,0.42084,0.52268,1.51291,0.06724,4.52298,0.13288
63675479393914,4,0,0.29493,0.32921,0.41481,0.51532,1.51353,0.06991,4.52055,0.14475
63675479393931,4,0,0.26518,0.33396,0.42509,0.52378,1.50725,0.07015,4.52516,0.13287
63675479393962,4,0,0.27018,0.32834,0.42194,0.52595,1.51109,0.07826,4.52263,0.13585
63675479394012,4,0,0.25427,0.32478,0.4255,0.52441,1.50389,0.07377,4.5217,0.13269
63675479394046,4,0,0.29005,0.32898,0.42707,0.52044,1.50406,0.07564,4.5193,0.15343
63675479394096,4,0,0.2808,0.32698,0.42464,0.52925,1.49966,0.07368,4.53685,0.14226
63675479394130,4,0,0.28117,0.32769,0.41629,0.5206,1.50429,0.06933,4.509,0.1468
63675479394162,4,0,0.28592,0.33586,0.41949,0.52126,1.50693,0.07058,4.51145,0.14571
63675479394195,4,0,0.27651,0.33587,0.40949,0.5201,1.51069,0.07119,4.50528,0.13799
63675479394212,4,0,0.28435,0.34071,0.40504,0.51824,1.51565,0.06786,4.5182,0.15048
63675479394245,4,0,0.26876,0.33765,0.41172,0.5181,1.5162,0.07285,4.51406,0.1447
63675479394262,4,0,0.24414,0.353,0.41107,0.52052,1.5147,0.07403,4.50814,0.12502
63675479394295,4,0,0.24959,0.35911,0.40831,0.51511,1.51874,0.0786,4.52704,0.14573
63675479394328,4,0,0.25512,0.35582,0.40793,0.51623,1.51979,0.08067,4.53816,0.15169
63675479394344,4,0,0.26066,0.34788,0.41721,0.51567,1.51937,0.07861,4.53725,0.16323
63675479394395,4,0,0.26374,0.35084,0.42325,0.51921,1.51195,0.07934,4.53606,0.16065
63675479394411,4,0,0.27059,0.34714,0.4262,0.52153,1.51507,0.08351,4.53407,0.16062
63675479394444,4,0,0.27612,0.35283,0.41961,0.51607,1.51861,0.0809,4.54125,0.17454
63675479394493,4,0,0.26634,0.35013,0.4189,0.5172,1.51772,0.07629,4.5484,0.17056
63675479394526,4,0,0.27935,0.34403,0.42617,0.52258,1.50433,0.06595,4.52132,0.1444
63675479394560,4,0,0.27869,0.35231,0.41843,0.52109,1.50844,0.06081,4.51943,0.13681
63675479394593,4,0,0.284,0.34384,0.42021,0.51832,1.50898,0.06171,4.52457,0.13944
63675479394609,4,0,0.2604,0.34993,0.41679,0.51988,1.50573,0.05854,4.51017,0.13182
63675479394626,4,0,0.26842,0.34573,0.42216,0.5447,1.49887,0.05711,4.50722,0.11893
63675479394675,4,0,0.27147,0.33882,0.4254,0.54527,1.5007,0.05828,4.49568,0.11843
63675479394692,4,0,0.28139,0.3399,0.4209,0.54575,1.4989,0.0594,4.499,0.12933
63675479394708,4,0,0.28571,0.33935,0.42657,0.54531,1.50403,0.06152,4.49678,0.14031
63675479394741,4,0,0.26529,0.34515,0.41387,0.53335,1.507,0.06318,4.49427,0.13835
63675479394775,4,0,0.26757,0.35033,0.41872,0.54002,1.49871,0.06136,4.49413,0.1601
63675479394791,4,0,0.2666,0.3544,0.42102,0.53907,1.49926,0.06439,4.50263,0.15628
63675479394825,4,0,0.26634,0.35686,0.42019,0.5184,1.50411,0.07002,4.52421,0.1696
63675479394874,4,0,0.24804,0.35781,0.41969,0.52472,1.49954,0.07338,4.54079,0.16459
63675479394908,4,0,0.24351,0.3565,0.4245,0.52903,1.49918,0.07596,4.54975,0.16102
63675479394941,4,0,0.24698,0.35544,0.42417,0.53301,1.4999,0.0738,4.55289,0.16608
63675479394975,4,0,0.22984,0.35124,0.42025,0.52879,1.50303,0.07503,4.56279,0.14021
63675479394991,4,0,0.24375,0.35823,0.42312,0.53967,1.49857,0.07657,4.56314,0.16026
63675479395024,4,0,0.23914,0.34331,0.41418,0.53822,1.49181,0.06981,4.55086,0.13958
63675479395041,4,0,0.2399,0.34576,0.42224,0.53554,1.49004,0.06131,4.55598,0.14858
63675479395074,4,0,0.23889,0.35119,0.4178,0.52809,1.48821,0.06429,4.54404,0.14415
63675479395106,4,0,0.22595,0.3556,0.41464,0.5254,1.48667,0.05833,4.54781,0.14429
63675479395122,4,0,0.22985,0.3599,0.42735,0.5323,1.48519,0.06014,4.5454,0.13798
63675479395156,4,0,0.23771,0.35699,0.42461,0.5363,1.48415,0.0623,4.54359,0.14558
63675479395189,4,0,0.23124,0.36022,0.4159,0.5254,1.4847,0.06013,4.53097,0.13012
63675479395206,4,0,0.22244,0.36978,0.42032,0.51546,1.48207,0.06075,4.52804,0.13614
63675479395256,4,0,0.21876,0.36797,0.42048,0.51856,1.48261,0.05961,4.51656,0.13562
63675479395272,4,0,0.22191,0.3678,0.41792,0.52212,1.4841,0.06456,4.50208,0.12766
63675479395305,4,0,0.23903,0.36981,0.4123,0.5282,1.48309,0.06754,4.5003,0.12564
63675479395322,4,0,0.24183,0.3666,0.4052,0.52327,1.4829,0.06563,4.48393,0.13221
63675479395355,4,0,0.2215,0.36715,0.40491,0.51951,1.48423,0.06443,4.48453,0.12682
63675479395388,4,0,0.22291,0.35555,0.41597,0.52234,1.48371,0.0662,4.48525,0.13235
63675479395405,4,0,0.22843,0.35883,0.40923,0.53215,1.48397,0.06489,4.48548,0.13115
63675479395455,4,0,0.23754,0.36193,0.40786,0.53137,1.48372,0.06422,4.48397,0.13353
63675479395472,4,0,0.2346,0.35312,0.41175,0.5322,1.48452,0.06414,4.48679,0.12194
63675479395504,4,0,0.23201,0.36107,0.41846,0.52136,1.48746,0.06279,4.49559,0.1238
63675479395554,4,0,0.23627,0.35122,0.42469,0.5236,1.48664,0.07068,4.49871,0.12168
63675479395588,4,0,0.23996,0.35056,0.42282,0.5265,1.48951,0.0715,4.50098,0.12166
63675479395637,4,0,0.24548,0.34951,0.43109,0.51788,1.49099,0.07475,4.50442,0.11322
63675479395654,4,0,0.22715,0.3514,0.43215,0.52019,1.49234,0.07528,4.51091,0.12065
63675479395686,4,0,0.23134,0.34616,0.43031,0.52078,1.49235,0.07233,4.52895,0.11934
63675479395703,4,0,0.23738,0.33295,0.4332,0.51883,1.49324,0.0739,4.52358,0.11385
63675479395736,4,0,0.22664,0.33621,0.42627,0.51925,1.49078,0.07303,4.53718,0.11924
63675479395753,4,0,0.22555,0.34776,0.42792,0.51766,1.49318,0.06544,4.53583,0.10806
63675479395785,4,0,0.24819,0.34964,0.41997,0.51555,1.4927,0.06641,4.54852,0.10646
63675479395835,4,0,0.25747,0.3437,0.41491,0.51914,1.48329,0.06416,4.54124,0.10259
63675479395869,4,0,0.25446,0.35694,0.40997,0.51765,1.47793,0.06372,4.52794,0.11412
63675479395902,4,0,0.23926,0.35951,0.40529,0.51744,1.47769,0.06044,4.51493,0.1378
63675479395935,4,0,0.25571,0.35707,0.41651,0.51344,1.47637,0.06132,4.51615,0.16425
63675479395951,4,0,0.26658,0.35458,0.416,0.51479,1.47489,0.06081,4.5067,0.16351
63675479395985,4,0,0.2386,0.35918,0.41942,0.51537,1.46803,0.06095,4.51054,0.15554
63675479396034,4,0,0.2354,0.35461,0.42389,0.50998,1.47054,0.06102,4.50062,0.15489
63675479396067,4,0,0.2412,0.35629,0.42394,0.51026,1.46856,0.05874,4.49554,0.15679
63675479396084,4,0,0.23799,0.34364,0.42571,0.50951,1.4674,0.05952,4.49457,0.14884
63675479396134,4,0,0.22885,0.34124,0.41667,0.50883,1.46417,0.05978,4.49373,0.09619
63675479396150,4,0,0.24251,0.3347,0.41777,0.50637,1.4625,0.0621,4.49742,0.12378
63675479396167,4,0,0.2478,0.32661,0.41851,0.50319,1.46307,0.06027,4.49357,0.12218
63675479396216,4,0,0.24706,0.3226,0.41958,0.50345,1.46314,0.06109,4.50311,0.12678
63675479396233,4,0,0.24723,0.32568,0.41871,0.50437,1.46221,0.06112,4.50377,0.12728
63675479396266,4,0,0.24517,0.33118,0.41905,0.50755,1.46135,0.06348,4.51332,0.12764
63675479396283,4,0,0.24172,0.33345,0.41531,0.50828,1.45969,0.0642,4.51568,0.12998
63675479396316,4,0,0.23947,0.32935,0.41276,0.50674,1.46105,0.0645,4.52813,0.13001
63675479396333,4,0,0.24678,0.32704,0.41346,0.50764,1.45924,0.06522,4.52983,0.13005
63675479396366,4,0,0.21428,0.33333,0.40879,0.50858,1.46311,0.06658,4.53477,0.10416
63675479396416,4,0,0.19891,0.33221,0.40878,0.50847,1.46636,0.06551,4.53834,0.10928
63675479396448,4,0,0.19739,0.32542,0.40933,0.50659,1.46546,0.06264,4.5414,0.12128
63675479396482,4,0,0.20065,0.32811,0.41394,0.50509,1.46457,0.06159,4.54741,0.1159
63675479396514,4,0,0.2152,0.33052,0.41524,0.50668,1.46396,0.06161,4.53318,0.13298
63675479396531,4,0,0.2083,0.33238,0.41521,0.50615,1.46353,0.06095,4.53834,0.145
63675479396564,4,0,0.2261,0.33509,0.42176,0.50753,1.46079,0.05908,4.52065,0.14741
63675479396581,4,0,0.24346,0.34951,0.41223,0.50783,1.45901,0.05763,4.52518,0.15577
63675479396614,4,0,0.23824,0.34883,0.41151,0.50877,1.46108,0.05964,4.51191,0.15682
63675479396647,4,0,0.25888,0.35384,0.40683,0.50419,1.45908,0.06011,4.49877,0.14527
63675479396681,4,0,0.25391,0.35738,0.40698,0.50385,1.45993,0.06236,4.5007,0.14329
63675479396714,4,0,0.24658,0.35659,0.39704,0.50127,1.4584,0.06161,4.4926,0.13084
63675479396731,4,0,0.27116,0.36233,0.40281,0.49899,1.45446,0.06344,4.496,0.14322
63675479396764,4,0,0.27825,0.36023,0.39884,0.49668,1.45482,0.06385,4.49939,0.14904
63675479396796,4,0,0.26232,0.3473,0.40001,0.49513,1.45493,0.06631,4.50297,0.1455
63675479396829,4,0,0.28604,0.33996,0.40522,0.49432,1.44879,0.06605,4.51177,0.15298
63675479396863,4,0,0.27368,0.33778,0.40288,0.49185,1.44707,0.06542,4.5193,0.15142
63675479396896,4,0,0.27535,0.32752,0.40761,0.49175,1.44222,0.06373,4.51939,0.15783
63675479396912,4,0,0.28051,0.33648,0.41836,0.49454,1.44354,0.06178,4.52629,0.16976
63675479396945,4,0,0.25236,0.32036,0.41082,0.49235,1.4444,0.05979,4.53549,0.13672
63675479396996,4,0,0.26355,0.34387,0.41329,0.49251,1.44228,0.05816,4.53081,0.13583
63675479397012,4,0,0.26823,0.35162,0.40977,0.49365,1.43956,0.05944,4.53633,0.14242
63675479397045,4,0,0.27359,0.43505,0.41679,0.49897,1.44099,0.05698,4.52902,0.13817
63675479397095,4,0,0.2746,0.4387,0.40793,0.49884,1.441,0.05697,4.52253,0.13633
63675479397112,4,0,0.26292,0.44082,0.39863,0.49368,1.43945,0.0599,4.52475,0.11847
63675479397144,4,0,0.28376,0.44556,0.39981,0.49736,1.43927,0.0609,4.5123,0.12837
