63675472803367,1,0,0.19755,0.50796,0.28419,0.38973,0.44226,0.35136,4.20071,0.89197
63675472803417,1,0,0.18987,0.50513,0.28033,0.39107,0.44139,0.35353,4.20426,0.89929
63675472803450,1,0,0.19401,0.49575,0.27964,0.38594,0.43613,0.35331,4.20207,0.89166
63675472803466,1,0,0.19033,0.51406,0.27771,0.38866,0.43502,0.35267,4.20156,0.88968
63675472803499,1,0,0.19008,0.51579,0.27797,0.38717,0.42773,0.34925,4.20751,0.87857
63675472803516,0,0,0.18649,0.51694,0.28278,0.3878,0.43891,0.34917,4.20704,0.87841
63675472803549,4,0,0.18914,0.51187,0.27977,0.38255,0.44192,0.34885,4.20944,0.87389
63675472803582,4,0,0.18201,0.51954,0.28529,0.38471,0.4416,0.35087,4.2086,0.87712
63675472803599,4,0,0.19055,0.52937,0.28185,0.38267,0.4473,0.34818,4.21128,0.8647
63675472803648,4,0,0.19207,0.53854,0.27153,0.3812,0.44876,0.34953,4.21181,0.85818
63675472803682,4,0,0.18271,0.56019,0.26892,0.38224,0.4526,0.34921,4.21224,0.86273
63675472803698,4,0,0.18112,0.57749,0.26807,0.38453,0.45503,0.35232,4.21276,0.86377
63675472803731,4,0,0.19458,0.63062,0.27803,0.38775,0.45028,0.35535,4.21454,0.86044
63675472803764,4,0,0.20731,0.60913,0.27499,0.38494,0.44634,0.35342,4.2131,0.85354
63675472803781,4,0,0.20962,0.61826,0.27669,0.38584,0.44274,0.35494,4.21185,0.85085
63675472803831,0,0,0.20697,0.60052,0.27702,0.38475,0.44632,0.3569,4.21257,0.85078
63675472803864,1,0,0.21412,0.59106,0.27423,0.38526,0.4443,0.35829,4.21133,0.84297
63675472803880,1,0,0.21944,0.55914,0.27392,0.38406,0.44591,0.35672,4.2114,0.84163
63675472803930,1,0,0.20766,0.56184,0.26523,0.38422,0.43934,0.35558,4.21003,0.84034
63675472803963,1,0,0.18843,0.5492,0.26908,0.38578,0.45091,0.35889,4.21229,0.84163
63675472803996,1,0,0.19118,0.5493,0.26748,0.38766,0.448,0.35846,4.21061,0.84219
63675472804029,1,0,0.19038,0.54888,0.26796,0.38941,0.4565,0.35925,4.21144,0.84316
63675472804046,1,0,0.19375,0.55727,0.26478,0.3868,0.45848,0.35772,4.21124,0.83703
63675472804063,1,0,0.18365,0.58396,0.26486,0.38754,0.45375,0.35817,4.21155,0.83782
63675472804095,0,0,0.18477,0.55485,0.26298,0.38705,0.45504,0.35792,4.21024,0.83309
63675472804129,0,0,0.18261,0.53605,0.2606,0.38441,0.45834,0.35914,4.2103,0.83031
63675472804146,0,0,0.18887,0.52969,0.261,0.38382,0.4546,0.35709,4.20885,0.82723
63675472804179,0,0,0.20042,0.53679,0.26316,0.38391,0.46001,0.35897,4.20578,0.82072
63675472804228,0,0,0.19311,0.52481,0.26146,0.38319,0.45331,0.35736,4.20568,0.81791
63675472804245,0,0,0.18925,0.52732,0.26478,0.38498,0.45472,0.36054,4.20554,0.82494
63675472804261,1,0,0.20552,0.50012,0.25853,0.38342,0.45536,0.36035,4.2068,0.82348
63675472804312,1,0,0.21963,0.55095,0.26726,0.38185,0.45612,0.36047,4.20717,0.82952
63675472804344,1,0,0.21289,0.53815,0.27334,0.38232,0.45635,0.36173,4.20736,0.82548
63675472804377,1,0,0.22484,0.54009,0.27173,0.38164,0.4484,0.35973,4.2085,0.81663
63675472804411,1,0,0.23153,0.5487,0.27813,0.38399,0.44884,0.36153,4.21036,0.81748
63675472804427,1,0,0.25159,0.59211,0.27862,0.38666,0.44861,0.36338,4.21128,0.81264
63675472804461,1,0,0.24577,0.58021,0.28678,0.38415,0.45451,0.36186,4.21011,0.80847
63675472804477,1,0,0.24497,0.55857,0.28329,0.38721,0.45709,0.36491,4.21013,0.81054
63675472804511,1,0,0.24288,0.55815,0.28178,0.38491,0.4587,0.36447,4.21174,0.80832
63675472804543,1,0,0.24487,0.56743,0.27666,0.38853,0.45207,0.36585,4.20986,0.81106
63675472804576,1,0,0.22978,0.54986,0.28535,0.38709,0.45807,0.3678,4.20886,0.81846
63675472804608,1,0,0.2237,0.56462,0.27273,0.38602,0.45938,0.36746,4.20607,0.81712
63675472804626,1,0,0.21239,0.55715,0.27154,0.38341,0.45662,0.36745,4.20511,0.82877
63675472804642,1,0,0.20454,0.54668,0.27059,0.38721,0.45451,0.36862,4.20332,0.8316
63675472804675,1,0,0.20482,0.56321,0.2667,0.38644,0.45334,0.36968,4.20297,0.8278
63675472804709,1,0,0.19449,0.54351,0.26612,0.38692,0.44783,0.36896,4.19828,0.83059
63675472804742,1,0,0.21153,0.54995,0.25846,0.38328,0.454,0.369,4.19552,0.82019
63675472804759,0,0,0.21747,0.54519,0.25707,0.3825,0.45054,0.36855,4.19632,0.81549
63675472804809,0,0,0.2104,0.54168,0.2632,0.38264,0.44876,0.37011,4.19526,0.818
63675472804825,4,0,0.21931,0.52039,0.25885,0.38427,0.45007,0.37026,4.19602,0.80474
63675472804841,4,0,0.22727,0.54537,0.26558,0.38273,0.4522,0.36935,4.19595,0.8066
63675472804891,4,0,0.2234,0.53321,0.26443,0.38584,0.45224,0.37155,4.19644,0.81122
63675472804908,4,0,0.23461,0.55665,0.26722,0.38539,0.45773,0.37028,4.19556,0.80994
63675472804924,0,0,0.24088,0.56489,0.25884,0.3843,0.45824,0.36871,4.19649,0.79933
63675472804957,0,0,0.26427,0.58262,0.25979,0.38332,0.4643,0.36746,4.19691,0.7967
63675472804990,0,0,0.29779,0.58197,0.25865,0.38177,0.46442,0.36498,4.19579,0.81253
63675472805007,1,0,0.34219,0.57352,0.26523,0.38281,0.4651,0.36852,4.19735,0.80574
63675472805040,1,0,0.37846,0.60802,0.25918,0.37968,0.46314,0.36926,4.19614,0.79267
63675472805090,1,0,0.38936,0.62889,0.25277,0.37559,0.46166,0.36788,4.19604,0.79084
63675472805123,1,0,0.40286,0.62422,0.25803,0.37701,0.46136,0.36945,4.19538,0.80403
63675472805156,1,0,0.39075,0.63528,0.25758,0.37584,0.46858,0.37027,4.19411,0.82141
63675472805189,1,0,0.3796,0.62386,0.25534,0.37678,0.45971,0.37336,4.19442,0.8235
63675472805206,1,0,0.30831,0.65835,0.25969,0.37632,0.45664,0.3715,4.19307,0.82655
63675472805239,1,0,0.27838,0.58757,0.26309,0.38207,0.45461,0.37145,4.19066,0.82615
63675472805289,1,0,0.3099,0.56392,0.27265,0.37901,0.45121,0.37382,4.19063,0.81595
63675472805306,1,0,0.3038,0.5977,0.28132,0.38379,0.44915,0.37624,4.19114,0.83555
63675472805337,1,0,0.33824,0.61457,0.27913,0.38522,0.4483,0.37701,4.19276,0.81781
63675472805388,1,0,0.33431,0.61801,0.27557,0.38419,0.45324,0.37719,4.19326,0.81263
63675472805405,1,0,0.37707,0.58932,0.27704,0.38315,0.4531,0.37861,4.19485,0.80458
63675472805420,1,0,0.40163,0.58254,0.27157,0.38528,0.45678,0.38152,4.19625,0.81457
63675472805471,1,0,0.40808,0.66742,0.26939,0.38221,0.46483,0.38035,4.19918,0.80201
63675472805488,1,0,0.41659,0.62998,0.25994,0.3815,0.46987,0.38186,4.19851,0.79272
63675472805521,1,0,0.43002,0.6355,0.25843,0.3811,0.46894,0.38087,4.19982,0.79916
63675472805570,1,0,0.42959,0.62108,0.25887,0.38186,0.46981,0.38141,4.20058,0.80362
63675472805587,1,0,0.45033,0.62643,0.26785,0.37923,0.46422,0.3801,4.20307,0.80793
63675472805604,1,0,0.43019,0.62098,0.25585,0.38015,0.46225,0.37892,4.20319,0.82056
63675472805636,1,0,0.37843,0.60399,0.25521,0.37883,0.46571,0.37945,4.20193,0.83836
63675472805670,1,0,0.36104,0.54572,0.25716,0.37941,0.46267,0.37745,4.20226,0.85245
63675472805702,1,0,0.35621,0.52583,0.25528,0.37679,0.45631,0.37456,4.20154,0.85009
63675472805736,1,0,0.31938,0.57259,0.25723,0.37865,0.45817,0.37662,4.20215,0.85762
63675472805769,1,0,0.31318,0.55634,0.25551,0.37592,0.45517,0.37356,4.20286,0.84697
63675472805786,1,0,0.33121,0.57394,0.26412,0.37486,0.45761,0.37319,4.20123,0.83257
63675472805819,1,0,0.3362,0.5957,0.26177,0.37264,0.45754,0.37196,4.20362,0.82177
63675472805868,1,0,0.31913,0.59733,0.26717,0.37532,0.45328,0.37174,4.20684,0.81672
63675472805885,1,0,0.35826,0.63565,0.26737,0.37388,0.45936,0.37341,4.2106,0.80327
63675472805918,1,0,0.35834,0.57087,0.27094,0.37425,0.46862,0.37543,4.21241,0.79448
63675472805968,5,0,0.38521,0.56474,0.27056,0.37839,0.47786,0.3793,4.21471,0.79307
63675472806001,5,0,0.37616,0.55951,0.27721,0.37985,0.48422,0.38179,4.21504,0.79152
63675472806051,5,0,0.37063,0.54938,0.28185,0.38237,0.48407,0.38373,4.21707,0.805
63675472806068,5,0,0.36697,0.57002,0.27738,0.38194,0.48876,0.38601,4.21435,0.82208
63675472806084,0,0,0.36011,0.60767,0.27929,0.38053,0.47787,0.38103,4.21532,0.82377
63675472806117,1,0,0.36834,0.63836,0.28126,0.37877,0.47274,0.38158,4.21754,0.82744
63675472806150,1,0,0.36791,0.62427,0.27988,0.38257,0.46549,0.38392,4.21634,0.81767
63675472806183,1,0,0.33373,0.6131,0.27422,0.37779,0.46294,0.38244,4.21797,0.82379
63675472806217,1,0,0.32976,0.55902,0.26323,0.37117,0.45338,0.37962,4.21872,0.82532
63675472806250,1,0,0.33324,0.5518,0.26014,0.37169,0.45262,0.37688,4.21835,0.82213
63675472806267,1,0,0.34768,0.50433,0.26433,0.37383,0.46788,0.38025,4.21977,0.82028
63675472806299,1,0,0.34576,0.51915,0.26331,0.37304,0.46387,0.38171,4.2181,0.82778
63675472806349,1,0,0.32088,0.51152,0.26507,0.37429,0.4727,0.3789,4.21726,0.82987
63675472806365,1,0,0.32876,0.51994,0.26641,0.37263,0.48023,0.3791,4.21624,0.83238
63675472806399,1,0,0.35256,0.56287,0.26749,0.37511,0.48488,0.38049,4.21498,0.8215
63675472806447,1,0,0.34324,0.58545,0.25724,0.37702,0.48901,0.38188,4.21406,0.81709
63675472806464,1,0,0.35264,0.56199,0.25975,0.37656,0.48388,0.38367,4.21238,0.80933
63675472806481,1,0,0.3312,0.58477,0.24952,0.37617,0.48433,0.38484,4.21228,0.79969
63675472806531,5,0,0.35258,0.5968,0.2514,0.37535,0.48209,0.38387,4.21185,0.80038
63675472806548,5,0,0.34221,0.57499,0.25835,0.37411,0.4779,0.38651,4.21277,0.80854
63675472806581,5,0,0.34524,0.57046,0.25356,0.37733,0.47104,0.38697,4.21489,0.80902
63675472806631,5,0,0.35834,0.57364,0.2673,0.37428,0.46291,0.38331,4.21678,0.80908
63675472806648,5,0,0.35412,0.58649,0.26594,0.37282,0.46831,0.38278,4.21807,0.82432
63675472806664,5,0,0.37709,0.57802,0.26076,0.37288,0.46649,0.38204,4.21784,0.81766
63675472806697,5,0,0.36455,0.56601,0.26519,0.37517,0.46854,0.38111,4.21661,0.81523
63675472806730,1,0,0.33792,0.56083,0.26259,0.37806,0.4681,0.38106,4.2152,0.8195
63675472806763,1,0,0.34518,0.55231,0.26672,0.38315,0.47401,0.38188,4.21482,0.81511
63675472806795,1,0,0.31605,0.53163,0.26805,0.38051,0.47404,0.38286,4.21353,0.81591
63675472806829,1,0,0.31268,0.51663,0.26393,0.38021,0.47309,0.38294,4.21401,0.81408
63675472806862,1,0,0.29164,0.49318,0.27156,0.37874,0.46576,0.38317,4.21318,0.80714
63675472806896,1,0,0.30133,0.50532,0.2741,0.3772,0.4631,0.38361,4.21325,0.80932
63675472806928,1,0,0.29423,0.50276,0.28038,0.37517,0.46683,0.38409,4.21405,0.8114
63675472806962,1,0,0.30318,0.53786,0.27331,0.37324,0.48549,0.38453,4.21394,0.80334
63675472806995,1,0,0.2839,0.55545,0.26937,0.37251,0.47892,0.38287,4.21059,0.80946
63675472807029,1,0,0.27994,0.56604,0.26898,0.3771,0.48124,0.38374,4.21217,0.81269
63675472807045,1,0,0.25852,0.56455,0.26627,0.37718,0.48608,0.38286,4.21015,0.82953
63675472807078,1,0,0.25963,0.5572,0.26362,0.37313,0.49567,0.3844,4.2086,0.82427
63675472807112,1,0,0.26592,0.55428,0.26101,0.37398,0.49401,0.38256,4.21008,0.80984
63675472807145,5,0,0.25093,0.53007,0.25972,0.37554,0.48004,0.3819,4.20894,0.8038
63675472807176,5,0,0.24385,0.51808,0.25797,0.37195,0.48895,0.38324,4.21186,0.80301
63675472807210,5,0,0.24006,0.50945,0.2603,0.37252,0.48727,0.38385,4.21058,0.80036
63675472807227,5,0,0.23796,0.51933,0.25543,0.36715,0.49138,0.3822,4.20809,0.79707
63675472807260,5,0,0.2242,0.53189,0.26154,0.37354,0.48082,0.38223,4.20875,0.79392
63675472807309,5,0,0.23779,0.52329,0.25594,0.37203,0.48278,0.38317,4.20542,0.81437
63675472807326,5,0,0.25099,0.52704,0.25481,0.36943,0.48596,0.3844,4.20459,0.80936
63675472807343,5,0,0.25585,0.54489,0.25052,0.37116,0.48695,0.38671,4.20339,0.81782
63675472807376,1,0,0.26228,0.5402,0.24973,0.37027,0.48481,0.38641,4.20287,0.82504
63675472807410,1,0,0.26369,0.51824,0.26791,0.37585,0.48973,0.38779,4.20534,0.83097
63675472807443,1,0,0.26616,0.54475,0.26623,0.37748,0.47939,0.38598,4.2046,0.82372
63675472807475,1,0,0.27796,0.53132,0.25936,0.37443,0.49148,0.38761,4.20516,0.82363
63675472807508,1,0,0.25832,0.52313,0.26663,0.38029,0.49249,0.38874,4.20514,0.82085
63675472807542,1,0,0.23873,0.52589,0.28012,0.38054,0.49357,0.38422,4.20515,0.82526
63675472807559,1,0,0.24066,0.5248,0.28182,0.38084,0.48281,0.38326,4.20424,0.81385
63675472807592,1,0,0.24115,0.5024,0.28579,0.37917,0.47833,0.38505,4.20331,0.8019
63675472807624,5,0,0.27042,0.49996,0.2813,0.37789,0.48676,0.38417,4.20222,0.79718
63675472807658,5,0,0.27588,0.50337,0.28207,0.37542,0.4873,0.38511,4.2012,0.80527
63675472807691,5,0,0.25744,0.52055,0.28227,0.37623,0.4888,0.3863,4.19885,0.80771
63675472807724,5,0,0.28548,0.49584,0.28083,0.37791,0.47528,0.38804,4.19894,0.80773
63675472807756,1,0,0.27072,0.48412,0.27786,0.37825,0.48048,0.38947,4.1983,0.79684
63675472807790,1,0,0.25585,0.51754,0.28303,0.38279,0.50019,0.39093,4.19783,0.81552
63675472807823,1,0,0.23118,0.53413,0.27184,0.38181,0.48922,0.39139,4.19864,0.82433
63675472807840,1,0,0.22486,0.53033,0.28272,0.38357,0.4901,0.39264,4.19969,0.81445
63675472807890,1,0,0.23248,0.52406,0.2821,0.38047,0.49183,0.3925,4.20037,0.80662
63675472807906,1,0,0.23946,0.51359,0.27893,0.37859,0.49681,0.39417,4.20032,0.80539
63675472807956,1,0,0.26496,0.55628,0.26675,0.37478,0.4902,0.39002,4.2009,0.80226
63675472807989,1,0,0.26494,0.53072,0.2705,0.38056,0.48816,0.39416,4.20154,0.80047
63675472808023,1,0,0.26031,0.5233,0.27084,0.37865,0.49051,0.39127,4.2005,0.79736
63675472808039,5,0,0.25967,0.53737,0.26317,0.37901,0.49812,0.39167,4.20204,0.7944
