63677111571210,2,0,0.25712,1.45156,2.71693,0.76411,2.49243,0.35243,4.80958,3E-05
63677111571243,2,0,0.24176,1.48242,2.65572,0.79848,2.50623,0.34751,4.80722,3E-05
63677111571293,2,0,0.23545,1.4986,2.60815,0.82818,2.51681,0.34721,4.80892,3E-05
63677111571326,2,0,0.24403,1.46959,2.62598,0.79763,2.5039,0.34994,4.79712,3E-05
63677111571343,2,0,0.21683,1.47339,2.62566,0.80537,2.50246,0.35028,4.79603,3E-05
63677111571376,2,0,0.20829,1.4691,2.62275,0.79859,2.511,0.346,4.78722,3E-05
63677111571392,2,0,0.21928,1.46377,2.63081,0.7989,2.50993,0.34797,4.78775,3E-05
63677111571426,2,0,0.22112,1.46294,2.62655,0.77528,2.4745,0.35446,4.76911,3E-05
63677111571442,2,0,0.21427,1.44722,2.69024,0.77878,2.47327,0.35565,4.75057,3E-05
63677111571476,2,0,0.21378,1.43732,2.73567,0.77675,2.47237,0.35911,4.75507,3E-05
63677111571508,2,0,0.21528,1.43431,2.72731,0.75924,2.46085,0.36241,4.73941,3E-05
63677111571525,2,0,0.21183,1.43117,2.76284,0.7577,2.46232,0.35997,4.74429,3E-05
63677111571575,2,0,0.2232,1.42953,2.76787,0.76868,2.44666,0.36447,4.7296,3E-05
63677111571608,2,0,0.2238,1.44813,2.76599,0.76441,2.45682,0.35867,4.7251,3E-05
63677111571625,2,0,0.22233,1.45859,2.76079,0.76048,2.45472,0.3543,4.72751,3E-05
63677111571674,2,0,0.22808,1.45505,2.75579,0.75916,2.4556,0.35174,4.72104,3E-05
63677111571691,2,0,0.21637,1.4644,2.77249,0.75765,2.44383,0.34868,4.72177,3E-05
63677111571708,2,0,0.21646,1.46926,2.73702,0.74904,2.43661,0.35223,4.72367,3E-05
63677111571757,2,0,0.20827,1.47532,2.69491,0.76241,2.44168,0.35004,4.73152,3E-05
63677111571773,2,0,0.2008,1.48124,2.68205,0.76602,2.43117,0.35001,4.73242,3E-05
63677111571790,2,0,0.2107,1.46561,2.68606,0.76165,2.42005,0.35444,4.73848,3E-05
63677111571823,2,0,0.21049,1.44392,2.688,0.75146,2.40964,0.36129,4.73936,3E-05
63677111571856,2,0,0.21295,1.4547,2.70221,0.74214,2.39542,0.36371,4.75328,3E-05
63677111571872,2,0,0.2333,1.43514,2.6734,0.72658,2.38351,0.37047,4.75465,3E-05
63677111571906,2,0,0.2433,1.44086,2.66492,0.73663,2.38394,0.36718,4.77157,3E-05
63677111571955,2,0,0.265,1.42322,2.70654,0.69901,2.35295,0.37056,4.79136,3E-05
63677111571989,2,0,0.25756,1.42781,2.67545,0.71817,2.36065,0.36738,4.80775,3E-05
63677111572022,2,0,0.25564,1.45448,2.65941,0.73259,2.36709,0.36069,4.80691,3E-05
63677111572055,2,0,0.25715,1.44336,2.64477,0.73495,2.36394,0.359,4.82425,3E-05
63677111572072,2,0,0.24593,1.44479,2.6348,0.72165,2.35791,0.35676,4.82315,3E-05
63677111572105,2,0,0.24401,1.43529,2.65533,0.71814,2.34679,0.36091,4.837,3E-05
63677111572137,2,0,0.24661,1.44109,2.64484,0.72807,2.35392,0.36192,4.83795,3E-05
63677111572154,2,0,0.23471,1.45002,2.64953,0.73454,2.3595,0.35751,4.84833,3E-05
63677111572188,2,0,0.23152,1.45888,2.6681,0.7371,2.3616,0.35708,4.85484,3E-05
63677111572237,2,0,0.23454,1.43874,2.72576,0.71514,2.35652,0.36628,4.85796,3E-05
63677111572271,2,0,0.23428,1.4342,2.74302,0.72294,2.35686,0.36767,4.83882,3E-05
63677111572304,2,0,0.2263,1.42286,2.72282,0.71865,2.33464,0.36526,4.80624,3E-05
63677111572336,2,0,0.2305,1.41048,2.71705,0.72641,2.33167,0.36038,4.79584,3E-05
63677111572354,2,0,0.22995,1.39315,2.72766,0.71696,2.3075,0.35901,4.76529,3E-05
63677111572387,2,0,0.23324,1.38076,2.75262,0.71073,2.29149,0.36105,4.75517,3E-05
63677111572404,2,0,0.23846,1.36551,2.76228,0.70493,2.272,0.35813,4.72505,3E-05
63677111572436,2,0,0.23011,1.35723,2.7546,0.72297,2.2683,0.35486,4.71737,3E-05
63677111572470,2,0,0.22582,1.35802,2.67121,0.72562,2.24106,0.3454,4.68323,3E-05
63677111572485,2,0,0.22646,1.36251,2.65545,0.71885,2.24204,0.34129,4.6855,3E-05
63677111572535,2,0,0.21802,1.35487,2.65933,0.71167,2.22476,0.34659,4.6767,3E-05
63677111572552,2,0,0.21821,1.3497,2.6796,0.69894,2.23232,0.34722,4.67095,3E-05
63677111572569,2,0,0.20609,1.35075,2.64957,0.70261,2.24264,0.34445,4.66243,3E-05
63677111572602,2,0,0.19015,1.34863,2.62374,0.70106,2.24334,0.3404,4.65673,3E-05
63677111572635,2,0,0.19941,1.34993,2.62304,0.69453,2.24053,0.3386,4.64605,3E-05
63677111572652,2,0,0.20116,1.35323,2.62794,0.69749,2.23872,0.33759,4.64023,3E-05
63677111572685,2,0,0.19807,1.3436,2.61575,0.6849,2.23544,0.3404,4.62927,3E-05
63677111572734,2,0,0.19327,1.35133,2.58975,0.69248,2.23282,0.33967,4.60137,3E-05
63677111572768,2,0,0.19461,1.34057,2.61605,0.68172,2.22353,0.34127,4.59745,3E-05
63677111572818,2,0,0.20253,1.3436,2.57819,0.68356,2.21196,0.34851,4.5792,3E-05
63677111572851,2,0,0.20501,1.3429,2.5779,0.67996,2.20508,0.35144,4.57087,3E-05
63677111572867,2,0,0.20464,1.34568,2.57542,0.66911,2.19764,0.35356,4.56719,3E-05
63677111572917,2,0,0.20436,1.34798,2.55633,0.66965,2.2023,0.35788,4.5637,3E-05
63677111572934,2,0,0.20507,1.34671,2.55649,0.68545,2.21703,0.35154,4.56176,3E-05
63677111572966,2,0,0.20834,1.34438,2.55878,0.6807,2.21092,0.34937,4.56541,3E-05
63677111572983,2,0,0.2098,1.34378,2.56712,0.68971,2.21726,0.34823,4.56127,3E-05
63677111573016,2,0,0.20866,1.3386,2.56595,0.68343,2.22115,0.34666,4.56911,3E-05
63677111573050,2,0,0.21011,1.33252,2.56227,0.67607,2.22214,0.3484,4.58408,3E-05
63677111573083,2,0,0.20536,1.33347,2.59319,0.697,2.22159,0.34644,4.59062,3E-05
63677111573115,2,0,0.20971,1.32937,2.59993,0.69339,2.21445,0.3478,4.60302,3E-05
63677111573132,2,0,0.23077,1.32369,2.61942,0.68472,2.20198,0.35328,4.60158,3E-05
63677111573165,2,0,0.2234,1.32514,2.60819,0.69664,2.20755,0.35615,4.61304,3E-05
63677111573182,2,0,0.22392,1.33736,2.57549,0.70312,2.19936,0.35866,4.61256,3E-05
63677111573215,2,0,0.2139,1.33235,2.60861,0.68916,2.18827,0.36171,4.63136,3E-05
63677111573248,2,0,0.21384,1.33774,2.5983,0.70612,2.19702,0.36001,4.63869,3E-05
63677111573298,2,0,0.21559,1.34029,2.55376,0.69965,2.20444,0.36394,4.64522,3E-05
63677111573330,2,0,0.19261,1.34866,2.52978,0.71243,2.2142,0.3637,4.64598,3E-05
63677111573347,2,0,0.20074,1.35108,2.53468,0.7064,2.21149,0.36605,4.65809,3E-05
63677111573397,2,0,0.19182,1.34998,2.53169,0.70372,2.21097,0.36455,4.65695,3E-05
63677111573414,2,0,0.1979,1.35487,2.53244,0.70913,2.21102,0.36475,4.66581,3E-05
63677111573431,2,0,0.20453,1.35661,2.52708,0.70961,2.21436,0.3634,4.66026,3E-05
63677111573464,2,0,0.22631,1.34044,2.59801,0.6976,2.20224,0.3613,4.66934,3E-05
63677111573496,2,0,0.22256,1.33479,2.62132,0.69526,2.19862,0.36239,4.67228,3E-05
63677111573513,2,0,0.22651,1.3304,2.6234,0.69488,2.19643,0.36159,4.6684,3E-05
63677111573562,2,0,0.21126,1.32696,2.64389,0.67887,2.187,0.36071,4.67692,3E-05
63677111573596,2,0,0.21277,1.325,2.64691,0.67171,2.19444,0.36199,4.67676,3E-05
63677111573612,2,0,0.21463,1.32277,2.62831,0.66611,2.18941,0.36355,4.68004,3E-05
63677111573646,2,0,0.21334,1.31589,2.64246,0.66967,2.19024,0.36344,4.67935,3E-05
63677111573662,2,0,0.20251,1.32723,2.63452,0.68066,2.19491,0.36021,4.68236,3E-05
63677111573695,2,0,0.17925,1.33503,2.59368,0.68345,2.19598,0.36116,4.68063,3E-05
63677111573712,2,0,0.18483,1.34354,2.58685,0.68611,2.21232,0.35868,4.68077,3E-05
63677111573745,2,0,0.19392,1.3536,2.53372,0.71269,2.21987,0.35533,4.682,3E-05
63677111573762,2,0,0.21498,1.34516,2.56579,0.71895,2.21911,0.35532,4.66937,3E-05
63677111573795,2,0,0.21439,1.33897,2.58361,0.7127,2.20842,0.35674,4.67545,3E-05
63677111573828,2,0,0.22064,1.34609,2.55432,0.71354,2.20395,0.3576,4.66115,3E-05
63677111573844,2,0,0.22921,1.33423,2.53178,0.69778,2.18861,0.36448,4.6623,3E-05
63677111573877,2,0,0.23838,1.3221,2.56265,0.69634,2.18907,0.36395,4.64731,3E-05
63677111573911,2,0,0.23778,1.3157,2.5353,0.66986,2.16722,0.36493,4.64716,3E-05
63677111573944,2,0,0.22819,1.31631,2.5404,0.67075,2.16162,0.36705,4.62485,3E-05
63677111573977,2,0,0.22891,1.2999,2.58499,0.64468,2.15096,0.37085,4.62831,3E-05
63677111573993,2,0,0.21071,1.31601,2.55486,0.65563,2.1596,0.36775,4.60927,3E-05
63677111574010,2,0,0.2082,1.30995,2.59043,0.64943,2.16361,0.36712,4.5889,3E-05
63677111574043,2,0,0.20146,1.31184,2.60579,0.65443,2.17402,0.36475,4.59202,3E-05
63677111574077,2,0,0.19616,1.32265,2.59631,0.66147,2.17851,0.36487,4.5799,3E-05
63677111574093,2,0,0.19268,1.33825,2.58857,0.68366,2.19131,0.36208,4.57923,3E-05
63677111574125,2,0,0.20028,1.33734,2.58861,0.6806,2.19084,0.36054,4.56796,3E-05
63677111574176,2,0,0.20525,1.3451,2.57347,0.69208,2.18192,0.36273,4.56871,3E-05
63677111574192,2,0,0.19702,1.35545,2.52194,0.68433,2.17083,0.36549,4.5651,3E-05
63677111574225,2,0,0.19508,1.35021,2.52306,0.67923,2.1663,0.36545,4.56304,3E-05
63677111574275,2,0,0.19688,1.35557,2.5352,0.67622,2.16473,0.36515,4.56719,3E-05
63677111574292,2,0,0.19245,1.34857,2.50801,0.67327,2.15955,0.36486,4.56814,3E-05
63677111574325,2,0,0.19037,1.35252,2.49235,0.6895,2.15819,0.3631,4.57365,3E-05
63677111574375,2,0,0.19117,1.35007,2.5012,0.6821,2.16819,0.36026,4.57592,3E-05
63677111574392,2,0,0.1974,1.34386,2.52101,0.68967,2.17304,0.35954,4.58523,3E-05
63677111574425,2,0,0.19561,1.34457,2.55859,0.7133,2.18824,0.3569,4.59595,3E-05
63677111574457,2,0,0.19631,1.3449,2.54803,0.71454,2.19119,0.35455,4.59646,3E-05
63677111574473,2,0,0.21616,1.33715,2.56541,0.69869,2.1858,0.35555,4.60187,3E-05
63677111574507,2,0,0.21157,1.33512,2.58804,0.70371,2.18405,0.35619,4.60542,3E-05
63677111574557,2,0,0.20879,1.3322,2.602,0.69539,2.1842,0.35676,4.61629,3E-05
63677111574574,2,0,0.20444,1.33414,2.59538,0.70518,2.18905,0.35177,4.62444,3E-05
63677111574591,2,0,0.19623,1.3355,2.582,0.69327,2.19051,0.34876,4.6258,3E-05
63677111574623,2,0,0.18701,1.34106,2.56735,0.69032,2.17719,0.35011,4.63116,3E-05
63677111574656,2,0,0.18644,1.34094,2.54469,0.67914,2.16962,0.35147,4.63028,3E-05
63677111574689,2,0,0.17119,1.3332,2.55912,0.66772,2.16405,0.35247,4.63456,3E-05
63677111574722,2,0,0.17498,1.33068,2.54784,0.67579,2.17474,0.35357,4.64035,3E-05
63677111574756,2,0,0.17101,1.31994,2.56377,0.67814,2.17594,0.35599,4.64007,3E-05
63677111574788,2,0,0.18426,1.32231,2.54918,0.67599,2.17518,0.35793,4.64103,3E-05
63677111574821,2,0,0.18854,1.31248,2.53811,0.67262,2.17395,0.36143,4.64819,3E-05
63677111574855,2,0,0.1836,1.31726,2.55509,0.68849,2.17392,0.36254,4.64779,3E-05
63677111574872,2,0,0.18559,1.33029,2.54759,0.7083,2.17673,0.3618,4.65576,3E-05
63677111574937,2,0,0.19032,1.33569,2.52867,0.70132,2.17335,0.35995,4.65033,3E-05
63677111574954,2,0,0.19295,1.33371,2.5411,0.67305,2.1494,0.36141,4.65543,3E-05
63677111574971,2,0,0.18416,1.33085,2.54076,0.67954,2.15012,0.35962,4.66556,3E-05
63677111575005,2,0,0.18256,1.33001,2.56437,0.68052,2.15841,0.3571,4.65714,3E-05
63677111575037,2,0,0.18928,1.33257,2.56675,0.68089,2.15609,0.35678,4.66934,3E-05
63677111575054,2,0,0.19755,1.32494,2.56395,0.67039,2.15511,0.35542,4.66457,3E-05
63677111575104,2,0,0.20285,1.31171,2.56459,0.65083,2.15346,0.35804,4.67696,3E-05
63677111575136,2,0,0.2046,1.30858,2.58534,0.67474,2.1613,0.3593,4.68271,3E-05
63677111575153,2,0,0.20192,1.30789,2.57328,0.67153,2.16397,0.35673,4.67647,3E-05
63677111575186,2,0,0.20563,1.31089,2.56161,0.67098,2.16376,0.35729,4.68571,3E-05
63677111575235,2,0,0.18914,1.32289,2.54036,0.66943,2.16258,0.35813,4.66725,3E-05
63677111575269,2,0,0.1861,1.32438,2.5583,0.67571,2.15658,0.35731,4.66548,3E-05
63677111575302,2,0,0.1881,1.32989,2.53764,0.67324,2.15498,0.35798,4.65407,3E-05
63677111575335,2,0,0.18299,1.33007,2.5369,0.67135,2.15495,0.35653,4.65079,3E-05
63677111575369,2,0,0.17868,1.33321,2.57888,0.65237,2.14057,0.36116,4.63091,3E-05
63677111575402,2,0,0.18203,1.33419,2.55005,0.66108,2.14222,0.36261,4.62513,3E-05
63677111575435,2,0,0.20269,1.31881,2.59347,0.64029,2.13694,0.36763,4.62286,3E-05
63677111575468,2,0,0.20052,1.32288,2.60435,0.63887,2.13506,0.36839,4.61495,3E-05
63677111575517,2,0,0.22623,1.31842,2.6301,0.64509,2.14268,0.36938,4.59442,3E-05
63677111575551,2,0,0.22285,1.32589,2.58563,0.64201,2.14145,0.36989,4.58699,3E-05
63677111575583,2,0,0.21594,1.33005,2.57221,0.65648,2.15026,0.36827,4.58105,3E-05
63677111575616,2,0,0.20934,1.32838,2.53708,0.66508,2.14298,0.36662,4.56745,3E-05
63677111575651,2,0,0.20913,1.32681,2.54409,0.67744,2.14777,0.36436,4.56315,3E-05
63677111575684,2,0,0.20156,1.32264,2.56095,0.68131,2.15236,0.36195,4.56659,3E-05
63677111575716,2,0,0.18693,1.32923,2.52028,0.67803,2.15381,0.36037,4.56112,3E-05
63677111575732,2,0,0.19153,1.31862,2.52862,0.66128,2.14842,0.36213,4.56698,3E-05
63677111575766,2,0,0.20282,1.30794,2.56184,0.66511,2.15371,0.35913,4.57476,3E-05
63677111575816,2,0,0.19536,1.30655,2.58475,0.65529,2.14417,0.36116,4.57239,3E-05
63677111575832,2,0,0.19161,1.31831,2.60463,0.66075,2.15066,0.35978,4.58522,3E-05
63677111575849,2,0,0.19825,1.32411,2.57915,0.65934,2.15189,0.35756,4.58173,3E-05
63677111575882,2,0,0.19967,1.33875,2.55958,0.6735,2.14827,0.35892,4.59345,3E-05
63677111575915,2,0,0.18079,1.34679,2.56319,0.6698,2.1342,0.3596,4.60394,3E-05
63677111575948,2,0,0.17485,1.35048,2.5556,0.6682,2.12869,0.36002,4.59937,3E-05
63677111575998,2,0,0.16874,1.35391,2.55707,0.67998,2.12796,0.36004,4.61499,3E-05
63677111576015,2,0,0.16801,1.3534,2.54313,0.6799,2.13021,0.36029,4.61282,3E-05
63677111576048,2,0,0.16792,1.34156,2.54615,0.6663,2.11418,0.36193,4.61962,3E-05
63677111576097,2,0,0.16325,1.34784,2.50736,0.66277,2.10489,0.35989,4.63058,3E-05
63677111576130,2,0,0.18365,1.34644,2.50998,0.65546,2.10162,0.35889,4.63957,3E-05
63677111576163,2,0,0.18011,1.34786,2.523,0.65266,2.10287,0.35983,4.64017,3E-05
63677111576196,2,0,0.18156,1.34369,2.53031,0.65365,2.10331,0.35838,4.64846,3E-05
63677111576230,2,0,0.17449,1.3445,2.52985,0.66024,2.1128,0.35812,4.65112,3E-05
63677111576246,2,0,0.18419,1.34023,2.54579,0.6663,2.11922,0.35782,4.65437,3E-05
63677111576296,2,0,0.18913,1.33536,2.55093,0.66686,2.11451,0.35943,4.65191,3E-05
63677111576313,2,0,0.19114,1.32907,2.58029,0.68109,2.12634,0.35852,4.66154,3E-05
63677111576346,2,0,0.17516,1.33029,2.53345,0.68504,2.12478,0.35584,4.66292,3E-05
63677111576396,2,0,0.17161,1.32695,2.53234,0.68081,2.12288,0.35592,4.65995,3E-05
63677111576413,2,0,0.17213,1.33702,2.52965,0.67233,2.1179,0.35757,4.66693,3E-05
63677111576429,2,0,0.18521,1.33956,2.5275,0.68339,2.11696,0.35539,4.66531,3E-05
63677111576495,2,0,0.1702,1.34237,2.50972,0.67767,2.11444,0.35414,4.67394,3E-05
63677111576511,2,0,0.16744,1.34273,2.50646,0.663,2.10706,0.35503,4.67533,3E-05
63677111576528,2,0,0.17386,1.34543,2.52335,0.6525,2.09907,0.35894,4.67004,3E-05
63677111576578,2,0,0.17471,1.33451,2.52881,0.64775,2.09404,0.36085,4.66576,3E-05
63677111576594,2,0,0.18045,1.32677,2.54209,0.6492,2.08845,0.36236,4.65656,3E-05
63677111576628,2,0,0.17061,1.33167,2.53183,0.63735,2.08331,0.36283,4.65285,3E-05
63677111576677,2,0,0.17193,1.33398,2.54087,0.64149,2.08773,0.36273,4.64742,3E-05
63677111576694,2,0,0.17336,1.33457,2.51289,0.63872,2.08333,0.36195,4.63055,3E-05
63677111576727,2,0,0.1701,1.32945,2.5175,0.64466,2.08665,0.36026,4.62562,3E-05
63677111576777,2,0,0.17457,1.33824,2.50851,0.65302,2.0883,0.35884,4.62153,3E-05
63677111576793,2,0,0.17349,1.33505,2.49038,0.66023,2.09459,0.35548,4.61796,3E-05
63677111576827,2,0,0.19126,1.32723,2.47807,0.65764,2.09374,0.35555,4.60398,3E-05
63677111576843,2,0,0.18806,1.32826,2.47889,0.64402,2.09065,0.35482,4.593,3E-05
63677111576876,2,0,0.19226,1.33275,2.47348,0.64412,2.09535,0.35525,4.58713,3E-05
63677111576909,2,0,0.19552,1.32151,2.50842,0.63868,2.08953,0.35567,4.58239,3E-05
63677111576943,2,0,0.19025,1.31544,2.51573,0.64226,2.09911,0.35528,4.57228,3E-05
63677111576976,2,0,0.18855,1.32203,2.51454,0.64225,2.0957,0.35574,4.56456,3E-05
63677111577009,2,0,0.18552,1.32131,2.52091,0.63749,2.08569,0.35759,4.56339,3E-05
63677111577026,2,0,0.16807,1.32571,2.51088,0.63831,2.09119,0.35702,4.56207,3E-05
63677111577058,2,0,0.17751,1.32008,2.49343,0.64507,2.09123,0.35819,4.56429,3E-05
63677111577091,2,0,0.17609,1.31949,2.49094,0.64974,2.08804,0.35761,4.56542,3E-05
63677111577124,2,0,0.17105,1.3203,2.47025,0.64719,2.08938,0.35939,4.57224,3E-05
63677111577158,2,0,0.17042,1.32857,2.45216,0.6445,2.09167,0.35658,4.58776,3E-05
63677111577174,2,0,0.17439,1.32699,2.45384,0.6426,2.09153,0.35662,4.59205,3E-05
63677111577191,2,0,0.18053,1.31982,2.47971,0.63562,2.09735,0.35588,4.60531,3E-05
63677111577224,2,0,0.18249,1.3207,2.48782,0.64203,2.09297,0.35591,4.60238,3E-05
63677111577257,2,0,0.17754,1.32471,2.4957,0.63938,2.08934,0.35865,4.6156,3E-05
63677111577291,2,0,0.18837,1.31916,2.49974,0.63487,2.08519,0.35895,4.61368,3E-05
63677111577307,2,0,0.19444,1.3184,2.47584,0.63796,2.07949,0.36069,4.62609,3E-05
63677111577357,2,0,0.18821,1.32371,2.49379,0.65425,2.09062,0.35701,4.62551,3E-05
63677111577373,2,0,0.19231,1.32708,2.48919,0.65578,2.08021,0.35992,4.63571,3E-05
63677111577390,2,0,0.18167,1.33156,2.47126,0.65291,2.07536,0.35985,4.6396,3E-05
63677111577423,2,0,0.1882,1.33149,2.47855,0.64794,2.07054,0.36023,4.63492,3E-05
63677111577456,2,0,0.19437,1.32796,2.4881,0.65349,2.0746,0.35765,4.64601,3E-05
63677111577473,2,0,0.18042,1.33231,2.48305,0.66057,2.07738,0.35832,4.6444,3E-05
63677111577506,2,0,0.19328,1.32162,2.52289,0.64847,2.07555,0.36198,4.65105,3E-05
63677111577554,2,0,0.20331,1.31406,2.52606,0.64063,2.08184,0.35602,4.65359,3E-05
63677111577588,2,0,0.21028,1.30711,2.53011,0.65591,2.08826,0.3568,4.64974,3E-05
63677111577605,2,0,0.20766,1.31125,2.50716,0.6653,2.08506,0.35742,4.65546,3E-05
63677111577638,2,0,0.18868,1.31275,2.51737,0.66209,2.09335,0.35353,4.66466,3E-05
63677111577671,2,0,0.1937,1.30952,2.54773,0.64609,2.08362,0.3534,4.66045,3E-05
63677111577705,2,0,0.18199,1.32401,2.5217,0.65343,2.08713,0.35031,4.66718,3E-05
63677111577737,2,0,0.18266,1.32488,2.51448,0.6584,2.0872,0.35037,4.66751,3E-05
63677111577754,2,0,0.18337,1.3242,2.52229,0.64743,2.07053,0.35649,4.67282,3E-05
63677111577787,2,0,0.1841,1.3294,2.51144,0.63073,2.06384,0.35438,4.67443,3E-05
63677111577804,2,0,0.18601,1.3352,2.541,0.63405,2.06907,0.35099,4.67832,3E-05
63677111577837,2,0,0.19452,1.32817,2.55117,0.62885,2.05575,0.35409,4.67325,3E-05
63677111577870,2,0,0.19824,1.33576,2.53382,0.64704,2.06953,0.35459,4.67713,3E-05
63677111577887,2,0,0.21868,1.33255,2.52623,0.66981,2.0797,0.35213,4.67954,3E-05
63677111577935,2,0,0.21668,1.32845,2.5308,0.66411,2.07171,0.3537,4.66536,3E-05
63677111577952,2,0,0.21284,1.32136,2.55904,0.66879,2.0798,0.34945,4.672,3E-05
63677111577969,2,0,0.21356,1.32191,2.57372,0.67215,2.08395,0.35087,4.66153,3E-05
63677111578002,2,0,0.22262,1.3145,2.56018,0.66817,2.07896,0.3536,4.66326,3E-05
63677111578036,2,0,0.22474,1.31918,2.54457,0.68578,2.08832,0.35136,4.64546,3E-05
63677111578052,2,0,0.23235,1.31,2.5477,0.67887,2.08123,0.35224,4.64595,3E-05
63677111578086,2,0,0.22153,1.31152,2.50925,0.67676,2.08215,0.35153,4.62877,3E-05
63677111578102,2,0,0.21264,1.31414,2.52477,0.67337,2.08018,0.35003,4.62958,3E-05
63677111578135,2,0,0.21443,1.32067,2.5232,0.67508,2.08465,0.35117,4.61927,3E-05
63677111578168,2,0,0.20795,1.32316,2.50735,0.67791,2.08763,0.35219,4.59591,3E-05
63677111578185,2,0,0.19777,1.32794,2.50292,0.66804,2.08907,0.35068,4.59693,3E-05
63677111578218,2,0,0.18391,1.33572,2.48332,0.67165,2.08452,0.34905,4.58642,3E-05
63677111578251,2,0,0.18733,1.34046,2.48869,0.67438,2.08162,0.34857,4.58927,3E-05
63677111578268,2,0,0.18056,1.34628,2.50409,0.68497,2.08625,0.34667,4.57124,3E-05
63677111578318,2,0,0.18166,1.3411,2.49932,0.68702,2.09616,0.34567,4.57325,3E-05
63677111578334,2,0,0.17576,1.34334,2.47633,0.68278,2.09026,0.34451,4.56304,3E-05
63677111578351,2,0,0.18558,1.33645,2.49484,0.67407,2.08073,0.34807,4.56579,3E-05
63677111578384,2,0,0.19854,1.34046,2.49036,0.67591,2.08101,0.34832,4.56972,3E-05
63677111578417,2,0,0.18874,1.33709,2.49641,0.69294,2.08633,0.34764,4.57215,3E-05
63677111578434,2,0,0.18406,1.33152,2.51704,0.66825,2.08188,0.35007,4.57508,3E-05
63677111578466,2,0,0.18817,1.33098,2.53494,0.65956,2.07182,0.35082,4.57788,3E-05
63677111578516,2,0,0.18555,1.33862,2.51094,0.65249,2.05209,0.35346,4.58589,3E-05
63677111578549,2,0,0.17612,1.34552,2.49401,0.65272,2.05263,0.35154,4.58486,3E-05
63677111578582,2,0,0.16624,1.34031,2.4794,0.65159,2.04342,0.35459,4.58782,3E-05
63677111578616,2,0,0.17113,1.34135,2.49824,0.63862,2.03377,0.35581,4.58809,3E-05
63677111578632,2,0,0.16637,1.34181,2.50006,0.64209,2.02973,0.35666,4.59169,3E-05
63677111578665,2,0,0.17814,1.33604,2.50067,0.64215,2.03042,0.35853,4.59573,3E-05
63677111578682,2,0,0.1887,1.33348,2.48295,0.6502,2.03731,0.35985,4.60635,3E-05
63677111578715,2,0,0.18889,1.33002,2.49959,0.65332,2.04028,0.35867,4.61688,3E-05
63677111578748,2,0,0.19193,1.32597,2.50971,0.65995,2.04837,0.35827,4.61423,3E-05
63677111578798,2,0,0.19377,1.3435,2.49848,0.68591,2.05813,0.35078,4.63097,3E-05
63677111578831,2,0,0.19558,1.34057,2.48695,0.68032,2.05723,0.34921,4.64267,3E-05
63677111578865,2,0,0.18713,1.34767,2.47965,0.66565,2.05873,0.34781,4.64054,3E-05
63677111578898,2,0,0.18232,1.3434,2.50469,0.65834,2.05378,0.35034,4.6456,3E-05
63677111578914,2,0,0.17515,1.3498,2.50929,0.65832,2.04807,0.34917,4.64711,3E-05
63677111578947,2,0,0.18066,1.35405,2.48126,0.66332,2.03655,0.3496,4.65361,3E-05
63677111578963,2,0,0.17671,1.35467,2.46699,0.6559,2.02882,0.35103,4.6515,3E-05
63677111578996,2,0,0.16251,1.34829,2.48933,0.6472,2.03026,0.35046,4.6479,3E-05
63677111579030,2,0,0.15575,1.34433,2.49373,0.64094,2.01785,0.3557,4.6468,3E-05
63677111579046,2,0,0.16425,1.33897,2.48049,0.65512,2.0132,0.35619,4.64262,3E-05
63677111579096,2,0,0.16896,1.33846,2.44165,0.66129,2.00885,0.35608,4.65306,3E-05
63677111579113,2,0,0.17004,1.32589,2.47438,0.64621,2.00625,0.35885,4.6509,3E-05
63677111579129,2,0,0.17977,1.31364,2.50391,0.63889,2.00502,0.36209,4.66063,3E-05
63677111579163,2,0,0.17358,1.31607,2.50714,0.63541,2.00955,0.3591,4.65575,3E-05
63677111579196,2,0,0.17927,1.30929,2.52371,0.64247,2.01075,0.36111,4.66127,3E-05
63677111579213,2,0,0.17872,1.31421,2.52567,0.64583,2.01601,0.35954,4.6747,3E-05
63677111579245,2,0,0.1842,1.31617,2.53728,0.64877,2.02808,0.35712,4.66773,3E-05
63677111579279,2,0,0.18099,1.30847,2.55867,0.63638,2.02811,0.35681,4.67446,3E-05
63677111579294,2,0,0.18481,1.31356,2.55698,0.64607,2.03178,0.3551,4.66333,3E-05
63677111579327,2,0,0.19206,1.32355,2.53509,0.64654,2.03974,0.35248,4.66902,3E-05
63677111579377,2,0,0.20839,1.3217,2.52508,0.63942,2.04157,0.35416,4.65798,3E-05
63677111579411,2,0,0.20957,1.32279,2.50775,0.63973,2.04489,0.35065,4.64938,3E-05
63677111579444,2,0,0.21263,1.32307,2.49364,0.63808,2.03946,0.34945,4.64416,3E-05
63677111579477,2,0,0.20575,1.31856,2.532,0.62133,2.02323,0.35321,4.62869,3E-05
63677111579493,2,0,0.19658,1.31447,2.51276,0.61755,2.01979,0.35481,4.61477,3E-05
63677111579527,2,0,0.17893,1.32418,2.50557,0.63139,2.01391,0.35476,4.60668,3E-05
63677111579543,2,0,0.16304,1.32852,2.51171,0.62976,2.01943,0.35152,4.60156,3E-05
63677111579577,2,0,0.16438,1.323,2.51754,0.62704,2.01213,0.3547,4.5926,3E-05
63677111579610,2,0,0.17058,1.33046,2.50347,0.63254,2.01155,0.35813,4.58558,3E-05
63677111579626,2,0,0.16714,1.33134,2.50365,0.64105,2.01639,0.35663,4.57435,3E-05
63677111579676,2,0,0.16612,1.33368,2.49779,0.64526,2.01278,0.3578,4.5665,3E-05
63677111579692,2,0,0.16502,1.34473,2.47887,0.66636,2.02715,0.35311,4.55979,3E-05
63677111579709,2,0,0.17291,1.34877,2.49093,0.6662,2.0335,0.35255,4.55971,3E-05
63677111579742,2,0,0.18116,1.34288,2.50558,0.67245,2.02273,0.35714,4.55365,3E-05
63677111579774,2,0,0.17642,1.33913,2.51872,0.68513,2.03684,0.35551,4.55602,3E-05
63677111579791,2,0,0.1716,1.34068,2.52822,0.67485,2.03376,0.35424,4.55426,3E-05
63677111579825,2,0,0.17159,1.33991,2.52871,0.67959,2.0362,0.35498,4.56762,3E-05
63677111579875,2,0,0.17304,1.33993,2.54028,0.68116,2.04214,0.35469,4.56673,3E-05
63677111579891,2,0,0.17096,1.33791,2.53193,0.67439,2.0417,0.35735,4.57707,3E-05
63677111579925,2,0,0.16759,1.33512,2.53568,0.67693,2.04864,0.35412,4.57564,3E-05
63677111579958,2,0,0.16826,1.33246,2.53168,0.67372,2.04927,0.35284,4.59256,3E-05
63677111579991,2,0,0.18381,1.33416,2.5321,0.66558,2.04218,0.35548,4.59936,3E-05
63677111580007,2,0,0.18182,1.32623,2.53764,0.65075,2.02717,0.35867,4.59358,3E-05
63677111580056,2,0,0.19052,1.32175,2.52274,0.64556,2.01932,0.35722,4.60673,3E-05
63677111580089,2,0,0.1877,1.32033,2.54855,0.63903,2.01555,0.35736,4.62344,3E-05
63677111580106,2,0,0.1853,1.32179,2.54237,0.63571,1.9953,0.36226,4.62077,3E-05
63677111580156,2,0,0.17766,1.32648,2.51753,0.63339,1.99784,0.36223,4.6324,3E-05
63677111580172,2,0,0.18209,1.31454,2.51846,0.62061,1.98491,0.36463,4.63058,3E-05
63677111580189,2,0,0.17178,1.31446,2.54036,0.61027,1.98618,0.36399,4.63944,3E-05
63677111580222,2,0,0.17596,1.31923,2.53459,0.62706,2.00169,0.36209,4.63925,3E-05
63677111580256,2,0,0.17491,1.32115,2.51395,0.61868,1.98858,0.36832,4.64184,3E-05
63677111580272,2,0,0.17726,1.31662,2.50396,0.62733,1.98352,0.36834,4.64831,3E-05
63677111580322,2,0,0.18265,1.31655,2.49366,0.61889,1.99191,0.36385,4.64654,3E-05
63677111580356,2,0,0.18258,1.32145,2.49551,0.6336,2.00179,0.36049,4.65303,3E-05
63677111580389,2,0,0.18421,1.32723,2.47403,0.63909,2.0025,0.3579,4.65587,3E-05
63677111580405,2,0,0.17659,1.3193,2.47569,0.63272,1.99737,0.35583,4.65801,3E-05
63677111580438,2,0,0.18264,1.31469,2.49469,0.62733,1.99538,0.35571,4.65538,3E-05
63677111580454,2,0,0.18372,1.32137,2.4983,0.63749,2.00247,0.35275,4.66177,3E-05
63677111580488,2,0,0.19836,1.32763,2.47681,0.64322,2.00864,0.353,4.6583,3E-05
63677111580537,2,0,0.20035,1.32301,2.52239,0.65269,2.00493,0.35549,4.66837,3E-05
63677111580554,2,0,0.19252,1.32657,2.51251,0.6443,1.99864,0.35801,4.66883,3E-05
63677111580570,2,0,0.18961,1.33119,2.50758,0.65252,1.99602,0.35846,4.66806,3E-05
63677111580603,2,0,0.19661,1.33616,2.49403,0.65549,1.99613,0.3602,4.67201,3E-05
63677111580637,2,0,0.19272,1.34145,2.47639,0.65404,1.99008,0.35931,4.67044,3E-05
63677111580654,2,0,0.19328,1.32762,2.50749,0.63402,1.98188,0.36248,4.67193,3E-05
63677111580687,2,0,0.17521,1.32389,2.51357,0.6241,1.97623,0.3617,4.6732,3E-05
63677111580703,2,0,0.16672,1.32549,2.50654,0.61511,1.96429,0.36362,4.67224,3E-05
63677111580737,2,0,0.17389,1.3207,2.49402,0.62245,1.96939,0.36305,4.66906,3E-05
63677111580770,2,0,0.18043,1.32064,2.5003,0.62993,1.97823,0.35861,4.66279,3E-05
63677111580785,2,0,0.18201,1.31946,2.49171,0.61999,1.97713,0.35672,4.65606,3E-05
63677111580835,2,0,0.17363,1.32213,2.49502,0.63071,1.98579,0.35548,4.64852,3E-05
63677111580852,2,0,0.17002,1.33408,2.48033,0.64709,2.00037,0.35004,4.63822,3E-05
63677111580869,2,0,0.16689,1.33698,2.4839,0.64579,1.99725,0.34925,4.63055,3E-05
63677111580902,2,0,0.16319,1.34078,2.46827,0.65061,1.9983,0.34801,4.62256,3E-05
63677111580935,2,0,0.16712,1.35196,2.48746,0.64667,1.99779,0.34563,4.61639,3E-05
63677111580952,2,0,0.16695,1.35265,2.47801,0.64911,1.99748,0.34918,4.60831,3E-05
63677111580985,2,0,0.16494,1.34441,2.48298,0.64733,1.99472,0.34919,4.6078,3E-05
63677111581017,2,0,0.17137,1.33857,2.50136,0.64697,1.99044,0.34949,4.59577,3E-05
63677111581034,2,0,0.16948,1.33796,2.5181,0.63989,1.98917,0.35303,4.59398,3E-05
63677111581068,2,0,0.19035,1.33737,2.52393,0.64292,1.98589,0.35732,4.58918,3E-05
63677111581117,2,0,0.18311,1.32338,2.5177,0.64412,1.99305,0.35997,4.57748,3E-05
63677111581151,2,0,0.17463,1.32495,2.53145,0.64019,1.9902,0.35909,4.57445,3E-05
