63677131071864,6,0,1.95478,4.65964,1.97522,3.5683,4.71897,1.70987,2.24967,4.60792
63677131071914,6,0,1.93857,4.66709,1.97053,3.56152,4.72213,1.70558,2.2417,4.60899
63677131071947,6,0,1.94137,4.65687,1.96923,3.56004,4.72646,1.70187,2.24361,4.62555
63677131071981,6,0,1.94994,4.66933,1.9657,3.55523,4.72466,1.70361,2.24003,4.60841
63677131072014,6,0,1.93497,4.64955,1.96728,3.55612,4.7193,1.70205,2.24085,4.61587
63677131072048,6,0,1.94478,4.6651,1.96887,3.55656,4.7254,1.70267,2.23785,4.59434
63677131072064,6,0,1.95532,4.64217,1.97243,3.55566,4.71128,1.69528,2.24112,4.61816
63677131072097,6,0,1.94605,4.66035,1.97106,3.55263,4.73065,1.69309,2.23988,4.61207
63677131072114,6,0,1.95373,4.64179,1.97816,3.55841,4.70904,1.69767,2.24288,4.62232
63677131072147,6,0,1.96182,4.6568,1.9847,3.55425,4.73722,1.70079,2.24513,4.61404
63677131072164,6,0,1.94674,4.65986,1.99496,3.56332,4.73883,1.70715,2.25301,4.59993
63677131072197,6,0,1.95651,4.65381,1.99416,3.57015,4.71177,1.71787,2.25729,4.59212
63677131072214,6,0,1.96179,4.66401,1.99058,3.57158,4.74106,1.71848,2.26732,4.59774
63677131072246,6,0,1.96596,4.65846,1.99097,3.56327,4.71634,1.74594,2.27111,4.55473
63677131072279,6,0,1.98064,4.66111,1.98907,3.5566,4.73631,1.7554,2.28686,4.54433
63677131072295,6,0,1.99032,4.66055,1.99872,3.56549,4.72189,1.76544,2.3017,4.51138
63677131072345,6,0,2.00416,4.66175,2.02981,3.59992,4.73249,1.80087,2.3376,4.49753
63677131072378,6,0,2.05981,4.66634,2.07203,3.61442,4.74543,1.83974,2.37432,4.50619
63677131072395,6,0,2.08112,4.64939,2.09486,3.62763,4.74004,1.8638,2.39181,4.49709
63677131072445,6,0,2.09764,4.6758,2.12511,3.64815,4.75596,1.87708,2.41438,4.51466
63677131072462,6,0,2.10238,4.65646,2.15148,3.67694,4.74475,1.89129,2.42488,4.51168
63677131072479,6,0,2.11808,4.68077,2.17135,3.67709,4.76644,1.91478,2.43992,4.52006
63677131072529,6,0,2.17908,4.68371,2.19162,3.67621,4.76852,1.93729,2.46269,4.52404
63677131072562,6,0,2.16909,4.66417,2.19368,3.69153,4.74072,1.94364,2.47158,4.50892
63677131072578,6,0,2.16798,4.67946,2.20463,3.69169,4.76908,1.95091,2.48249,4.50399
63677131072627,6,0,2.17246,4.6725,2.21489,3.70584,4.74912,1.96245,2.48951,4.48332
63677131072660,6,0,2.1729,4.6751,2.22039,3.71017,4.77001,1.96503,2.49537,4.48444
63677131072694,6,0,2.16008,4.67894,2.21739,3.70939,4.75456,1.96904,2.49096,4.47676
63677131072727,6,0,2.14868,4.67488,2.2263,3.71,4.7689,1.96365,2.49108,4.47241
63677131072744,6,0,2.14286,4.6865,2.23011,3.70227,4.76142,1.96802,2.48477,4.4695
63677131072760,6,0,2.14573,4.6719,2.2333,3.70314,4.76101,1.96435,2.48238,4.47665
63677131072793,6,0,2.14319,4.68901,2.236,3.69655,4.76091,1.9685,2.47907,4.47661
63677131072826,6,0,2.13799,4.66935,2.2461,3.70237,4.74836,1.96165,2.4758,4.48302
63677131072843,6,0,2.14107,4.66464,2.24324,3.6957,4.74222,1.95911,2.4733,4.48716
63677131072876,6,0,2.13045,4.68774,2.23992,3.68911,4.76949,1.95913,2.47354,4.49646
63677131072925,6,0,2.12102,4.66534,2.23868,3.69328,4.7413,1.95816,2.47282,4.48514
63677131072942,6,0,2.12675,4.68525,2.23347,3.68564,4.7707,1.95499,2.47452,4.50602
63677131072959,6,0,2.11782,4.66784,2.23793,3.6904,4.74012,1.95441,2.47205,4.49778
63677131072992,6,0,2.1155,4.6846,2.23118,3.6897,4.77452,1.95321,2.47216,4.51544
63677131073024,6,0,2.12671,4.67363,2.22785,3.68553,4.74843,1.95525,2.47076,4.50982
63677131073041,6,0,2.11858,4.68459,2.226,3.68789,4.77236,1.95377,2.4743,4.51978
63677131073075,6,0,2.11206,4.67865,2.23161,3.68655,4.74951,1.95317,2.46872,4.51586
63677131073108,6,0,2.14442,4.67561,2.22914,3.68783,4.75133,1.95103,2.46622,4.52769
63677131073124,6,0,2.13991,4.67202,2.22596,3.6916,4.75914,1.94641,2.46702,4.52451
63677131073158,6,0,2.13842,4.68134,2.21992,3.68811,4.75963,1.94856,2.46465,4.52028
63677131073208,6,0,2.10807,4.68087,2.22528,3.68282,4.76307,1.94279,2.45846,4.52362
63677131073241,6,0,2.10932,4.66057,2.21929,3.68312,4.75386,1.94043,2.45908,4.52524
63677131073273,6,0,2.10888,4.68372,2.22545,3.67856,4.76844,1.94129,2.4556,4.52724
63677131073306,6,0,2.10091,4.66821,2.22541,3.68207,4.75199,1.93687,2.45281,4.52552
63677131073323,6,0,2.08276,4.6889,2.23388,3.67551,4.7713,1.93782,2.45008,4.53053
63677131073355,6,0,2.07722,4.66073,2.23018,3.67724,4.74518,1.9357,2.44756,4.5284
63677131073372,6,0,2.07002,4.66213,2.23202,3.67608,4.7376,1.92866,2.439,4.52889
63677131073406,6,0,2.08808,4.6783,2.23519,3.67017,4.7634,1.92464,2.43983,4.52948
63677131073439,6,0,2.09072,4.66744,2.23006,3.67588,4.73802,1.92501,2.43497,4.51941
63677131073456,6,0,2.07522,4.67348,2.22793,3.66725,4.7659,1.91869,2.43454,4.51769
63677131073506,6,0,2.0728,4.66723,2.22461,3.67178,4.74255,1.92138,2.43112,4.5191
63677131073522,6,0,2.076,4.67245,2.22004,3.66563,4.76351,1.91609,2.43078,4.51949
63677131073538,6,0,2.0823,4.67831,2.22496,3.66891,4.74841,1.92128,2.42834,4.52329
63677131073588,6,0,2.08694,4.67498,2.22943,3.67531,4.76053,1.91413,2.42742,4.51826
63677131073605,6,0,2.08116,4.68291,2.22813,3.66982,4.75412,1.91972,2.42484,4.52837
63677131073622,6,0,2.06608,4.68327,2.23345,3.6581,4.75421,1.915,2.41988,4.53384
63677131073653,6,0,2.0769,4.66536,2.23781,3.65638,4.74129,1.91048,2.42028,4.52576
63677131073687,6,0,2.07408,4.68305,2.24048,3.65142,4.75597,1.9111,2.418,4.53078
63677131073704,6,0,2.05867,4.66037,2.23365,3.6441,4.73543,1.90499,2.41364,4.52079
63677131073736,6,0,2.05966,4.68114,2.22928,3.63828,4.76099,1.90402,2.41052,4.52897
63677131073787,6,0,2.0495,4.68023,2.22226,3.6343,4.76515,1.90349,2.40704,4.53439
63677131073820,6,0,2.04907,4.66304,2.22767,3.63588,4.73454,1.90172,2.4006,4.53113
63677131073853,6,0,2.03253,4.68078,2.22299,3.62995,4.7673,1.89969,2.40333,4.5177
63677131073887,6,0,2.03173,4.66812,2.22855,3.63416,4.73988,1.90006,2.395,4.51929
63677131073903,6,0,2.02497,4.67091,2.23612,3.63989,4.74007,1.89799,2.39343,4.52579
63677131073936,6,0,2.03384,4.67187,2.22684,3.64277,4.75498,1.89759,2.4007,4.51962
63677131073953,6,0,2.02812,4.67055,2.23863,3.63565,4.74127,1.89569,2.39471,4.52862
63677131073986,6,0,2.02805,4.66525,2.23517,3.63899,4.74781,1.88896,2.39687,4.5175
63677131074019,6,0,2.02385,4.6702,2.22967,3.63393,4.74713,1.88921,2.3918,4.52985
63677131074068,6,0,2.03162,4.67302,2.21522,3.6356,4.75356,1.88485,2.38982,4.53545
63677131074101,6,0,2.04709,4.654,2.21162,3.63764,4.7461,1.88591,2.39261,4.52882
63677131074135,6,0,2.05612,4.67765,2.20808,3.63125,4.75905,1.88355,2.38841,4.53562
63677131074168,6,0,2.03655,4.65535,2.20673,3.63654,4.74447,1.88201,2.38642,4.5341
63677131074185,6,0,2.03403,4.6566,2.19158,3.63074,4.73942,1.88022,2.38261,4.53312
63677131074201,6,0,2.02278,4.67819,2.1989,3.63207,4.76276,1.87684,2.37911,4.52228
63677131074235,6,0,2.0196,4.65857,2.19477,3.63897,4.7333,1.87587,2.37599,4.53851
63677131074267,6,0,2.00751,4.67184,2.19083,3.6212,4.75757,1.87367,2.37311,4.54333
63677131074284,6,0,1.99296,4.65925,2.19397,3.62623,4.73121,1.87253,2.36902,4.54983
63677131074317,6,0,2.0014,4.66296,2.1883,3.61686,4.75997,1.86933,2.3674,4.54192
63677131074367,6,0,1.99339,4.66024,2.18843,3.6162,4.75785,1.86594,2.35977,4.54252
63677131074433,6,0,1.97724,4.66528,2.19622,3.60464,4.74451,1.86594,2.35032,4.55671
63677131074466,6,0,1.98114,4.65502,2.20678,3.60497,4.74849,1.85946,2.34606,4.54005
63677131074482,6,0,1.97347,4.6686,2.21099,3.607,4.74689,1.86302,2.34663,4.55131
63677131074515,6,0,1.96393,4.65354,2.21816,3.60258,4.73621,1.85765,2.33162,4.53898
63677131074532,6,0,1.96581,4.66969,2.22997,3.60289,4.749,1.86345,2.33635,4.54685
63677131074566,6,0,1.9781,4.6501,2.22744,3.59952,4.73076,1.85368,2.33548,4.54031
63677131074599,6,0,1.97353,4.66806,2.23541,3.59004,4.7565,1.8565,2.33734,4.54763
63677131074616,6,0,1.99499,4.64932,2.22774,3.59131,4.73237,1.85379,2.33528,4.54845
63677131074649,6,0,1.97982,4.67145,2.23252,3.59282,4.76265,1.85667,2.33773,4.55056
63677131074681,6,0,1.98256,4.6546,2.22475,3.5947,4.73119,1.85518,2.33535,4.55822
63677131074714,6,0,1.98087,4.65897,2.21858,3.59486,4.7342,1.85579,2.34319,4.56718
63677131074748,6,0,1.98705,4.66938,2.21627,3.59497,4.75903,1.85556,2.34475,4.55853
63677131074764,6,0,1.97372,4.66253,2.21241,3.59061,4.73452,1.8549,2.33583,4.57535
63677131074781,6,0,1.98555,4.66734,2.20631,3.60058,4.74942,1.85534,2.3389,4.55949
63677131074814,6,0,1.95265,4.66367,2.20155,3.59484,4.73357,1.85101,2.33109,4.57414
63677131074847,6,0,1.9699,4.66088,2.2003,3.59461,4.74151,1.85105,2.33642,4.56191
63677131074864,6,0,1.95985,4.66565,2.19415,3.5855,4.74103,1.84673,2.32816,4.57303
63677131074897,6,0,1.96415,4.65242,2.19867,3.58817,4.74396,1.84304,2.33008,4.56204
63677131074947,6,0,1.96433,4.64952,2.19561,3.58498,4.7434,1.83984,2.32459,4.56157
63677131074964,6,0,1.96429,4.6719,2.19134,3.5807,4.75594,1.84084,2.31898,4.56254
63677131074996,6,0,1.95997,4.64887,2.19946,3.58626,4.74056,1.83713,2.32044,4.56118
63677131075046,6,0,1.97463,4.67079,2.19747,3.57802,4.75997,1.83972,2.31691,4.54815
63677131075062,6,0,1.97511,4.67046,2.20235,3.57195,4.75776,1.83718,2.31282,4.54757
63677131075095,6,0,1.96083,4.65244,2.20577,3.57926,4.72761,1.83663,2.31016,4.55229
63677131075111,6,0,1.96496,4.66582,2.19559,3.56751,4.75264,1.83146,2.30845,4.54663
63677131075145,6,0,1.94793,4.65343,2.20007,3.57347,4.72604,1.8299,2.30545,4.56017
63677131075179,6,0,1.94286,4.6567,2.19255,3.5641,4.75401,1.82801,2.30399,4.53228
63677131075228,6,0,1.92818,4.65289,2.18266,3.55425,4.75419,1.82595,2.29547,4.54435
63677131075245,6,0,1.92522,4.65381,2.18208,3.55636,4.73886,1.82519,2.28844,4.54572
63677131075278,6,0,1.92795,4.64874,2.17181,3.55435,4.74975,1.82238,2.28598,4.54321
63677131075295,6,0,1.93396,4.65411,2.17103,3.54947,4.73993,1.82557,2.28498,4.55527
63677131075344,6,0,1.9299,4.65705,2.16831,3.54446,4.74125,1.81938,2.27512,4.5439
63677131075361,6,0,1.93146,4.6439,2.16543,3.54329,4.73259,1.81389,2.27294,4.55112
63677131075394,6,0,1.93169,4.6602,2.16984,3.54009,4.73965,1.8146,2.27037,4.55779
63677131075427,6,0,1.93124,4.64292,2.16125,3.54796,4.72291,1.80812,2.2707,4.55001
63677131075443,6,0,1.92004,4.65939,2.16454,3.54254,4.74521,1.81168,2.27276,4.55585
63677131075476,6,0,1.91417,4.6406,2.16549,3.54846,4.72405,1.81053,2.27177,4.54657
63677131075527,6,0,1.90715,4.642,2.16012,3.55497,4.72445,1.81064,2.27071,4.54627
63677131075543,6,0,1.90723,4.65988,2.16002,3.5494,4.75507,1.81121,2.27251,4.5463
63677131075577,6,0,1.90412,4.6469,2.15673,3.55244,4.72656,1.81176,2.27069,4.55481
63677131075627,6,0,1.89949,4.65735,2.15726,3.5513,4.75438,1.81064,2.2763,4.54713
63677131075643,6,0,1.9161,4.65654,2.14732,3.55002,4.74688,1.80883,2.27174,4.5432
63677131075675,6,0,1.90297,4.65281,2.14647,3.54859,4.72776,1.80568,2.26598,4.5576
63677131075691,6,0,1.90048,4.65429,2.14309,3.54267,4.73789,1.80088,2.26809,4.5437
63677131075725,6,0,1.90155,4.6555,2.14603,3.54276,4.73174,1.80382,2.26517,4.55762
63677131075758,6,0,1.90185,4.65546,2.15157,3.53022,4.73878,1.7985,2.26233,4.55865
63677131075792,6,0,1.90373,4.64119,2.15357,3.52868,4.73636,1.79441,2.26104,4.55818
63677131075824,6,0,1.89156,4.66147,2.15321,3.52812,4.74644,1.79481,2.25962,4.56524
63677131075858,6,0,1.88332,4.64159,2.15353,3.52674,4.73722,1.79384,2.26045,4.55328
63677131075908,6,0,1.8956,4.66146,2.14786,3.52027,4.75213,1.79609,2.2557,4.5558
63677131075941,6,0,1.8908,4.64123,2.14946,3.52823,4.72562,1.79354,2.25577,4.55327
63677131075974,6,0,1.88959,4.65998,2.14332,3.53262,4.74903,1.79549,2.2523,4.55044
63677131076008,6,0,1.89588,4.6431,2.14324,3.53467,4.72211,1.79592,2.2547,4.54565
63677131076040,6,0,1.90483,4.65222,2.13444,3.52681,4.74884,1.79218,2.25284,4.54623
63677131076056,6,0,1.90882,4.64756,2.14135,3.53743,4.75085,1.78889,2.25578,4.53977
63677131076106,6,0,1.9029,4.64498,2.1364,3.53825,4.7317,1.78779,2.25168,4.54913
63677131076123,6,0,1.88727,4.64486,2.13109,3.53222,4.74874,1.78529,2.25262,4.53645
63677131076156,6,0,1.88349,4.64851,2.13184,3.52926,4.73514,1.78641,2.24478,4.54876
63677131076206,6,0,1.87533,4.65255,2.12769,3.52457,4.7369,1.78372,2.24124,4.54916
63677131076223,6,0,1.87156,4.64062,2.13892,3.52581,4.73491,1.78035,2.2417,4.53755
63677131076255,6,0,1.86676,4.65251,2.13784,3.51872,4.73663,1.78138,2.23744,4.56503
63677131076305,6,0,1.84284,4.65434,2.14255,3.50578,4.7373,1.77793,2.23262,4.55743
63677131076322,6,0,1.85481,4.63392,2.14258,3.50626,4.71861,1.77318,2.22613,4.55559
63677131076355,6,0,1.86088,4.6527,2.1476,3.49599,4.74467,1.77434,2.22829,4.55946
63677131076388,6,0,1.85373,4.63378,2.14346,3.49953,4.71831,1.77246,2.22664,4.56292
63677131076405,6,0,1.84648,4.63401,2.13399,3.49658,4.71785,1.76726,2.2164,4.58051
63677131076438,6,0,1.84359,4.64948,2.13637,3.48789,4.74795,1.7641,2.21454,4.56537
63677131076487,6,0,1.83053,4.63931,2.12716,3.48928,4.72092,1.76459,2.20783,4.57267
63677131076504,6,0,1.84459,4.64705,2.12741,3.48387,4.74434,1.76126,2.20823,4.56998
63677131076538,6,0,1.8419,4.64484,2.12152,3.48926,4.73548,1.75656,2.20284,4.56664
63677131076587,6,0,1.8419,4.64551,2.11899,3.48951,4.72572,1.75775,2.19754,4.57416
63677131076604,6,0,1.8378,4.6398,2.12254,3.48427,4.73183,1.75386,2.1981,4.55784
63677131076636,6,0,1.86364,4.63434,2.12084,3.48072,4.7326,1.75403,2.19826,4.5507
63677131076686,6,0,1.87048,4.64912,2.12861,3.48093,4.74122,1.75414,2.19764,4.55979
63677131076703,6,0,1.86798,4.63083,2.12517,3.48265,4.73294,1.7501,2.19724,4.55156
63677131076736,6,0,1.86148,4.64922,2.12301,3.47639,4.74458,1.75007,2.19726,4.52593
63677131076785,6,0,1.84021,4.62919,2.11707,3.47282,4.72153,1.7396,2.18999,4.53439
63677131076818,6,0,1.82651,4.64803,2.11167,3.4639,4.74284,1.73781,2.18768,4.53306
63677131076869,6,0,1.81304,4.63319,2.11475,3.46056,4.71569,1.73474,2.18416,4.52421
63677131076885,6,0,1.81208,4.6351,2.11505,3.45545,4.71551,1.73247,2.17677,4.51675
63677131076919,6,0,1.81369,4.64019,2.1133,3.44833,4.74322,1.73164,2.17712,4.53785
63677131076935,6,0,1.80032,4.63684,2.11578,3.4533,4.72291,1.72833,2.16866,4.53919
63677131076967,6,0,1.80383,4.63677,2.1117,3.4508,4.74254,1.72908,2.16871,4.53038
63677131077001,6,0,1.81019,4.63576,2.11169,3.44363,4.72838,1.72996,2.16502,4.54432
63677131077034,6,0,1.80855,4.6313,2.11152,3.44472,4.73952,1.72883,2.1667,4.53647
63677131077067,6,0,1.80244,4.62644,2.1049,3.44302,4.73135,1.72339,2.1601,4.54826
63677131077084,6,0,1.7902,4.63311,2.10209,3.43567,4.72811,1.72413,2.15363,4.55915
63677131077117,6,0,1.78756,4.62677,2.09629,3.43722,4.72036,1.72074,2.15659,4.55091
63677131077166,6,0,1.79423,4.63238,2.09256,3.42297,4.72846,1.71979,2.15518,4.55743
63677131077183,6,0,1.79509,4.62254,2.0917,3.42113,4.71259,1.71514,2.15551,4.5435
63677131077216,6,0,1.7971,4.62311,2.08725,3.41482,4.71203,1.71206,2.14641,4.54321
63677131077266,6,0,1.79463,4.63091,2.0758,3.40681,4.73727,1.7111,2.14154,4.54107
63677131077283,6,0,1.80031,4.62447,2.07653,3.4099,4.7135,1.71006,2.13887,4.54022
63677131077316,6,0,1.79318,4.62337,2.07672,3.40386,4.71302,1.70684,2.12866,4.54503
63677131077365,6,0,1.78378,4.62643,2.0715,3.4021,4.71046,1.70876,2.11992,4.55187
63677131077398,6,0,1.78075,4.6227,2.06956,3.40624,4.71569,1.70383,2.11988,4.53718
63677131077448,6,0,1.76938,4.62909,2.0707,3.40026,4.71194,1.70496,2.11564,4.55255
63677131077465,6,0,1.75689,4.62884,2.07312,3.39419,4.71785,1.70104,2.11282,4.55756
63677131077498,6,0,1.75801,4.61967,2.0657,3.40195,4.70844,1.69974,2.11108,4.54545
63677131077515,6,0,1.76188,4.62944,2.06895,3.39243,4.72621,1.69782,2.11043,4.55412
63677131077547,6,0,1.76039,4.62092,2.06647,3.39723,4.71092,1.69564,2.11152,4.54799
63677131077581,6,0,1.7614,4.62864,2.07192,3.39294,4.73202,1.69319,2.10845,4.55388
63677131077614,6,0,1.76522,4.62657,2.06652,3.39191,4.72937,1.68942,2.10544,4.55825
63677131077648,6,0,1.75807,4.62719,2.06457,3.39324,4.70759,1.69112,2.09953,4.56214
63677131077664,6,0,1.75326,4.62541,2.0597,3.38241,4.72338,1.68641,2.09469,4.54621
63677131077697,6,0,1.74733,4.63094,2.05754,3.37523,4.7087,1.68544,2.08837,4.55194
63677131077746,6,0,1.75503,4.62276,2.04909,3.36098,4.71907,1.67983,2.08363,4.54072
63677131077763,6,0,1.7384,4.6322,2.04555,3.35592,4.71453,1.67812,2.07493,4.53977
63677131077779,6,0,1.72842,4.63502,2.035,3.34039,4.72405,1.67176,2.06493,4.54444
63677131077812,6,0,1.72613,4.61478,2.031,3.32954,4.7207,1.66719,2.0598,4.52542
63677131077846,6,0,1.72531,4.63351,2.03121,3.328,4.73147,1.66547,2.05445,4.53044
63677131077862,6,0,1.72774,4.61151,2.03019,3.32598,4.71754,1.66108,2.05376,4.53421
63677131077896,6,0,1.72874,4.62894,2.03173,3.32811,4.73076,1.66292,2.05457,4.54483
63677131077946,6,0,1.73141,4.629,2.03432,3.3308,4.72781,1.66172,2.05458,4.55827
63677131077979,6,0,1.73161,4.61392,2.03692,3.33833,4.703,1.65988,2.05494,4.54827
63677131078028,6,0,1.73132,4.62682,2.0414,3.33239,4.72506,1.66305,2.0592,4.55417
63677131078045,6,0,1.73153,4.62467,2.04797,3.34191,4.72624,1.66227,2.06677,4.55754
63677131078061,6,0,1.72777,4.62073,2.04597,3.34828,4.70669,1.65943,2.06401,4.56112
63677131078094,6,0,1.72886,4.62411,2.04544,3.3452,4.73048,1.65932,2.07027,4.55917
63677131078128,6,0,1.72099,4.62534,2.04363,3.34831,4.71602,1.65958,2.06983,4.57123
63677131078144,6,0,1.72301,4.62305,2.04419,3.34636,4.73098,1.65892,2.07654,4.55582
63677131078177,6,0,1.71886,4.62724,2.04437,3.34916,4.71933,1.66149,2.07592,4.57048
63677131078194,6,0,1.71971,4.62144,2.03775,3.35528,4.72621,1.65935,2.07945,4.55561
63677131078227,6,0,1.72236,4.62876,2.03616,3.35347,4.71902,1.66348,2.07783,4.57284
63677131078260,6,0,1.72112,4.62091,2.03294,3.35797,4.71813,1.66012,2.08559,4.56084
63677131078277,6,0,1.71854,4.61877,2.0417,3.36145,4.71038,1.66023,2.08943,4.56064
63677131078327,6,0,1.72363,4.63222,2.04805,3.36222,4.7215,1.66299,2.08855,4.56897
63677131078343,6,0,1.72594,4.61571,2.0475,3.36958,4.70694,1.6627,2.093,4.56574
63677131078376,6,0,1.72537,4.63086,2.05208,3.36486,4.72844,1.66106,2.09159,4.57407
63677131078392,6,0,1.7285,4.61474,2.04912,3.36859,4.7082,1.65968,2.09698,4.56802
63677131078425,6,0,1.72684,4.63101,2.05343,3.36487,4.73618,1.65934,2.09618,4.57436
63677131078442,6,0,1.72308,4.61698,2.05118,3.36784,4.71009,1.65991,2.09594,4.57001
63677131078475,6,0,1.72232,4.63015,2.04703,3.36268,4.73837,1.65851,2.09736,4.57495
63677131078525,6,0,1.72392,4.62965,2.0433,3.37059,4.73267,1.66136,2.10237,4.5701
63677131078558,6,0,1.72349,4.62966,2.04693,3.37498,4.7256,1.66242,2.1017,4.56538
63677131078608,6,0,1.72989,4.62913,2.04363,3.37477,4.70963,1.66259,2.09875,4.57286
63677131078624,6,0,1.72777,4.62728,2.04231,3.37078,4.71869,1.65957,2.10022,4.5624
63677131078641,6,0,1.72939,4.62912,2.04719,3.37704,4.71425,1.66073,2.10001,4.57274
63677131078674,6,0,1.7325,4.62085,2.04987,3.37376,4.71843,1.65868,2.10157,4.55834
63677131078708,6,0,1.72306,4.63187,2.05021,3.37108,4.72296,1.66063,2.09857,4.57399
63677131078725,6,0,1.71866,4.61679,2.04797,3.36826,4.71993,1.65402,2.09628,4.55837
63677131078758,6,0,1.7257,4.63243,2.04637,3.36433,4.73017,1.65519,2.09759,4.57438
63677131078773,6,0,1.71914,4.61565,2.03983,3.3697,4.71905,1.65156,2.09596,4.55701
63677131078806,6,0,1.71357,4.61499,2.04916,3.37571,4.71302,1.65263,2.10381,4.54602
63677131078840,6,0,1.71844,4.6349,2.0473,3.3675,4.73397,1.65861,2.10702,4.55642
63677131078856,6,0,1.71459,4.61818,2.04842,3.37957,4.70846,1.65324,2.10564,4.54823
63677131078906,6,0,1.7209,4.63246,2.04679,3.37095,4.73186,1.65705,2.111,4.55206
63677131078923,6,0,1.72148,4.62025,2.04713,3.37868,4.707,1.65708,2.10954,4.55182
63677131078939,6,0,1.717,4.62933,2.05692,3.37826,4.73281,1.65662,2.11173,4.54962
63677131078973,6,0,1.71012,4.62103,2.05469,3.37335,4.7103,1.65653,2.10943,4.55738
63677131079005,6,0,1.7101,4.62211,2.05529,3.36837,4.73474,1.65518,2.10824,4.55869
63677131079022,6,0,1.70294,4.62319,2.05495,3.36883,4.71725,1.65487,2.10046,4.57343
63677131079055,6,0,1.7066,4.62008,2.05718,3.36706,4.73152,1.65325,2.10306,4.56809
63677131079089,6,0,1.71625,4.61817,2.05601,3.35716,4.7254,1.64792,2.09756,4.57889
63677131079105,6,0,1.71032,4.62783,2.05643,3.35467,4.71825,1.64965,2.09317,4.59372
63677131079139,6,0,1.71092,4.61625,2.05356,3.35497,4.71605,1.64609,2.09217,4.58587
63677131079187,6,0,1.72021,4.61575,2.0553,3.35916,4.70786,1.64267,2.08943,4.58292
63677131079221,6,0,1.71914,4.62857,2.05123,3.34984,4.71999,1.64357,2.08545,4.59469
63677131079254,6,0,1.71563,4.6125,2.05386,3.35138,4.70463,1.64068,2.08523,4.58051
63677131079288,6,0,1.70695,4.62804,2.05005,3.34343,4.72681,1.64142,2.08384,4.58459
63677131079304,6,0,1.70242,4.61398,2.05621,3.35455,4.70648,1.64346,2.08458,4.57366
63677131079337,6,0,1.70279,4.62872,2.05403,3.35,4.73501,1.64003,2.08199,4.57808
63677131079354,6,0,1.70545,4.62812,2.06069,3.34964,4.73637,1.64194,2.08673,4.57515
63677131079386,6,0,1.70127,4.61748,2.05933,3.35477,4.70851,1.64496,2.08504,4.57134
63677131079420,6,0,1.70334,4.62571,2.05876,3.35517,4.73148,1.64132,2.08358,4.57169
63677131079436,6,0,1.69835,4.62056,2.05399,3.35627,4.70677,1.63783,2.08078,4.57042
63677131079486,6,0,1.70137,4.6248,2.05461,3.36132,4.72308,1.63609,2.07952,4.5639
63677131079502,6,0,1.70098,4.62276,2.05217,3.36252,4.70846,1.63695,2.07415,4.56727
63677131079535,6,0,1.70479,4.61971,2.05295,3.35881,4.71717,1.63559,2.07422,4.55737
63677131079552,6,0,1.69947,4.62202,2.04977,3.34735,4.71359,1.63397,2.0709,4.56589
63677131079585,6,0,1.68577,4.62472,2.03616,3.33292,4.72083,1.62912,2.06065,4.56651
63677131079602,6,0,1.68794,4.61224,2.02914,3.32481,4.71762,1.62539,2.05907,4.55292
63677131079635,6,0,1.67794,4.62533,2.02993,3.31641,4.72824,1.62753,2.0525,4.56524
63677131079668,6,0,1.67629,4.60672,2.02041,3.30644,4.71682,1.62262,2.05041,4.55373
63677131079685,6,0,1.67235,4.62164,2.02459,3.29964,4.72729,1.6214,2.04702,4.56632
63677131079717,6,0,1.66513,4.60404,2.01742,3.29955,4.70933,1.61929,2.04442,4.55292
63677131079767,6,0,1.67941,4.62125,2.01931,3.30052,4.72602,1.62085,2.04454,4.56003
63677131079784,6,0,1.67225,4.60527,2.01371,3.30383,4.70256,1.61931,2.04127,4.55007
63677131079801,6,0,1.67039,4.61985,2.01235,3.29472,4.72413,1.62026,2.04273,4.55994
63677131079834,6,0,1.67836,4.61652,2.01288,3.29517,4.72362,1.61851,2.0442,4.5576
63677131079867,6,0,1.67921,4.60891,2.01604,3.30414,4.70377,1.6171,2.04267,4.5548
63677131079884,6,0,1.66985,4.61479,2.01568,3.29091,4.72798,1.61545,2.0463,4.55458
63677131079916,6,0,1.6621,4.61313,2.01368,3.29275,4.71134,1.61394,2.04295,4.55665
63677131079967,6,0,1.66062,4.61541,2.01889,3.289,4.71741,1.61249,2.04086,4.54419
63677131079999,6,0,1.66534,4.60961,2.02042,3.29206,4.72609,1.60723,2.04437,4.53408
63677131080032,6,0,1.66439,4.61589,2.01972,3.29442,4.71632,1.61448,2.04251,4.55028
63677131080066,6,0,1.67119,4.60866,2.02411,3.29383,4.7168,1.6099,2.04233,4.53626
63677131080082,6,0,1.66303,4.61914,2.02759,3.28536,4.71211,1.61129,2.03848,4.55066
63677131080115,6,0,1.66884,4.6072,2.02862,3.29534,4.70793,1.60775,2.03961,4.53868
63677131080132,6,0,1.66956,4.60459,2.02928,3.29044,4.70203,1.60596,2.03492,4.54348
63677131080165,6,0,1.66635,4.61777,2.0258,3.28186,4.71861,1.60639,2.0341,4.57749
63677131080199,6,0,1.66207,4.60273,2.02617,3.28336,4.70098,1.60476,2.03152,4.56662
63677131080214,6,0,1.65107,4.61706,2.02179,3.27615,4.7256,1.60207,2.02863,4.57117
63677131080248,6,0,1.63754,4.60442,2.02071,3.27685,4.70369,1.59982,2.02449,4.56715
63677131080282,6,0,1.62789,4.61565,2.01729,3.27,4.73035,1.59861,2.02184,4.57146
63677131080297,6,0,1.63832,4.605,2.01597,3.26947,4.70123,1.59822,2.01988,4.56797
63677131080347,6,0,1.6432,4.61439,2.01323,3.26049,4.72522,1.59648,2.01957,4.57567
63677131080363,6,0,1.63576,4.61339,2.00842,3.26116,4.7171,1.59449,2.01477,4.57149
63677131080380,6,0,1.63025,4.61135,2.01225,3.26296,4.6974,1.59402,2.01132,4.56902
63677131080413,6,0,1.64347,4.61217,2.00497,3.24981,4.71156,1.59218,2.0125,4.56726
63677131080447,6,0,1.64502,4.61117,2.01378,3.25272,4.70128,1.59124,2.01268,4.56465
63677131080463,6,0,1.65302,4.60888,2.00565,3.25338,4.70953,1.58989,2.01255,4.55993
63677131080496,6,0,1.64728,4.61229,2.0073,3.24783,4.71067,1.58812,2.00755,4.55907
63677131080547,6,0,1.63787,4.61328,2.00001,3.24185,4.71651,1.58326,2.00347,4.54702
63677131080578,6,0,1.63726,4.60082,1.99899,3.23987,4.7127,1.58081,2.00453,4.54017
63677131080612,6,0,1.63861,4.5972,2.00072,3.24033,4.7097,1.58074,2.00326,4.54254
63677131080645,6,0,1.63362,4.61175,1.99523,3.23038,4.7205,1.58129,1.99959,4.5541
63677131080662,6,0,1.63954,4.59591,1.98986,3.2329,4.70064,1.57911,2.00099,4.55048
63677131080695,6,0,1.6472,4.61242,1.99174,3.22572,4.71609,1.58193,2.00199,4.55938
63677131080745,6,0,1.64058,4.61266,2.0077,3.23379,4.71556,1.58152,2.00265,4.56287
63677131080779,6,0,1.65257,4.6018,2.00556,3.24692,4.69182,1.58132,2.00249,4.56085
63677131080828,6,0,1.6435,4.60365,2.00682,3.25025,4.69674,1.57561,2.003,4.56256
63677131080861,6,0,1.63459,4.60671,2.00885,3.25289,4.70595,1.57547,2.00758,4.56213
63677131080894,6,0,1.61871,4.60613,2.01077,3.24828,4.72437,1.57213,2.00624,4.55234
63677131080926,6,0,1.63189,4.60984,2.00591,3.24812,4.71325,1.57186,2.00663,4.5643
63677131080943,6,0,1.63385,4.60308,1.9992,3.245,4.72006,1.57117,2.00748,4.55369
63677131080977,6,0,1.60786,4.609,1.9986,3.24152,4.7126,1.57386,2.00534,4.56523
63677131080994,6,0,1.6237,4.59894,1.99762,3.24135,4.71162,1.56941,2.00381,4.55181
63677131081027,6,0,1.62464,4.60956,1.99354,3.23348,4.70803,1.57417,2.00053,4.5632
63677131081043,6,0,1.62314,4.59727,1.9945,3.23346,4.70228,1.56713,1.99608,4.55805
63677131081077,6,0,1.62183,4.60927,1.9901,3.22432,4.7096,1.56645,1.98999,4.56171
63677131081126,6,0,1.62603,4.59387,1.98769,3.2176,4.69643,1.55957,1.98722,4.55839
63677131081143,6,0,1.61428,4.59225,1.98677,3.20677,4.69708,1.55391,1.97825,4.56069
63677131081159,6,0,1.62533,4.6051,1.98072,3.20152,4.72158,1.55344,1.97764,4.56033
63677131081193,6,0,1.61816,4.5941,1.98466,3.20354,4.69761,1.55365,1.97455,4.56581
63677131081226,6,0,1.61114,4.60596,1.981,3.20088,4.72423,1.553,1.97449,4.56137
63677131081242,6,0,1.60718,4.59636,1.97845,3.19706,4.69552,1.55251,1.97311,4.56712
63677131081275,6,0,1.61848,4.60492,1.97674,3.19843,4.71771,1.55396,1.97417,4.5581
63677131081308,6,0,1.61556,4.59882,1.97856,3.19647,4.6923,1.55579,1.97187,4.56579
63677131081324,6,0,1.6201,4.60216,1.97568,3.19749,4.70925,1.55547,1.97647,4.55191
63677131081358,6,0,1.62729,4.6016,1.97817,3.20063,4.69133,1.5551,1.97501,4.56432
63677131081407,6,0,1.62406,4.60456,1.97135,3.19511,4.69632,1.55372,1.97957,4.57274
63677131081424,6,0,1.62585,4.59941,1.96879,3.19586,4.70235,1.55249,1.98328,4.56166
63677131081440,6,0,1.62131,4.60492,1.97191,3.19434,4.70646,1.55234,1.97821,4.56665
63677131081474,6,0,1.61695,4.59621,1.96726,3.19106,4.70624,1.5534,1.98427,4.56307
63677131081507,6,0,1.61564,4.60765,1.97168,3.19348,4.71411,1.55034,1.98081,4.56784
63677131081524,6,0,1.61325,4.59467,1.96934,3.19941,4.70569,1.55423,1.98532,4.56417
63677131081557,6,0,1.60355,4.60866,1.96993,3.1931,4.71686,1.55393,1.98314,4.5692
63677131081606,6,0,1.61012,4.59258,1.97827,3.20563,4.6926,1.55752,1.98695,4.55865
63677131081640,6,0,1.61318,4.60819,1.97131,3.18994,4.71325,1.5567,1.98706,4.55874
63677131081656,6,0,1.61369,4.59585,1.9756,3.20464,4.6899,1.55407,1.98779,4.56293
63677131081706,6,0,1.60416,4.60724,1.97337,3.19476,4.7143,1.55533,1.98678,4.55867
63677131081722,6,0,1.6157,4.59769,1.9727,3.20337,4.69278,1.55192,1.98591,4.56437
63677131081756,6,0,1.6156,4.60445,1.96972,3.19293,4.71709,1.55114,1.98434,4.5536
63677131081772,6,0,1.60901,4.60143,1.96903,3.20253,4.70061,1.54952,1.98454,4.56698
63677131081806,6,0,1.61787,4.60227,1.96831,3.19957,4.7194,1.54723,1.98226,4.55245
63677131081838,6,0,1.6185,4.60389,1.96499,3.20062,4.70724,1.54642,1.98178,4.56858
