63677214393521,6,0,4.76769,3.69038,4.88238,3.95336,4.32929,4.77141,4.91239,4.85654
63677214393587,6,0,4.78162,3.68944,4.87313,3.94427,4.32038,4.78525,4.91221,4.88938
63677214393604,6,0,4.77787,3.69968,4.88503,3.92933,4.3171,4.77236,4.88753,4.91246
63677214393652,6,0,4.75823,3.71366,4.88513,3.93786,4.32749,4.75294,4.85579,4.91769
63677214393686,6,0,4.75537,3.69486,4.9056,3.92594,4.31839,4.75109,4.85118,4.89022
63677214393703,6,0,4.74433,3.70944,4.89534,3.93832,4.33273,4.74291,4.84782,4.8724
63677214393736,6,0,4.72278,3.68573,4.91347,3.92473,4.31301,4.72311,4.83319,4.84262
63677214393752,6,0,4.73993,3.70388,4.8893,3.93686,4.33232,4.74323,4.83864,4.85267
63677214393786,6,0,4.71527,3.6827,4.88504,3.92435,4.31093,4.71887,4.84961,4.83884
63677214393802,6,0,4.74238,3.68774,4.87137,3.93789,4.32261,4.75052,4.87605,4.85856
63677214393836,6,0,4.7391,3.67513,4.86558,3.93394,4.30651,4.74785,4.88137,4.85862
63677214393885,6,0,4.72183,3.67668,4.87395,3.92205,4.29006,4.73281,4.84107,4.88383
63677214393918,6,0,4.74114,3.70646,4.88973,3.92598,4.31068,4.7485,4.84704,4.8997
63677214393935,6,0,4.70896,3.67622,4.89413,3.91824,4.28141,4.71776,4.82818,4.86172
63677214393968,6,0,4.73794,3.71262,4.91857,3.92943,4.31795,4.74463,4.83578,4.85873
63677214393985,6,0,4.70703,3.67692,4.89333,3.91343,4.2816,4.71554,4.8329,4.83808
63677214394017,6,0,4.74315,3.7044,4.90902,3.93072,4.31868,4.74932,4.84791,4.86139
63677214394034,6,0,4.7477,3.70428,4.88002,3.93816,4.31567,4.75369,4.89093,4.86092
63677214394068,6,0,4.73641,3.69486,4.87034,3.91922,4.29846,4.73678,4.87069,4.86509
63677214394101,6,0,4.7363,3.70333,4.86365,3.93581,4.30518,4.7343,4.86689,4.86634
63677214394117,6,0,4.74525,3.7046,4.87548,3.92444,4.30774,4.74282,4.85982,4.89862
63677214394167,6,0,4.74411,3.70988,4.89528,3.93258,4.32185,4.74282,4.85213,4.86834
63677214394200,6,0,4.7081,3.70426,4.86927,3.93869,4.30536,4.7097,4.83637,4.83536
63677214394217,6,0,4.74268,3.70302,4.9081,3.94509,4.32922,4.74305,4.84105,4.84802
63677214394267,6,0,4.74812,3.69477,4.89459,3.95505,4.33384,4.75181,4.87373,4.85661
63677214394298,6,0,4.7464,3.69829,4.88112,3.95762,4.33412,4.75097,4.88048,4.85786
63677214394332,6,0,4.7626,3.70513,4.87957,3.94654,4.31977,4.76611,4.87654,4.88583
63677214394365,6,0,4.73958,3.69817,4.88148,3.95585,4.32912,4.74429,4.8401,4.89572
63677214394382,6,0,4.76243,3.70573,4.89135,3.94048,4.32143,4.76513,4.85081,4.915
63677214394398,6,0,4.73662,3.71267,4.89135,3.95272,4.33393,4.74224,4.83965,4.88464
63677214394431,6,0,4.74805,3.70858,4.91201,3.93957,4.32221,4.74617,4.83343,4.87358
63677214394465,6,0,4.73857,3.7173,4.89962,3.95696,4.3398,4.74697,4.84717,4.84016
63677214394482,6,0,4.73827,3.70451,4.9089,3.94695,4.32126,4.7421,4.83933,4.84958
63677214394515,6,0,4.75436,3.71435,4.88584,3.95461,4.34065,4.76579,4.86655,4.85049
63677214394548,6,0,4.73881,3.70829,4.8854,3.94992,4.32502,4.74685,4.88346,4.85163
63677214394564,6,0,4.74694,3.71548,4.8755,3.94883,4.32661,4.75264,4.89106,4.85722
63677214394598,6,0,4.75785,3.7105,4.86703,3.94617,4.31884,4.75967,4.88246,4.88576
63677214394615,6,0,4.74469,3.72394,4.87911,3.94612,4.32515,4.75071,4.85651,4.89868
63677214394648,6,0,4.73679,3.70889,4.88011,3.9357,4.30873,4.73881,4.83865,4.89959
63677214394680,6,0,4.74314,3.7318,4.8999,3.94869,4.33276,4.74606,4.84678,4.89332
63677214394713,6,0,4.71487,3.7029,4.89731,3.93509,4.29973,4.71753,4.83046,4.85554
63677214394746,6,0,4.71081,3.70396,4.88611,3.9329,4.29824,4.71574,4.83874,4.83904
63677214394779,6,0,4.7465,3.71607,4.89957,3.94831,4.33288,4.75135,4.85903,4.86155
63677214394812,6,0,4.7268,3.71079,4.87464,3.93459,4.30603,4.73344,4.86826,4.84778
63677214394846,6,0,4.75094,3.7188,4.87541,3.9501,4.3252,4.7547,4.88853,4.85916
63677214394863,6,0,4.73567,3.71905,4.86558,3.93994,4.31264,4.73421,4.85509,4.87417
63677214394896,6,0,4.74852,3.73427,4.88419,3.93194,4.31696,4.74507,4.85212,4.90106
63677214394946,6,0,4.72131,3.71785,4.86682,3.93937,4.31171,4.72298,4.83318,4.86644
63677214394962,6,0,4.74488,3.73681,4.90834,3.93707,4.33322,4.74465,4.8457,4.86232
63677214394995,6,0,4.70757,3.72203,4.87583,3.93694,4.31538,4.71403,4.83511,4.83608
63677214395045,6,0,4.74821,3.7201,4.8861,3.94837,4.34037,4.75706,4.88442,4.85676
63677214395078,6,0,4.7461,3.71674,4.87067,3.94474,4.32798,4.76055,4.88862,4.84858
63677214395127,6,0,4.74123,3.71866,4.87772,3.95674,4.33907,4.74913,4.87517,4.85615
63677214395144,6,0,4.76016,3.71541,4.87652,3.94699,4.32355,4.76547,4.87309,4.89261
63677214395177,6,0,4.75954,3.71723,4.89425,3.95126,4.32566,4.76324,4.84999,4.90788
63677214395194,6,0,4.73711,3.72428,4.89313,3.97002,4.3379,4.74424,4.85055,4.87351
63677214395227,6,0,4.74378,3.69861,4.91524,3.96071,4.32031,4.74464,4.83746,4.86882
63677214395261,6,0,4.74479,3.70805,4.89785,3.97343,4.34284,4.75357,4.85241,4.85091
63677214395293,6,0,4.76174,3.70491,4.88145,3.97666,4.34464,4.77392,4.88289,4.87029
63677214395327,6,0,4.73822,3.70325,4.8856,3.96286,4.33046,4.7511,4.88837,4.86098
63677214395359,6,0,4.76646,3.70206,4.88174,3.96244,4.33171,4.77266,4.89973,4.87876
63677214395392,6,0,4.74382,3.69689,4.87708,3.94996,4.31836,4.74793,4.85256,4.89418
63677214395425,6,0,4.74407,3.72106,4.89492,3.95521,4.33597,4.74849,4.85174,4.89741
63677214395459,6,0,4.72312,3.70395,4.89696,3.94508,4.30849,4.72882,4.83294,4.86666
63677214395492,6,0,4.73977,3.72919,4.92006,3.95774,4.33924,4.74448,4.84504,4.85706
63677214395525,6,0,4.74302,3.71924,4.91634,3.96463,4.33459,4.74783,4.84671,4.84869
63677214395558,6,0,4.71544,3.70163,4.87589,3.95283,4.3022,4.72336,4.86068,4.83518
63677214395592,6,0,4.74684,3.71852,4.88638,3.96912,4.3285,4.75321,4.89204,4.85207
63677214395625,6,0,4.73186,3.71794,4.87169,3.95378,4.30541,4.73759,4.87854,4.84999
63677214395642,6,0,4.73724,3.71531,4.86999,3.96517,4.31443,4.74135,4.87658,4.85866
63677214395674,6,0,4.71663,3.71439,4.86339,3.95334,4.30352,4.72627,4.83695,4.8812
63677214395707,6,0,4.73558,3.72695,4.89559,3.94927,4.3183,4.74335,4.84629,4.88826
63677214395740,6,0,4.7002,3.7179,4.8721,3.95443,4.30504,4.71389,4.83049,4.85348
63677214395774,6,0,4.72839,3.72493,4.91539,3.95788,4.32511,4.74294,4.83752,4.85466
63677214395807,6,0,4.7361,3.71171,4.89912,3.97174,4.32627,4.75432,4.86099,4.86086
63677214395824,6,0,4.72591,3.70919,4.86801,3.96362,4.31838,4.75542,4.87679,4.84792
63677214395856,6,0,4.74251,3.71187,4.87708,3.97575,4.33197,4.76268,4.89409,4.8611
63677214395873,6,0,4.75224,3.70232,4.86951,3.97381,4.31752,4.77372,4.89141,4.87502
63677214395907,6,0,4.7355,3.70569,4.87327,3.98609,4.32859,4.75183,4.85985,4.88433
63677214395940,6,0,4.73533,3.71142,4.8781,3.9827,4.32835,4.7475,4.84352,4.89418
63677214395973,6,0,4.74831,3.7063,4.90672,3.97241,4.32166,4.75673,4.8425,4.89016
63677214396006,6,0,4.73225,3.71514,4.89599,3.98068,4.33894,4.74892,4.85252,4.85008
63677214396039,6,0,4.73463,3.70081,4.90939,3.96873,4.32075,4.7434,4.83699,4.85562
63677214396055,6,0,4.74239,3.70829,4.88445,3.97749,4.34247,4.7587,4.85806,4.8464
63677214396105,6,0,4.73245,3.7046,4.88276,3.9631,4.32887,4.74575,4.8704,4.85448
63677214396121,6,0,4.74033,3.71556,4.87328,3.95973,4.33008,4.75614,4.89119,4.85168
63677214396155,6,0,4.7611,3.70519,4.869,3.95628,4.32671,4.77028,4.89027,4.87755
63677214396188,6,0,4.74511,3.71537,4.87202,3.9471,4.32781,4.75412,4.85715,4.8851
63677214396205,6,0,4.73686,3.69683,4.8674,3.93371,4.31235,4.74718,4.83937,4.89749
63677214396240,6,0,4.74057,3.72157,4.88311,3.9434,4.33073,4.75183,4.84854,4.89411
63677214396292,6,0,4.7365,3.72388,4.89509,3.94357,4.33648,4.74672,4.83793,4.8577
63677214396334,6,0,4.74249,3.7108,4.88139,3.94863,4.33284,4.75302,4.85186,4.86229
63677214396370,6,0,4.7414,3.71121,4.87504,3.94491,4.32011,4.75525,4.8912,4.86128
63677214396403,6,0,4.73173,3.70999,4.8794,3.93334,4.30627,4.73958,4.86812,4.86925
63677214396436,6,0,4.7303,3.706,4.87682,3.93629,4.30414,4.7354,4.86239,4.86937
63677214396476,6,0,4.73737,3.72065,4.88965,3.92798,4.31439,4.74269,4.85311,4.89825
63677214396508,6,0,4.71505,3.69457,4.88913,3.92615,4.29233,4.72151,4.833,4.87077
63677214396525,6,0,4.69776,3.69028,4.89952,3.90958,4.29116,4.70928,4.83139,4.83688
63677214396562,6,0,4.73329,3.70845,4.91581,3.91746,4.33148,4.74103,4.83833,4.84803
63677214396579,6,0,4.70532,3.68945,4.87898,3.91217,4.30029,4.71612,4.85026,4.83378
63677214396653,6,0,4.73408,3.70267,4.87327,3.92868,4.32395,4.74157,4.87918,4.85522
63677214396687,6,0,4.73038,3.71689,4.87976,3.91243,4.31401,4.73662,4.85563,4.88601
63677214396703,6,0,4.71833,3.70853,4.86777,3.92478,4.31433,4.72545,4.83991,4.87774
63677214396737,6,0,4.73827,3.73561,4.89666,3.92127,4.3247,4.74559,4.84771,4.89122
63677214396779,6,0,4.71122,3.71931,4.87499,3.92729,4.31346,4.71974,4.8291,4.85721
63677214396804,6,0,4.73853,3.74147,4.91795,3.92392,4.33244,4.74691,4.83689,4.85656
63677214396837,6,0,4.74894,3.72844,4.90468,3.92711,4.33227,4.75914,4.86098,4.86111
63677214396854,6,0,4.74527,3.71858,4.87133,3.9211,4.32551,4.76129,4.87621,4.86424
63677214396904,6,0,4.77079,3.71386,4.86789,3.92763,4.32329,4.78422,4.90877,4.89012
63677214396937,6,0,4.75649,3.7226,4.87037,3.9351,4.33118,4.76342,4.8856,4.88584
63677214396957,6,0,4.7683,3.7115,4.87626,3.92317,4.31415,4.7726,4.88698,4.91385
63677214397027,6,0,4.74047,3.73177,4.89165,3.92908,4.32653,4.74737,4.84802,4.86748
63677214397061,6,0,4.72156,3.70569,4.91057,3.91499,4.30152,4.72471,4.83252,4.83525
63677214397127,6,0,4.74556,3.71655,4.87525,3.92444,4.30896,4.75312,4.87513,4.84959
63677214397159,6,0,4.72582,3.70804,4.87302,3.91697,4.29636,4.73928,4.878,4.84078
63677214397193,6,0,4.73366,3.71922,4.87517,3.91312,4.28886,4.74202,4.85737,4.88117
63677214397226,6,0,4.72186,3.69576,4.87244,3.90543,4.2736,4.73348,4.84504,4.87913
63677214397259,6,0,4.73758,3.72129,4.88727,3.90132,4.29151,4.74925,4.84805,4.89723
63677214397293,6,0,4.70656,3.68904,4.88602,3.88897,4.26326,4.72022,4.83014,4.85916
63677214397326,6,0,4.7044,3.68572,4.8841,3.88211,4.2629,4.71715,4.83477,4.83512
63677214397343,6,0,4.74063,3.71336,4.90123,3.89944,4.30128,4.75254,4.84679,4.85347
63677214397375,6,0,4.71344,3.69723,4.86084,3.87995,4.2749,4.72816,4.86255,4.83812
63677214397425,6,0,4.74321,3.71157,4.86507,3.90114,4.29918,4.75559,4.89306,4.85285
63677214397442,6,0,4.73265,3.71213,4.85118,3.88227,4.28054,4.74008,4.87658,4.8583
63677214397475,6,0,4.73376,3.71139,4.84694,3.89701,4.2899,4.74447,4.8748,4.86313
63677214397492,6,0,4.73557,3.7155,4.86564,3.88006,4.28546,4.75036,4.85921,4.89948
63677214397524,6,0,4.7366,3.7278,4.88698,3.8946,4.29574,4.75353,4.85007,4.87842
63677214397541,6,0,4.70968,3.71164,4.86446,3.89644,4.2814,4.71799,4.8326,4.84853
63677214397575,6,0,4.74288,3.71758,4.91038,3.90037,4.30145,4.74846,4.83947,4.85385
63677214397607,6,0,4.72397,3.70735,4.87366,3.90446,4.29074,4.7334,4.84435,4.84785
63677214397624,6,0,4.75264,3.71369,4.89828,3.90781,4.30703,4.76215,4.87739,4.86026
63677214397657,6,0,4.75841,3.71068,4.87398,3.90933,4.299,4.76511,4.88884,4.86955
63677214397707,6,0,4.76512,3.72722,4.88011,3.92584,4.30969,4.76602,4.90616,4.85788
63677214397723,6,0,4.77755,3.716,4.87614,3.90949,4.29777,4.78166,4.90383,4.89531
63677214397739,6,0,4.76115,3.73037,4.8813,3.9107,4.30487,4.75901,4.86153,4.90215
63677214397772,6,0,4.74863,3.73387,4.88759,3.91138,4.30335,4.7553,4.84552,4.91111
63677214397805,6,0,4.74108,3.70857,4.91477,3.8943,4.28438,4.7483,4.83526,4.86884
63677214397822,6,0,4.7375,3.72876,4.90004,3.90909,4.30252,4.74649,4.83526,4.85806
63677214397856,6,0,4.71456,3.69233,4.91294,3.89383,4.27769,4.72219,4.82787,4.83364
63677214397906,6,0,4.71647,3.69014,4.88646,3.89087,4.27705,4.72139,4.85822,4.83974
63677214397939,6,0,4.74234,3.69455,4.87436,3.90277,4.28424,4.74709,4.88971,4.85514
63677214397971,6,0,4.7277,3.6895,4.87774,3.88908,4.2756,4.73036,4.87641,4.85497
63677214398063,6,0,4.73617,3.71764,4.8931,3.88862,4.27721,4.74103,4.8486,4.8861
63677214398097,6,0,4.69961,3.69388,4.89088,3.87646,4.24462,4.70983,4.83108,4.85148
63677214398113,6,0,4.7295,3.71761,4.91091,3.88515,4.28315,4.73684,4.83554,4.85529
63677214398146,6,0,4.70027,3.68689,4.8792,3.87196,4.25039,4.71438,4.84008,4.83798
63677214398163,6,0,4.73716,3.71191,4.89248,3.88652,4.28514,4.74879,4.86148,4.86062
63677214398197,6,0,4.71853,3.70015,4.86014,3.87499,4.26224,4.7335,4.86933,4.8475
63677214398213,6,0,4.73855,3.71484,4.86589,3.89201,4.28124,4.75548,4.88685,4.85966
63677214398246,6,0,4.72751,3.71161,4.8575,3.88275,4.2677,4.73624,4.85494,4.87815
63677214398279,6,0,4.7408,3.72261,4.87515,3.87214,4.27292,4.74951,4.85165,4.90206
63677214398296,6,0,4.71821,3.70608,4.85863,3.88567,4.26391,4.72726,4.83205,4.86664
63677214398345,6,0,4.70655,3.71466,4.87278,3.88553,4.26425,4.72291,4.8304,4.83714
63677214398379,6,0,4.74029,3.71995,4.91082,3.88334,4.28346,4.75488,4.84597,4.85304
63677214398412,6,0,4.72533,3.70137,4.87026,3.88439,4.27498,4.74336,4.85508,4.85263
63677214398445,6,0,4.74969,3.70074,4.88655,3.89147,4.29186,4.76593,4.89652,4.85874
63677214398462,6,0,4.75773,3.69352,4.86984,3.88359,4.28399,4.77654,4.90211,4.8769
63677214398494,6,0,4.76556,3.69854,4.87934,3.88287,4.27611,4.77974,4.89974,4.90828
63677214398527,6,0,4.74607,3.71184,4.88298,3.88892,4.28372,4.76061,4.85714,4.91625
63677214398544,6,0,4.75331,3.69672,4.89116,3.87713,4.27016,4.76668,4.86094,4.91369
63677214398576,6,0,4.73663,3.72219,4.88887,3.88946,4.27859,4.74825,4.8451,4.90233
63677214398627,6,0,4.72712,3.72644,4.90163,3.88606,4.27293,4.74435,4.83492,4.85657
63677214398660,6,0,4.70545,3.68821,4.90628,3.87677,4.25028,4.72329,4.8324,4.83574
63677214398693,6,0,4.73166,3.71095,4.88508,3.88702,4.26532,4.75258,4.85048,4.85988
63677214398726,6,0,4.71011,3.69709,4.88076,3.87418,4.2486,4.73219,4.86756,4.84697
63677214398743,6,0,4.73628,3.70817,4.87231,3.88116,4.24972,4.75463,4.89423,4.85953
63677214398776,6,0,4.72673,3.69399,4.87013,3.86816,4.23264,4.73933,4.87023,4.8723
63677214398792,6,0,4.73415,3.70858,4.87945,3.86368,4.24281,4.7461,4.85953,4.9038
63677214398842,6,0,4.71227,3.68808,4.87509,3.85423,4.22426,4.72623,4.83946,4.88103
63677214398859,6,0,4.73263,3.71366,4.89562,3.85983,4.25349,4.74645,4.8506,4.87989
63677214398891,6,0,4.69799,3.68571,4.8883,3.85149,4.22446,4.71185,4.83342,4.84599
63677214398924,6,0,4.73146,3.70615,4.90866,3.86392,4.26172,4.74302,4.83864,4.85191
63677214398942,6,0,4.70295,3.683,4.87433,3.85192,4.23673,4.71582,4.84815,4.8362
63677214398958,6,0,4.73902,3.69842,4.88836,3.87105,4.26549,4.75039,4.87079,4.85749
63677214399008,6,0,4.7358,3.69877,4.86925,3.87727,4.26087,4.74826,4.88361,4.85585
63677214399025,6,0,4.73364,3.71337,4.88068,3.85989,4.25304,4.74064,4.8558,4.88054
63677214399057,6,0,4.7238,3.70826,4.86982,3.87283,4.2496,4.73064,4.84257,4.87463
63677214399074,6,0,4.73895,3.72519,4.89382,3.86003,4.26106,4.75116,4.84876,4.89417
63677214399108,6,0,4.71228,3.70287,4.87427,3.87007,4.24908,4.72722,4.82856,4.86108
63677214399141,6,0,4.73726,3.72363,4.91607,3.86317,4.27053,4.75576,4.83676,4.86097
63677214399157,6,0,4.71327,3.70758,4.87466,3.86469,4.25476,4.73198,4.83383,4.84627
63677214399207,6,0,4.74698,3.71476,4.90534,3.87066,4.27724,4.7617,4.85378,4.86261
63677214399223,6,0,4.73975,3.70143,4.87281,3.87022,4.26829,4.75983,4.86871,4.86369
63677214399240,6,0,4.75337,3.70908,4.87966,3.87983,4.28159,4.77255,4.90682,4.86084
63677214399273,6,0,4.75696,3.71158,4.87722,3.87836,4.27776,4.76646,4.88663,4.88268
63677214399305,6,0,4.76596,3.69836,4.87654,3.86249,4.26269,4.7729,4.88906,4.91114
63677214399322,6,0,4.75006,3.71773,4.87752,3.87562,4.26972,4.7543,4.85874,4.91495
63677214399355,6,0,4.7464,3.69639,4.90372,3.86373,4.25918,4.75268,4.85366,4.88471
63677214399405,6,0,4.73443,3.72227,4.89342,3.87279,4.27022,4.74486,4.85091,4.86609
63677214399422,6,0,4.71422,3.6928,4.91109,3.85632,4.25018,4.72526,4.83774,4.8365
63677214399439,6,0,4.7311,3.71549,4.88885,3.86695,4.26932,4.74476,4.84255,4.84777
63677214399472,6,0,4.7073,3.68752,4.89047,3.85821,4.2492,4.71895,4.85354,4.83384
63677214399506,6,0,4.71884,3.69902,4.87869,3.86227,4.24997,4.73305,4.87156,4.84499
63677214399522,6,0,4.72839,3.69807,4.87226,3.85973,4.24528,4.74231,4.8777,4.85186
63677214399555,6,0,4.72448,3.71254,4.87798,3.852,4.24404,4.74032,4.85299,4.88389
63677214399588,6,0,4.7109,3.69692,4.87416,3.8418,4.227,4.72714,4.83677,4.87753
63677214399604,6,0,4.73174,3.72221,4.88671,3.84643,4.24822,4.74498,4.84521,4.8893
63677214399638,6,0,4.70019,3.69651,4.88754,3.83612,4.22218,4.71583,4.82705,4.85431
63677214399688,6,0,4.69894,3.69952,4.87974,3.83173,4.22552,4.71634,4.83511,4.83503
63677214399719,6,0,4.71309,3.71199,4.86514,3.83496,4.23438,4.72799,4.86316,4.84611
63677214399753,6,0,4.74115,3.7185,4.86806,3.85509,4.25717,4.75111,4.8883,4.85903
63677214399786,6,0,4.73211,3.72419,4.86333,3.83948,4.24283,4.73684,4.86467,4.87021
63677214399803,6,0,4.72937,3.71786,4.86484,3.85318,4.24719,4.73138,4.85772,4.87046
63677214399835,6,0,4.73904,3.73315,4.88019,3.83817,4.24601,4.73925,4.85118,4.8978
63677214399852,6,0,4.72002,3.71742,4.86767,3.84628,4.24025,4.72,4.83013,4.86717
63677214399886,6,0,4.74008,3.74209,4.90538,3.8404,4.25785,4.7423,4.84104,4.86182
63677214399920,6,0,4.70899,3.73134,4.87507,3.84494,4.24216,4.71604,4.82835,4.83537
63677214399936,6,0,4.74386,3.73963,4.91132,3.84669,4.26365,4.75252,4.84225,4.84689
63677214399985,6,0,4.72775,3.72367,4.86871,3.84746,4.25456,4.74224,4.852,4.84353
63677214400001,6,0,4.7631,3.72253,4.86541,3.85461,4.26025,4.77841,4.90093,4.86855
63677214400035,6,0,4.76118,3.73044,4.87147,3.86016,4.26921,4.77244,4.90678,4.85802
63677214400052,6,0,4.77176,3.72171,4.86851,3.85235,4.25522,4.78552,4.90472,4.90109
63677214400085,6,0,4.7523,3.73485,4.87122,3.85276,4.26371,4.76377,4.86002,4.91115
63677214400101,6,0,4.75817,3.71599,4.88359,3.83983,4.25333,4.77045,4.86448,4.91065
63677214400134,6,0,4.74162,3.7332,4.88324,3.84598,4.26475,4.75249,4.84797,4.90343
63677214400167,6,0,4.73007,3.71621,4.91162,3.83206,4.24955,4.73987,4.8354,4.86346
63677214400184,6,0,4.73453,3.73495,4.89459,3.84434,4.26655,4.7471,4.83555,4.85937
63677214400217,6,0,4.71385,3.71704,4.90101,3.82698,4.24835,4.72522,4.8367,4.84152
63677214400267,6,0,4.74409,3.72969,4.87267,3.83057,4.24901,4.75742,4.89139,4.86417
63677214400301,6,0,4.7352,3.73693,4.87976,3.81915,4.2434,4.74314,4.86978,4.87244
63677214400332,6,0,4.73262,3.72382,4.87144,3.8157,4.22859,4.73834,4.86647,4.86942
63677214400366,6,0,4.74293,3.74709,4.88608,3.8134,4.23733,4.74472,4.85921,4.90086
63677214400382,6,0,4.71808,3.71934,4.8856,3.80115,4.21427,4.72314,4.83672,4.87161
63677214400416,6,0,4.73867,3.75301,4.90801,3.80497,4.2438,4.74309,4.84609,4.86564
63677214400433,6,0,4.70487,3.7174,4.89817,3.79257,4.21179,4.71272,4.83554,4.83943
63677214400465,6,0,4.73881,3.74182,4.91507,3.8042,4.24833,4.74392,4.84298,4.84823
63677214400499,6,0,4.71196,3.71455,4.88022,3.79858,4.22065,4.71752,4.8563,4.83227
63677214400532,6,0,4.72995,3.72345,4.87086,3.80523,4.22991,4.73906,4.87892,4.84354
63677214400565,6,0,4.73927,3.72901,4.8739,3.82034,4.24008,4.74907,4.8852,4.85294
63677214400582,6,0,4.73829,3.73056,4.88194,3.80206,4.22989,4.74265,4.8599,4.88406
63677214400599,6,0,4.72186,3.72789,4.87149,3.81366,4.22611,4.731,4.84125,4.87718
63677214400632,6,0,4.73809,3.73672,4.89333,3.80124,4.23622,4.74561,4.84364,4.88933
63677214400665,6,0,4.70287,3.72857,4.87563,3.80538,4.22259,4.71379,4.82111,4.85688
63677214400681,6,0,4.73009,3.7384,4.91965,3.7996,4.24176,4.73975,4.82652,4.85379
63677214400713,6,0,4.70086,3.73199,4.88123,3.79908,4.22943,4.71759,4.82955,4.83502
63677214400747,6,0,4.73649,3.72764,4.91011,3.79902,4.24975,4.74721,4.84658,4.85899
63677214400780,6,0,4.74228,3.72738,4.87829,3.80613,4.2561,4.75909,4.86457,4.84345
63677214400796,6,0,4.75416,3.73395,4.86747,3.80074,4.24332,4.77015,4.89623,4.86807
63677214400846,6,0,4.76709,3.73101,4.87435,3.79865,4.23889,4.7713,4.88098,4.90283
63677214400879,6,0,4.74303,3.72754,4.87707,3.80774,4.2505,4.75131,4.85572,4.90173
63677214400913,6,0,4.75684,3.72456,4.89961,3.79652,4.241,4.75606,4.84711,4.89569
63677214400946,6,0,4.73737,3.7324,4.89289,3.80816,4.25442,4.74399,4.85353,4.8559
63677214400963,6,0,4.74086,3.71933,4.91552,3.79149,4.23994,4.73999,4.83804,4.86392
63677214400996,6,0,4.74704,3.72631,4.89456,3.80706,4.26142,4.75252,4.85576,4.8481
63677214401046,6,0,4.76767,3.72107,4.87657,3.80438,4.26152,4.77081,4.89685,4.8616
63677214401078,6,0,4.76635,3.72489,4.8693,3.80101,4.2471,4.76657,4.89698,4.87287
63677214401095,6,0,4.75295,3.73728,4.87199,3.79523,4.24708,4.75587,4.86876,4.88475
63677214401144,6,0,4.74539,3.72283,4.86806,3.78988,4.2304,4.75024,4.84943,4.89808
63677214401161,6,0,4.74687,3.74452,4.88379,3.79607,4.24815,4.7518,4.84864,4.89515
63677214401195,6,0,4.72167,3.72533,4.88753,3.77364,4.2186,4.725,4.82584,4.86785
63677214401212,6,0,4.73787,3.75239,4.91027,3.78427,4.24939,4.74306,4.83097,4.85905
63677214401244,6,0,4.70697,3.72884,4.88903,3.77286,4.21767,4.71546,4.82765,4.83664
63677214401261,6,0,4.73974,3.74657,4.90863,3.78037,4.24957,4.74759,4.84329,4.85443
63677214401294,6,0,4.71982,3.73525,4.86683,3.76625,4.2268,4.72936,4.86195,4.83814
63677214401327,6,0,4.74769,3.74034,4.87907,3.7834,4.24772,4.7567,4.89382,4.85107
63677214401343,6,0,4.74407,3.73962,4.86769,3.78185,4.233,4.74826,4.8825,4.86162
63677214401376,6,0,4.74603,3.75367,4.87181,3.77709,4.23029,4.74897,4.86425,4.89278
63677214401427,6,0,4.72608,3.74129,4.85983,3.7802,4.22444,4.7323,4.84304,4.88168
63677214401443,6,0,4.74012,3.76074,4.88814,3.77319,4.2389,4.7451,4.84192,4.8907
63677214401460,6,0,4.70343,3.74219,4.86898,3.77619,4.22516,4.71204,4.82077,4.85556
63677214401493,6,0,4.73023,3.7574,4.91602,3.77675,4.24358,4.73611,4.82444,4.85166
63677214401526,6,0,4.7047,3.74522,4.87905,3.7739,4.23131,4.71287,4.82685,4.83305
63677214401543,6,0,4.7388,3.74965,4.89967,3.77672,4.25038,4.74447,4.84773,4.85583
63677214401576,6,0,4.74963,3.74349,4.87594,3.78602,4.25922,4.75214,4.89196,4.85604
63677214401592,6,0,4.76035,3.74297,4.8694,3.77989,4.24941,4.76205,4.89487,4.86813
63677214401625,6,0,4.75142,3.74882,4.87905,3.78702,4.25476,4.74619,4.87016,4.87682
63677214401658,6,0,4.77358,3.75251,4.87994,3.7821,4.245,4.76437,4.87752,4.90335
63677214401674,6,0,4.74726,3.75188,4.87994,3.79838,4.25485,4.74607,4.85033,4.90401
63677214401725,6,0,4.75743,3.75353,4.90466,3.78807,4.24884,4.75583,4.84643,4.89909
63677214401741,6,0,4.73876,3.76113,4.89719,3.8007,4.26255,4.74204,4.85266,4.8591
63677214401774,6,0,4.74194,3.7533,4.92145,3.78214,4.24662,4.73853,4.83464,4.86447
63677214401807,6,0,4.74608,3.76316,4.902,3.79999,4.2653,4.75262,4.85243,4.84286
63677214401824,6,0,4.76734,3.74831,4.87844,3.80643,4.26044,4.7735,4.89409,4.85776
63677214401858,6,0,4.75145,3.74825,4.8784,3.7939,4.2501,4.75884,4.90069,4.85291
63677214401875,6,0,4.77173,3.74789,4.87392,3.78991,4.2452,4.77423,4.90783,4.87244
63677214401907,6,0,4.76156,3.75707,4.87474,3.78367,4.23879,4.75706,4.88273,4.87976
63677214401941,6,0,4.75522,3.74988,4.87161,3.77737,4.21859,4.74898,4.86039,4.89733
63677214401957,6,0,4.7518,3.76813,4.88438,3.78137,4.22892,4.74646,4.8488,4.90272
63677214402006,6,0,4.72749,3.74875,4.89087,3.75893,4.20227,4.72005,4.82134,4.88627
63677214402022,6,0,4.73506,3.78075,4.91483,3.75377,4.21424,4.72997,4.81923,4.87993
63677214402039,6,0,4.60777,3.74238,4.9276,3.57481,4.01848,4.606,4.7446,4.85725
63677214402072,6,0,3.88972,3.63102,4.8871,2.84775,3.22158,3.81121,4.06035,4.59921
63677214402105,6,0,3.41495,3.59643,4.85431,2.4369,2.81863,3.24705,3.54811,4.32955
63677214402122,6,0,2.89938,3.47536,4.79954,2.0211,2.39562,2.66811,3.03536,4.01954
63677214402156,6,0,2.38737,3.42487,4.76267,1.59539,1.95635,2.09394,2.53704,3.72223
63677214402205,6,0,1.36707,3.2444,4.67103,0.77367,1.10034,0.94311,1.49772,3.14235
63677214402238,6,0,0.95473,3.14199,4.61518,0.51619,0.8416,0.46926,1.0426,2.82966
63677214402288,6,0,0.64227,3.05031,4.59702,0.40558,0.77039,0.11158,0.6825,2.45099
63677214402322,6,0,0.61066,2.99918,4.59624,0.40204,0.72756,0.12052,0.69809,2.41157
63677214402355,6,0,0.61258,2.97549,4.59409,0.41253,0.73263,0.13656,0.68997,2.3941
63677214402388,6,0,0.61836,2.95897,4.58608,0.40278,0.7246,0.15113,0.69036,2.38561
63677214402404,6,0,0.60042,2.94082,4.59344,0.41194,0.72515,0.14643,0.68748,2.3657
63677214402437,6,0,0.602,2.94085,4.59123,0.42155,0.72232,0.15896,0.69148,2.36068
63677214402486,6,0,0.60322,2.93533,4.56359,0.41015,0.71921,0.18331,0.6853,2.35555
63677214402536,6,0,0.59584,2.95888,4.57528,0.39942,0.73827,0.19213,0.6811,2.37864
63677214402587,6,0,0.60398,2.96922,4.58206,0.38801,0.7345,0.18195,0.6888,2.40235
63677214402603,6,0,0.59571,2.98323,4.60278,0.39782,0.74069,0.17686,0.68887,2.41378
63677214402636,6,0,0.61677,3.00964,4.63349,0.39377,0.75061,0.18489,0.69181,2.46505
63677214402686,6,0,0.60645,3.04908,4.64248,0.41209,0.76515,0.16025,0.69986,2.49211
63677214402719,6,0,0.6202,3.04565,4.62888,0.40879,0.7687,0.15632,0.70105,2.50354
63677214402752,6,0,0.61267,3.05756,4.6384,0.41301,0.76482,0.15166,0.70267,2.49855
63677214402784,6,0,0.61177,3.06251,4.63819,0.41205,0.77332,0.15214,0.7037,2.50652
63677214402818,6,0,0.59758,3.05746,4.62109,0.4068,0.77183,0.14562,0.71395,2.50324
63677214402835,6,0,0.61375,3.08061,4.60515,0.41493,0.78504,0.13238,0.70875,2.52082
63677214402868,6,0,0.61356,3.07629,4.63056,0.39676,0.78038,0.12804,0.71169,2.53161
63677214402901,6,0,0.61909,3.09905,4.64002,0.41773,0.78926,0.13333,0.71681,2.55441
63677214402967,6,0,0.64082,3.12078,4.64009,0.4237,0.79473,0.13694,0.71758,2.58058
63677214402984,6,0,0.64846,3.13233,4.63778,0.43779,0.80623,0.13587,0.7184,2.58372
63677214403001,6,0,0.63677,3.14355,4.62805,0.43277,0.80118,0.12576,0.71676,2.57187
63677214403033,6,0,0.70741,3.15642,4.64709,0.43432,0.84458,0.22426,0.80208,2.86628
63677214403067,6,0,1.04786,3.17762,4.63809,0.57735,0.94788,0.5958,1.18996,3.05785
63677214403101,6,0,1.51627,3.25696,4.68366,0.88518,1.27844,1.12172,1.68247,3.33598
63677214403133,6,0,2.54961,3.41696,4.72951,1.72002,2.13226,2.26626,2.73414,3.90014
63677214403165,6,0,3.05242,3.47629,4.7533,2.13817,2.54071,2.8364,3.24414,4.16704
63677214403182,6,0,3.58941,3.5747,4.79397,2.55656,2.99461,3.42896,3.76559,4.49443
63677214403216,6,0,3.86103,3.60165,4.81071,2.6691,3.04225,3.72305,4.09542,4.60368
63677214403265,6,0,3.48844,3.56677,4.79227,2.52832,2.90912,3.31222,3.61462,4.24822
63677214403316,6,0,2.49982,3.3447,4.71644,1.76898,2.14931,2.21806,2.58376,3.60093
63677214403332,6,0,1.95511,3.14824,4.65348,1.33287,1.66876,1.62414,2.04269,3.20696
63677214403365,6,0,1.43054,3.00931,4.62816,0.88784,1.2236,1.0494,1.51622,2.82879
63677214403398,6,0,0.87713,2.79393,4.55298,0.44462,0.73631,0.45905,0.9703,2.40531
63677214403448,6,0,0.57341,2.66188,4.53336,0.30923,0.63827,0.15818,0.61867,2.059
63677214403482,6,0,0.4888,2.42659,4.50743,0.25565,0.55826,0.1017,0.57358,1.75484
63677214403498,6,0,0.48032,2.31701,4.44433,0.24475,0.52961,0.10921,0.55839,1.66944
